(footprint "BGA-121_12.0x12.0mm_Layout11x11_P1.0mm" (version 20211014) (generator pcbnew)
  (layer "F.Cu")
  (tedit 5A058D74)
  (descr "BGA-121, http://cds.linear.com/docs/en/packaging/05081891_A_bga121.pdf")
  (tags "BGA-121")
  (attr smd)
  (fp_text reference "REF**" (at 0 -7) (layer "F.SilkS")
    (effects (font (size 1 1) (thickness 0.15)))
    (tstamp 48580c02-d4d2-4db9-a677-7d4a60926dd6)
  )
  (fp_text value "BGA-121_12.0x12.0mm_Layout11x11_P1.0mm" (at 0 7) (layer "F.Fab")
    (effects (font (size 1 1) (thickness 0.15)))
    (tstamp d1fcb168-bf73-4eea-a868-4eaf156327d1)
  )
  (fp_text user "${REFERENCE}" (at 0 0) (layer "F.Fab")
    (effects (font (size 1 1) (thickness 0.15)))
    (tstamp 83a18ad0-15b9-4714-b0ef-6afbe5447dfa)
  )
  (fp_line (start -6.1 -6.1) (end -6.1 6.1) (layer "F.SilkS") (width 0.12) (tstamp 234332c2-690e-47e8-a2c5-6a3b7031aaa5))
  (fp_line (start 6.1 -6.1) (end -6.1 -6.1) (layer "F.SilkS") (width 0.12) (tstamp 284d19e1-100d-4872-8ce1-848c01427ab1))
  (fp_line (start -6.3 -6.3) (end -5.6 -6.3) (layer "F.SilkS") (width 0.12) (tstamp 515d4f22-e24f-4a76-8d8f-395a7ccabeef))
  (fp_line (start 6.1 6.1) (end 6.1 -6.1) (layer "F.SilkS") (width 0.12) (tstamp 606be8c7-e2df-431a-9194-9cfd6042c29b))
  (fp_line (start -6.3 -5.6) (end -6.3 -6.3) (layer "F.SilkS") (width 0.12) (tstamp 7ae6d99c-1b5c-428a-96ca-7942315ea343))
  (fp_line (start -6.1 6.1) (end 6.1 6.1) (layer "F.SilkS") (width 0.12) (tstamp d0713982-dd80-45a1-93b0-7f20c0a321b3))
  (fp_line (start 7 7) (end -7 7) (layer "F.CrtYd") (width 0.05) (tstamp 5eb3f948-db2a-4af3-a818-d9062fe0e8e6))
  (fp_line (start -7 -7) (end 7 -7) (layer "F.CrtYd") (width 0.05) (tstamp 7b59acd6-72ab-4ec8-86ff-5e1a37634803))
  (fp_line (start 7 7) (end 7 -7) (layer "F.CrtYd") (width 0.05) (tstamp 9a8f9843-5799-44e4-9f2b-84b37b420f6c))
  (fp_line (start -7 -7) (end -7 7) (layer "F.CrtYd") (width 0.05) (tstamp 9c21aed4-267a-482c-886a-c5e2944bd6aa))
  (fp_line (start 6 6) (end 6 -6) (layer "F.Fab") (width 0.1) (tstamp 2f97b169-de24-488d-a1fc-c82ae0ab0613))
  (fp_line (start -6 -5.5) (end -6 6) (layer "F.Fab") (width 0.1) (tstamp 5dca6ae2-9780-42ff-95d1-728a1e431298))
  (fp_line (start 6 -6) (end -5.5 -6) (layer "F.Fab") (width 0.1) (tstamp 77e97983-9cb2-4d11-a386-4d5980e06e08))
  (fp_line (start -6 6) (end 6 6) (layer "F.Fab") (width 0.1) (tstamp c07f5ee2-f5c5-4d8b-b5ca-2848a5211bb3))
  (fp_line (start -5.5 -6) (end -6 -5.5) (layer "F.Fab") (width 0.1) (tstamp dc023725-8f7c-4620-ad64-7b7c932e1287))
  (pad "A1" smd circle (at -5 -5) (size 0.5 0.5) (property pad_prop_bga) (layers "F.Cu" "F.Paste" "F.Mask") (tstamp 96cc2c69-cb43-49d3-b098-5fceeec4d29f))
  (pad "A2" smd circle (at -4 -5) (size 0.5 0.5) (property pad_prop_bga) (layers "F.Cu" "F.Paste" "F.Mask") (tstamp bae2dc7c-da19-40af-814f-a732186857b7))
  (pad "A3" smd circle (at -3 -5) (size 0.5 0.5) (property pad_prop_bga) (layers "F.Cu" "F.Paste" "F.Mask") (tstamp 56d8b47b-670f-4a93-9d35-4daeac643afc))
  (pad "A4" smd circle (at -2 -5) (size 0.5 0.5) (property pad_prop_bga) (layers "F.Cu" "F.Paste" "F.Mask") (tstamp b25e01c8-238c-4588-89d9-c188ace839ea))
  (pad "A5" smd circle (at -1 -5) (size 0.5 0.5) (property pad_prop_bga) (layers "F.Cu" "F.Paste" "F.Mask") (tstamp 17a3a4d9-c8a5-4494-9117-d0749b15639c))
  (pad "A6" smd circle (at 0 -5) (size 0.5 0.5) (property pad_prop_bga) (layers "F.Cu" "F.Paste" "F.Mask") (tstamp d6012cde-b756-47f1-996b-55c16c1b92ea))
  (pad "A7" smd circle (at 1 -5) (size 0.5 0.5) (property pad_prop_bga) (layers "F.Cu" "F.Paste" "F.Mask") (tstamp 19bcc202-3f6c-4351-a91c-48e68c58ecc1))
  (pad "A8" smd circle (at 2 -5) (size 0.5 0.5) (property pad_prop_bga) (layers "F.Cu" "F.Paste" "F.Mask") (tstamp 4c2bc267-0a69-4e55-82a6-ab2136ed7b67))
  (pad "A9" smd circle (at 3 -5) (size 0.5 0.5) (property pad_prop_bga) (layers "F.Cu" "F.Paste" "F.Mask") (tstamp fef6d720-955f-4b63-988e-d6feedf86cdf))
  (pad "A10" smd circle (at 4 -5) (size 0.5 0.5) (property pad_prop_bga) (layers "F.Cu" "F.Paste" "F.Mask") (tstamp 2b25f18f-4341-400e-bfaa-1a530b35911c))
  (pad "A11" smd circle (at 5 -5) (size 0.5 0.5) (property pad_prop_bga) (layers "F.Cu" "F.Paste" "F.Mask") (tstamp 5d437caa-b3d3-4b39-b3ad-fa1c88b2d932))
  (pad "B1" smd circle (at -5 -4) (size 0.5 0.5) (property pad_prop_bga) (layers "F.Cu" "F.Paste" "F.Mask") (tstamp 3216491d-f2c3-4d1c-85e7-7b4d265a373b))
  (pad "B2" smd circle (at -4 -4) (size 0.5 0.5) (property pad_prop_bga) (layers "F.Cu" "F.Paste" "F.Mask") (tstamp 43dec34c-f78d-430a-b768-b684b35b6579))
  (pad "B3" smd circle (at -3 -4) (size 0.5 0.5) (property pad_prop_bga) (layers "F.Cu" "F.Paste" "F.Mask") (tstamp a9c9c87d-e51f-43b7-9974-1a46742d5e3c))
  (pad "B4" smd circle (at -2 -4) (size 0.5 0.5) (property pad_prop_bga) (layers "F.Cu" "F.Paste" "F.Mask") (tstamp db02357f-97dd-482f-b2f8-34c7a9eeb6c8))
  (pad "B5" smd circle (at -1 -4) (size 0.5 0.5) (property pad_prop_bga) (layers "F.Cu" "F.Paste" "F.Mask") (tstamp 8c8e3c42-69b4-4957-8664-3ca14d492dad))
  (pad "B6" smd circle (at 0 -4) (size 0.5 0.5) (property pad_prop_bga) (layers "F.Cu" "F.Paste" "F.Mask") (tstamp 5e1e7a9b-f072-4bed-a302-07e8b38d038a))
  (pad "B7" smd circle (at 1 -4) (size 0.5 0.5) (property pad_prop_bga) (layers "F.Cu" "F.Paste" "F.Mask") (tstamp 662120b2-6b8f-451b-8ab7-a6eaa174c5b1))
  (pad "B8" smd circle (at 2 -4) (size 0.5 0.5) (property pad_prop_bga) (layers "F.Cu" "F.Paste" "F.Mask") (tstamp d7b45553-de36-46be-90f0-c1af6611ee4b))
  (pad "B9" smd circle (at 3 -4) (size 0.5 0.5) (property pad_prop_bga) (layers "F.Cu" "F.Paste" "F.Mask") (tstamp 29e9d540-8fd9-49c2-b490-253e8c452052))
  (pad "B10" smd circle (at 4 -4) (size 0.5 0.5) (property pad_prop_bga) (layers "F.Cu" "F.Paste" "F.Mask") (tstamp 8f2c81b9-400e-4862-ade8-e6cde63c732e))
  (pad "B11" smd circle (at 5 -4) (size 0.5 0.5) (property pad_prop_bga) (layers "F.Cu" "F.Paste" "F.Mask") (tstamp 2254f998-f8ae-4e26-a6a2-b39c60dff5cd))
  (pad "C1" smd circle (at -5 -3) (size 0.5 0.5) (property pad_prop_bga) (layers "F.Cu" "F.Paste" "F.Mask") (tstamp d13c7f94-34cb-4316-88f2-7e1e536e95b6))
  (pad "C2" smd circle (at -4 -3) (size 0.5 0.5) (property pad_prop_bga) (layers "F.Cu" "F.Paste" "F.Mask") (tstamp 98662409-fb18-46c8-bf47-8d4a3db49936))
  (pad "C3" smd circle (at -3 -3) (size 0.5 0.5) (property pad_prop_bga) (layers "F.Cu" "F.Paste" "F.Mask") (tstamp d30722ec-3c27-4888-b1b9-2d1780ebc83d))
  (pad "C4" smd circle (at -2 -3) (size 0.5 0.5) (property pad_prop_bga) (layers "F.Cu" "F.Paste" "F.Mask") (tstamp 2c99a1bc-7042-4e61-bed9-a2297e6786eb))
  (pad "C5" smd circle (at -1 -3) (size 0.5 0.5) (property pad_prop_bga) (layers "F.Cu" "F.Paste" "F.Mask") (tstamp 20964e8b-6d26-4d2f-8469-393be731f8c9))
  (pad "C6" smd circle (at 0 -3) (size 0.5 0.5) (property pad_prop_bga) (layers "F.Cu" "F.Paste" "F.Mask") (tstamp 12da1fe7-cfe2-41a8-a611-25ab8e8674b2))
  (pad "C7" smd circle (at 1 -3) (size 0.5 0.5) (property pad_prop_bga) (layers "F.Cu" "F.Paste" "F.Mask") (tstamp dbce607a-d22f-4dce-9670-4cbda0a39dd1))
  (pad "C8" smd circle (at 2 -3) (size 0.5 0.5) (property pad_prop_bga) (layers "F.Cu" "F.Paste" "F.Mask") (tstamp baf121e4-1324-4129-9ab6-0487c119a17c))
  (pad "C9" smd circle (at 3 -3) (size 0.5 0.5) (property pad_prop_bga) (layers "F.Cu" "F.Paste" "F.Mask") (tstamp dc86e965-8abf-4673-a7de-b5f861e18ceb))
  (pad "C10" smd circle (at 4 -3) (size 0.5 0.5) (property pad_prop_bga) (layers "F.Cu" "F.Paste" "F.Mask") (tstamp ed7db32b-c659-4644-b8d0-90d52a10f60c))
  (pad "C11" smd circle (at 5 -3) (size 0.5 0.5) (property pad_prop_bga) (layers "F.Cu" "F.Paste" "F.Mask") (tstamp 710a65b4-a449-434e-99fe-65fff00c2e07))
  (pad "D1" smd circle (at -5 -2) (size 0.5 0.5) (property pad_prop_bga) (layers "F.Cu" "F.Paste" "F.Mask") (tstamp 57307b89-2af9-4ff6-ae02-53cadd63d770))
  (pad "D2" smd circle (at -4 -2) (size 0.5 0.5) (property pad_prop_bga) (layers "F.Cu" "F.Paste" "F.Mask") (tstamp 41302ae6-e107-434d-8b28-12eeff4a81ea))
  (pad "D3" smd circle (at -3 -2) (size 0.5 0.5) (property pad_prop_bga) (layers "F.Cu" "F.Paste" "F.Mask") (tstamp 58a596bc-c51c-4d81-93fb-dd48d05c2bba))
  (pad "D4" smd circle (at -2 -2) (size 0.5 0.5) (property pad_prop_bga) (layers "F.Cu" "F.Paste" "F.Mask") (tstamp 27a72b13-9143-46dd-8301-f4f90a7c282f))
  (pad "D5" smd circle (at -1 -2) (size 0.5 0.5) (property pad_prop_bga) (layers "F.Cu" "F.Paste" "F.Mask") (tstamp 53bec380-3f19-45fe-a360-853c838f1616))
  (pad "D6" smd circle (at 0 -2) (size 0.5 0.5) (property pad_prop_bga) (layers "F.Cu" "F.Paste" "F.Mask") (tstamp f69ca72e-ebc0-44c6-9d8b-8285512fe700))
  (pad "D7" smd circle (at 1 -2) (size 0.5 0.5) (property pad_prop_bga) (layers "F.Cu" "F.Paste" "F.Mask") (tstamp 16186b66-ae40-4e32-9f36-3fa373d1f623))
  (pad "D8" smd circle (at 2 -2) (size 0.5 0.5) (property pad_prop_bga) (layers "F.Cu" "F.Paste" "F.Mask") (tstamp 4493f468-8b1d-41d2-81fb-0e8a449450a5))
  (pad "D9" smd circle (at 3 -2) (size 0.5 0.5) (property pad_prop_bga) (layers "F.Cu" "F.Paste" "F.Mask") (tstamp d27211a9-c85a-4f7f-80b9-b7125d44c751))
  (pad "D10" smd circle (at 4 -2) (size 0.5 0.5) (property pad_prop_bga) (layers "F.Cu" "F.Paste" "F.Mask") (tstamp ec9a391a-f3dd-489f-b76c-335cfafdda87))
  (pad "D11" smd circle (at 5 -2) (size 0.5 0.5) (property pad_prop_bga) (layers "F.Cu" "F.Paste" "F.Mask") (tstamp 7529b023-b5c5-4b99-a1ec-f61c56495ec7))
  (pad "E1" smd circle (at -5 -1) (size 0.5 0.5) (property pad_prop_bga) (layers "F.Cu" "F.Paste" "F.Mask") (tstamp 772b7fec-068d-42a0-95bf-64b49937861e))
  (pad "E2" smd circle (at -4 -1) (size 0.5 0.5) (property pad_prop_bga) (layers "F.Cu" "F.Paste" "F.Mask") (tstamp 00284b97-fd4f-4eed-87d7-1a4d2d3914ff))
  (pad "E3" smd circle (at -3 -1) (size 0.5 0.5) (property pad_prop_bga) (layers "F.Cu" "F.Paste" "F.Mask") (tstamp cae76e9d-5376-4fe1-8bc3-e34dfc1a2169))
  (pad "E4" smd circle (at -2 -1) (size 0.5 0.5) (property pad_prop_bga) (layers "F.Cu" "F.Paste" "F.Mask") (tstamp fbbabccd-b37a-44fa-baed-4d24304f8420))
  (pad "E5" smd circle (at -1 -1) (size 0.5 0.5) (property pad_prop_bga) (layers "F.Cu" "F.Paste" "F.Mask") (tstamp 86e97fb1-fd84-478b-9dc9-b645d172686a))
  (pad "E6" smd circle (at 0 -1) (size 0.5 0.5) (property pad_prop_bga) (layers "F.Cu" "F.Paste" "F.Mask") (tstamp 0fe443fb-611c-463c-a825-a9cdb92f2448))
  (pad "E7" smd circle (at 1 -1) (size 0.5 0.5) (property pad_prop_bga) (layers "F.Cu" "F.Paste" "F.Mask") (tstamp 934d53b1-d5a0-4a93-bc91-c26b37e01184))
  (pad "E8" smd circle (at 2 -1) (size 0.5 0.5) (property pad_prop_bga) (layers "F.Cu" "F.Paste" "F.Mask") (tstamp ecd1ffd7-839a-49dd-8ec9-7e18902bea47))
  (pad "E9" smd circle (at 3 -1) (size 0.5 0.5) (property pad_prop_bga) (layers "F.Cu" "F.Paste" "F.Mask") (tstamp 0885cb5e-2b04-4b80-a019-5e32106a182b))
  (pad "E10" smd circle (at 4 -1) (size 0.5 0.5) (property pad_prop_bga) (layers "F.Cu" "F.Paste" "F.Mask") (tstamp 2c51a35f-e38d-44b2-8b7a-6d62476aee82))
  (pad "E11" smd circle (at 5 -1) (size 0.5 0.5) (property pad_prop_bga) (layers "F.Cu" "F.Paste" "F.Mask") (tstamp 0baeb7e1-ec82-474b-8bfe-e6c710917569))
  (pad "F1" smd circle (at -5 0) (size 0.5 0.5) (property pad_prop_bga) (layers "F.Cu" "F.Paste" "F.Mask") (tstamp b3c27844-9750-44d6-860c-85ccd0b2c630))
  (pad "F2" smd circle (at -4 0) (size 0.5 0.5) (property pad_prop_bga) (layers "F.Cu" "F.Paste" "F.Mask") (tstamp 53793068-a085-4f79-8a88-96fb0c3e7a0e))
  (pad "F3" smd circle (at -3 0) (size 0.5 0.5) (property pad_prop_bga) (layers "F.Cu" "F.Paste" "F.Mask") (tstamp 81a8b0eb-926a-465c-8ddd-22ad762850c3))
  (pad "F4" smd circle (at -2 0) (size 0.5 0.5) (property pad_prop_bga) (layers "F.Cu" "F.Paste" "F.Mask") (tstamp b1649dd3-a66a-48a3-83fb-b898e81d305c))
  (pad "F5" smd circle (at -1 0) (size 0.5 0.5) (property pad_prop_bga) (layers "F.Cu" "F.Paste" "F.Mask") (tstamp 8e6de9e4-7878-49bc-8362-07952d398a26))
  (pad "F6" smd circle (at 0 0) (size 0.5 0.5) (property pad_prop_bga) (layers "F.Cu" "F.Paste" "F.Mask") (tstamp 8785e53b-2a25-4afe-b64a-9afba4199b5b))
  (pad "F7" smd circle (at 1 0) (size 0.5 0.5) (property pad_prop_bga) (layers "F.Cu" "F.Paste" "F.Mask") (tstamp deec8db1-b1c5-45bd-bf31-287b374f3618))
  (pad "F8" smd circle (at 2 0) (size 0.5 0.5) (property pad_prop_bga) (layers "F.Cu" "F.Paste" "F.Mask") (tstamp 676b6455-dc9b-4492-82f5-2d445c708ff4))
  (pad "F9" smd circle (at 3 0) (size 0.5 0.5) (property pad_prop_bga) (layers "F.Cu" "F.Paste" "F.Mask") (tstamp 2338f3a3-2847-4ad0-bc2f-d0739c5600d2))
  (pad "F10" smd circle (at 4 0) (size 0.5 0.5) (property pad_prop_bga) (layers "F.Cu" "F.Paste" "F.Mask") (tstamp a89db392-e76d-4d0b-ac4e-9765124cdc38))
  (pad "F11" smd circle (at 5 0) (size 0.5 0.5) (property pad_prop_bga) (layers "F.Cu" "F.Paste" "F.Mask") (tstamp 106e28c7-4496-4f89-82a8-6c2a6b29fe27))
  (pad "G1" smd circle (at -5 1) (size 0.5 0.5) (property pad_prop_bga) (layers "F.Cu" "F.Paste" "F.Mask") (tstamp 316f74e1-5a4f-40c4-b160-df2850a0baf4))
  (pad "G2" smd circle (at -4 1) (size 0.5 0.5) (property pad_prop_bga) (layers "F.Cu" "F.Paste" "F.Mask") (tstamp f1bd6896-8496-4b90-a39d-a5040c974f88))
  (pad "G3" smd circle (at -3 1) (size 0.5 0.5) (property pad_prop_bga) (layers "F.Cu" "F.Paste" "F.Mask") (tstamp 70d89836-9805-4c90-ba69-c539c2958065))
  (pad "G4" smd circle (at -2 1) (size 0.5 0.5) (property pad_prop_bga) (layers "F.Cu" "F.Paste" "F.Mask") (tstamp 3ec73929-6db4-4489-a67c-6a3d6a6d86b5))
  (pad "G5" smd circle (at -1 1) (size 0.5 0.5) (property pad_prop_bga) (layers "F.Cu" "F.Paste" "F.Mask") (tstamp ccf8ec40-083d-486e-8a6f-b810c7af4440))
  (pad "G6" smd circle (at 0 1) (size 0.5 0.5) (property pad_prop_bga) (layers "F.Cu" "F.Paste" "F.Mask") (tstamp c5e2ed2e-3888-4295-949c-0b34b27cb787))
  (pad "G7" smd circle (at 1 1) (size 0.5 0.5) (property pad_prop_bga) (layers "F.Cu" "F.Paste" "F.Mask") (tstamp 413dcd41-21ca-4d25-b4a2-c425b8eb5760))
  (pad "G8" smd circle (at 2 1) (size 0.5 0.5) (property pad_prop_bga) (layers "F.Cu" "F.Paste" "F.Mask") (tstamp 646b1aa5-5737-4279-af2d-3faebdda674a))
  (pad "G9" smd circle (at 3 1) (size 0.5 0.5) (property pad_prop_bga) (layers "F.Cu" "F.Paste" "F.Mask") (tstamp 07ec4dab-6cf1-483f-8220-f39fca509248))
  (pad "G10" smd circle (at 4 1) (size 0.5 0.5) (property pad_prop_bga) (layers "F.Cu" "F.Paste" "F.Mask") (tstamp d814a4f0-ac59-4246-bbd5-5ab55d966c52))
  (pad "G11" smd circle (at 5 1) (size 0.5 0.5) (property pad_prop_bga) (layers "F.Cu" "F.Paste" "F.Mask") (tstamp 08421403-0e02-4817-bc1a-e7ab33d3ceb0))
  (pad "H1" smd circle (at -5 2) (size 0.5 0.5) (property pad_prop_bga) (layers "F.Cu" "F.Paste" "F.Mask") (tstamp 735bca41-5381-4e71-9d30-0d593ee1948f))
  (pad "H2" smd circle (at -4 2) (size 0.5 0.5) (property pad_prop_bga) (layers "F.Cu" "F.Paste" "F.Mask") (tstamp 84bb6855-9087-4027-a8eb-cc721ebf6b43))
  (pad "H3" smd circle (at -3 2) (size 0.5 0.5) (property pad_prop_bga) (layers "F.Cu" "F.Paste" "F.Mask") (tstamp 1ce58ae7-d90b-46a3-ae57-dd1804276b68))
  (pad "H4" smd circle (at -2 2) (size 0.5 0.5) (property pad_prop_bga) (layers "F.Cu" "F.Paste" "F.Mask") (tstamp 1579c8a8-a47a-4e84-a480-c7fa5a8cc694))
  (pad "H5" smd circle (at -1 2) (size 0.5 0.5) (property pad_prop_bga) (layers "F.Cu" "F.Paste" "F.Mask") (tstamp d1727c75-e700-4b03-bd2c-6d6194af2247))
  (pad "H6" smd circle (at 0 2) (size 0.5 0.5) (property pad_prop_bga) (layers "F.Cu" "F.Paste" "F.Mask") (tstamp fcaf4cf3-406f-4bcf-b5cd-ec7df2cb1b26))
  (pad "H7" smd circle (at 1 2) (size 0.5 0.5) (property pad_prop_bga) (layers "F.Cu" "F.Paste" "F.Mask") (tstamp 8a4ee6a3-e56b-43cc-ba5f-3f63d0f7006d))
  (pad "H8" smd circle (at 2 2) (size 0.5 0.5) (property pad_prop_bga) (layers "F.Cu" "F.Paste" "F.Mask") (tstamp ca370900-9558-45cc-9f7a-96d6709ed479))
  (pad "H9" smd circle (at 3 2) (size 0.5 0.5) (property pad_prop_bga) (layers "F.Cu" "F.Paste" "F.Mask") (tstamp 7ba8ba9a-8e48-447f-a1f5-562820054bdd))
  (pad "H10" smd circle (at 4 2) (size 0.5 0.5) (property pad_prop_bga) (layers "F.Cu" "F.Paste" "F.Mask") (tstamp 098ed6d4-b50a-4b62-81eb-6eae3c3a0dc6))
  (pad "H11" smd circle (at 5 2) (size 0.5 0.5) (property pad_prop_bga) (layers "F.Cu" "F.Paste" "F.Mask") (tstamp e34826b2-d6f0-4181-b5d8-1be26eb7fd40))
  (pad "J1" smd circle (at -5 3) (size 0.5 0.5) (property pad_prop_bga) (layers "F.Cu" "F.Paste" "F.Mask") (tstamp 8981b3ab-f63d-4db0-9eca-34c010e49bcf))
  (pad "J2" smd circle (at -4 3) (size 0.5 0.5) (property pad_prop_bga) (layers "F.Cu" "F.Paste" "F.Mask") (tstamp 8cff2678-fdd8-417d-be24-3d26acb9bc58))
  (pad "J3" smd circle (at -3 3) (size 0.5 0.5) (property pad_prop_bga) (layers "F.Cu" "F.Paste" "F.Mask") (tstamp 7d458717-193b-40d3-aa58-e12d39b4c1d6))
  (pad "J4" smd circle (at -2 3) (size 0.5 0.5) (property pad_prop_bga) (layers "F.Cu" "F.Paste" "F.Mask") (tstamp 3136231a-acf9-441d-8d36-d9550e6d4494))
  (pad "J5" smd circle (at -1 3) (size 0.5 0.5) (property pad_prop_bga) (layers "F.Cu" "F.Paste" "F.Mask") (tstamp a405240c-bb76-474a-a784-0337458b1943))
  (pad "J6" smd circle (at 0 3) (size 0.5 0.5) (property pad_prop_bga) (layers "F.Cu" "F.Paste" "F.Mask") (tstamp f1bb7f31-61bf-44f6-af46-62b9c90c406f))
  (pad "J7" smd circle (at 1 3) (size 0.5 0.5) (property pad_prop_bga) (layers "F.Cu" "F.Paste" "F.Mask") (tstamp e815c3c9-254e-481d-89f3-3746b3acd9e9))
  (pad "J8" smd circle (at 2 3) (size 0.5 0.5) (property pad_prop_bga) (layers "F.Cu" "F.Paste" "F.Mask") (tstamp e68e8490-84e1-4893-b07c-05a561d65b1b))
  (pad "J9" smd circle (at 3 3) (size 0.5 0.5) (property pad_prop_bga) (layers "F.Cu" "F.Paste" "F.Mask") (tstamp 0ef297f0-7f0f-484b-929b-2edd63ed28be))
  (pad "J10" smd circle (at 4 3) (size 0.5 0.5) (property pad_prop_bga) (layers "F.Cu" "F.Paste" "F.Mask") (tstamp 50b9add4-7826-487d-8842-ff3f6e47c1a6))
  (pad "J11" smd circle (at 5 3) (size 0.5 0.5) (property pad_prop_bga) (layers "F.Cu" "F.Paste" "F.Mask") (tstamp 9a657166-9c5f-45a3-88bb-8d1255576699))
  (pad "K1" smd circle (at -5 4) (size 0.5 0.5) (property pad_prop_bga) (layers "F.Cu" "F.Paste" "F.Mask") (tstamp 63e99f79-ab8d-4e12-9fc7-7b679b1c443d))
  (pad "K2" smd circle (at -4 4) (size 0.5 0.5) (property pad_prop_bga) (layers "F.Cu" "F.Paste" "F.Mask") (tstamp 53783a3c-6fbe-431d-be16-91ac2370a429))
  (pad "K3" smd circle (at -3 4) (size 0.5 0.5) (property pad_prop_bga) (layers "F.Cu" "F.Paste" "F.Mask") (tstamp cafe9045-7c1e-4c9c-924a-a86d59de04a8))
  (pad "K4" smd circle (at -2 4) (size 0.5 0.5) (property pad_prop_bga) (layers "F.Cu" "F.Paste" "F.Mask") (tstamp f6385d1c-e6ae-4bdf-b4d8-a30d78adfe6f))
  (pad "K5" smd circle (at -1 4) (size 0.5 0.5) (property pad_prop_bga) (layers "F.Cu" "F.Paste" "F.Mask") (tstamp d9faa03d-ffec-40b1-a39c-077328f0a99f))
  (pad "K6" smd circle (at 0 4) (size 0.5 0.5) (property pad_prop_bga) (layers "F.Cu" "F.Paste" "F.Mask") (tstamp f28a53de-ece0-4608-9ab0-aaa9599580f3))
  (pad "K7" smd circle (at 1 4) (size 0.5 0.5) (property pad_prop_bga) (layers "F.Cu" "F.Paste" "F.Mask") (tstamp 084e0fd1-b521-4cb6-9ee8-c5d4c72df916))
  (pad "K8" smd circle (at 2 4) (size 0.5 0.5) (property pad_prop_bga) (layers "F.Cu" "F.Paste" "F.Mask") (tstamp 17270243-853d-4a70-b09a-b9072675999d))
  (pad "K9" smd circle (at 3 4) (size 0.5 0.5) (property pad_prop_bga) (layers "F.Cu" "F.Paste" "F.Mask") (tstamp 2936f928-861c-49c1-9eab-d9189c994283))
  (pad "K10" smd circle (at 4 4) (size 0.5 0.5) (property pad_prop_bga) (layers "F.Cu" "F.Paste" "F.Mask") (tstamp 53514fe3-4d27-4ec3-bda5-0ea20fe56ea6))
  (pad "K11" smd circle (at 5 4) (size 0.5 0.5) (property pad_prop_bga) (layers "F.Cu" "F.Paste" "F.Mask") (tstamp 170d9530-5f87-467f-8f43-b6501ad15d6a))
  (pad "L1" smd circle (at -5 5) (size 0.5 0.5) (property pad_prop_bga) (layers "F.Cu" "F.Paste" "F.Mask") (tstamp 47975119-5283-4507-9142-fbae1def83a1))
  (pad "L2" smd circle (at -4 5) (size 0.5 0.5) (property pad_prop_bga) (layers "F.Cu" "F.Paste" "F.Mask") (tstamp 899fe00c-725c-4edd-b8b6-697ecff04978))
  (pad "L3" smd circle (at -3 5) (size 0.5 0.5) (property pad_prop_bga) (layers "F.Cu" "F.Paste" "F.Mask") (tstamp a1361631-ee18-4f29-a41a-af75ffea584b))
  (pad "L4" smd circle (at -2 5) (size 0.5 0.5) (property pad_prop_bga) (layers "F.Cu" "F.Paste" "F.Mask") (tstamp 813c7722-bd23-4357-aa31-c0c348256827))
  (pad "L5" smd circle (at -1 5) (size 0.5 0.5) (property pad_prop_bga) (layers "F.Cu" "F.Paste" "F.Mask") (tstamp ee1d3ce8-7855-4ccd-b983-0023aeb7cea3))
  (pad "L6" smd circle (at 0 5) (size 0.5 0.5) (property pad_prop_bga) (layers "F.Cu" "F.Paste" "F.Mask") (tstamp 80f88f7d-e628-4336-9c57-fed33991f355))
  (pad "L7" smd circle (at 1 5) (size 0.5 0.5) (property pad_prop_bga) (layers "F.Cu" "F.Paste" "F.Mask") (tstamp 55817134-158a-4c58-8266-ccb1b1df812a))
  (pad "L8" smd circle (at 2 5) (size 0.5 0.5) (property pad_prop_bga) (layers "F.Cu" "F.Paste" "F.Mask") (tstamp c5ce4906-e1a7-4ed0-ac16-b592ce82bad7))
  (pad "L9" smd circle (at 3 5) (size 0.5 0.5) (property pad_prop_bga) (layers "F.Cu" "F.Paste" "F.Mask") (tstamp 0932c93b-b2e5-4d02-86ec-d4555e82524e))
  (pad "L10" smd circle (at 4 5) (size 0.5 0.5) (property pad_prop_bga) (layers "F.Cu" "F.Paste" "F.Mask") (tstamp 36b76216-ab4d-4227-8c7c-01211947190c))
  (pad "L11" smd circle (at 5 5) (size 0.5 0.5) (property pad_prop_bga) (layers "F.Cu" "F.Paste" "F.Mask") (tstamp cd99c7c8-c663-43c0-af3b-981f17565309))
  (model "${KICAD6_3DMODEL_DIR}/Package_BGA.3dshapes/BGA-121_12.0x12.0mm_Layout11x11_P1.0mm.wrl"
    (offset (xyz 0 0 0))
    (scale (xyz 1 1 1))
    (rotate (xyz 0 0 0))
  )
)
