(footprint "BGA-96_9.0x13.0mm_Layout2x3x16_P0.8mm" (version 20211014) (generator pcbnew)
  (layer "F.Cu")
  (tedit 5A0CB273)
  (descr "BGA-96, http://www.mouser.com/ds/2/198/43-46TR16640B-81280BL-706483.pdf")
  (tags "BGA-96")
  (attr smd)
  (fp_text reference "REF**" (at 0 -7.4) (layer "F.SilkS")
    (effects (font (size 1 1) (thickness 0.15)))
    (tstamp 32608a28-7f0e-4388-9eaf-924c29f871fb)
  )
  (fp_text value "BGA-96_9.0x13.0mm_Layout2x3x16_P0.8mm" (at 0 7.5) (layer "F.Fab")
    (effects (font (size 1 1) (thickness 0.15)))
    (tstamp 3bc25c14-5392-46ba-a416-9339ab38017c)
  )
  (fp_text user "${REFERENCE}" (at 0 0) (layer "F.Fab")
    (effects (font (size 1 1) (thickness 0.15)))
    (tstamp 9401bb35-0358-4f3b-891f-8fdbe1cddfe7)
  )
  (fp_line (start -4.8 -6.8) (end -4.8 -6.1) (layer "F.SilkS") (width 0.12) (tstamp 21c5b367-9927-4668-9cbf-ed3a30742c67))
  (fp_line (start -4.1 -6.8) (end -4.8 -6.8) (layer "F.SilkS") (width 0.12) (tstamp 793aff77-01c6-4c00-a775-7b046a0b8187))
  (fp_line (start 4.6 -6.6) (end -4.6 -6.6) (layer "F.SilkS") (width 0.12) (tstamp c2c537de-5d33-4454-be9e-1fac0942d326))
  (fp_line (start -4.6 6.6) (end 4.6 6.6) (layer "F.SilkS") (width 0.12) (tstamp d02828d6-85cd-44f7-8ecc-6a9fd81d07a4))
  (fp_line (start -4.6 -6.6) (end -4.6 6.6) (layer "F.SilkS") (width 0.12) (tstamp db238bfd-616b-42b8-abaa-755aea922aa2))
  (fp_line (start 4.6 6.6) (end 4.6 -6.6) (layer "F.SilkS") (width 0.12) (tstamp fabe2d5b-2a4b-4947-8847-19fd4f27496b))
  (fp_line (start 5.5 7.5) (end 5.5 -7.5) (layer "F.CrtYd") (width 0.05) (tstamp 3fc64e21-de03-4e6f-ab51-2a41c3aa693c))
  (fp_line (start -5.5 -7.5) (end -5.5 7.5) (layer "F.CrtYd") (width 0.05) (tstamp 6f38c18d-30c9-4927-9d03-7cdd7a19a0a8))
  (fp_line (start -5.5 -7.5) (end 5.5 -7.5) (layer "F.CrtYd") (width 0.05) (tstamp 7aa3b015-d10d-46e8-a1a4-e7c2d297a274))
  (fp_line (start 5.5 7.5) (end -5.5 7.5) (layer "F.CrtYd") (width 0.05) (tstamp eb96caa2-afbd-42e6-81ed-d0cbca91330e))
  (fp_line (start -4.5 -6) (end -4.5 6.5) (layer "F.Fab") (width 0.1) (tstamp 1349bc83-80b8-429f-a0d6-22f2c86c17fc))
  (fp_line (start 4.5 -6.5) (end -4 -6.5) (layer "F.Fab") (width 0.1) (tstamp 60b269c2-671e-4097-b166-2e1269ca989e))
  (fp_line (start 4.5 6.5) (end 4.5 -6.5) (layer "F.Fab") (width 0.1) (tstamp 6e43de1f-722b-47a9-a8f6-921cae66caa9))
  (fp_line (start -4 -6.5) (end -4.5 -6) (layer "F.Fab") (width 0.1) (tstamp 8d35554a-bbbb-4b10-ba6d-89c8af1ee330))
  (fp_line (start -4.5 6.5) (end 4.5 6.5) (layer "F.Fab") (width 0.1) (tstamp cf3b74e3-bdee-4c56-9b2b-ee4d06c24a5e))
  (pad "A1" smd circle (at -3.2 -6) (size 0.4 0.4) (property pad_prop_bga) (layers "F.Cu" "F.Paste" "F.Mask") (tstamp a602d52a-cbc7-4b97-a0ba-22963b5d4232))
  (pad "A2" smd circle (at -2.4 -6) (size 0.4 0.4) (property pad_prop_bga) (layers "F.Cu" "F.Paste" "F.Mask") (tstamp f63bfa3b-2efe-477c-9f7a-56d059516b14))
  (pad "A3" smd circle (at -1.6 -6) (size 0.4 0.4) (property pad_prop_bga) (layers "F.Cu" "F.Paste" "F.Mask") (tstamp c85a78ed-c977-4d81-840e-4be485967e1c))
  (pad "A7" smd circle (at 1.6 -6) (size 0.4 0.4) (property pad_prop_bga) (layers "F.Cu" "F.Paste" "F.Mask") (tstamp b6f0b0c2-2e25-40b6-888b-8d0339c53059))
  (pad "A8" smd circle (at 2.4 -6) (size 0.4 0.4) (property pad_prop_bga) (layers "F.Cu" "F.Paste" "F.Mask") (tstamp 7e395ac4-180e-450a-a192-e251fc8d8106))
  (pad "A9" smd circle (at 3.2 -6) (size 0.4 0.4) (property pad_prop_bga) (layers "F.Cu" "F.Paste" "F.Mask") (tstamp 574e89e7-95a4-41c3-b2c1-fbbfaf1cc451))
  (pad "B1" smd circle (at -3.2 -5.2) (size 0.4 0.4) (property pad_prop_bga) (layers "F.Cu" "F.Paste" "F.Mask") (tstamp 23fff0c8-a12f-4716-9896-f5e48bae9822))
  (pad "B2" smd circle (at -2.4 -5.2) (size 0.4 0.4) (property pad_prop_bga) (layers "F.Cu" "F.Paste" "F.Mask") (tstamp ae7d327a-c924-4e2e-b56e-d3b34bed96c7))
  (pad "B3" smd circle (at -1.6 -5.2) (size 0.4 0.4) (property pad_prop_bga) (layers "F.Cu" "F.Paste" "F.Mask") (tstamp 78b011c4-0c7f-46e9-b20f-86007172ba9a))
  (pad "B7" smd circle (at 1.6 -5.2) (size 0.4 0.4) (property pad_prop_bga) (layers "F.Cu" "F.Paste" "F.Mask") (tstamp 9a7eef41-e815-4c90-9e18-35dee26e1f27))
  (pad "B8" smd circle (at 2.4 -5.2) (size 0.4 0.4) (property pad_prop_bga) (layers "F.Cu" "F.Paste" "F.Mask") (tstamp 4c3c8d65-07c5-47e5-823f-b596ca934c96))
  (pad "B9" smd circle (at 3.2 -5.2) (size 0.4 0.4) (property pad_prop_bga) (layers "F.Cu" "F.Paste" "F.Mask") (tstamp 21e5a171-23df-4f84-a821-d3d6935e923c))
  (pad "C1" smd circle (at -3.2 -4.4) (size 0.4 0.4) (property pad_prop_bga) (layers "F.Cu" "F.Paste" "F.Mask") (tstamp a703d471-6bf3-4f60-913c-36c15bf3aa6d))
  (pad "C2" smd circle (at -2.4 -4.4) (size 0.4 0.4) (property pad_prop_bga) (layers "F.Cu" "F.Paste" "F.Mask") (tstamp 7fe6fe48-35ce-4c69-a412-0628685059d1))
  (pad "C3" smd circle (at -1.6 -4.4) (size 0.4 0.4) (property pad_prop_bga) (layers "F.Cu" "F.Paste" "F.Mask") (tstamp 958e44e7-0ae2-4be6-bb03-e3a9a5254537))
  (pad "C7" smd circle (at 1.6 -4.4) (size 0.4 0.4) (property pad_prop_bga) (layers "F.Cu" "F.Paste" "F.Mask") (tstamp c43ee283-f829-41e0-a5a2-9c3ec7ecda40))
  (pad "C8" smd circle (at 2.4 -4.4) (size 0.4 0.4) (property pad_prop_bga) (layers "F.Cu" "F.Paste" "F.Mask") (tstamp c1e021fe-5b0c-4c54-8453-d08246f4fb50))
  (pad "C9" smd circle (at 3.2 -4.4) (size 0.4 0.4) (property pad_prop_bga) (layers "F.Cu" "F.Paste" "F.Mask") (tstamp c3163032-119c-482f-a42b-56aba4861dab))
  (pad "D1" smd circle (at -3.2 -3.6) (size 0.4 0.4) (property pad_prop_bga) (layers "F.Cu" "F.Paste" "F.Mask") (tstamp ceee8e19-196b-4dfd-8b7e-380cf46220d7))
  (pad "D2" smd circle (at -2.4 -3.6) (size 0.4 0.4) (property pad_prop_bga) (layers "F.Cu" "F.Paste" "F.Mask") (tstamp f563feb8-0e30-48b8-bf7c-e02b160ef739))
  (pad "D3" smd circle (at -1.6 -3.6) (size 0.4 0.4) (property pad_prop_bga) (layers "F.Cu" "F.Paste" "F.Mask") (tstamp 0c3b4671-d9e1-4883-afba-ec988dea3f43))
  (pad "D7" smd circle (at 1.6 -3.6) (size 0.4 0.4) (property pad_prop_bga) (layers "F.Cu" "F.Paste" "F.Mask") (tstamp 4cf15a95-c57f-43ba-9991-bfda4b11d6fb))
  (pad "D8" smd circle (at 2.4 -3.6) (size 0.4 0.4) (property pad_prop_bga) (layers "F.Cu" "F.Paste" "F.Mask") (tstamp 715cb662-68d3-4e46-8ffe-5382c980b1f4))
  (pad "D9" smd circle (at 3.2 -3.6) (size 0.4 0.4) (property pad_prop_bga) (layers "F.Cu" "F.Paste" "F.Mask") (tstamp 150d44f2-9723-42b6-81e8-4120284626b7))
  (pad "E1" smd circle (at -3.2 -2.8) (size 0.4 0.4) (property pad_prop_bga) (layers "F.Cu" "F.Paste" "F.Mask") (tstamp d8498c28-dba3-49d1-9c37-7eb6b1f0afb7))
  (pad "E2" smd circle (at -2.4 -2.8) (size 0.4 0.4) (property pad_prop_bga) (layers "F.Cu" "F.Paste" "F.Mask") (tstamp f67201ec-1adc-4009-8010-44320dbae641))
  (pad "E3" smd circle (at -1.6 -2.8) (size 0.4 0.4) (property pad_prop_bga) (layers "F.Cu" "F.Paste" "F.Mask") (tstamp 537c5090-226f-4640-aa2a-66616522c7bd))
  (pad "E7" smd circle (at 1.6 -2.8) (size 0.4 0.4) (property pad_prop_bga) (layers "F.Cu" "F.Paste" "F.Mask") (tstamp 5ba51b87-aa43-4dbd-b4f3-7e1d72507e2f))
  (pad "E8" smd circle (at 2.4 -2.8) (size 0.4 0.4) (property pad_prop_bga) (layers "F.Cu" "F.Paste" "F.Mask") (tstamp 8979ac96-2389-428f-8d9f-62be3baac180))
  (pad "E9" smd circle (at 3.2 -2.8) (size 0.4 0.4) (property pad_prop_bga) (layers "F.Cu" "F.Paste" "F.Mask") (tstamp d589a691-0ca8-4e06-bc2f-d96533b6df3c))
  (pad "F1" smd circle (at -3.2 -2) (size 0.4 0.4) (property pad_prop_bga) (layers "F.Cu" "F.Paste" "F.Mask") (tstamp f14d2d6b-ee47-4216-82b6-cf504df6aaee))
  (pad "F2" smd circle (at -2.4 -2) (size 0.4 0.4) (property pad_prop_bga) (layers "F.Cu" "F.Paste" "F.Mask") (tstamp 23c2339f-721b-49d1-b0a6-d5b59c47d384))
  (pad "F3" smd circle (at -1.6 -2) (size 0.4 0.4) (property pad_prop_bga) (layers "F.Cu" "F.Paste" "F.Mask") (tstamp 58b4a75e-0fbb-4326-a19c-59c13ac14c52))
  (pad "F7" smd circle (at 1.6 -2) (size 0.4 0.4) (property pad_prop_bga) (layers "F.Cu" "F.Paste" "F.Mask") (tstamp 6719b850-400e-4efe-bdd2-9ddd44ac1d10))
  (pad "F8" smd circle (at 2.4 -2) (size 0.4 0.4) (property pad_prop_bga) (layers "F.Cu" "F.Paste" "F.Mask") (tstamp 58b4a20b-0275-46a6-bfec-cc1aa82c5ccb))
  (pad "F9" smd circle (at 3.2 -2) (size 0.4 0.4) (property pad_prop_bga) (layers "F.Cu" "F.Paste" "F.Mask") (tstamp 9eaf0821-341b-4280-81b1-611eb4d3eded))
  (pad "G1" smd circle (at -3.2 -1.2) (size 0.4 0.4) (property pad_prop_bga) (layers "F.Cu" "F.Paste" "F.Mask") (tstamp f6e68828-6ed7-4aeb-9a92-06f31d1b37c8))
  (pad "G2" smd circle (at -2.4 -1.2) (size 0.4 0.4) (property pad_prop_bga) (layers "F.Cu" "F.Paste" "F.Mask") (tstamp 98ffbbd6-4473-4157-8459-a8fc9b1e11a8))
  (pad "G3" smd circle (at -1.6 -1.2) (size 0.4 0.4) (property pad_prop_bga) (layers "F.Cu" "F.Paste" "F.Mask") (tstamp 26a7317e-df9f-4e27-938e-3c5ada2ab39b))
  (pad "G7" smd circle (at 1.6 -1.2) (size 0.4 0.4) (property pad_prop_bga) (layers "F.Cu" "F.Paste" "F.Mask") (tstamp d11521b0-355f-4a09-85dc-4e7adbc3454a))
  (pad "G8" smd circle (at 2.4 -1.2) (size 0.4 0.4) (property pad_prop_bga) (layers "F.Cu" "F.Paste" "F.Mask") (tstamp 17d5c6c0-436a-4b80-a15c-decc96b4701c))
  (pad "G9" smd circle (at 3.2 -1.2) (size 0.4 0.4) (property pad_prop_bga) (layers "F.Cu" "F.Paste" "F.Mask") (tstamp e8d4a02c-49a5-4fda-9f65-b2b898dc98a0))
  (pad "H1" smd circle (at -3.2 -0.4) (size 0.4 0.4) (property pad_prop_bga) (layers "F.Cu" "F.Paste" "F.Mask") (tstamp 79b62f9e-882b-4d5e-bd70-845c739e05b8))
  (pad "H2" smd circle (at -2.4 -0.4) (size 0.4 0.4) (property pad_prop_bga) (layers "F.Cu" "F.Paste" "F.Mask") (tstamp 59c1dd34-454f-4058-913b-83f3f6f33619))
  (pad "H3" smd circle (at -1.6 -0.4) (size 0.4 0.4) (property pad_prop_bga) (layers "F.Cu" "F.Paste" "F.Mask") (tstamp 82cb45bb-6b49-414f-8524-ce3336a60eb6))
  (pad "H7" smd circle (at 1.6 -0.4) (size 0.4 0.4) (property pad_prop_bga) (layers "F.Cu" "F.Paste" "F.Mask") (tstamp 4440df60-a374-4bbc-997d-2eec40181d05))
  (pad "H8" smd circle (at 2.4 -0.4) (size 0.4 0.4) (property pad_prop_bga) (layers "F.Cu" "F.Paste" "F.Mask") (tstamp f2c9a4da-9405-401c-b7f2-36423ef50728))
  (pad "H9" smd circle (at 3.2 -0.4) (size 0.4 0.4) (property pad_prop_bga) (layers "F.Cu" "F.Paste" "F.Mask") (tstamp 5e1c4cc0-41e3-4477-85d8-387cea540e75))
  (pad "J1" smd circle (at -3.2 0.4) (size 0.4 0.4) (property pad_prop_bga) (layers "F.Cu" "F.Paste" "F.Mask") (tstamp adee900f-1c7d-4a5d-9e5a-4677973dded1))
  (pad "J2" smd circle (at -2.4 0.4) (size 0.4 0.4) (property pad_prop_bga) (layers "F.Cu" "F.Paste" "F.Mask") (tstamp 7697f640-5ad7-42c4-80a5-cb44fe1f366c))
  (pad "J3" smd circle (at -1.6 0.4) (size 0.4 0.4) (property pad_prop_bga) (layers "F.Cu" "F.Paste" "F.Mask") (tstamp e70225a4-1b97-49ab-ba7e-280e4f00c951))
  (pad "J7" smd circle (at 1.6 0.4) (size 0.4 0.4) (property pad_prop_bga) (layers "F.Cu" "F.Paste" "F.Mask") (tstamp 54fa56f8-1cc2-4ba3-9d1c-d341ab83bc2f))
  (pad "J8" smd circle (at 2.4 0.4) (size 0.4 0.4) (property pad_prop_bga) (layers "F.Cu" "F.Paste" "F.Mask") (tstamp 782d6a1c-fe35-4fb5-99ba-f3402b89dcdb))
  (pad "J9" smd circle (at 3.2 0.4) (size 0.4 0.4) (property pad_prop_bga) (layers "F.Cu" "F.Paste" "F.Mask") (tstamp 81736f93-600b-4712-98d5-b09763943f66))
  (pad "K1" smd circle (at -3.2 1.2) (size 0.4 0.4) (property pad_prop_bga) (layers "F.Cu" "F.Paste" "F.Mask") (tstamp 720c82f5-4859-45ca-bcbe-be3e2afed09b))
  (pad "K2" smd circle (at -2.4 1.2) (size 0.4 0.4) (property pad_prop_bga) (layers "F.Cu" "F.Paste" "F.Mask") (tstamp 83f698b9-4490-430d-a3c6-616e32fed686))
  (pad "K3" smd circle (at -1.6 1.2) (size 0.4 0.4) (property pad_prop_bga) (layers "F.Cu" "F.Paste" "F.Mask") (tstamp 6a6f7d0e-b00c-4a1a-b377-7ccb39820f70))
  (pad "K7" smd circle (at 1.6 1.2) (size 0.4 0.4) (property pad_prop_bga) (layers "F.Cu" "F.Paste" "F.Mask") (tstamp f0feea15-de70-40e5-b79e-ef74e48d5c9c))
  (pad "K8" smd circle (at 2.4 1.2) (size 0.4 0.4) (property pad_prop_bga) (layers "F.Cu" "F.Paste" "F.Mask") (tstamp 9816cf59-9664-463f-b791-1e408e52a7cc))
  (pad "K9" smd circle (at 3.2 1.2) (size 0.4 0.4) (property pad_prop_bga) (layers "F.Cu" "F.Paste" "F.Mask") (tstamp dc41d187-0a4b-441d-b8b3-42f3822eca88))
  (pad "L1" smd circle (at -3.2 2) (size 0.4 0.4) (property pad_prop_bga) (layers "F.Cu" "F.Paste" "F.Mask") (tstamp b72fb65a-20d4-470d-9192-b1de12ef6b27))
  (pad "L2" smd circle (at -2.4 2) (size 0.4 0.4) (property pad_prop_bga) (layers "F.Cu" "F.Paste" "F.Mask") (tstamp 1d754502-cd39-4539-b2a0-c135068865b5))
  (pad "L3" smd circle (at -1.6 2) (size 0.4 0.4) (property pad_prop_bga) (layers "F.Cu" "F.Paste" "F.Mask") (tstamp 9dd24075-625b-4b77-bcfb-0e5e0841a1ef))
  (pad "L7" smd circle (at 1.6 2) (size 0.4 0.4) (property pad_prop_bga) (layers "F.Cu" "F.Paste" "F.Mask") (tstamp 4b323e3d-f6ae-48a0-a859-b134b774e21e))
  (pad "L8" smd circle (at 2.4 2) (size 0.4 0.4) (property pad_prop_bga) (layers "F.Cu" "F.Paste" "F.Mask") (tstamp 0a8b026b-abd1-4cde-90a6-ceeba37da80a))
  (pad "L9" smd circle (at 3.2 2) (size 0.4 0.4) (property pad_prop_bga) (layers "F.Cu" "F.Paste" "F.Mask") (tstamp 748aaac4-59b6-4563-a0fb-6b6a385b6929))
  (pad "M1" smd circle (at -3.2 2.8) (size 0.4 0.4) (property pad_prop_bga) (layers "F.Cu" "F.Paste" "F.Mask") (tstamp f1632118-9adb-4fd2-b21b-b941b9dda468))
  (pad "M2" smd circle (at -2.4 2.8) (size 0.4 0.4) (property pad_prop_bga) (layers "F.Cu" "F.Paste" "F.Mask") (tstamp 8219edcb-5ecf-4413-8272-ce95a991a712))
  (pad "M3" smd circle (at -1.6 2.8) (size 0.4 0.4) (property pad_prop_bga) (layers "F.Cu" "F.Paste" "F.Mask") (tstamp 10ca3ce9-0dfd-43fc-84a5-42fc8bcb8413))
  (pad "M7" smd circle (at 1.6 2.8) (size 0.4 0.4) (property pad_prop_bga) (layers "F.Cu" "F.Paste" "F.Mask") (tstamp d02302a3-3181-4357-95ea-0fb0d72ecc7f))
  (pad "M8" smd circle (at 2.4 2.8) (size 0.4 0.4) (property pad_prop_bga) (layers "F.Cu" "F.Paste" "F.Mask") (tstamp a6e53458-e492-485c-bc4d-8ae016866347))
  (pad "M9" smd circle (at 3.2 2.8) (size 0.4 0.4) (property pad_prop_bga) (layers "F.Cu" "F.Paste" "F.Mask") (tstamp a6e2d384-afb5-4ae9-b3d1-5df3d46c01b2))
  (pad "N1" smd circle (at -3.2 3.6) (size 0.4 0.4) (property pad_prop_bga) (layers "F.Cu" "F.Paste" "F.Mask") (tstamp f7e916cb-b96f-455c-b786-72de5a3e673e))
  (pad "N2" smd circle (at -2.4 3.6) (size 0.4 0.4) (property pad_prop_bga) (layers "F.Cu" "F.Paste" "F.Mask") (tstamp 83f2c1b1-c3a6-4bda-9285-1b0d3cb32559))
  (pad "N3" smd circle (at -1.6 3.6) (size 0.4 0.4) (property pad_prop_bga) (layers "F.Cu" "F.Paste" "F.Mask") (tstamp 5445dcf5-f617-46cf-bb3c-79f35b7576fb))
  (pad "N7" smd circle (at 1.6 3.6) (size 0.4 0.4) (property pad_prop_bga) (layers "F.Cu" "F.Paste" "F.Mask") (tstamp 0693eb61-942b-44bd-8263-70e03e79dafa))
  (pad "N8" smd circle (at 2.4 3.6) (size 0.4 0.4) (property pad_prop_bga) (layers "F.Cu" "F.Paste" "F.Mask") (tstamp 2bfd9a89-5837-4640-a0a8-9d8f31ff8956))
  (pad "N9" smd circle (at 3.2 3.6) (size 0.4 0.4) (property pad_prop_bga) (layers "F.Cu" "F.Paste" "F.Mask") (tstamp d7b1b0bc-c61c-466d-8d11-ebb6209f9377))
  (pad "P1" smd circle (at -3.2 4.4) (size 0.4 0.4) (property pad_prop_bga) (layers "F.Cu" "F.Paste" "F.Mask") (tstamp 25bd2883-1c3e-4bca-adad-9513c5618e12))
  (pad "P2" smd circle (at -2.4 4.4) (size 0.4 0.4) (property pad_prop_bga) (layers "F.Cu" "F.Paste" "F.Mask") (tstamp 9601c202-3e6b-4809-8e3b-2b07b1e8637e))
  (pad "P3" smd circle (at -1.6 4.4) (size 0.4 0.4) (property pad_prop_bga) (layers "F.Cu" "F.Paste" "F.Mask") (tstamp 17a3dbf0-4fe8-4f0b-a436-c81c4923a99c))
  (pad "P7" smd circle (at 1.6 4.4) (size 0.4 0.4) (property pad_prop_bga) (layers "F.Cu" "F.Paste" "F.Mask") (tstamp cc48832f-596e-4fcc-bf6b-f68957ccb386))
  (pad "P8" smd circle (at 2.4 4.4) (size 0.4 0.4) (property pad_prop_bga) (layers "F.Cu" "F.Paste" "F.Mask") (tstamp 4107722e-410a-44d6-8ffa-3d76483b5ada))
  (pad "P9" smd circle (at 3.2 4.4) (size 0.4 0.4) (property pad_prop_bga) (layers "F.Cu" "F.Paste" "F.Mask") (tstamp aad61c13-8349-484d-a784-f074f526e3ea))
  (pad "R1" smd circle (at -3.2 5.2) (size 0.4 0.4) (property pad_prop_bga) (layers "F.Cu" "F.Paste" "F.Mask") (tstamp 4eb40d98-83bd-457a-91a6-311258789e9b))
  (pad "R2" smd circle (at -2.4 5.2) (size 0.4 0.4) (property pad_prop_bga) (layers "F.Cu" "F.Paste" "F.Mask") (tstamp c9a51adb-2e39-47ae-962f-bc8ea3c377d5))
  (pad "R3" smd circle (at -1.6 5.2) (size 0.4 0.4) (property pad_prop_bga) (layers "F.Cu" "F.Paste" "F.Mask") (tstamp 8d9c8a02-141a-4231-b3ee-5575d2d5a637))
  (pad "R7" smd circle (at 1.6 5.2) (size 0.4 0.4) (property pad_prop_bga) (layers "F.Cu" "F.Paste" "F.Mask") (tstamp 068579f8-ee8e-4443-98e2-824cae51bcca))
  (pad "R8" smd circle (at 2.4 5.2) (size 0.4 0.4) (property pad_prop_bga) (layers "F.Cu" "F.Paste" "F.Mask") (tstamp c4b49081-59e9-4d19-abfa-284507ff35ec))
  (pad "R9" smd circle (at 3.2 5.2) (size 0.4 0.4) (property pad_prop_bga) (layers "F.Cu" "F.Paste" "F.Mask") (tstamp c7b85044-2bde-42ca-827b-c1adf9c08372))
  (pad "T1" smd circle (at -3.2 6) (size 0.4 0.4) (property pad_prop_bga) (layers "F.Cu" "F.Paste" "F.Mask") (tstamp 05652226-fb30-4780-b67a-afbbfc21b4b0))
  (pad "T2" smd circle (at -2.4 6) (size 0.4 0.4) (property pad_prop_bga) (layers "F.Cu" "F.Paste" "F.Mask") (tstamp 14aba842-b937-49ae-8bf7-a4c6a834bf38))
  (pad "T3" smd circle (at -1.6 6) (size 0.4 0.4) (property pad_prop_bga) (layers "F.Cu" "F.Paste" "F.Mask") (tstamp 266a6c45-d4fe-42bc-99ee-1f8c5e0a75b4))
  (pad "T7" smd circle (at 1.6 6) (size 0.4 0.4) (property pad_prop_bga) (layers "F.Cu" "F.Paste" "F.Mask") (tstamp 73fbc65c-ed9e-4cf6-989c-c8a2c837eb6c))
  (pad "T8" smd circle (at 2.4 6) (size 0.4 0.4) (property pad_prop_bga) (layers "F.Cu" "F.Paste" "F.Mask") (tstamp ff475cc6-40cf-4bae-8460-daa6c633ff16))
  (pad "T9" smd circle (at 3.2 6) (size 0.4 0.4) (property pad_prop_bga) (layers "F.Cu" "F.Paste" "F.Mask") (tstamp f4b7c5e8-06c3-454e-a717-e571fbd2eb89))
  (model "${KICAD6_3DMODEL_DIR}/Package_BGA.3dshapes/BGA-96_9.0x13.0mm_Layout2x3x16_P0.8mm.wrl"
    (offset (xyz 0 0 0))
    (scale (xyz 1 1 1))
    (rotate (xyz 0 0 0))
  )
)
