(footprint "BGA-132_12x18mm_Layout11x17_P1.0mm" (version 20211014) (generator pcbnew)
  (layer "F.Cu")
  (tedit 5F50A608)
  (descr "BGA-132 11x17 12x18mm 1.0pitch")
  (tags "BGA-132")
  (attr smd)
  (fp_text reference "REF**" (at 0 -10.2) (layer "F.SilkS")
    (effects (font (size 1 1) (thickness 0.15)))
    (tstamp 8246fdf8-ab94-4e54-bae2-67b80eedf644)
  )
  (fp_text value "BGA-132_12x18mm_Layout11x17_P1.0mm" (at 0 10.2) (layer "F.Fab")
    (effects (font (size 1 1) (thickness 0.15)))
    (tstamp a6c89adf-7417-4d9e-850e-e6a6f8faf1e0)
  )
  (fp_text user "${REFERENCE}" (at 0 -10.2) (layer "F.Fab")
    (effects (font (size 1 1) (thickness 0.15)))
    (tstamp 49293a2b-1a3b-421b-9594-d44e016d64cf)
  )
  (fp_line (start -6.1 -9.1) (end 6.1 -9.1) (layer "F.SilkS") (width 0.1) (tstamp 0d50df1a-dff0-4cb8-8e16-d4da1211abc4))
  (fp_line (start -6.1 9.1) (end 6.1 9.1) (layer "F.SilkS") (width 0.1) (tstamp 1e495313-b48e-42c8-8fa7-367720f8fce0))
  (fp_line (start -6.1 9.1) (end -6.1 -9.1) (layer "F.SilkS") (width 0.1) (tstamp 2a71ce04-ad8e-4919-a083-0f90373dbb8f))
  (fp_line (start 6.1 -9.1) (end 6.1 9.1) (layer "F.SilkS") (width 0.1) (tstamp 780355ba-5683-4bed-a2e4-b737ac8f8fb5))
  (fp_line (start -5 -9.4) (end -6.4 -9.4) (layer "F.SilkS") (width 0.15) (tstamp d9badcee-dd8a-4f22-9844-2280a6c6753c))
  (fp_line (start -6.4 -9.4) (end -6.4 -8) (layer "F.SilkS") (width 0.15) (tstamp eea197cb-f8ae-44c9-997b-a1e83bb07eb2))
  (fp_line (start -6.5 -9.5) (end 6.5 -9.5) (layer "F.CrtYd") (width 0.05) (tstamp 08bdfc6c-64f8-43d5-a7ab-7e90dd1c323b))
  (fp_line (start -6.5 9.5) (end -6.5 -9.5) (layer "F.CrtYd") (width 0.05) (tstamp 91c07cbc-c92e-42c4-8e59-db498027a94e))
  (fp_line (start 6.5 9.5) (end -6.5 9.5) (layer "F.CrtYd") (width 0.05) (tstamp bae618ec-8bb8-4acf-9495-a8bd4aa6ff7a))
  (fp_line (start 6.5 -9.5) (end 6.5 9.5) (layer "F.CrtYd") (width 0.05) (tstamp d6c64483-4501-40a4-ae81-f27871fdc32c))
  (fp_line (start 6 9) (end -6 9) (layer "F.Fab") (width 0.1) (tstamp 23f4cc18-9ae9-47da-87a5-a3fe07142b03))
  (fp_line (start 6 9) (end 6 -9) (layer "F.Fab") (width 0.1) (tstamp 60ea6b69-c9ae-467c-9c90-701c15e336d3))
  (fp_line (start -5 -9) (end -6 -8) (layer "F.Fab") (width 0.1) (tstamp 7e18f693-6c1a-47fa-9f65-07388780b86f))
  (fp_line (start -6 -8) (end -6 9) (layer "F.Fab") (width 0.1) (tstamp 830df941-355c-4c0d-a630-608712a6575e))
  (fp_line (start 6 -9) (end -5 -9) (layer "F.Fab") (width 0.1) (tstamp f980cb86-a0f7-489a-ac6f-c96543fc004e))
  (pad "A1" smd circle (at -5 -8) (size 0.5 0.5) (property pad_prop_bga) (layers "F.Cu" "F.Paste" "F.Mask") (tstamp d37d4172-7d58-48e0-8a1c-c42b7983ecf2))
  (pad "A2" smd circle (at -4 -8) (size 0.5 0.5) (property pad_prop_bga) (layers "F.Cu" "F.Paste" "F.Mask") (tstamp e96f403f-68ec-42fa-94d9-c9f1e9cfb4f3))
  (pad "A3" smd circle (at -3 -8) (size 0.5 0.5) (property pad_prop_bga) (layers "F.Cu" "F.Paste" "F.Mask") (tstamp 694d6a9a-ce01-4c2b-9e5a-e85b3cb62486))
  (pad "A9" smd circle (at 3 -8) (size 0.5 0.5) (property pad_prop_bga) (layers "F.Cu" "F.Paste" "F.Mask") (tstamp 9984aab4-4f13-4245-b527-8707646b6437))
  (pad "A10" smd circle (at 4 -8) (size 0.5 0.5) (property pad_prop_bga) (layers "F.Cu" "F.Paste" "F.Mask") (tstamp 48c694e7-9dd6-4e65-ae21-3fce47087089))
  (pad "A11" smd circle (at 5 -8) (size 0.5 0.5) (property pad_prop_bga) (layers "F.Cu" "F.Paste" "F.Mask") (tstamp 952d83fa-a666-41d9-9e94-fbb8a5f091c8))
  (pad "B1" smd circle (at -5 -7) (size 0.5 0.5) (property pad_prop_bga) (layers "F.Cu" "F.Paste" "F.Mask") (tstamp 22b09962-220e-446a-9cbf-7ad9eed4a783))
  (pad "B2" smd circle (at -4 -7) (size 0.5 0.5) (property pad_prop_bga) (layers "F.Cu" "F.Paste" "F.Mask") (tstamp dd66852a-37a1-4601-897a-9f5f0be3028c))
  (pad "B3" smd circle (at -3 -7) (size 0.5 0.5) (property pad_prop_bga) (layers "F.Cu" "F.Paste" "F.Mask") (tstamp 98608769-0581-487f-821b-ef00f37869cb))
  (pad "B9" smd circle (at 3 -7) (size 0.5 0.5) (property pad_prop_bga) (layers "F.Cu" "F.Paste" "F.Mask") (tstamp 90e7b84f-7807-4bd8-b670-abfda3c0271a))
  (pad "B10" smd circle (at 4 -7) (size 0.5 0.5) (property pad_prop_bga) (layers "F.Cu" "F.Paste" "F.Mask") (tstamp 9a3483e5-eb4d-46fc-b8ce-86e949386a61))
  (pad "B11" smd circle (at 5 -7) (size 0.5 0.5) (property pad_prop_bga) (layers "F.Cu" "F.Paste" "F.Mask") (tstamp a2499874-c9c8-4c6d-96b6-de1495551818))
  (pad "C1" smd circle (at -5 -6) (size 0.5 0.5) (property pad_prop_bga) (layers "F.Cu" "F.Paste" "F.Mask") (tstamp cdf61868-8f5b-4807-983e-265e907f2be1))
  (pad "C2" smd circle (at -4 -6) (size 0.5 0.5) (property pad_prop_bga) (layers "F.Cu" "F.Paste" "F.Mask") (tstamp 06441bcd-e61f-4c9a-9eb4-499fe5f3bb15))
  (pad "C3" smd circle (at -3 -6) (size 0.5 0.5) (property pad_prop_bga) (layers "F.Cu" "F.Paste" "F.Mask") (tstamp ba8c679d-53c0-4ba2-8b94-4ef229bb8878))
  (pad "C9" smd circle (at 3 -6) (size 0.5 0.5) (property pad_prop_bga) (layers "F.Cu" "F.Paste" "F.Mask") (tstamp 0384c660-2b06-41d7-84ca-fb3ce985b7e6))
  (pad "C10" smd circle (at 4 -6) (size 0.5 0.5) (property pad_prop_bga) (layers "F.Cu" "F.Paste" "F.Mask") (tstamp 17ccce66-3ec2-4042-adec-ae6ff304a2e6))
  (pad "C11" smd circle (at 5 -6) (size 0.5 0.5) (property pad_prop_bga) (layers "F.Cu" "F.Paste" "F.Mask") (tstamp 9126d4cc-57b7-4601-9375-743d6173e53d))
  (pad "D1" smd circle (at -5 -5) (size 0.5 0.5) (property pad_prop_bga) (layers "F.Cu" "F.Paste" "F.Mask") (tstamp ad2d1928-b9a1-4b11-8dd4-a36690f63ee6))
  (pad "D2" smd circle (at -4 -5) (size 0.5 0.5) (property pad_prop_bga) (layers "F.Cu" "F.Paste" "F.Mask") (tstamp b073788f-84c3-415f-b6ad-f0a094e41e38))
  (pad "D3" smd circle (at -3 -5) (size 0.5 0.5) (property pad_prop_bga) (layers "F.Cu" "F.Paste" "F.Mask") (tstamp 7a72010a-8493-4dc0-9d25-306f36008ee4))
  (pad "D4" smd circle (at -2 -5) (size 0.5 0.5) (property pad_prop_bga) (layers "F.Cu" "F.Paste" "F.Mask") (tstamp dd66c924-13ce-467a-a54e-4cda8b2ec39d))
  (pad "D5" smd circle (at -1 -5) (size 0.5 0.5) (property pad_prop_bga) (layers "F.Cu" "F.Paste" "F.Mask") (tstamp 0b67da3b-bf97-40af-a2e5-405e3688d857))
  (pad "D7" smd circle (at 1 -5) (size 0.5 0.5) (property pad_prop_bga) (layers "F.Cu" "F.Paste" "F.Mask") (tstamp 010b9b88-61f1-42bf-ad06-2e648e32828c))
  (pad "D8" smd circle (at 2 -5) (size 0.5 0.5) (property pad_prop_bga) (layers "F.Cu" "F.Paste" "F.Mask") (tstamp 03ad8df2-dec1-4812-9790-781956b199ba))
  (pad "D9" smd circle (at 3 -5) (size 0.5 0.5) (property pad_prop_bga) (layers "F.Cu" "F.Paste" "F.Mask") (tstamp cad0d195-553b-4177-9d4f-62cdffc45397))
  (pad "D10" smd circle (at 4 -5) (size 0.5 0.5) (property pad_prop_bga) (layers "F.Cu" "F.Paste" "F.Mask") (tstamp ca50c28b-238b-4f69-8637-634d2febdb60))
  (pad "D11" smd circle (at 5 -5) (size 0.5 0.5) (property pad_prop_bga) (layers "F.Cu" "F.Paste" "F.Mask") (tstamp 1bab24c3-d849-4bb4-90f0-5fb5d02d3113))
  (pad "E1" smd circle (at -5 -4) (size 0.5 0.5) (property pad_prop_bga) (layers "F.Cu" "F.Paste" "F.Mask") (tstamp 2dfc2621-307e-4718-a649-b09b70ad75d3))
  (pad "E2" smd circle (at -4 -4) (size 0.5 0.5) (property pad_prop_bga) (layers "F.Cu" "F.Paste" "F.Mask") (tstamp 30ddecde-e47c-4e0d-8ec7-27c8b5a89613))
  (pad "E3" smd circle (at -3 -4) (size 0.5 0.5) (property pad_prop_bga) (layers "F.Cu" "F.Paste" "F.Mask") (tstamp 8dae9488-6b14-4003-9278-7751fa0f005b))
  (pad "E4" smd circle (at -2 -4) (size 0.5 0.5) (property pad_prop_bga) (layers "F.Cu" "F.Paste" "F.Mask") (tstamp df379795-ba73-4abd-99db-ad5e76749cb2))
  (pad "E5" smd circle (at -1 -4) (size 0.5 0.5) (property pad_prop_bga) (layers "F.Cu" "F.Paste" "F.Mask") (tstamp d18350d5-282c-48d7-8a92-7f47fb4a79a9))
  (pad "E7" smd circle (at 1 -4) (size 0.5 0.5) (property pad_prop_bga) (layers "F.Cu" "F.Paste" "F.Mask") (tstamp d82c9238-eee2-4e61-b039-0ea19d3f9d35))
  (pad "E8" smd circle (at 2 -4) (size 0.5 0.5) (property pad_prop_bga) (layers "F.Cu" "F.Paste" "F.Mask") (tstamp d7dd8ac5-4f67-497c-9a05-7eb200a0e690))
  (pad "E9" smd circle (at 3 -4) (size 0.5 0.5) (property pad_prop_bga) (layers "F.Cu" "F.Paste" "F.Mask") (tstamp 0a8a1000-f7ec-467a-918e-e8d841fe8a65))
  (pad "E10" smd circle (at 4 -4) (size 0.5 0.5) (property pad_prop_bga) (layers "F.Cu" "F.Paste" "F.Mask") (tstamp f571f131-1823-4157-a842-ada39679617c))
  (pad "E11" smd circle (at 5 -4) (size 0.5 0.5) (property pad_prop_bga) (layers "F.Cu" "F.Paste" "F.Mask") (tstamp 0dcab1a0-29ca-418e-9e36-46b5b230630f))
  (pad "F2" smd circle (at -4 -3) (size 0.5 0.5) (property pad_prop_bga) (layers "F.Cu" "F.Paste" "F.Mask") (tstamp 0dc663dc-8573-46d0-a486-e62e376bac7e))
  (pad "F3" smd circle (at -3 -3) (size 0.5 0.5) (property pad_prop_bga) (layers "F.Cu" "F.Paste" "F.Mask") (tstamp f93cb8a7-664d-4ee9-98e4-9cc4fdcd7ec1))
  (pad "F4" smd circle (at -2 -3) (size 0.5 0.5) (property pad_prop_bga) (layers "F.Cu" "F.Paste" "F.Mask") (tstamp 289f025f-9159-450f-ad53-87d4d6b55dcc))
  (pad "F5" smd circle (at -1 -3) (size 0.5 0.5) (property pad_prop_bga) (layers "F.Cu" "F.Paste" "F.Mask") (tstamp 046c94b8-c439-4f35-a6ca-d989eb26b5db))
  (pad "F7" smd circle (at 1 -3) (size 0.5 0.5) (property pad_prop_bga) (layers "F.Cu" "F.Paste" "F.Mask") (tstamp 2890f4cf-9553-4847-8f90-db99b484b901))
  (pad "F8" smd circle (at 2 -3) (size 0.5 0.5) (property pad_prop_bga) (layers "F.Cu" "F.Paste" "F.Mask") (tstamp 089fa743-e908-49e1-b7c8-9693163c917f))
  (pad "F9" smd circle (at 3 -3) (size 0.5 0.5) (property pad_prop_bga) (layers "F.Cu" "F.Paste" "F.Mask") (tstamp 5859c5c7-3ca7-4d27-90a3-5fd3a5991ad1))
  (pad "F10" smd circle (at 4 -3) (size 0.5 0.5) (property pad_prop_bga) (layers "F.Cu" "F.Paste" "F.Mask") (tstamp ed3f63cc-fbc5-4a84-8ca0-6b1591421c59))
  (pad "G2" smd circle (at -4 -2) (size 0.5 0.5) (property pad_prop_bga) (layers "F.Cu" "F.Paste" "F.Mask") (tstamp 4121210c-bf89-4c51-855f-aed0743d1602))
  (pad "G3" smd circle (at -3 -2) (size 0.5 0.5) (property pad_prop_bga) (layers "F.Cu" "F.Paste" "F.Mask") (tstamp e789e740-6e54-4943-b311-396909424e4f))
  (pad "G4" smd circle (at -2 -2) (size 0.5 0.5) (property pad_prop_bga) (layers "F.Cu" "F.Paste" "F.Mask") (tstamp 52cdf4bd-9280-4197-82bb-bdd0ab23983e))
  (pad "G5" smd circle (at -1 -2) (size 0.5 0.5) (property pad_prop_bga) (layers "F.Cu" "F.Paste" "F.Mask") (tstamp 10cde4f8-492e-4e03-a559-0996095e41c9))
  (pad "G7" smd circle (at 1 -2) (size 0.5 0.5) (property pad_prop_bga) (layers "F.Cu" "F.Paste" "F.Mask") (tstamp f0d2101f-a386-49f3-bd2d-658c8a5e0138))
  (pad "G8" smd circle (at 2 -2) (size 0.5 0.5) (property pad_prop_bga) (layers "F.Cu" "F.Paste" "F.Mask") (tstamp 532fce43-ca08-4ec3-9a4f-9577655c0ee7))
  (pad "G9" smd circle (at 3 -2) (size 0.5 0.5) (property pad_prop_bga) (layers "F.Cu" "F.Paste" "F.Mask") (tstamp c10e05d8-7bb0-4532-b6fb-55d8c3024b2b))
  (pad "G10" smd circle (at 4 -2) (size 0.5 0.5) (property pad_prop_bga) (layers "F.Cu" "F.Paste" "F.Mask") (tstamp eda7f6cf-4562-4ba3-a6a5-5ca99f295f86))
  (pad "H2" smd circle (at -4 -1) (size 0.5 0.5) (property pad_prop_bga) (layers "F.Cu" "F.Paste" "F.Mask") (tstamp f0645abf-4ac1-479a-9d05-ca42251973bb))
  (pad "H3" smd circle (at -3 -1) (size 0.5 0.5) (property pad_prop_bga) (layers "F.Cu" "F.Paste" "F.Mask") (tstamp d13d63d9-12b6-4f30-b400-cb4461afa257))
  (pad "H4" smd circle (at -2 -1) (size 0.5 0.5) (property pad_prop_bga) (layers "F.Cu" "F.Paste" "F.Mask") (tstamp c1895309-e742-41cd-a4de-0f3aae0070ab))
  (pad "H5" smd circle (at -1 -1) (size 0.5 0.5) (property pad_prop_bga) (layers "F.Cu" "F.Paste" "F.Mask") (tstamp 8b23b77d-ae77-4dac-b794-0eb0b3f13ca5))
  (pad "H7" smd circle (at 1 -1) (size 0.5 0.5) (property pad_prop_bga) (layers "F.Cu" "F.Paste" "F.Mask") (tstamp 7f7060ad-8aa0-44b4-835e-41d22a53077b))
  (pad "H8" smd circle (at 2 -1) (size 0.5 0.5) (property pad_prop_bga) (layers "F.Cu" "F.Paste" "F.Mask") (tstamp fb85730d-f986-4fa9-927f-9493d3b71900))
  (pad "H9" smd circle (at 3 -1) (size 0.5 0.5) (property pad_prop_bga) (layers "F.Cu" "F.Paste" "F.Mask") (tstamp 3352e5d5-b8f6-400b-8460-9c6679b56b43))
  (pad "H10" smd circle (at 4 -1) (size 0.5 0.5) (property pad_prop_bga) (layers "F.Cu" "F.Paste" "F.Mask") (tstamp 08bf5b7d-6748-4edb-941a-0f61514129d3))
  (pad "J2" smd circle (at -4 0) (size 0.5 0.5) (property pad_prop_bga) (layers "F.Cu" "F.Paste" "F.Mask") (tstamp 319f356d-9a04-42ae-aab2-fe44dc913fed))
  (pad "J3" smd circle (at -3 0) (size 0.5 0.5) (property pad_prop_bga) (layers "F.Cu" "F.Paste" "F.Mask") (tstamp 85d650ac-c434-4de9-a6c9-a8037bc9dccd))
  (pad "J4" smd circle (at -2 0) (size 0.5 0.5) (property pad_prop_bga) (layers "F.Cu" "F.Paste" "F.Mask") (tstamp e02bba43-131a-4a79-842b-428d5f92f23b))
  (pad "J5" smd circle (at -1 0) (size 0.5 0.5) (property pad_prop_bga) (layers "F.Cu" "F.Paste" "F.Mask") (tstamp c1c9d38c-66e3-4f72-9b14-448ef342ca08))
  (pad "J7" smd circle (at 1 0) (size 0.5 0.5) (property pad_prop_bga) (layers "F.Cu" "F.Paste" "F.Mask") (tstamp a395341b-3ebe-44d3-8949-808f7751038f))
  (pad "J8" smd circle (at 2 0) (size 0.5 0.5) (property pad_prop_bga) (layers "F.Cu" "F.Paste" "F.Mask") (tstamp 58bbbaf7-bc7f-41a9-891c-fe04b452bc07))
  (pad "J9" smd circle (at 3 0) (size 0.5 0.5) (property pad_prop_bga) (layers "F.Cu" "F.Paste" "F.Mask") (tstamp 116d4afb-4b91-402b-aa13-193e11ae6a56))
  (pad "J10" smd circle (at 4 0) (size 0.5 0.5) (property pad_prop_bga) (layers "F.Cu" "F.Paste" "F.Mask") (tstamp f8909a8d-5a10-4525-8ecf-cd0042404c3c))
  (pad "K2" smd circle (at -4 1) (size 0.5 0.5) (property pad_prop_bga) (layers "F.Cu" "F.Paste" "F.Mask") (tstamp aebc6470-381b-42c8-801d-9e84efe3d522))
  (pad "K3" smd circle (at -3 1) (size 0.5 0.5) (property pad_prop_bga) (layers "F.Cu" "F.Paste" "F.Mask") (tstamp f291d40d-0c6a-43af-a724-3f4ed4aceb5c))
  (pad "K4" smd circle (at -2 1) (size 0.5 0.5) (property pad_prop_bga) (layers "F.Cu" "F.Paste" "F.Mask") (tstamp 7fdeb17b-cde9-4996-9d87-fd697323ece0))
  (pad "K5" smd circle (at -1 1) (size 0.5 0.5) (property pad_prop_bga) (layers "F.Cu" "F.Paste" "F.Mask") (tstamp 18d3ad7f-396e-4f87-ab42-f67531ce297e))
  (pad "K7" smd circle (at 1 1) (size 0.5 0.5) (property pad_prop_bga) (layers "F.Cu" "F.Paste" "F.Mask") (tstamp 02ecad9d-3d2d-4e6f-986b-5739af9bb251))
  (pad "K8" smd circle (at 2 1) (size 0.5 0.5) (property pad_prop_bga) (layers "F.Cu" "F.Paste" "F.Mask") (tstamp 09d05f3f-c204-45c5-888b-f95ddc8ba696))
  (pad "K9" smd circle (at 3 1) (size 0.5 0.5) (property pad_prop_bga) (layers "F.Cu" "F.Paste" "F.Mask") (tstamp 9d993635-34a2-4aac-be7b-82d3c6804009))
  (pad "K10" smd circle (at 4 1) (size 0.5 0.5) (property pad_prop_bga) (layers "F.Cu" "F.Paste" "F.Mask") (tstamp 285618c8-f171-4aa2-97c6-0f55aadb87ed))
  (pad "L2" smd circle (at -4 2) (size 0.5 0.5) (property pad_prop_bga) (layers "F.Cu" "F.Paste" "F.Mask") (tstamp 82bccd61-a7dd-4822-b93c-c81d08313964))
  (pad "L3" smd circle (at -3 2) (size 0.5 0.5) (property pad_prop_bga) (layers "F.Cu" "F.Paste" "F.Mask") (tstamp d84271e9-894c-4773-83bd-f995eed7562d))
  (pad "L4" smd circle (at -2 2) (size 0.5 0.5) (property pad_prop_bga) (layers "F.Cu" "F.Paste" "F.Mask") (tstamp 5469e27a-a3b2-4d89-bedf-4c1246f1b895))
  (pad "L5" smd circle (at -1 2) (size 0.5 0.5) (property pad_prop_bga) (layers "F.Cu" "F.Paste" "F.Mask") (tstamp b3c4c4fb-1e7e-48e3-8d1c-d7c3319aa633))
  (pad "L7" smd circle (at 1 2) (size 0.5 0.5) (property pad_prop_bga) (layers "F.Cu" "F.Paste" "F.Mask") (tstamp aa8155e0-2073-4f98-96b3-b0022cb5cfab))
  (pad "L8" smd circle (at 2 2) (size 0.5 0.5) (property pad_prop_bga) (layers "F.Cu" "F.Paste" "F.Mask") (tstamp 9caa45df-3e65-44d2-ab3c-6f951776cd33))
  (pad "L9" smd circle (at 3 2) (size 0.5 0.5) (property pad_prop_bga) (layers "F.Cu" "F.Paste" "F.Mask") (tstamp 0ed71e7c-1fd6-44be-9362-299e193822de))
  (pad "L10" smd circle (at 4 2) (size 0.5 0.5) (property pad_prop_bga) (layers "F.Cu" "F.Paste" "F.Mask") (tstamp 675ba320-beed-4503-905d-776a0f0f1893))
  (pad "M2" smd circle (at -4 3) (size 0.5 0.5) (property pad_prop_bga) (layers "F.Cu" "F.Paste" "F.Mask") (tstamp 2fc9865e-f9bf-4200-8377-6a70bb155449))
  (pad "M3" smd circle (at -3 3) (size 0.5 0.5) (property pad_prop_bga) (layers "F.Cu" "F.Paste" "F.Mask") (tstamp 6d67b24c-5382-4633-8102-8840de8f3e3f))
  (pad "M4" smd circle (at -2 3) (size 0.5 0.5) (property pad_prop_bga) (layers "F.Cu" "F.Paste" "F.Mask") (tstamp 3c53e308-b7a7-4b03-9a32-7cad0bf5f5f4))
  (pad "M5" smd circle (at -1 3) (size 0.5 0.5) (property pad_prop_bga) (layers "F.Cu" "F.Paste" "F.Mask") (tstamp 2ca9e91d-c60a-4445-8a44-bdb1c620274d))
  (pad "M7" smd circle (at 1 3) (size 0.5 0.5) (property pad_prop_bga) (layers "F.Cu" "F.Paste" "F.Mask") (tstamp 30b929ea-7a15-4cb8-a569-f59e018da579))
  (pad "M8" smd circle (at 2 3) (size 0.5 0.5) (property pad_prop_bga) (layers "F.Cu" "F.Paste" "F.Mask") (tstamp 33d3d2dc-6947-454e-9604-a447673585d0))
  (pad "M9" smd circle (at 3 3) (size 0.5 0.5) (property pad_prop_bga) (layers "F.Cu" "F.Paste" "F.Mask") (tstamp 3d86eb70-fadf-4b71-855d-a2639ed9e121))
  (pad "M10" smd circle (at 4 3) (size 0.5 0.5) (property pad_prop_bga) (layers "F.Cu" "F.Paste" "F.Mask") (tstamp 22154dd1-b4cf-4fd4-a4bc-e1388569c40d))
  (pad "N1" smd circle (at -5 4) (size 0.5 0.5) (property pad_prop_bga) (layers "F.Cu" "F.Paste" "F.Mask") (tstamp 259dc3ed-6565-4881-9a53-fda8ea81c198))
  (pad "N2" smd circle (at -4 4) (size 0.5 0.5) (property pad_prop_bga) (layers "F.Cu" "F.Paste" "F.Mask") (tstamp 63d1cc2d-b622-49ca-b742-1d93cf8cbbb4))
  (pad "N3" smd circle (at -3 4) (size 0.5 0.5) (property pad_prop_bga) (layers "F.Cu" "F.Paste" "F.Mask") (tstamp a51db5c3-48c3-449e-ba0e-a1b3d0dcec5a))
  (pad "N4" smd circle (at -2 4) (size 0.5 0.5) (property pad_prop_bga) (layers "F.Cu" "F.Paste" "F.Mask") (tstamp d0efa801-4e0b-43cd-8be8-e00c3dcc245c))
  (pad "N5" smd circle (at -1 4) (size 0.5 0.5) (property pad_prop_bga) (layers "F.Cu" "F.Paste" "F.Mask") (tstamp e2114f7a-4933-4827-9453-eed3d12520d1))
  (pad "N7" smd circle (at 1 4) (size 0.5 0.5) (property pad_prop_bga) (layers "F.Cu" "F.Paste" "F.Mask") (tstamp a1c18314-ffcf-4ae6-80c5-aee42dc78b29))
  (pad "N8" smd circle (at 2 4) (size 0.5 0.5) (property pad_prop_bga) (layers "F.Cu" "F.Paste" "F.Mask") (tstamp f6563281-3cc4-456f-9570-eaf14bd89742))
  (pad "N9" smd circle (at 3 4) (size 0.5 0.5) (property pad_prop_bga) (layers "F.Cu" "F.Paste" "F.Mask") (tstamp 88f5e389-eac2-44af-9ba6-3515571b1943))
  (pad "N10" smd circle (at 4 4) (size 0.5 0.5) (property pad_prop_bga) (layers "F.Cu" "F.Paste" "F.Mask") (tstamp 3111d2dc-bb1a-4296-b108-7eb56d123c6d))
  (pad "N11" smd circle (at 5 4) (size 0.5 0.5) (property pad_prop_bga) (layers "F.Cu" "F.Paste" "F.Mask") (tstamp f1b888ce-9044-474e-a632-135087b7439d))
  (pad "P1" smd circle (at -5 5) (size 0.5 0.5) (property pad_prop_bga) (layers "F.Cu" "F.Paste" "F.Mask") (tstamp aa8185ab-7151-4863-b522-322888cbc592))
  (pad "P2" smd circle (at -4 5) (size 0.5 0.5) (property pad_prop_bga) (layers "F.Cu" "F.Paste" "F.Mask") (tstamp 1ebb636c-961d-4d94-8791-59a417e8ed97))
  (pad "P3" smd circle (at -3 5) (size 0.5 0.5) (property pad_prop_bga) (layers "F.Cu" "F.Paste" "F.Mask") (tstamp 60d58c8c-1f55-49f3-b6f5-57432c926772))
  (pad "P4" smd circle (at -2 5) (size 0.5 0.5) (property pad_prop_bga) (layers "F.Cu" "F.Paste" "F.Mask") (tstamp b3beeab5-e259-4b04-9fc6-640752ec882f))
  (pad "P5" smd circle (at -1 5) (size 0.5 0.5) (property pad_prop_bga) (layers "F.Cu" "F.Paste" "F.Mask") (tstamp f5c32ad9-0dda-4ad0-89bb-f5dc3142f0a8))
  (pad "P7" smd circle (at 1 5) (size 0.5 0.5) (property pad_prop_bga) (layers "F.Cu" "F.Paste" "F.Mask") (tstamp 50c0fc37-32e6-478b-8325-f56952f1adcd))
  (pad "P8" smd circle (at 2 5) (size 0.5 0.5) (property pad_prop_bga) (layers "F.Cu" "F.Paste" "F.Mask") (tstamp 36875c1c-6625-4c0f-825b-407b85cbfd9c))
  (pad "P9" smd circle (at 3 5) (size 0.5 0.5) (property pad_prop_bga) (layers "F.Cu" "F.Paste" "F.Mask") (tstamp 43a129f7-3421-4c28-9d21-04869d314520))
  (pad "P10" smd circle (at 4 5) (size 0.5 0.5) (property pad_prop_bga) (layers "F.Cu" "F.Paste" "F.Mask") (tstamp cecafbc7-fec3-45ab-ae42-3674561a1f4f))
  (pad "P11" smd circle (at 5 5) (size 0.5 0.5) (property pad_prop_bga) (layers "F.Cu" "F.Paste" "F.Mask") (tstamp e587b8b7-adbb-4b7d-9601-b3c0b85c3a99))
  (pad "R1" smd circle (at -5 6) (size 0.5 0.5) (property pad_prop_bga) (layers "F.Cu" "F.Paste" "F.Mask") (tstamp 8228876e-01a9-4336-905b-a6875c7b828d))
  (pad "R2" smd circle (at -4 6) (size 0.5 0.5) (property pad_prop_bga) (layers "F.Cu" "F.Paste" "F.Mask") (tstamp e0a547e2-89b5-4825-b030-0017a126e1ed))
  (pad "R3" smd circle (at -3 6) (size 0.5 0.5) (property pad_prop_bga) (layers "F.Cu" "F.Paste" "F.Mask") (tstamp 72fa546c-f4e5-46c6-8216-6c572491953c))
  (pad "R9" smd circle (at 3 6) (size 0.5 0.5) (property pad_prop_bga) (layers "F.Cu" "F.Paste" "F.Mask") (tstamp 355b22d3-b4bf-4707-9f02-2b7ad1c244ca))
  (pad "R10" smd circle (at 4 6) (size 0.5 0.5) (property pad_prop_bga) (layers "F.Cu" "F.Paste" "F.Mask") (tstamp 84a8f35a-b948-467d-9b6a-131963e83c51))
  (pad "R11" smd circle (at 5 6) (size 0.5 0.5) (property pad_prop_bga) (layers "F.Cu" "F.Paste" "F.Mask") (tstamp 8343bbf4-58ad-4a50-981c-5d6ceea9bda7))
  (pad "T1" smd circle (at -5 7) (size 0.5 0.5) (property pad_prop_bga) (layers "F.Cu" "F.Paste" "F.Mask") (tstamp 44c5c43c-481a-479a-84b3-cb7ac9306cbf))
  (pad "T2" smd circle (at -4 7) (size 0.5 0.5) (property pad_prop_bga) (layers "F.Cu" "F.Paste" "F.Mask") (tstamp d9e38a9b-5cf0-4b44-b2c4-ce83cab74a3f))
  (pad "T3" smd circle (at -3 7) (size 0.5 0.5) (property pad_prop_bga) (layers "F.Cu" "F.Paste" "F.Mask") (tstamp 0678fcdf-c6ad-4f28-811b-361e12d0d0dd))
  (pad "T9" smd circle (at 3 7) (size 0.5 0.5) (property pad_prop_bga) (layers "F.Cu" "F.Paste" "F.Mask") (tstamp b5b81868-915d-4e65-b659-30a8016b2008))
  (pad "T10" smd circle (at 4 7) (size 0.5 0.5) (property pad_prop_bga) (layers "F.Cu" "F.Paste" "F.Mask") (tstamp 47313f4b-352b-4fbb-b75b-034957f6ca8f))
  (pad "T11" smd circle (at 5 7) (size 0.5 0.5) (property pad_prop_bga) (layers "F.Cu" "F.Paste" "F.Mask") (tstamp c49338ad-155e-40b6-8707-cf29aeec87a6))
  (pad "U1" smd circle (at -5 8) (size 0.5 0.5) (property pad_prop_bga) (layers "F.Cu" "F.Paste" "F.Mask") (tstamp f9db4edd-eb10-4f13-8ef1-e06b0090a180))
  (pad "U2" smd circle (at -4 8) (size 0.5 0.5) (property pad_prop_bga) (layers "F.Cu" "F.Paste" "F.Mask") (tstamp 0180789a-d239-42d0-a5d4-a82e7b04cb32))
  (pad "U3" smd circle (at -3 8) (size 0.5 0.5) (property pad_prop_bga) (layers "F.Cu" "F.Paste" "F.Mask") (tstamp f1e21127-9c5b-4f69-a038-e529b20a638b))
  (pad "U9" smd circle (at 3 8) (size 0.5 0.5) (property pad_prop_bga) (layers "F.Cu" "F.Paste" "F.Mask") (tstamp 103c0182-3d52-4dcd-854d-c687a3aa4f2e))
  (pad "U10" smd circle (at 4 8) (size 0.5 0.5) (property pad_prop_bga) (layers "F.Cu" "F.Paste" "F.Mask") (tstamp fa35801b-a801-4d03-a537-65c37099e5e2))
  (pad "U11" smd circle (at 5 8) (size 0.5 0.5) (property pad_prop_bga) (layers "F.Cu" "F.Paste" "F.Mask") (tstamp 434b63fa-930e-4c90-8004-823a04469c37))
  (model "${KICAD6_3DMODEL_DIR}/Package_BGA.3dshapes/BGA-132_12x18mm_Layout11x17_P1.0mm.wrl"
    (offset (xyz 0 0 0))
    (scale (xyz 1 1 1))
    (rotate (xyz 0 0 0))
  )
)
