(footprint "BGA-81_4.496x4.377mm_Layout9x9_P0.4mm_Ball0.25mm_Pad0.2mm_NSMD" (version 20211014) (generator pcbnew)
  (layer "F.Cu")
  (tedit 5A2E687B)
  (descr "Altera V81, https://www.altera.com/content/dam/altera-www/global/en_US/pdfs/literature/packaging/04r00478-01.pdf")
  (tags "Altera VBGA V81 BGA-81")
  (attr smd)
  (fp_text reference "REF**" (at 0 -3.1885) (layer "F.SilkS")
    (effects (font (size 1 1) (thickness 0.15)))
    (tstamp 636a8014-544c-4dc1-83b2-406ba96a548f)
  )
  (fp_text value "BGA-81_4.496x4.377mm_Layout9x9_P0.4mm_Ball0.25mm_Pad0.2mm_NSMD" (at 0 3.1885) (layer "F.Fab")
    (effects (font (size 1 1) (thickness 0.15)))
    (tstamp 4f5d55fc-3303-4275-9051-44d4313c5df3)
  )
  (fp_text user "${REFERENCE}" (at 0 0) (layer "F.Fab")
    (effects (font (size 1 1) (thickness 0.15)))
    (tstamp 7f7c50dc-6508-4322-841a-67c340761039)
  )
  (fp_line (start 1.274 -2.3385) (end 2.398 -2.3385) (layer "F.SilkS") (width 0.15) (tstamp 016a8c59-c73c-447b-bf26-d99dce6c6e2c))
  (fp_line (start -2.398 -1.3885) (end -2.398 -1.24425) (layer "F.SilkS") (width 0.15) (tstamp 12fb9ba3-02e8-42ea-8ab0-b90ceb92bab4))
  (fp_line (start 2.398 -2.3385) (end 2.398 -1.24425) (layer "F.SilkS") (width 0.15) (tstamp 19808ffe-9e5b-4cdd-aaa5-a6a9199ec674))
  (fp_line (start 2.398 2.3385) (end 2.398 1.24425) (layer "F.SilkS") (width 0.15) (tstamp 35c0b4ec-bb1a-4f48-a644-85421c6ca2e7))
  (fp_line (start -1.274 2.3385) (end -2.398 2.3385) (layer "F.SilkS") (width 0.15) (tstamp 446ba264-be86-4112-9289-09b7cd5bbd65))
  (fp_line (start 1.274 -2.3385) (end 2.398 -2.3385) (layer "F.SilkS") (width 0.15) (tstamp 549a2176-fbfa-44f4-bbca-df71753aedfc))
  (fp_line (start 2.398 -2.3385) (end 2.398 -1.24425) (layer "F.SilkS") (width 0.15) (tstamp 5c06193b-c12a-4532-82bf-7b137e948064))
  (fp_line (start -1.448 -2.3385) (end -2.398 -1.3885) (layer "F.SilkS") (width 0.15) (tstamp af970153-b4b2-4aeb-a279-4cad749a1164))
  (fp_line (start 2.398 -2.3385) (end 2.398 -1.24425) (layer "F.SilkS") (width 0.15) (tstamp b39bb5a4-6897-448a-86b9-2d91c5106b63))
  (fp_line (start -1.274 -2.3385) (end -1.448 -2.3385) (layer "F.SilkS") (width 0.15) (tstamp c9383d9d-9d69-4fa7-8a5b-d7991cc74373))
  (fp_line (start 1.274 2.3385) (end 2.398 2.3385) (layer "F.SilkS") (width 0.15) (tstamp ca2ed8bb-8a82-4af5-b716-969a0307cd8b))
  (fp_line (start 1.274 -2.3385) (end 2.398 -2.3385) (layer "F.SilkS") (width 0.15) (tstamp eec6bc3a-e17c-4628-834d-601070719ed9))
  (fp_line (start -2.398 2.3385) (end -2.398 1.24425) (layer "F.SilkS") (width 0.15) (tstamp fab5f901-2576-4704-91e1-80fbdce82f25))
  (fp_line (start -2.5 2.45) (end -2.5 -2.45) (layer "F.CrtYd") (width 0.05) (tstamp 24201306-22a5-4ae5-8743-a7ec3d9ba2a5))
  (fp_line (start 2.5 2.45) (end -2.5 2.45) (layer "F.CrtYd") (width 0.05) (tstamp 252b556a-bb83-4a66-a193-21407c5b1f0c))
  (fp_line (start 2.5 -2.45) (end 2.5 2.45) (layer "F.CrtYd") (width 0.05) (tstamp 45e5902a-c621-470d-b99f-2060bdfaa6e7))
  (fp_line (start -2.5 -2.45) (end 2.5 -2.45) (layer "F.CrtYd") (width 0.05) (tstamp 9e51e699-7ed9-4461-95f8-74b6567eab00))
  (fp_line (start -1.448 -2.1885) (end -2.248 -1.3885) (layer "F.Fab") (width 0.15) (tstamp 18c55207-0a28-4fe6-967f-1b4d211cf449))
  (fp_line (start -2.248 2.1885) (end 2.248 2.1885) (layer "F.Fab") (width 0.15) (tstamp 315ee6fa-d161-4fa4-9925-7b2b5d5bc3e1))
  (fp_line (start 2.248 -2.1885) (end -1.448 -2.1885) (layer "F.Fab") (width 0.15) (tstamp 89505e4b-7460-4fb4-bd84-03e5566857d8))
  (fp_line (start -2.248 -1.3885) (end -2.248 2.1885) (layer "F.Fab") (width 0.15) (tstamp 9fb8a038-a18d-44fe-867a-d3e23d5c57b1))
  (fp_line (start 2.248 2.1885) (end 2.248 -2.1885) (layer "F.Fab") (width 0.15) (tstamp c0ec65a0-a5a9-4745-b535-49cf162c7aee))
  (pad "A1" smd circle (at -1.6 -1.6) (size 0.2 0.2) (property pad_prop_bga) (layers "F.Cu" "F.Paste" "F.Mask") (tstamp 26969c97-9cf3-4634-95b7-64468ac85a3b))
  (pad "A2" smd circle (at -1.2 -1.6) (size 0.2 0.2) (property pad_prop_bga) (layers "F.Cu" "F.Paste" "F.Mask") (tstamp 86eb9a5b-6701-43fc-b3cd-3afb9697ff0e))
  (pad "A3" smd circle (at -0.8 -1.6) (size 0.2 0.2) (property pad_prop_bga) (layers "F.Cu" "F.Paste" "F.Mask") (tstamp 96f88849-f95e-496b-80d3-ee88959c387b))
  (pad "A4" smd circle (at -0.4 -1.6) (size 0.2 0.2) (property pad_prop_bga) (layers "F.Cu" "F.Paste" "F.Mask") (tstamp 02f524c3-e534-47c7-b048-5123bcba296d))
  (pad "A5" smd circle (at 0 -1.6) (size 0.2 0.2) (property pad_prop_bga) (layers "F.Cu" "F.Paste" "F.Mask") (tstamp 5183fff2-b2ae-4897-8e84-7b9d18e24dea))
  (pad "A6" smd circle (at 0.4 -1.6) (size 0.2 0.2) (property pad_prop_bga) (layers "F.Cu" "F.Paste" "F.Mask") (tstamp 9c37a479-fdbd-4239-8fe1-9dbb092152b1))
  (pad "A7" smd circle (at 0.8 -1.6) (size 0.2 0.2) (property pad_prop_bga) (layers "F.Cu" "F.Paste" "F.Mask") (tstamp 6abf09e6-dc79-4ddc-b097-d9200aabcb9e))
  (pad "A8" smd circle (at 1.2 -1.6) (size 0.2 0.2) (property pad_prop_bga) (layers "F.Cu" "F.Paste" "F.Mask") (tstamp 55c149eb-a2ab-4407-8d83-5c1819e592b8))
  (pad "A9" smd circle (at 1.6 -1.6) (size 0.2 0.2) (property pad_prop_bga) (layers "F.Cu" "F.Paste" "F.Mask") (tstamp fa503959-3e45-4ff2-a936-c16e95ecb452))
  (pad "B1" smd circle (at -1.6 -1.2) (size 0.2 0.2) (property pad_prop_bga) (layers "F.Cu" "F.Paste" "F.Mask") (tstamp 6f22565f-6efd-4003-bdfc-6d92546000ab))
  (pad "B2" smd circle (at -1.2 -1.2) (size 0.2 0.2) (property pad_prop_bga) (layers "F.Cu" "F.Paste" "F.Mask") (tstamp e90ed390-8728-4c45-a9b2-1df7bb0c435e))
  (pad "B3" smd circle (at -0.8 -1.2) (size 0.2 0.2) (property pad_prop_bga) (layers "F.Cu" "F.Paste" "F.Mask") (tstamp 9e68788a-e2a2-4bde-98f4-662e4d1518e6))
  (pad "B4" smd circle (at -0.4 -1.2) (size 0.2 0.2) (property pad_prop_bga) (layers "F.Cu" "F.Paste" "F.Mask") (tstamp 57faff1b-8f88-4e76-8917-dbd8732a9759))
  (pad "B5" smd circle (at 0 -1.2) (size 0.2 0.2) (property pad_prop_bga) (layers "F.Cu" "F.Paste" "F.Mask") (tstamp a3d01968-ee9c-4da1-913f-d49b6802377c))
  (pad "B6" smd circle (at 0.4 -1.2) (size 0.2 0.2) (property pad_prop_bga) (layers "F.Cu" "F.Paste" "F.Mask") (tstamp 12626599-b491-44a0-aa98-d2787988e959))
  (pad "B7" smd circle (at 0.8 -1.2) (size 0.2 0.2) (property pad_prop_bga) (layers "F.Cu" "F.Paste" "F.Mask") (tstamp 35631aeb-cc08-47c8-a064-3a1c94cbb697))
  (pad "B8" smd circle (at 1.2 -1.2) (size 0.2 0.2) (property pad_prop_bga) (layers "F.Cu" "F.Paste" "F.Mask") (tstamp 6354312c-52cd-4607-9f7d-9baa40997c3a))
  (pad "B9" smd circle (at 1.6 -1.2) (size 0.2 0.2) (property pad_prop_bga) (layers "F.Cu" "F.Paste" "F.Mask") (tstamp 57adde0f-dbad-4347-9ff7-f92beb482564))
  (pad "C1" smd circle (at -1.6 -0.8) (size 0.2 0.2) (property pad_prop_bga) (layers "F.Cu" "F.Paste" "F.Mask") (tstamp a0326962-fe37-412c-bd71-80cea2fa9d88))
  (pad "C2" smd circle (at -1.2 -0.8) (size 0.2 0.2) (property pad_prop_bga) (layers "F.Cu" "F.Paste" "F.Mask") (tstamp 268bd40b-fd63-4f82-8d4c-e3176e89b4a5))
  (pad "C3" smd circle (at -0.8 -0.8) (size 0.2 0.2) (property pad_prop_bga) (layers "F.Cu" "F.Paste" "F.Mask") (tstamp f3ee8f15-d43a-4c56-89ff-43055359004b))
  (pad "C4" smd circle (at -0.4 -0.8) (size 0.2 0.2) (property pad_prop_bga) (layers "F.Cu" "F.Paste" "F.Mask") (tstamp fa577cfe-5c83-496b-b6bd-46c10b190cb8))
  (pad "C5" smd circle (at 0 -0.8) (size 0.2 0.2) (property pad_prop_bga) (layers "F.Cu" "F.Paste" "F.Mask") (tstamp 25860448-66cb-43c9-9c0c-db06de3916a6))
  (pad "C6" smd circle (at 0.4 -0.8) (size 0.2 0.2) (property pad_prop_bga) (layers "F.Cu" "F.Paste" "F.Mask") (tstamp c7d6efb4-ea63-4cf2-bf25-55817d852b70))
  (pad "C7" smd circle (at 0.8 -0.8) (size 0.2 0.2) (property pad_prop_bga) (layers "F.Cu" "F.Paste" "F.Mask") (tstamp c42176d8-e4ac-4ce5-997f-acf095d7c26f))
  (pad "C8" smd circle (at 1.2 -0.8) (size 0.2 0.2) (property pad_prop_bga) (layers "F.Cu" "F.Paste" "F.Mask") (tstamp 71bcf642-cad3-4191-9c51-b3a00ab4435d))
  (pad "C9" smd circle (at 1.6 -0.8) (size 0.2 0.2) (property pad_prop_bga) (layers "F.Cu" "F.Paste" "F.Mask") (tstamp 5ee33947-a0bf-4664-a892-e9816dd19116))
  (pad "D1" smd circle (at -1.6 -0.4) (size 0.2 0.2) (property pad_prop_bga) (layers "F.Cu" "F.Paste" "F.Mask") (tstamp 5141fe71-0fa5-40cc-bb14-4ef6586b4da2))
  (pad "D2" smd circle (at -1.2 -0.4) (size 0.2 0.2) (property pad_prop_bga) (layers "F.Cu" "F.Paste" "F.Mask") (tstamp 89d51163-7931-4fd7-bd00-53c8c6a2eecb))
  (pad "D3" smd circle (at -0.8 -0.4) (size 0.2 0.2) (property pad_prop_bga) (layers "F.Cu" "F.Paste" "F.Mask") (tstamp 754efc58-7b41-40d9-bbc2-6a4d9c3e2289))
  (pad "D4" smd circle (at -0.4 -0.4) (size 0.2 0.2) (property pad_prop_bga) (layers "F.Cu" "F.Paste" "F.Mask") (tstamp 0584fe7a-ed39-41f0-8e09-6c6d3982c2fc))
  (pad "D5" smd circle (at 0 -0.4) (size 0.2 0.2) (property pad_prop_bga) (layers "F.Cu" "F.Paste" "F.Mask") (tstamp 5827e8f5-6ccb-475f-b826-3f5c0e046959))
  (pad "D6" smd circle (at 0.4 -0.4) (size 0.2 0.2) (property pad_prop_bga) (layers "F.Cu" "F.Paste" "F.Mask") (tstamp 02c265ff-1b1f-4fe3-b0b1-80927c72d2e3))
  (pad "D7" smd circle (at 0.8 -0.4) (size 0.2 0.2) (property pad_prop_bga) (layers "F.Cu" "F.Paste" "F.Mask") (tstamp 662988c4-b2c2-4631-9c0b-93d7b10572b3))
  (pad "D8" smd circle (at 1.2 -0.4) (size 0.2 0.2) (property pad_prop_bga) (layers "F.Cu" "F.Paste" "F.Mask") (tstamp ae5aeb90-ec60-45d9-ac60-13bbeb056b58))
  (pad "D9" smd circle (at 1.6 -0.4) (size 0.2 0.2) (property pad_prop_bga) (layers "F.Cu" "F.Paste" "F.Mask") (tstamp 2a291122-a3b3-4999-81e3-658b227ac691))
  (pad "E1" smd circle (at -1.6 0) (size 0.2 0.2) (property pad_prop_bga) (layers "F.Cu" "F.Paste" "F.Mask") (tstamp fd35d9c9-c048-4d4f-b140-c96afe4caa95))
  (pad "E2" smd circle (at -1.2 0) (size 0.2 0.2) (property pad_prop_bga) (layers "F.Cu" "F.Paste" "F.Mask") (tstamp 3f5d50cc-9306-4cda-8018-c3338bb8ae84))
  (pad "E3" smd circle (at -0.8 0) (size 0.2 0.2) (property pad_prop_bga) (layers "F.Cu" "F.Paste" "F.Mask") (tstamp 8ab7d423-3a4f-4f12-849f-425c11799fac))
  (pad "E4" smd circle (at -0.4 0) (size 0.2 0.2) (property pad_prop_bga) (layers "F.Cu" "F.Paste" "F.Mask") (tstamp 343e0784-566c-44d2-850a-a68db7c64496))
  (pad "E5" smd circle (at 0 0) (size 0.2 0.2) (property pad_prop_bga) (layers "F.Cu" "F.Paste" "F.Mask") (tstamp ad3591c4-d0b2-45b9-aa06-b004bc7cc5ee))
  (pad "E6" smd circle (at 0.4 0) (size 0.2 0.2) (property pad_prop_bga) (layers "F.Cu" "F.Paste" "F.Mask") (tstamp ca4f13cd-9640-4dd0-b990-0b2f3957d304))
  (pad "E7" smd circle (at 0.8 0) (size 0.2 0.2) (property pad_prop_bga) (layers "F.Cu" "F.Paste" "F.Mask") (tstamp a424ae66-80ac-46ed-b571-6abbe5e7a135))
  (pad "E8" smd circle (at 1.2 0) (size 0.2 0.2) (property pad_prop_bga) (layers "F.Cu" "F.Paste" "F.Mask") (tstamp 9991b024-b961-48b9-b5a1-486019623370))
  (pad "E9" smd circle (at 1.6 0) (size 0.2 0.2) (property pad_prop_bga) (layers "F.Cu" "F.Paste" "F.Mask") (tstamp 1a085cb1-151a-4557-9936-5d3657de8e57))
  (pad "F1" smd circle (at -1.6 0.4) (size 0.2 0.2) (property pad_prop_bga) (layers "F.Cu" "F.Paste" "F.Mask") (tstamp e9a9165c-4303-4800-8432-eea9828a6b48))
  (pad "F2" smd circle (at -1.2 0.4) (size 0.2 0.2) (property pad_prop_bga) (layers "F.Cu" "F.Paste" "F.Mask") (tstamp 15ef59bb-858e-4ac0-b77e-004319ae6a64))
  (pad "F3" smd circle (at -0.8 0.4) (size 0.2 0.2) (property pad_prop_bga) (layers "F.Cu" "F.Paste" "F.Mask") (tstamp 6e95dd12-5c88-437e-9b51-d02e0abe5478))
  (pad "F4" smd circle (at -0.4 0.4) (size 0.2 0.2) (property pad_prop_bga) (layers "F.Cu" "F.Paste" "F.Mask") (tstamp 4f656fa1-980c-4bbb-9b13-0b776a3b2052))
  (pad "F5" smd circle (at 0 0.4) (size 0.2 0.2) (property pad_prop_bga) (layers "F.Cu" "F.Paste" "F.Mask") (tstamp 4fa95a20-2c6c-4f9d-8112-67c1ee192dd2))
  (pad "F6" smd circle (at 0.4 0.4) (size 0.2 0.2) (property pad_prop_bga) (layers "F.Cu" "F.Paste" "F.Mask") (tstamp 65a26ddf-1909-4f58-a8dc-ef6ac06a3915))
  (pad "F7" smd circle (at 0.8 0.4) (size 0.2 0.2) (property pad_prop_bga) (layers "F.Cu" "F.Paste" "F.Mask") (tstamp ce54f876-634a-41f0-94e4-49ca82653059))
  (pad "F8" smd circle (at 1.2 0.4) (size 0.2 0.2) (property pad_prop_bga) (layers "F.Cu" "F.Paste" "F.Mask") (tstamp 8508aed9-5ff1-49f1-b72f-7b21503abb32))
  (pad "F9" smd circle (at 1.6 0.4) (size 0.2 0.2) (property pad_prop_bga) (layers "F.Cu" "F.Paste" "F.Mask") (tstamp 8bcc5a29-c84c-4f45-a6fe-48b788a37f0a))
  (pad "G1" smd circle (at -1.6 0.8) (size 0.2 0.2) (property pad_prop_bga) (layers "F.Cu" "F.Paste" "F.Mask") (tstamp 279c0dad-e09c-45b2-bb28-de405f9f230a))
  (pad "G2" smd circle (at -1.2 0.8) (size 0.2 0.2) (property pad_prop_bga) (layers "F.Cu" "F.Paste" "F.Mask") (tstamp 606e0cc1-d3fb-4513-8b49-2f8a85124bae))
  (pad "G3" smd circle (at -0.8 0.8) (size 0.2 0.2) (property pad_prop_bga) (layers "F.Cu" "F.Paste" "F.Mask") (tstamp 3a6fcfb4-31c0-47fa-9d65-e5043ca3c8a6))
  (pad "G4" smd circle (at -0.4 0.8) (size 0.2 0.2) (property pad_prop_bga) (layers "F.Cu" "F.Paste" "F.Mask") (tstamp e8f2aa9a-0be0-4e5d-a07b-9b115a366dca))
  (pad "G5" smd circle (at 0 0.8) (size 0.2 0.2) (property pad_prop_bga) (layers "F.Cu" "F.Paste" "F.Mask") (tstamp 5f4b6b9c-be04-40ff-8cab-b4748f31f6b1))
  (pad "G6" smd circle (at 0.4 0.8) (size 0.2 0.2) (property pad_prop_bga) (layers "F.Cu" "F.Paste" "F.Mask") (tstamp dc2772c9-5597-4820-a1f6-1dd6c5175097))
  (pad "G7" smd circle (at 0.8 0.8) (size 0.2 0.2) (property pad_prop_bga) (layers "F.Cu" "F.Paste" "F.Mask") (tstamp 7c254a8b-24ba-4a4c-a0e0-0efb171726e1))
  (pad "G8" smd circle (at 1.2 0.8) (size 0.2 0.2) (property pad_prop_bga) (layers "F.Cu" "F.Paste" "F.Mask") (tstamp 6c5e9ab4-a35b-4bf7-9886-1afd92a3af70))
  (pad "G9" smd circle (at 1.6 0.8) (size 0.2 0.2) (property pad_prop_bga) (layers "F.Cu" "F.Paste" "F.Mask") (tstamp dc184052-48ae-48d0-a1bb-2b2845c3c192))
  (pad "H1" smd circle (at -1.6 1.2) (size 0.2 0.2) (property pad_prop_bga) (layers "F.Cu" "F.Paste" "F.Mask") (tstamp f13c9df6-80c9-4fde-a731-ec395363102d))
  (pad "H2" smd circle (at -1.2 1.2) (size 0.2 0.2) (property pad_prop_bga) (layers "F.Cu" "F.Paste" "F.Mask") (tstamp ed9f286e-cbce-4608-b54f-2ed8ea988698))
  (pad "H3" smd circle (at -0.8 1.2) (size 0.2 0.2) (property pad_prop_bga) (layers "F.Cu" "F.Paste" "F.Mask") (tstamp 37d057e8-c9ef-4f50-906f-aedc247766cf))
  (pad "H4" smd circle (at -0.4 1.2) (size 0.2 0.2) (property pad_prop_bga) (layers "F.Cu" "F.Paste" "F.Mask") (tstamp d61d211d-620c-485b-a14f-e04e2c417b67))
  (pad "H5" smd circle (at 0 1.2) (size 0.2 0.2) (property pad_prop_bga) (layers "F.Cu" "F.Paste" "F.Mask") (tstamp 6dc57f6a-1561-41d0-bd54-9eee96306362))
  (pad "H6" smd circle (at 0.4 1.2) (size 0.2 0.2) (property pad_prop_bga) (layers "F.Cu" "F.Paste" "F.Mask") (tstamp 9529ae1e-0f48-4fe1-b6de-67f14da36dce))
  (pad "H7" smd circle (at 0.8 1.2) (size 0.2 0.2) (property pad_prop_bga) (layers "F.Cu" "F.Paste" "F.Mask") (tstamp 8dfad1c6-09ab-4472-8133-d0cbef3cdad4))
  (pad "H8" smd circle (at 1.2 1.2) (size 0.2 0.2) (property pad_prop_bga) (layers "F.Cu" "F.Paste" "F.Mask") (tstamp 5a78bd69-82bd-47a1-837e-e7619eda51ad))
  (pad "H9" smd circle (at 1.6 1.2) (size 0.2 0.2) (property pad_prop_bga) (layers "F.Cu" "F.Paste" "F.Mask") (tstamp 6b963f14-bb21-4b04-b3b0-175bd5449e8f))
  (pad "J1" smd circle (at -1.6 1.6) (size 0.2 0.2) (property pad_prop_bga) (layers "F.Cu" "F.Paste" "F.Mask") (tstamp f3229a1a-50ed-43d8-b626-5cee92c8220f))
  (pad "J2" smd circle (at -1.2 1.6) (size 0.2 0.2) (property pad_prop_bga) (layers "F.Cu" "F.Paste" "F.Mask") (tstamp 6ba7f689-9322-4d08-8fcd-d9a0fa5736b7))
  (pad "J3" smd circle (at -0.8 1.6) (size 0.2 0.2) (property pad_prop_bga) (layers "F.Cu" "F.Paste" "F.Mask") (tstamp e6a75ea0-8a7b-4aa1-86a4-022bd3263456))
  (pad "J4" smd circle (at -0.4 1.6) (size 0.2 0.2) (property pad_prop_bga) (layers "F.Cu" "F.Paste" "F.Mask") (tstamp 64a71be0-71a8-497a-9025-3c98eb212dea))
  (pad "J5" smd circle (at 0 1.6) (size 0.2 0.2) (property pad_prop_bga) (layers "F.Cu" "F.Paste" "F.Mask") (tstamp 4a98b877-4511-44f7-b387-c5828bae8302))
  (pad "J6" smd circle (at 0.4 1.6) (size 0.2 0.2) (property pad_prop_bga) (layers "F.Cu" "F.Paste" "F.Mask") (tstamp ae36cdd1-95cc-45ac-822d-0d429f36776d))
  (pad "J7" smd circle (at 0.8 1.6) (size 0.2 0.2) (property pad_prop_bga) (layers "F.Cu" "F.Paste" "F.Mask") (tstamp cbaab6d1-dd69-445f-aea9-27a3bd28f735))
  (pad "J8" smd circle (at 1.2 1.6) (size 0.2 0.2) (property pad_prop_bga) (layers "F.Cu" "F.Paste" "F.Mask") (tstamp b19afde3-6de3-4e2d-a2c0-9af30ff6d655))
  (pad "J9" smd circle (at 1.6 1.6) (size 0.2 0.2) (property pad_prop_bga) (layers "F.Cu" "F.Paste" "F.Mask") (tstamp 5f089496-7d26-410a-bccf-50e201f72cac))
  (model "${KICAD6_3DMODEL_DIR}/Package_BGA.3dshapes/BGA-81_4.496x4.377mm_Layout9x9_P0.4mm_Ball0.25mm_Pad0.2mm_NSMD.wrl"
    (offset (xyz 0 0 0))
    (scale (xyz 1 1 1))
    (rotate (xyz 0 0 0))
  )
)
