(footprint "BGA-484_23.0x23.0mm_Layout22x22_P1.0mm" (version 20211014) (generator pcbnew)
  (layer "F.Cu")
  (tedit 5A058D74)
  (descr "BGA-484, https://www.xilinx.com/support/documentation/package_specs/fg484.pdf")
  (tags "BGA-484")
  (attr smd)
  (fp_text reference "REF**" (at 0 -12.7) (layer "F.SilkS")
    (effects (font (size 1 1) (thickness 0.15)))
    (tstamp 6e69a7ae-b998-4bed-b229-3dd4aef8d12c)
  )
  (fp_text value "BGA-484_23.0x23.0mm_Layout22x22_P1.0mm" (at 0 12.7) (layer "F.Fab")
    (effects (font (size 1 1) (thickness 0.15)))
    (tstamp 1a087347-c9a2-454e-870e-c1168bd29779)
  )
  (fp_text user "${REFERENCE}" (at 0 0) (layer "F.Fab")
    (effects (font (size 1 1) (thickness 0.15)))
    (tstamp ad878f55-689f-40d2-8578-d7691a5d975a)
  )
  (fp_line (start 11.6 11.6) (end -11.6 11.6) (layer "F.SilkS") (width 0.12) (tstamp 0106212f-53a2-4697-bc47-4709b75353f3))
  (fp_line (start -11.8 -11.8) (end -11.8 -10.6) (layer "F.SilkS") (width 0.12) (tstamp 1e41c5f6-2410-4261-9ff0-173699d86feb))
  (fp_line (start -10.6 -11.8) (end -11.8 -11.8) (layer "F.SilkS") (width 0.12) (tstamp 1ffc2e0e-07c7-4210-af8b-893cea8caaed))
  (fp_line (start -11.6 11.6) (end -11.6 -11.6) (layer "F.SilkS") (width 0.12) (tstamp 56a8bcf3-89e9-4b8d-856f-f1c921bf9fb5))
  (fp_line (start -11.6 -11.6) (end 11.6 -11.6) (layer "F.SilkS") (width 0.12) (tstamp caea5fd2-f5bb-4127-bd69-9cc6de23c662))
  (fp_line (start 11.6 -11.6) (end 11.6 11.6) (layer "F.SilkS") (width 0.12) (tstamp f9174a5c-5842-4d9d-8ae8-595203027184))
  (fp_line (start 12.5 12.5) (end -12.5 12.5) (layer "F.CrtYd") (width 0.05) (tstamp 98c5ed7c-72ab-42c7-a8c2-263dd384b10c))
  (fp_line (start -12.5 -12.5) (end -12.5 12.5) (layer "F.CrtYd") (width 0.05) (tstamp b896e539-9b58-42aa-ab63-00f546a4fe95))
  (fp_line (start -12.5 -12.5) (end 12.5 -12.5) (layer "F.CrtYd") (width 0.05) (tstamp cb10efca-f4c0-4ea8-80cc-ce3e3b01ffd9))
  (fp_line (start 12.5 12.5) (end 12.5 -12.5) (layer "F.CrtYd") (width 0.05) (tstamp e1894d59-bbcf-4488-a758-c4f0dfc269f8))
  (fp_line (start -11.5 11.5) (end -11.5 -10.5) (layer "F.Fab") (width 0.1) (tstamp 0509b894-0960-4a92-967c-f08a71e5c07b))
  (fp_line (start 11.5 11.5) (end -11.5 11.5) (layer "F.Fab") (width 0.1) (tstamp c04c77b6-cc92-4e6c-9e0a-6dc8b55a3568))
  (fp_line (start -10.5 -11.5) (end -11.5 -10.5) (layer "F.Fab") (width 0.1) (tstamp cd5bc634-7d63-4197-8cda-b1b3ec1d2926))
  (fp_line (start -11.5 -10.5) (end -11.5 -10.5) (layer "F.Fab") (width 0.12) (tstamp d0fe2c37-0c74-43b2-ade3-a2b297e1a400))
  (fp_line (start 11.5 -11.5) (end 11.5 11.5) (layer "F.Fab") (width 0.1) (tstamp f11b8056-785b-4d1e-bca4-69c0e17a0bc5))
  (fp_line (start -10.5 -11.5) (end 11.5 -11.5) (layer "F.Fab") (width 0.1) (tstamp f7037369-3aa1-49cd-a5aa-4641ef7fe104))
  (pad "A1" smd circle (at -10.5 -10.5) (size 0.5 0.5) (property pad_prop_bga) (layers "F.Cu" "F.Paste" "F.Mask") (tstamp 3a4a33f5-1387-46f9-84d1-a9de7f11cd35))
  (pad "A2" smd circle (at -9.5 -10.5) (size 0.5 0.5) (property pad_prop_bga) (layers "F.Cu" "F.Paste" "F.Mask") (tstamp b0de1137-f12e-4070-9f99-a6fef28c465b))
  (pad "A3" smd circle (at -8.5 -10.5) (size 0.5 0.5) (property pad_prop_bga) (layers "F.Cu" "F.Paste" "F.Mask") (tstamp 4dd50f8e-057d-4d36-9367-e1d46e91f580))
  (pad "A4" smd circle (at -7.5 -10.5) (size 0.5 0.5) (property pad_prop_bga) (layers "F.Cu" "F.Paste" "F.Mask") (tstamp f2ca7f04-c4c9-493b-a400-3999189f8fe7))
  (pad "A5" smd circle (at -6.5 -10.5) (size 0.5 0.5) (property pad_prop_bga) (layers "F.Cu" "F.Paste" "F.Mask") (tstamp ad8b18cd-7e52-41cf-8dd5-ed366f6ca1db))
  (pad "A6" smd circle (at -5.5 -10.5) (size 0.5 0.5) (property pad_prop_bga) (layers "F.Cu" "F.Paste" "F.Mask") (tstamp 9ce54495-69d5-4ad5-abc4-df75bde4de46))
  (pad "A7" smd circle (at -4.5 -10.5) (size 0.5 0.5) (property pad_prop_bga) (layers "F.Cu" "F.Paste" "F.Mask") (tstamp 605b9434-bfdb-4ba0-bd87-8cf232c88a26))
  (pad "A8" smd circle (at -3.5 -10.5) (size 0.5 0.5) (property pad_prop_bga) (layers "F.Cu" "F.Paste" "F.Mask") (tstamp 7e9a1f27-6d09-4ffc-bf9a-978ee555a7d9))
  (pad "A9" smd circle (at -2.5 -10.5) (size 0.5 0.5) (property pad_prop_bga) (layers "F.Cu" "F.Paste" "F.Mask") (tstamp ac522a5b-826a-4150-a564-a2a271a9ca8d))
  (pad "A10" smd circle (at -1.5 -10.5) (size 0.5 0.5) (property pad_prop_bga) (layers "F.Cu" "F.Paste" "F.Mask") (tstamp ea33c0d8-4ef4-4cb0-9e7f-8b6de797af68))
  (pad "A11" smd circle (at -0.5 -10.5) (size 0.5 0.5) (property pad_prop_bga) (layers "F.Cu" "F.Paste" "F.Mask") (tstamp 52048a05-5b54-414b-91ca-12df31a0c8d2))
  (pad "A12" smd circle (at 0.5 -10.5) (size 0.5 0.5) (property pad_prop_bga) (layers "F.Cu" "F.Paste" "F.Mask") (tstamp 617e1279-c673-43b4-8de4-46660560cbd9))
  (pad "A13" smd circle (at 1.5 -10.5) (size 0.5 0.5) (property pad_prop_bga) (layers "F.Cu" "F.Paste" "F.Mask") (tstamp ec2a0fb5-f7a2-48b5-b0c8-02ab25f0085e))
  (pad "A14" smd circle (at 2.5 -10.5) (size 0.5 0.5) (property pad_prop_bga) (layers "F.Cu" "F.Paste" "F.Mask") (tstamp abd422c0-ba59-4c3c-a56b-cb9b3c6eaf36))
  (pad "A15" smd circle (at 3.5 -10.5) (size 0.5 0.5) (property pad_prop_bga) (layers "F.Cu" "F.Paste" "F.Mask") (tstamp a9fefe19-6622-477d-80bc-c3088e4b9189))
  (pad "A16" smd circle (at 4.5 -10.5) (size 0.5 0.5) (property pad_prop_bga) (layers "F.Cu" "F.Paste" "F.Mask") (tstamp f7049dbc-2951-444f-a052-0db326634f29))
  (pad "A17" smd circle (at 5.5 -10.5) (size 0.5 0.5) (property pad_prop_bga) (layers "F.Cu" "F.Paste" "F.Mask") (tstamp a43505e8-e9b3-454a-bb13-df3d6380e989))
  (pad "A18" smd circle (at 6.5 -10.5) (size 0.5 0.5) (property pad_prop_bga) (layers "F.Cu" "F.Paste" "F.Mask") (tstamp d8048825-d792-45d2-964c-b88437cdbd87))
  (pad "A19" smd circle (at 7.5 -10.5) (size 0.5 0.5) (property pad_prop_bga) (layers "F.Cu" "F.Paste" "F.Mask") (tstamp cf559eec-19e6-4f44-8b71-91648a62eb63))
  (pad "A20" smd circle (at 8.5 -10.5) (size 0.5 0.5) (property pad_prop_bga) (layers "F.Cu" "F.Paste" "F.Mask") (tstamp 46c677f7-686a-4ef8-a89e-8b2af1dada73))
  (pad "A21" smd circle (at 9.5 -10.5) (size 0.5 0.5) (property pad_prop_bga) (layers "F.Cu" "F.Paste" "F.Mask") (tstamp 1dceb82c-e0fb-47a7-b8c2-d6c530d36de0))
  (pad "A22" smd circle (at 10.5 -10.5) (size 0.5 0.5) (property pad_prop_bga) (layers "F.Cu" "F.Paste" "F.Mask") (tstamp f4799d9d-ffaa-4212-9d9d-3293dc3a5b63))
  (pad "AA1" smd circle (at -10.5 9.5) (size 0.5 0.5) (property pad_prop_bga) (layers "F.Cu" "F.Paste" "F.Mask") (tstamp 0855f950-440a-462b-bc04-313a7251c571))
  (pad "AA2" smd circle (at -9.5 9.5) (size 0.5 0.5) (property pad_prop_bga) (layers "F.Cu" "F.Paste" "F.Mask") (tstamp d610017e-1294-4843-820d-49751bdb81a4))
  (pad "AA3" smd circle (at -8.5 9.5) (size 0.5 0.5) (property pad_prop_bga) (layers "F.Cu" "F.Paste" "F.Mask") (tstamp 60b9a691-a1bf-4506-a410-9656d2a4be44))
  (pad "AA4" smd circle (at -7.5 9.5) (size 0.5 0.5) (property pad_prop_bga) (layers "F.Cu" "F.Paste" "F.Mask") (tstamp 21ba246f-fd25-4624-9a97-a3ec4f1fdcb9))
  (pad "AA5" smd circle (at -6.5 9.5) (size 0.5 0.5) (property pad_prop_bga) (layers "F.Cu" "F.Paste" "F.Mask") (tstamp de42fb10-e55e-4f6e-aef3-b2053edd27e0))
  (pad "AA6" smd circle (at -5.5 9.5) (size 0.5 0.5) (property pad_prop_bga) (layers "F.Cu" "F.Paste" "F.Mask") (tstamp c4cd193c-8efd-4c72-bdd5-c7f9a3383a50))
  (pad "AA7" smd circle (at -4.5 9.5) (size 0.5 0.5) (property pad_prop_bga) (layers "F.Cu" "F.Paste" "F.Mask") (tstamp bcd707b3-0581-4543-82cc-f5dbc0afeaa6))
  (pad "AA8" smd circle (at -3.5 9.5) (size 0.5 0.5) (property pad_prop_bga) (layers "F.Cu" "F.Paste" "F.Mask") (tstamp 37e6f34e-baaf-4f60-8b89-ae57a5689a57))
  (pad "AA9" smd circle (at -2.5 9.5) (size 0.5 0.5) (property pad_prop_bga) (layers "F.Cu" "F.Paste" "F.Mask") (tstamp 2b4f2abe-19ec-4219-872a-77c38a44f1e8))
  (pad "AA10" smd circle (at -1.5 9.5) (size 0.5 0.5) (property pad_prop_bga) (layers "F.Cu" "F.Paste" "F.Mask") (tstamp 611cecbd-1716-49a9-ad08-669bae8f8e66))
  (pad "AA11" smd circle (at -0.5 9.5) (size 0.5 0.5) (property pad_prop_bga) (layers "F.Cu" "F.Paste" "F.Mask") (tstamp 2d5e0332-2d88-48e4-afd0-88727f422a0b))
  (pad "AA12" smd circle (at 0.5 9.5) (size 0.5 0.5) (property pad_prop_bga) (layers "F.Cu" "F.Paste" "F.Mask") (tstamp cc042a26-3149-4d01-b961-39000c63e7a2))
  (pad "AA13" smd circle (at 1.5 9.5) (size 0.5 0.5) (property pad_prop_bga) (layers "F.Cu" "F.Paste" "F.Mask") (tstamp a3641b80-142f-48e2-a932-fd261cd85d7f))
  (pad "AA14" smd circle (at 2.5 9.5) (size 0.5 0.5) (property pad_prop_bga) (layers "F.Cu" "F.Paste" "F.Mask") (tstamp 6e538501-fb2e-4daf-b34c-7dbcad8a0365))
  (pad "AA15" smd circle (at 3.5 9.5) (size 0.5 0.5) (property pad_prop_bga) (layers "F.Cu" "F.Paste" "F.Mask") (tstamp 0262ed27-b9bc-4375-8edf-0aa4d6436e61))
  (pad "AA16" smd circle (at 4.5 9.5) (size 0.5 0.5) (property pad_prop_bga) (layers "F.Cu" "F.Paste" "F.Mask") (tstamp a990cbfd-932b-4722-9dc9-6a5def9bea2c))
  (pad "AA17" smd circle (at 5.5 9.5) (size 0.5 0.5) (property pad_prop_bga) (layers "F.Cu" "F.Paste" "F.Mask") (tstamp 228c7aed-ff38-48bd-853f-4a1b30e5619d))
  (pad "AA18" smd circle (at 6.5 9.5) (size 0.5 0.5) (property pad_prop_bga) (layers "F.Cu" "F.Paste" "F.Mask") (tstamp eef3b54c-c6e4-44ad-b1cb-6a358f951047))
  (pad "AA19" smd circle (at 7.5 9.5) (size 0.5 0.5) (property pad_prop_bga) (layers "F.Cu" "F.Paste" "F.Mask") (tstamp 98be7839-48d8-4169-9471-a535d8a910e6))
  (pad "AA20" smd circle (at 8.5 9.5) (size 0.5 0.5) (property pad_prop_bga) (layers "F.Cu" "F.Paste" "F.Mask") (tstamp db95331a-faa4-4328-bb69-68610c5ff12b))
  (pad "AA21" smd circle (at 9.5 9.5) (size 0.5 0.5) (property pad_prop_bga) (layers "F.Cu" "F.Paste" "F.Mask") (tstamp 5bb1ee35-9f0c-4a27-8eea-0b13a9282e40))
  (pad "AA22" smd circle (at 10.5 9.5) (size 0.5 0.5) (property pad_prop_bga) (layers "F.Cu" "F.Paste" "F.Mask") (tstamp 7cced828-311f-4f03-b8b6-5dfff6d1a66e))
  (pad "AB1" smd circle (at -10.5 10.5) (size 0.5 0.5) (property pad_prop_bga) (layers "F.Cu" "F.Paste" "F.Mask") (tstamp 9e78e2f6-6f60-4c55-b4e8-854f86f9b997))
  (pad "AB2" smd circle (at -9.5 10.5) (size 0.5 0.5) (property pad_prop_bga) (layers "F.Cu" "F.Paste" "F.Mask") (tstamp 4137a7b4-316a-4a32-beb2-7e0e89a2ddd7))
  (pad "AB3" smd circle (at -8.5 10.5) (size 0.5 0.5) (property pad_prop_bga) (layers "F.Cu" "F.Paste" "F.Mask") (tstamp b971fbbf-3dc2-42d2-a2da-832cb62864e6))
  (pad "AB4" smd circle (at -7.5 10.5) (size 0.5 0.5) (property pad_prop_bga) (layers "F.Cu" "F.Paste" "F.Mask") (tstamp f8568e48-19d0-4756-b23e-1a393e55b105))
  (pad "AB5" smd circle (at -6.5 10.5) (size 0.5 0.5) (property pad_prop_bga) (layers "F.Cu" "F.Paste" "F.Mask") (tstamp 9b5ff725-452f-4c3e-9d43-3195710eb457))
  (pad "AB6" smd circle (at -5.5 10.5) (size 0.5 0.5) (property pad_prop_bga) (layers "F.Cu" "F.Paste" "F.Mask") (tstamp e9852b37-2fc5-4b02-91a3-23b522b02e0a))
  (pad "AB7" smd circle (at -4.5 10.5) (size 0.5 0.5) (property pad_prop_bga) (layers "F.Cu" "F.Paste" "F.Mask") (tstamp 63325ad7-ab5f-4769-a853-d9dd236eb3fc))
  (pad "AB8" smd circle (at -3.5 10.5) (size 0.5 0.5) (property pad_prop_bga) (layers "F.Cu" "F.Paste" "F.Mask") (tstamp 851d4de3-b0e9-48de-baef-016723adff12))
  (pad "AB9" smd circle (at -2.5 10.5) (size 0.5 0.5) (property pad_prop_bga) (layers "F.Cu" "F.Paste" "F.Mask") (tstamp da6c39ba-4da5-404a-bc9c-220971be977d))
  (pad "AB10" smd circle (at -1.5 10.5) (size 0.5 0.5) (property pad_prop_bga) (layers "F.Cu" "F.Paste" "F.Mask") (tstamp 12fa7fa5-54fb-490e-9652-141ce44815f8))
  (pad "AB11" smd circle (at -0.5 10.5) (size 0.5 0.5) (property pad_prop_bga) (layers "F.Cu" "F.Paste" "F.Mask") (tstamp 0e0916ff-367b-4a36-a34c-332cfd2feb70))
  (pad "AB12" smd circle (at 0.5 10.5) (size 0.5 0.5) (property pad_prop_bga) (layers "F.Cu" "F.Paste" "F.Mask") (tstamp 1b0cbb31-6bdc-497d-ba14-7c12c0041d55))
  (pad "AB13" smd circle (at 1.5 10.5) (size 0.5 0.5) (property pad_prop_bga) (layers "F.Cu" "F.Paste" "F.Mask") (tstamp 9af69ddd-c599-4d4d-b636-44cf74de39cc))
  (pad "AB14" smd circle (at 2.5 10.5) (size 0.5 0.5) (property pad_prop_bga) (layers "F.Cu" "F.Paste" "F.Mask") (tstamp e230fe6c-9073-43c7-a673-57275e3c9c59))
  (pad "AB15" smd circle (at 3.5 10.5) (size 0.5 0.5) (property pad_prop_bga) (layers "F.Cu" "F.Paste" "F.Mask") (tstamp 610d1123-a2df-4461-b0b0-c1786efe3391))
  (pad "AB16" smd circle (at 4.5 10.5) (size 0.5 0.5) (property pad_prop_bga) (layers "F.Cu" "F.Paste" "F.Mask") (tstamp ee168416-650b-4df0-b419-19b482b40812))
  (pad "AB17" smd circle (at 5.5 10.5) (size 0.5 0.5) (property pad_prop_bga) (layers "F.Cu" "F.Paste" "F.Mask") (tstamp 33535aa5-a295-45e7-b242-263f217977d9))
  (pad "AB18" smd circle (at 6.5 10.5) (size 0.5 0.5) (property pad_prop_bga) (layers "F.Cu" "F.Paste" "F.Mask") (tstamp 01bbb805-4c97-4b07-8b13-eedee0604d75))
  (pad "AB19" smd circle (at 7.5 10.5) (size 0.5 0.5) (property pad_prop_bga) (layers "F.Cu" "F.Paste" "F.Mask") (tstamp 15e2d54d-b206-4ad5-ae9e-e87d630aa174))
  (pad "AB20" smd circle (at 8.5 10.5) (size 0.5 0.5) (property pad_prop_bga) (layers "F.Cu" "F.Paste" "F.Mask") (tstamp ca95c0c0-538f-4a2b-8489-21ed043aeaab))
  (pad "AB21" smd circle (at 9.5 10.5) (size 0.5 0.5) (property pad_prop_bga) (layers "F.Cu" "F.Paste" "F.Mask") (tstamp 4618188d-021d-4659-9adb-ff004035e728))
  (pad "AB22" smd circle (at 10.5 10.5) (size 0.5 0.5) (property pad_prop_bga) (layers "F.Cu" "F.Paste" "F.Mask") (tstamp 885335a0-c486-4913-a9fa-727a9ad1eac7))
  (pad "B1" smd circle (at -10.5 -9.5) (size 0.5 0.5) (property pad_prop_bga) (layers "F.Cu" "F.Paste" "F.Mask") (tstamp c168b81c-2710-42a3-beb1-6a8d4b6edce5))
  (pad "B2" smd circle (at -9.5 -9.5) (size 0.5 0.5) (property pad_prop_bga) (layers "F.Cu" "F.Paste" "F.Mask") (tstamp 13a54730-a8ff-4d59-b4b3-93c059687f74))
  (pad "B3" smd circle (at -8.5 -9.5) (size 0.5 0.5) (property pad_prop_bga) (layers "F.Cu" "F.Paste" "F.Mask") (tstamp 68adc0ca-c30c-40e3-9015-c5e07a70b702))
  (pad "B4" smd circle (at -7.5 -9.5) (size 0.5 0.5) (property pad_prop_bga) (layers "F.Cu" "F.Paste" "F.Mask") (tstamp a3a580f3-c342-4b5e-8504-cb7fdbaf1f32))
  (pad "B5" smd circle (at -6.5 -9.5) (size 0.5 0.5) (property pad_prop_bga) (layers "F.Cu" "F.Paste" "F.Mask") (tstamp 72d9f81a-181c-4842-a071-342bdb29e335))
  (pad "B6" smd circle (at -5.5 -9.5) (size 0.5 0.5) (property pad_prop_bga) (layers "F.Cu" "F.Paste" "F.Mask") (tstamp 3543c163-d4f9-41b2-840e-25163c244513))
  (pad "B7" smd circle (at -4.5 -9.5) (size 0.5 0.5) (property pad_prop_bga) (layers "F.Cu" "F.Paste" "F.Mask") (tstamp 8a6c84ca-bc7f-4f0e-8709-f70754ecd800))
  (pad "B8" smd circle (at -3.5 -9.5) (size 0.5 0.5) (property pad_prop_bga) (layers "F.Cu" "F.Paste" "F.Mask") (tstamp 913c17d4-5d99-42f4-b943-db4f0e057ec9))
  (pad "B9" smd circle (at -2.5 -9.5) (size 0.5 0.5) (property pad_prop_bga) (layers "F.Cu" "F.Paste" "F.Mask") (tstamp 3186ba7f-860d-4283-882f-fa50270d7488))
  (pad "B10" smd circle (at -1.5 -9.5) (size 0.5 0.5) (property pad_prop_bga) (layers "F.Cu" "F.Paste" "F.Mask") (tstamp 00190a70-9e3c-4b3a-81db-016024c56179))
  (pad "B11" smd circle (at -0.5 -9.5) (size 0.5 0.5) (property pad_prop_bga) (layers "F.Cu" "F.Paste" "F.Mask") (tstamp 83a09c8e-5323-485a-9860-da1097878ad1))
  (pad "B12" smd circle (at 0.5 -9.5) (size 0.5 0.5) (property pad_prop_bga) (layers "F.Cu" "F.Paste" "F.Mask") (tstamp 7bbdcf4e-677f-450c-a99d-8a2680b94721))
  (pad "B13" smd circle (at 1.5 -9.5) (size 0.5 0.5) (property pad_prop_bga) (layers "F.Cu" "F.Paste" "F.Mask") (tstamp 525ed202-47ed-430d-b45a-a47e87b84904))
  (pad "B14" smd circle (at 2.5 -9.5) (size 0.5 0.5) (property pad_prop_bga) (layers "F.Cu" "F.Paste" "F.Mask") (tstamp 014d0aa3-35b8-4d5a-9beb-53bd6227e722))
  (pad "B15" smd circle (at 3.5 -9.5) (size 0.5 0.5) (property pad_prop_bga) (layers "F.Cu" "F.Paste" "F.Mask") (tstamp 2403a549-a319-44c0-91ca-191ba5243e9b))
  (pad "B16" smd circle (at 4.5 -9.5) (size 0.5 0.5) (property pad_prop_bga) (layers "F.Cu" "F.Paste" "F.Mask") (tstamp e41c7122-a2e9-4b45-a566-21255cbb9815))
  (pad "B17" smd circle (at 5.5 -9.5) (size 0.5 0.5) (property pad_prop_bga) (layers "F.Cu" "F.Paste" "F.Mask") (tstamp f1a422b5-a90f-49ff-b80a-2181ced93891))
  (pad "B18" smd circle (at 6.5 -9.5) (size 0.5 0.5) (property pad_prop_bga) (layers "F.Cu" "F.Paste" "F.Mask") (tstamp 8a99dfed-98b4-4c02-a6e4-ba4dc9271fa7))
  (pad "B19" smd circle (at 7.5 -9.5) (size 0.5 0.5) (property pad_prop_bga) (layers "F.Cu" "F.Paste" "F.Mask") (tstamp 224ca6fc-aa18-418d-8d62-3da6690087f5))
  (pad "B20" smd circle (at 8.5 -9.5) (size 0.5 0.5) (property pad_prop_bga) (layers "F.Cu" "F.Paste" "F.Mask") (tstamp d3f975ab-97dc-49b5-83f1-83ccfaf2e553))
  (pad "B21" smd circle (at 9.5 -9.5) (size 0.5 0.5) (property pad_prop_bga) (layers "F.Cu" "F.Paste" "F.Mask") (tstamp 52451998-d007-42d4-86d7-3728b1ae299a))
  (pad "B22" smd circle (at 10.5 -9.5) (size 0.5 0.5) (property pad_prop_bga) (layers "F.Cu" "F.Paste" "F.Mask") (tstamp 0e7da213-70dd-4b97-a8a6-07964bf89084))
  (pad "C1" smd circle (at -10.5 -8.5) (size 0.5 0.5) (property pad_prop_bga) (layers "F.Cu" "F.Paste" "F.Mask") (tstamp 06c97140-6a55-41a4-9062-480506e2601b))
  (pad "C2" smd circle (at -9.5 -8.5) (size 0.5 0.5) (property pad_prop_bga) (layers "F.Cu" "F.Paste" "F.Mask") (tstamp a2c2a9a6-f336-4278-b87e-f10288e379bb))
  (pad "C3" smd circle (at -8.5 -8.5) (size 0.5 0.5) (property pad_prop_bga) (layers "F.Cu" "F.Paste" "F.Mask") (tstamp 9d888076-4938-4ec2-a446-7ab942d313e3))
  (pad "C4" smd circle (at -7.5 -8.5) (size 0.5 0.5) (property pad_prop_bga) (layers "F.Cu" "F.Paste" "F.Mask") (tstamp 8cfe3cb9-8b16-4b59-bbf9-1ffb810043fa))
  (pad "C5" smd circle (at -6.5 -8.5) (size 0.5 0.5) (property pad_prop_bga) (layers "F.Cu" "F.Paste" "F.Mask") (tstamp f31fc9dc-c3ae-4462-b5f2-218587cdfb1f))
  (pad "C6" smd circle (at -5.5 -8.5) (size 0.5 0.5) (property pad_prop_bga) (layers "F.Cu" "F.Paste" "F.Mask") (tstamp 101a9371-65c4-4d32-9276-d56dc33547fb))
  (pad "C7" smd circle (at -4.5 -8.5) (size 0.5 0.5) (property pad_prop_bga) (layers "F.Cu" "F.Paste" "F.Mask") (tstamp 1b14e62a-539a-4f9c-bd44-87895db7faf5))
  (pad "C8" smd circle (at -3.5 -8.5) (size 0.5 0.5) (property pad_prop_bga) (layers "F.Cu" "F.Paste" "F.Mask") (tstamp c04ebbf4-58fd-47b5-a819-b6c564c21bbd))
  (pad "C9" smd circle (at -2.5 -8.5) (size 0.5 0.5) (property pad_prop_bga) (layers "F.Cu" "F.Paste" "F.Mask") (tstamp 917f7b92-0b1a-4b6c-8c94-1c7a00cc39d3))
  (pad "C10" smd circle (at -1.5 -8.5) (size 0.5 0.5) (property pad_prop_bga) (layers "F.Cu" "F.Paste" "F.Mask") (tstamp c0190ca2-a21c-4ab7-845a-a6453272fee7))
  (pad "C11" smd circle (at -0.5 -8.5) (size 0.5 0.5) (property pad_prop_bga) (layers "F.Cu" "F.Paste" "F.Mask") (tstamp afaadb3d-8714-4ea5-aeca-007ce907ac82))
  (pad "C12" smd circle (at 0.5 -8.5) (size 0.5 0.5) (property pad_prop_bga) (layers "F.Cu" "F.Paste" "F.Mask") (tstamp d41737fe-5b0b-4863-8ad1-7a1b1a2ec0f9))
  (pad "C13" smd circle (at 1.5 -8.5) (size 0.5 0.5) (property pad_prop_bga) (layers "F.Cu" "F.Paste" "F.Mask") (tstamp 157d00c7-5b73-4869-baa0-f21c1050d76c))
  (pad "C14" smd circle (at 2.5 -8.5) (size 0.5 0.5) (property pad_prop_bga) (layers "F.Cu" "F.Paste" "F.Mask") (tstamp 19e8f7ba-1c4d-49f6-a39b-61668e0651dc))
  (pad "C15" smd circle (at 3.5 -8.5) (size 0.5 0.5) (property pad_prop_bga) (layers "F.Cu" "F.Paste" "F.Mask") (tstamp 0eb50b74-a1fa-4a2a-9789-23f4e0f26837))
  (pad "C16" smd circle (at 4.5 -8.5) (size 0.5 0.5) (property pad_prop_bga) (layers "F.Cu" "F.Paste" "F.Mask") (tstamp e94f3965-4868-44d5-b3d1-dc4da95cad8b))
  (pad "C17" smd circle (at 5.5 -8.5) (size 0.5 0.5) (property pad_prop_bga) (layers "F.Cu" "F.Paste" "F.Mask") (tstamp 6e3c2254-8a92-499a-85a7-d56844cf274c))
  (pad "C18" smd circle (at 6.5 -8.5) (size 0.5 0.5) (property pad_prop_bga) (layers "F.Cu" "F.Paste" "F.Mask") (tstamp 7fa27e41-4d38-4467-a63d-18f11b2432d2))
  (pad "C19" smd circle (at 7.5 -8.5) (size 0.5 0.5) (property pad_prop_bga) (layers "F.Cu" "F.Paste" "F.Mask") (tstamp cedd2cda-0d12-4d40-93b0-fcf95ed0da9e))
  (pad "C20" smd circle (at 8.5 -8.5) (size 0.5 0.5) (property pad_prop_bga) (layers "F.Cu" "F.Paste" "F.Mask") (tstamp a9aad2ab-f7ae-493d-a748-30ed92505b5d))
  (pad "C21" smd circle (at 9.5 -8.5) (size 0.5 0.5) (property pad_prop_bga) (layers "F.Cu" "F.Paste" "F.Mask") (tstamp 788f2579-1d8f-4209-8655-25e09264ed68))
  (pad "C22" smd circle (at 10.5 -8.5) (size 0.5 0.5) (property pad_prop_bga) (layers "F.Cu" "F.Paste" "F.Mask") (tstamp df01d13c-27a9-4c09-bf53-1767b6c44dc6))
  (pad "D1" smd circle (at -10.5 -7.5) (size 0.5 0.5) (property pad_prop_bga) (layers "F.Cu" "F.Paste" "F.Mask") (tstamp c2790343-56f7-4084-a2f9-abdffc367f4e))
  (pad "D2" smd circle (at -9.5 -7.5) (size 0.5 0.5) (property pad_prop_bga) (layers "F.Cu" "F.Paste" "F.Mask") (tstamp 0438ca71-a166-4acd-8cd9-b47e422ce2c1))
  (pad "D3" smd circle (at -8.5 -7.5) (size 0.5 0.5) (property pad_prop_bga) (layers "F.Cu" "F.Paste" "F.Mask") (tstamp e396d7e0-9913-46f4-a8c7-321c0be0a52a))
  (pad "D4" smd circle (at -7.5 -7.5) (size 0.5 0.5) (property pad_prop_bga) (layers "F.Cu" "F.Paste" "F.Mask") (tstamp be1ce017-b49e-41e4-9a35-2d76efa31d91))
  (pad "D5" smd circle (at -6.5 -7.5) (size 0.5 0.5) (property pad_prop_bga) (layers "F.Cu" "F.Paste" "F.Mask") (tstamp a9e5201a-9751-4217-83ef-2b803326b9c8))
  (pad "D6" smd circle (at -5.5 -7.5) (size 0.5 0.5) (property pad_prop_bga) (layers "F.Cu" "F.Paste" "F.Mask") (tstamp d9445244-c12e-417e-9961-6b64d70d77b9))
  (pad "D7" smd circle (at -4.5 -7.5) (size 0.5 0.5) (property pad_prop_bga) (layers "F.Cu" "F.Paste" "F.Mask") (tstamp 98736c8f-233a-4613-90f2-5547ad170fd2))
  (pad "D8" smd circle (at -3.5 -7.5) (size 0.5 0.5) (property pad_prop_bga) (layers "F.Cu" "F.Paste" "F.Mask") (tstamp f2135333-6f74-49c3-b8b4-d625c0450a5c))
  (pad "D9" smd circle (at -2.5 -7.5) (size 0.5 0.5) (property pad_prop_bga) (layers "F.Cu" "F.Paste" "F.Mask") (tstamp ecb63b81-ec7d-40fa-a905-43e71fcacb26))
  (pad "D10" smd circle (at -1.5 -7.5) (size 0.5 0.5) (property pad_prop_bga) (layers "F.Cu" "F.Paste" "F.Mask") (tstamp 3aee2d12-0c0f-4e18-b025-9fe79020590f))
  (pad "D11" smd circle (at -0.5 -7.5) (size 0.5 0.5) (property pad_prop_bga) (layers "F.Cu" "F.Paste" "F.Mask") (tstamp cd48bb3f-112e-4a31-9b7c-d06295643255))
  (pad "D12" smd circle (at 0.5 -7.5) (size 0.5 0.5) (property pad_prop_bga) (layers "F.Cu" "F.Paste" "F.Mask") (tstamp bcce32de-ef48-4678-9b9d-febb3142cbd8))
  (pad "D13" smd circle (at 1.5 -7.5) (size 0.5 0.5) (property pad_prop_bga) (layers "F.Cu" "F.Paste" "F.Mask") (tstamp 7006c532-885e-418f-b893-65a746145f25))
  (pad "D14" smd circle (at 2.5 -7.5) (size 0.5 0.5) (property pad_prop_bga) (layers "F.Cu" "F.Paste" "F.Mask") (tstamp b36751c7-bab1-422c-a7aa-b848214d668b))
  (pad "D15" smd circle (at 3.5 -7.5) (size 0.5 0.5) (property pad_prop_bga) (layers "F.Cu" "F.Paste" "F.Mask") (tstamp cc58f150-a73e-41d5-b4c1-1b8bb4ccf0c9))
  (pad "D16" smd circle (at 4.5 -7.5) (size 0.5 0.5) (property pad_prop_bga) (layers "F.Cu" "F.Paste" "F.Mask") (tstamp 0960f0e3-2736-4b6b-90d4-ac1f058cfd65))
  (pad "D17" smd circle (at 5.5 -7.5) (size 0.5 0.5) (property pad_prop_bga) (layers "F.Cu" "F.Paste" "F.Mask") (tstamp 8ca890d2-3590-442e-a0c5-f6d0fcf82ce1))
  (pad "D18" smd circle (at 6.5 -7.5) (size 0.5 0.5) (property pad_prop_bga) (layers "F.Cu" "F.Paste" "F.Mask") (tstamp 2f59c334-ecc9-42f8-917c-54705b5854d8))
  (pad "D19" smd circle (at 7.5 -7.5) (size 0.5 0.5) (property pad_prop_bga) (layers "F.Cu" "F.Paste" "F.Mask") (tstamp 79975393-bb79-41ec-8e05-afbd1e8e5e22))
  (pad "D20" smd circle (at 8.5 -7.5) (size 0.5 0.5) (property pad_prop_bga) (layers "F.Cu" "F.Paste" "F.Mask") (tstamp a8c4bfbf-3f2a-462c-bb1b-b9556b0137ad))
  (pad "D21" smd circle (at 9.5 -7.5) (size 0.5 0.5) (property pad_prop_bga) (layers "F.Cu" "F.Paste" "F.Mask") (tstamp d0efd7c3-a223-42d1-afb0-b6722edb2129))
  (pad "D22" smd circle (at 10.5 -7.5) (size 0.5 0.5) (property pad_prop_bga) (layers "F.Cu" "F.Paste" "F.Mask") (tstamp 9a32edb9-bfac-4be9-a455-4a8336216507))
  (pad "E1" smd circle (at -10.5 -6.5) (size 0.5 0.5) (property pad_prop_bga) (layers "F.Cu" "F.Paste" "F.Mask") (tstamp b0e6c69f-8434-4273-8658-e98c81cd9db8))
  (pad "E2" smd circle (at -9.5 -6.5) (size 0.5 0.5) (property pad_prop_bga) (layers "F.Cu" "F.Paste" "F.Mask") (tstamp 20289c53-b75d-44e4-ad8d-e5e432c94fdb))
  (pad "E3" smd circle (at -8.5 -6.5) (size 0.5 0.5) (property pad_prop_bga) (layers "F.Cu" "F.Paste" "F.Mask") (tstamp 77329124-c3fa-45f4-9d5c-982e3728c4ce))
  (pad "E4" smd circle (at -7.5 -6.5) (size 0.5 0.5) (property pad_prop_bga) (layers "F.Cu" "F.Paste" "F.Mask") (tstamp 6bd7a151-fe9e-44eb-afc7-0d473c630349))
  (pad "E5" smd circle (at -6.5 -6.5) (size 0.5 0.5) (property pad_prop_bga) (layers "F.Cu" "F.Paste" "F.Mask") (tstamp 0c31aa90-3411-454f-9159-544089c7bbf3))
  (pad "E6" smd circle (at -5.5 -6.5) (size 0.5 0.5) (property pad_prop_bga) (layers "F.Cu" "F.Paste" "F.Mask") (tstamp 06e5b9ad-94bf-43f3-a942-1bc40a31397c))
  (pad "E7" smd circle (at -4.5 -6.5) (size 0.5 0.5) (property pad_prop_bga) (layers "F.Cu" "F.Paste" "F.Mask") (tstamp e32a474a-1932-4065-b919-f5f91cd8320a))
  (pad "E8" smd circle (at -3.5 -6.5) (size 0.5 0.5) (property pad_prop_bga) (layers "F.Cu" "F.Paste" "F.Mask") (tstamp 7a7839d5-9da2-49a7-a61f-b08713ce24f2))
  (pad "E9" smd circle (at -2.5 -6.5) (size 0.5 0.5) (property pad_prop_bga) (layers "F.Cu" "F.Paste" "F.Mask") (tstamp 65d4f67c-288c-491e-a373-829482adfcf6))
  (pad "E10" smd circle (at -1.5 -6.5) (size 0.5 0.5) (property pad_prop_bga) (layers "F.Cu" "F.Paste" "F.Mask") (tstamp 5667cecf-37cc-4bff-ac8b-903b1ad1b0eb))
  (pad "E11" smd circle (at -0.5 -6.5) (size 0.5 0.5) (property pad_prop_bga) (layers "F.Cu" "F.Paste" "F.Mask") (tstamp 280f2bd9-ff8f-42b5-8b1b-5945b8f3e139))
  (pad "E12" smd circle (at 0.5 -6.5) (size 0.5 0.5) (property pad_prop_bga) (layers "F.Cu" "F.Paste" "F.Mask") (tstamp d09dea19-0fbc-42b3-82cb-c5104363e783))
  (pad "E13" smd circle (at 1.5 -6.5) (size 0.5 0.5) (property pad_prop_bga) (layers "F.Cu" "F.Paste" "F.Mask") (tstamp 158e2a0c-ede6-45b0-9003-9a5be4a270c0))
  (pad "E14" smd circle (at 2.5 -6.5) (size 0.5 0.5) (property pad_prop_bga) (layers "F.Cu" "F.Paste" "F.Mask") (tstamp f88861a1-6e4e-4ab9-a2e5-35436b871ee7))
  (pad "E15" smd circle (at 3.5 -6.5) (size 0.5 0.5) (property pad_prop_bga) (layers "F.Cu" "F.Paste" "F.Mask") (tstamp c50e8ea5-a771-4977-ae88-4bee0f46b3d2))
  (pad "E16" smd circle (at 4.5 -6.5) (size 0.5 0.5) (property pad_prop_bga) (layers "F.Cu" "F.Paste" "F.Mask") (tstamp 4fc2cf0f-6838-4fd7-994d-e999949a2c71))
  (pad "E17" smd circle (at 5.5 -6.5) (size 0.5 0.5) (property pad_prop_bga) (layers "F.Cu" "F.Paste" "F.Mask") (tstamp 6edb5106-bdfa-44a9-a0c0-3b0bbd482e92))
  (pad "E18" smd circle (at 6.5 -6.5) (size 0.5 0.5) (property pad_prop_bga) (layers "F.Cu" "F.Paste" "F.Mask") (tstamp a5bc55c6-2519-4f6f-a013-3bb25685d99e))
  (pad "E19" smd circle (at 7.5 -6.5) (size 0.5 0.5) (property pad_prop_bga) (layers "F.Cu" "F.Paste" "F.Mask") (tstamp 2ff28168-8543-442c-8680-a6bfed6e1b5d))
  (pad "E20" smd circle (at 8.5 -6.5) (size 0.5 0.5) (property pad_prop_bga) (layers "F.Cu" "F.Paste" "F.Mask") (tstamp 780ccff1-71f1-46b7-a7cc-ae94675bf9d8))
  (pad "E21" smd circle (at 9.5 -6.5) (size 0.5 0.5) (property pad_prop_bga) (layers "F.Cu" "F.Paste" "F.Mask") (tstamp 200502fc-5032-4c26-8c86-257d5801ca9c))
  (pad "E22" smd circle (at 10.5 -6.5) (size 0.5 0.5) (property pad_prop_bga) (layers "F.Cu" "F.Paste" "F.Mask") (tstamp 857dad5d-7a71-44b0-a0df-a05e127f50d2))
  (pad "F1" smd circle (at -10.5 -5.5) (size 0.5 0.5) (property pad_prop_bga) (layers "F.Cu" "F.Paste" "F.Mask") (tstamp 0c444526-6a1a-4c99-b766-20e9930c3e0c))
  (pad "F2" smd circle (at -9.5 -5.5) (size 0.5 0.5) (property pad_prop_bga) (layers "F.Cu" "F.Paste" "F.Mask") (tstamp 5ce1db5c-b858-41b7-ba6d-c12fb3475e58))
  (pad "F3" smd circle (at -8.5 -5.5) (size 0.5 0.5) (property pad_prop_bga) (layers "F.Cu" "F.Paste" "F.Mask") (tstamp d73d519f-1b90-418f-a61b-a8644661e944))
  (pad "F4" smd circle (at -7.5 -5.5) (size 0.5 0.5) (property pad_prop_bga) (layers "F.Cu" "F.Paste" "F.Mask") (tstamp e0ed1879-23a7-437b-a057-24611be0aec5))
  (pad "F5" smd circle (at -6.5 -5.5) (size 0.5 0.5) (property pad_prop_bga) (layers "F.Cu" "F.Paste" "F.Mask") (tstamp 8a7dd32f-42ef-4db4-a2b3-39ae61381971))
  (pad "F6" smd circle (at -5.5 -5.5) (size 0.5 0.5) (property pad_prop_bga) (layers "F.Cu" "F.Paste" "F.Mask") (tstamp 6b88d80c-1482-4c7e-aa64-80fa58880466))
  (pad "F7" smd circle (at -4.5 -5.5) (size 0.5 0.5) (property pad_prop_bga) (layers "F.Cu" "F.Paste" "F.Mask") (tstamp 7bee0799-4f5b-4aa0-9d41-cee619ca8915))
  (pad "F8" smd circle (at -3.5 -5.5) (size 0.5 0.5) (property pad_prop_bga) (layers "F.Cu" "F.Paste" "F.Mask") (tstamp 5b65472c-96e3-4bc0-8260-8ae87449ed90))
  (pad "F9" smd circle (at -2.5 -5.5) (size 0.5 0.5) (property pad_prop_bga) (layers "F.Cu" "F.Paste" "F.Mask") (tstamp fc08e029-406d-408f-a4c3-6cedf6f65f64))
  (pad "F10" smd circle (at -1.5 -5.5) (size 0.5 0.5) (property pad_prop_bga) (layers "F.Cu" "F.Paste" "F.Mask") (tstamp 1c1c62a8-e678-461c-8c27-a87a823b6585))
  (pad "F11" smd circle (at -0.5 -5.5) (size 0.5 0.5) (property pad_prop_bga) (layers "F.Cu" "F.Paste" "F.Mask") (tstamp 1ce923a1-8429-48d8-aa09-abffcdaac5f1))
  (pad "F12" smd circle (at 0.5 -5.5) (size 0.5 0.5) (property pad_prop_bga) (layers "F.Cu" "F.Paste" "F.Mask") (tstamp b0b0299b-466c-4990-9a8e-64c887d7910b))
  (pad "F13" smd circle (at 1.5 -5.5) (size 0.5 0.5) (property pad_prop_bga) (layers "F.Cu" "F.Paste" "F.Mask") (tstamp 04a08892-a314-4fc2-9eb7-6023a9fcb82e))
  (pad "F14" smd circle (at 2.5 -5.5) (size 0.5 0.5) (property pad_prop_bga) (layers "F.Cu" "F.Paste" "F.Mask") (tstamp b36634b2-8be5-4fb5-8a52-c992f019e257))
  (pad "F15" smd circle (at 3.5 -5.5) (size 0.5 0.5) (property pad_prop_bga) (layers "F.Cu" "F.Paste" "F.Mask") (tstamp d0aef326-52b4-42a6-a50b-096019ff0576))
  (pad "F16" smd circle (at 4.5 -5.5) (size 0.5 0.5) (property pad_prop_bga) (layers "F.Cu" "F.Paste" "F.Mask") (tstamp f018d367-010d-4b5d-8b76-3c89482ee4c1))
  (pad "F17" smd circle (at 5.5 -5.5) (size 0.5 0.5) (property pad_prop_bga) (layers "F.Cu" "F.Paste" "F.Mask") (tstamp 4f3caef6-8f85-4fe8-b2c1-b09be6021a9c))
  (pad "F18" smd circle (at 6.5 -5.5) (size 0.5 0.5) (property pad_prop_bga) (layers "F.Cu" "F.Paste" "F.Mask") (tstamp 766af24b-2517-4e91-b88e-e30a88cf4d8c))
  (pad "F19" smd circle (at 7.5 -5.5) (size 0.5 0.5) (property pad_prop_bga) (layers "F.Cu" "F.Paste" "F.Mask") (tstamp a56eaa2a-9e42-43e0-bc5a-448a80b736fd))
  (pad "F20" smd circle (at 8.5 -5.5) (size 0.5 0.5) (property pad_prop_bga) (layers "F.Cu" "F.Paste" "F.Mask") (tstamp 6c0cfd7b-6d86-44d9-8274-951b7ee51323))
  (pad "F21" smd circle (at 9.5 -5.5) (size 0.5 0.5) (property pad_prop_bga) (layers "F.Cu" "F.Paste" "F.Mask") (tstamp b6f65a2e-46c3-412c-9569-4678b0170479))
  (pad "F22" smd circle (at 10.5 -5.5) (size 0.5 0.5) (property pad_prop_bga) (layers "F.Cu" "F.Paste" "F.Mask") (tstamp 9f07070e-5783-4cba-8efa-8d1ca80e930b))
  (pad "G1" smd circle (at -10.5 -4.5) (size 0.5 0.5) (property pad_prop_bga) (layers "F.Cu" "F.Paste" "F.Mask") (tstamp 1d93dad7-8c45-4a79-b53d-b004e3ae2e4b))
  (pad "G2" smd circle (at -9.5 -4.5) (size 0.5 0.5) (property pad_prop_bga) (layers "F.Cu" "F.Paste" "F.Mask") (tstamp d97a3e0c-be2d-4eb2-9412-0aa6fd611a3e))
  (pad "G3" smd circle (at -8.5 -4.5) (size 0.5 0.5) (property pad_prop_bga) (layers "F.Cu" "F.Paste" "F.Mask") (tstamp f56a0ab4-65e9-4497-9a67-4c90ba485d38))
  (pad "G4" smd circle (at -7.5 -4.5) (size 0.5 0.5) (property pad_prop_bga) (layers "F.Cu" "F.Paste" "F.Mask") (tstamp 02ee616a-7bbd-4835-a797-d280a8863859))
  (pad "G5" smd circle (at -6.5 -4.5) (size 0.5 0.5) (property pad_prop_bga) (layers "F.Cu" "F.Paste" "F.Mask") (tstamp 13a8370d-990a-4394-a3ea-3a6da2fa5c1a))
  (pad "G6" smd circle (at -5.5 -4.5) (size 0.5 0.5) (property pad_prop_bga) (layers "F.Cu" "F.Paste" "F.Mask") (tstamp 7024de72-6bc5-4edc-b5f3-246423afee8b))
  (pad "G7" smd circle (at -4.5 -4.5) (size 0.5 0.5) (property pad_prop_bga) (layers "F.Cu" "F.Paste" "F.Mask") (tstamp f4d82a6d-be3c-40d7-85a0-247e578602c6))
  (pad "G8" smd circle (at -3.5 -4.5) (size 0.5 0.5) (property pad_prop_bga) (layers "F.Cu" "F.Paste" "F.Mask") (tstamp f21a1aff-cfff-4b7c-9061-f5899e8e3a99))
  (pad "G9" smd circle (at -2.5 -4.5) (size 0.5 0.5) (property pad_prop_bga) (layers "F.Cu" "F.Paste" "F.Mask") (tstamp c1bb80ff-4fc6-46f7-8570-d7cbd42864b3))
  (pad "G10" smd circle (at -1.5 -4.5) (size 0.5 0.5) (property pad_prop_bga) (layers "F.Cu" "F.Paste" "F.Mask") (tstamp f3270b43-f927-4d6d-94b2-5cf50fba318a))
  (pad "G11" smd circle (at -0.5 -4.5) (size 0.5 0.5) (property pad_prop_bga) (layers "F.Cu" "F.Paste" "F.Mask") (tstamp 9c5b1990-916b-4bb3-8888-1e69bc5687a2))
  (pad "G12" smd circle (at 0.5 -4.5) (size 0.5 0.5) (property pad_prop_bga) (layers "F.Cu" "F.Paste" "F.Mask") (tstamp 296f08d9-0438-43fe-b0c1-ba564e4dcef3))
  (pad "G13" smd circle (at 1.5 -4.5) (size 0.5 0.5) (property pad_prop_bga) (layers "F.Cu" "F.Paste" "F.Mask") (tstamp 2139763a-0818-4708-80c0-eb4ef3ad9444))
  (pad "G14" smd circle (at 2.5 -4.5) (size 0.5 0.5) (property pad_prop_bga) (layers "F.Cu" "F.Paste" "F.Mask") (tstamp e1758e10-61fa-44ed-b9d5-330894e0c04f))
  (pad "G15" smd circle (at 3.5 -4.5) (size 0.5 0.5) (property pad_prop_bga) (layers "F.Cu" "F.Paste" "F.Mask") (tstamp 1f935789-b545-4aeb-9fe4-f5efe41a5149))
  (pad "G16" smd circle (at 4.5 -4.5) (size 0.5 0.5) (property pad_prop_bga) (layers "F.Cu" "F.Paste" "F.Mask") (tstamp 4cd627bc-e0d0-4dbf-a0d2-e1701fe898ad))
  (pad "G17" smd circle (at 5.5 -4.5) (size 0.5 0.5) (property pad_prop_bga) (layers "F.Cu" "F.Paste" "F.Mask") (tstamp b6c25a64-b570-4c44-8b21-2917380ac692))
  (pad "G18" smd circle (at 6.5 -4.5) (size 0.5 0.5) (property pad_prop_bga) (layers "F.Cu" "F.Paste" "F.Mask") (tstamp 09598454-a87f-4466-a83e-51d21bc84bf3))
  (pad "G19" smd circle (at 7.5 -4.5) (size 0.5 0.5) (property pad_prop_bga) (layers "F.Cu" "F.Paste" "F.Mask") (tstamp fe735157-6a9b-4040-ab23-8734c1fd038b))
  (pad "G20" smd circle (at 8.5 -4.5) (size 0.5 0.5) (property pad_prop_bga) (layers "F.Cu" "F.Paste" "F.Mask") (tstamp 3e062a90-4213-41ef-bed0-96d33e441857))
  (pad "G21" smd circle (at 9.5 -4.5) (size 0.5 0.5) (property pad_prop_bga) (layers "F.Cu" "F.Paste" "F.Mask") (tstamp 9fb4ab5d-c227-46ff-a071-b6ec64c78fe6))
  (pad "G22" smd circle (at 10.5 -4.5) (size 0.5 0.5) (property pad_prop_bga) (layers "F.Cu" "F.Paste" "F.Mask") (tstamp 44ea0403-1199-4ab1-bf2c-35affebe2de0))
  (pad "H1" smd circle (at -10.5 -3.5) (size 0.5 0.5) (property pad_prop_bga) (layers "F.Cu" "F.Paste" "F.Mask") (tstamp 94f4cc29-78b9-4449-943d-08e9feb0bfaa))
  (pad "H2" smd circle (at -9.5 -3.5) (size 0.5 0.5) (property pad_prop_bga) (layers "F.Cu" "F.Paste" "F.Mask") (tstamp 4db7e79c-611c-4d82-9db6-0cdf7dbfde8e))
  (pad "H3" smd circle (at -8.5 -3.5) (size 0.5 0.5) (property pad_prop_bga) (layers "F.Cu" "F.Paste" "F.Mask") (tstamp f70a9408-1015-4c2d-bbd3-5c6cc7075fc5))
  (pad "H4" smd circle (at -7.5 -3.5) (size 0.5 0.5) (property pad_prop_bga) (layers "F.Cu" "F.Paste" "F.Mask") (tstamp fe849def-f9a5-4e29-824b-1b69cff5f154))
  (pad "H5" smd circle (at -6.5 -3.5) (size 0.5 0.5) (property pad_prop_bga) (layers "F.Cu" "F.Paste" "F.Mask") (tstamp 3e5652b1-c7b8-48ab-a52d-5bb83066a7aa))
  (pad "H6" smd circle (at -5.5 -3.5) (size 0.5 0.5) (property pad_prop_bga) (layers "F.Cu" "F.Paste" "F.Mask") (tstamp 8286f7a8-f718-40ad-b0a4-59b56e84720f))
  (pad "H7" smd circle (at -4.5 -3.5) (size 0.5 0.5) (property pad_prop_bga) (layers "F.Cu" "F.Paste" "F.Mask") (tstamp 5db767eb-3e75-4f95-bf68-1d37fdeb36da))
  (pad "H8" smd circle (at -3.5 -3.5) (size 0.5 0.5) (property pad_prop_bga) (layers "F.Cu" "F.Paste" "F.Mask") (tstamp aa014795-cc9c-4d49-ba29-8d6a58c19b89))
  (pad "H9" smd circle (at -2.5 -3.5) (size 0.5 0.5) (property pad_prop_bga) (layers "F.Cu" "F.Paste" "F.Mask") (tstamp c4d5959c-4319-4f5e-9082-8cbf05e97773))
  (pad "H10" smd circle (at -1.5 -3.5) (size 0.5 0.5) (property pad_prop_bga) (layers "F.Cu" "F.Paste" "F.Mask") (tstamp 50232da3-849d-4b44-ba20-c60a7977483d))
  (pad "H11" smd circle (at -0.5 -3.5) (size 0.5 0.5) (property pad_prop_bga) (layers "F.Cu" "F.Paste" "F.Mask") (tstamp 34cc53f6-878b-4b4b-a59b-84e936510487))
  (pad "H12" smd circle (at 0.5 -3.5) (size 0.5 0.5) (property pad_prop_bga) (layers "F.Cu" "F.Paste" "F.Mask") (tstamp 35d1aae2-18c6-45f5-ad51-f89cb11735d4))
  (pad "H13" smd circle (at 1.5 -3.5) (size 0.5 0.5) (property pad_prop_bga) (layers "F.Cu" "F.Paste" "F.Mask") (tstamp 90c8a6df-7495-4612-ae1c-05d670fcd010))
  (pad "H14" smd circle (at 2.5 -3.5) (size 0.5 0.5) (property pad_prop_bga) (layers "F.Cu" "F.Paste" "F.Mask") (tstamp b728674e-a4ac-4f9c-bd03-e83704c56d9d))
  (pad "H15" smd circle (at 3.5 -3.5) (size 0.5 0.5) (property pad_prop_bga) (layers "F.Cu" "F.Paste" "F.Mask") (tstamp 119dedd8-ac4f-4e05-8da8-4c1182f3fba0))
  (pad "H16" smd circle (at 4.5 -3.5) (size 0.5 0.5) (property pad_prop_bga) (layers "F.Cu" "F.Paste" "F.Mask") (tstamp 03112303-9292-4aca-84f1-d549080f50a9))
  (pad "H17" smd circle (at 5.5 -3.5) (size 0.5 0.5) (property pad_prop_bga) (layers "F.Cu" "F.Paste" "F.Mask") (tstamp 590d2e15-cec3-4610-9b8e-b3c4f7a001c2))
  (pad "H18" smd circle (at 6.5 -3.5) (size 0.5 0.5) (property pad_prop_bga) (layers "F.Cu" "F.Paste" "F.Mask") (tstamp ea0f26c6-7b79-4563-a17b-d52a6cbd2279))
  (pad "H19" smd circle (at 7.5 -3.5) (size 0.5 0.5) (property pad_prop_bga) (layers "F.Cu" "F.Paste" "F.Mask") (tstamp 08495210-52d7-40ad-aa22-c31fddda1a6f))
  (pad "H20" smd circle (at 8.5 -3.5) (size 0.5 0.5) (property pad_prop_bga) (layers "F.Cu" "F.Paste" "F.Mask") (tstamp 80a883ee-12ee-471c-a294-0fc671fce894))
  (pad "H21" smd circle (at 9.5 -3.5) (size 0.5 0.5) (property pad_prop_bga) (layers "F.Cu" "F.Paste" "F.Mask") (tstamp 7d085da9-4fea-45e6-8c60-49fb88d03151))
  (pad "H22" smd circle (at 10.5 -3.5) (size 0.5 0.5) (property pad_prop_bga) (layers "F.Cu" "F.Paste" "F.Mask") (tstamp 6dfb6433-3131-479c-b380-c3d63361c534))
  (pad "J1" smd circle (at -10.5 -2.5) (size 0.5 0.5) (property pad_prop_bga) (layers "F.Cu" "F.Paste" "F.Mask") (tstamp 99314cbb-10db-469d-93bc-6326be9b8f61))
  (pad "J2" smd circle (at -9.5 -2.5) (size 0.5 0.5) (property pad_prop_bga) (layers "F.Cu" "F.Paste" "F.Mask") (tstamp 895aee61-5651-4d94-a88a-0e437a2618ca))
  (pad "J3" smd circle (at -8.5 -2.5) (size 0.5 0.5) (property pad_prop_bga) (layers "F.Cu" "F.Paste" "F.Mask") (tstamp e9a5f150-f41e-47e5-a6ae-23593b9248ea))
  (pad "J4" smd circle (at -7.5 -2.5) (size 0.5 0.5) (property pad_prop_bga) (layers "F.Cu" "F.Paste" "F.Mask") (tstamp f149968b-ca1e-4874-b76c-0b89a2b97af9))
  (pad "J5" smd circle (at -6.5 -2.5) (size 0.5 0.5) (property pad_prop_bga) (layers "F.Cu" "F.Paste" "F.Mask") (tstamp ee83589c-40a6-4b5e-a1fb-a0ee30c7ac68))
  (pad "J6" smd circle (at -5.5 -2.5) (size 0.5 0.5) (property pad_prop_bga) (layers "F.Cu" "F.Paste" "F.Mask") (tstamp 57ccb91e-3dcb-4ba8-a94b-b5d0fb8f71f9))
  (pad "J7" smd circle (at -4.5 -2.5) (size 0.5 0.5) (property pad_prop_bga) (layers "F.Cu" "F.Paste" "F.Mask") (tstamp e6606b94-48b8-46da-8c3f-974588b7d55d))
  (pad "J8" smd circle (at -3.5 -2.5) (size 0.5 0.5) (property pad_prop_bga) (layers "F.Cu" "F.Paste" "F.Mask") (tstamp 816299ca-88b3-47d6-9836-07dc85336839))
  (pad "J9" smd circle (at -2.5 -2.5) (size 0.5 0.5) (property pad_prop_bga) (layers "F.Cu" "F.Paste" "F.Mask") (tstamp 11a9c142-cc23-45e9-b794-7845adb887c0))
  (pad "J10" smd circle (at -1.5 -2.5) (size 0.5 0.5) (property pad_prop_bga) (layers "F.Cu" "F.Paste" "F.Mask") (tstamp 5b5feb2d-013a-4c3a-841c-bbcd09d179e7))
  (pad "J11" smd circle (at -0.5 -2.5) (size 0.5 0.5) (property pad_prop_bga) (layers "F.Cu" "F.Paste" "F.Mask") (tstamp a400c964-298c-4020-9a24-cf276de7fd82))
  (pad "J12" smd circle (at 0.5 -2.5) (size 0.5 0.5) (property pad_prop_bga) (layers "F.Cu" "F.Paste" "F.Mask") (tstamp 60b7b665-67e4-4709-82e4-72956cc5fa8a))
  (pad "J13" smd circle (at 1.5 -2.5) (size 0.5 0.5) (property pad_prop_bga) (layers "F.Cu" "F.Paste" "F.Mask") (tstamp 314dcd84-c9e2-42b8-8081-15ebf37e6893))
  (pad "J14" smd circle (at 2.5 -2.5) (size 0.5 0.5) (property pad_prop_bga) (layers "F.Cu" "F.Paste" "F.Mask") (tstamp 18c542ba-9e11-4ce3-80dd-68bac65fded7))
  (pad "J15" smd circle (at 3.5 -2.5) (size 0.5 0.5) (property pad_prop_bga) (layers "F.Cu" "F.Paste" "F.Mask") (tstamp f465b756-a1eb-402e-8938-cb9f86754488))
  (pad "J16" smd circle (at 4.5 -2.5) (size 0.5 0.5) (property pad_prop_bga) (layers "F.Cu" "F.Paste" "F.Mask") (tstamp 49fc00f5-0236-4f3b-95f1-fce5df3e9938))
  (pad "J17" smd circle (at 5.5 -2.5) (size 0.5 0.5) (property pad_prop_bga) (layers "F.Cu" "F.Paste" "F.Mask") (tstamp 23569c78-bd3e-4dbf-b34f-f403f42ac6e2))
  (pad "J18" smd circle (at 6.5 -2.5) (size 0.5 0.5) (property pad_prop_bga) (layers "F.Cu" "F.Paste" "F.Mask") (tstamp 9a0536c0-8c99-41a6-94b7-aaa39a89df12))
  (pad "J19" smd circle (at 7.5 -2.5) (size 0.5 0.5) (property pad_prop_bga) (layers "F.Cu" "F.Paste" "F.Mask") (tstamp cdd0fd27-46e3-4770-b1d4-cd7c6d523be7))
  (pad "J20" smd circle (at 8.5 -2.5) (size 0.5 0.5) (property pad_prop_bga) (layers "F.Cu" "F.Paste" "F.Mask") (tstamp 7649d0e9-3cc2-45c1-bb48-f68158ce0d3f))
  (pad "J21" smd circle (at 9.5 -2.5) (size 0.5 0.5) (property pad_prop_bga) (layers "F.Cu" "F.Paste" "F.Mask") (tstamp 585efd4e-913b-4239-9bd0-646934fe7291))
  (pad "J22" smd circle (at 10.5 -2.5) (size 0.5 0.5) (property pad_prop_bga) (layers "F.Cu" "F.Paste" "F.Mask") (tstamp 04373940-ac2f-46cd-b274-634f2296e5a7))
  (pad "K1" smd circle (at -10.5 -1.5) (size 0.5 0.5) (property pad_prop_bga) (layers "F.Cu" "F.Paste" "F.Mask") (tstamp 0501141b-1271-439b-af10-a769b1b8d6d6))
  (pad "K2" smd circle (at -9.5 -1.5) (size 0.5 0.5) (property pad_prop_bga) (layers "F.Cu" "F.Paste" "F.Mask") (tstamp 949818e2-4326-4301-b2ad-5069aaf1fc93))
  (pad "K3" smd circle (at -8.5 -1.5) (size 0.5 0.5) (property pad_prop_bga) (layers "F.Cu" "F.Paste" "F.Mask") (tstamp 4ce56d3b-70da-48e1-a9e2-6421a02745e5))
  (pad "K4" smd circle (at -7.5 -1.5) (size 0.5 0.5) (property pad_prop_bga) (layers "F.Cu" "F.Paste" "F.Mask") (tstamp e84f9e6e-6e20-4dbc-a403-224c50c9d160))
  (pad "K5" smd circle (at -6.5 -1.5) (size 0.5 0.5) (property pad_prop_bga) (layers "F.Cu" "F.Paste" "F.Mask") (tstamp ac89535f-3501-4a0c-8eb9-c8ead2e71239))
  (pad "K6" smd circle (at -5.5 -1.5) (size 0.5 0.5) (property pad_prop_bga) (layers "F.Cu" "F.Paste" "F.Mask") (tstamp 06a94c94-e18d-46fb-a368-2cc6d0ee52d4))
  (pad "K7" smd circle (at -4.5 -1.5) (size 0.5 0.5) (property pad_prop_bga) (layers "F.Cu" "F.Paste" "F.Mask") (tstamp 7ab18a6a-4b9f-4647-9c58-6a8ded4d8dd3))
  (pad "K8" smd circle (at -3.5 -1.5) (size 0.5 0.5) (property pad_prop_bga) (layers "F.Cu" "F.Paste" "F.Mask") (tstamp 1ac04b69-9f62-410b-8bf3-1ec5ed38f08c))
  (pad "K9" smd circle (at -2.5 -1.5) (size 0.5 0.5) (property pad_prop_bga) (layers "F.Cu" "F.Paste" "F.Mask") (tstamp e7e235b5-1873-4924-9479-75595b628179))
  (pad "K10" smd circle (at -1.5 -1.5) (size 0.5 0.5) (property pad_prop_bga) (layers "F.Cu" "F.Paste" "F.Mask") (tstamp 1b5515dd-7ff3-40ad-ada0-291a812c2d65))
  (pad "K11" smd circle (at -0.5 -1.5) (size 0.5 0.5) (property pad_prop_bga) (layers "F.Cu" "F.Paste" "F.Mask") (tstamp d9f466db-21c4-40cf-9e34-0dc13be6f5c4))
  (pad "K12" smd circle (at 0.5 -1.5) (size 0.5 0.5) (property pad_prop_bga) (layers "F.Cu" "F.Paste" "F.Mask") (tstamp 52fe2a18-717b-4373-b001-20dab85a19d6))
  (pad "K13" smd circle (at 1.5 -1.5) (size 0.5 0.5) (property pad_prop_bga) (layers "F.Cu" "F.Paste" "F.Mask") (tstamp 3b010817-5500-422a-a141-504374f0033d))
  (pad "K14" smd circle (at 2.5 -1.5) (size 0.5 0.5) (property pad_prop_bga) (layers "F.Cu" "F.Paste" "F.Mask") (tstamp ed1f7453-b88d-4bb4-a843-10e3c92ea691))
  (pad "K15" smd circle (at 3.5 -1.5) (size 0.5 0.5) (property pad_prop_bga) (layers "F.Cu" "F.Paste" "F.Mask") (tstamp a0b3ad30-d251-42f4-ad95-7faf46ae21cd))
  (pad "K16" smd circle (at 4.5 -1.5) (size 0.5 0.5) (property pad_prop_bga) (layers "F.Cu" "F.Paste" "F.Mask") (tstamp 601ec4cb-a10e-4530-8806-bb5bd54e17a7))
  (pad "K17" smd circle (at 5.5 -1.5) (size 0.5 0.5) (property pad_prop_bga) (layers "F.Cu" "F.Paste" "F.Mask") (tstamp ccf9e9e2-8943-4799-8f55-ede14b15b364))
  (pad "K18" smd circle (at 6.5 -1.5) (size 0.5 0.5) (property pad_prop_bga) (layers "F.Cu" "F.Paste" "F.Mask") (tstamp 4e25742b-0617-4be5-ad1b-31b9005b548d))
  (pad "K19" smd circle (at 7.5 -1.5) (size 0.5 0.5) (property pad_prop_bga) (layers "F.Cu" "F.Paste" "F.Mask") (tstamp 28d78b75-6e26-477b-8c6b-a87e613644c9))
  (pad "K20" smd circle (at 8.5 -1.5) (size 0.5 0.5) (property pad_prop_bga) (layers "F.Cu" "F.Paste" "F.Mask") (tstamp 922843c5-1f39-4cc7-b94a-52819a1cf0cc))
  (pad "K21" smd circle (at 9.5 -1.5) (size 0.5 0.5) (property pad_prop_bga) (layers "F.Cu" "F.Paste" "F.Mask") (tstamp 0f3fe710-5444-43da-8c97-5cbfb873c885))
  (pad "K22" smd circle (at 10.5 -1.5) (size 0.5 0.5) (property pad_prop_bga) (layers "F.Cu" "F.Paste" "F.Mask") (tstamp e33cb98c-3023-487b-9066-585b66bdc62e))
  (pad "L1" smd circle (at -10.5 -0.5) (size 0.5 0.5) (property pad_prop_bga) (layers "F.Cu" "F.Paste" "F.Mask") (tstamp 37f8fe7f-08aa-4b9d-8e8a-5e2b9b9bda4e))
  (pad "L2" smd circle (at -9.5 -0.5) (size 0.5 0.5) (property pad_prop_bga) (layers "F.Cu" "F.Paste" "F.Mask") (tstamp 1c8c19e9-a068-4d94-bc43-55064e132fe5))
  (pad "L3" smd circle (at -8.5 -0.5) (size 0.5 0.5) (property pad_prop_bga) (layers "F.Cu" "F.Paste" "F.Mask") (tstamp 249f64a7-b8db-4dda-92a0-08e0ab19faf8))
  (pad "L4" smd circle (at -7.5 -0.5) (size 0.5 0.5) (property pad_prop_bga) (layers "F.Cu" "F.Paste" "F.Mask") (tstamp a6def67b-80db-445d-9945-a0f6f499e97d))
  (pad "L5" smd circle (at -6.5 -0.5) (size 0.5 0.5) (property pad_prop_bga) (layers "F.Cu" "F.Paste" "F.Mask") (tstamp a7890105-3107-4964-af77-756e792dc1b6))
  (pad "L6" smd circle (at -5.5 -0.5) (size 0.5 0.5) (property pad_prop_bga) (layers "F.Cu" "F.Paste" "F.Mask") (tstamp 23a71466-b1cb-4d29-b9b3-33b4f362099b))
  (pad "L7" smd circle (at -4.5 -0.5) (size 0.5 0.5) (property pad_prop_bga) (layers "F.Cu" "F.Paste" "F.Mask") (tstamp ede8c37a-8845-4aff-ab93-4763ee406d54))
  (pad "L8" smd circle (at -3.5 -0.5) (size 0.5 0.5) (property pad_prop_bga) (layers "F.Cu" "F.Paste" "F.Mask") (tstamp aab35898-31a1-4930-a771-f08ef5b36d95))
  (pad "L9" smd circle (at -2.5 -0.5) (size 0.5 0.5) (property pad_prop_bga) (layers "F.Cu" "F.Paste" "F.Mask") (tstamp 3f7198e6-57b5-4ddb-8773-6e5db10085c8))
  (pad "L10" smd circle (at -1.5 -0.5) (size 0.5 0.5) (property pad_prop_bga) (layers "F.Cu" "F.Paste" "F.Mask") (tstamp c9516c94-a960-47c8-a63f-c44fb960b028))
  (pad "L11" smd circle (at -0.5 -0.5) (size 0.5 0.5) (property pad_prop_bga) (layers "F.Cu" "F.Paste" "F.Mask") (tstamp 30080078-ea70-4a5f-a3e4-5469284051f9))
  (pad "L12" smd circle (at 0.5 -0.5) (size 0.5 0.5) (property pad_prop_bga) (layers "F.Cu" "F.Paste" "F.Mask") (tstamp c3ce3d4f-a2cf-4b21-9706-eaf02e4199ee))
  (pad "L13" smd circle (at 1.5 -0.5) (size 0.5 0.5) (property pad_prop_bga) (layers "F.Cu" "F.Paste" "F.Mask") (tstamp b4d93ea7-7dc7-4159-ae1a-fff0b0e00bc4))
  (pad "L14" smd circle (at 2.5 -0.5) (size 0.5 0.5) (property pad_prop_bga) (layers "F.Cu" "F.Paste" "F.Mask") (tstamp 3a5533b0-d434-4527-b215-4a025b462a34))
  (pad "L15" smd circle (at 3.5 -0.5) (size 0.5 0.5) (property pad_prop_bga) (layers "F.Cu" "F.Paste" "F.Mask") (tstamp f579d3eb-3818-4b65-a1e3-7df7642fd5f5))
  (pad "L16" smd circle (at 4.5 -0.5) (size 0.5 0.5) (property pad_prop_bga) (layers "F.Cu" "F.Paste" "F.Mask") (tstamp fe7272e0-153c-412c-a1d8-1c0728b881fb))
  (pad "L17" smd circle (at 5.5 -0.5) (size 0.5 0.5) (property pad_prop_bga) (layers "F.Cu" "F.Paste" "F.Mask") (tstamp 9238c5ea-a3cb-4e11-a767-d5c3f9ec7938))
  (pad "L18" smd circle (at 6.5 -0.5) (size 0.5 0.5) (property pad_prop_bga) (layers "F.Cu" "F.Paste" "F.Mask") (tstamp 391bd0f6-3cf9-4856-95f4-285239ef6b87))
  (pad "L19" smd circle (at 7.5 -0.5) (size 0.5 0.5) (property pad_prop_bga) (layers "F.Cu" "F.Paste" "F.Mask") (tstamp 90bed686-dee1-44a7-8cd3-a2260adc0203))
  (pad "L20" smd circle (at 8.5 -0.5) (size 0.5 0.5) (property pad_prop_bga) (layers "F.Cu" "F.Paste" "F.Mask") (tstamp e83f3a8a-ec74-49a7-b1a1-9fb2039c969e))
  (pad "L21" smd circle (at 9.5 -0.5) (size 0.5 0.5) (property pad_prop_bga) (layers "F.Cu" "F.Paste" "F.Mask") (tstamp 59719446-af81-4912-83a2-f245ef37fff9))
  (pad "L22" smd circle (at 10.5 -0.5) (size 0.5 0.5) (property pad_prop_bga) (layers "F.Cu" "F.Paste" "F.Mask") (tstamp c0e9d8ae-f2f3-4bbe-a09f-c0e9b9ffb7d8))
  (pad "M1" smd circle (at -10.5 0.5) (size 0.5 0.5) (property pad_prop_bga) (layers "F.Cu" "F.Paste" "F.Mask") (tstamp 15df923a-e67c-4c13-8e2a-a7707b52b67b))
  (pad "M2" smd circle (at -9.5 0.5) (size 0.5 0.5) (property pad_prop_bga) (layers "F.Cu" "F.Paste" "F.Mask") (tstamp 0c9ddaf7-8ef2-4200-9c23-23768dd7de84))
  (pad "M3" smd circle (at -8.5 0.5) (size 0.5 0.5) (property pad_prop_bga) (layers "F.Cu" "F.Paste" "F.Mask") (tstamp 4ad120f4-6ab8-4f9f-b2fe-0ee5ed808ae5))
  (pad "M4" smd circle (at -7.5 0.5) (size 0.5 0.5) (property pad_prop_bga) (layers "F.Cu" "F.Paste" "F.Mask") (tstamp 5c4c284d-accd-4eb6-9ef6-12b5b879c6b6))
  (pad "M5" smd circle (at -6.5 0.5) (size 0.5 0.5) (property pad_prop_bga) (layers "F.Cu" "F.Paste" "F.Mask") (tstamp bd4676fc-5e3c-4e31-87f7-7e4922d67eb6))
  (pad "M6" smd circle (at -5.5 0.5) (size 0.5 0.5) (property pad_prop_bga) (layers "F.Cu" "F.Paste" "F.Mask") (tstamp e2855b57-c0b5-4a68-9d39-17635da058a9))
  (pad "M7" smd circle (at -4.5 0.5) (size 0.5 0.5) (property pad_prop_bga) (layers "F.Cu" "F.Paste" "F.Mask") (tstamp c76f8946-4399-420d-be4e-b7e8a88ad3a9))
  (pad "M8" smd circle (at -3.5 0.5) (size 0.5 0.5) (property pad_prop_bga) (layers "F.Cu" "F.Paste" "F.Mask") (tstamp 4c23d062-019b-4617-81ce-a1f2677e4f3c))
  (pad "M9" smd circle (at -2.5 0.5) (size 0.5 0.5) (property pad_prop_bga) (layers "F.Cu" "F.Paste" "F.Mask") (tstamp 2b338be4-fd58-4c51-84d1-6a1e32ac2b98))
  (pad "M10" smd circle (at -1.5 0.5) (size 0.5 0.5) (property pad_prop_bga) (layers "F.Cu" "F.Paste" "F.Mask") (tstamp 71730969-7823-4af6-a46e-b2841201efe0))
  (pad "M11" smd circle (at -0.5 0.5) (size 0.5 0.5) (property pad_prop_bga) (layers "F.Cu" "F.Paste" "F.Mask") (tstamp 9888e8c4-0d5c-4056-9f58-2e50572fe755))
  (pad "M12" smd circle (at 0.5 0.5) (size 0.5 0.5) (property pad_prop_bga) (layers "F.Cu" "F.Paste" "F.Mask") (tstamp ae71a481-3be7-43ee-b63d-83198e149555))
  (pad "M13" smd circle (at 1.5 0.5) (size 0.5 0.5) (property pad_prop_bga) (layers "F.Cu" "F.Paste" "F.Mask") (tstamp 1c991a2a-e4d0-4eae-be4a-3ef57e92c208))
  (pad "M14" smd circle (at 2.5 0.5) (size 0.5 0.5) (property pad_prop_bga) (layers "F.Cu" "F.Paste" "F.Mask") (tstamp 544f17dc-6cb4-4b0b-9d9e-e30681c48a33))
  (pad "M15" smd circle (at 3.5 0.5) (size 0.5 0.5) (property pad_prop_bga) (layers "F.Cu" "F.Paste" "F.Mask") (tstamp bcd6f57a-b151-4e81-af49-6ebebc55ecba))
  (pad "M16" smd circle (at 4.5 0.5) (size 0.5 0.5) (property pad_prop_bga) (layers "F.Cu" "F.Paste" "F.Mask") (tstamp ebad9ff7-b943-4882-83c5-cd9c21d32a5d))
  (pad "M17" smd circle (at 5.5 0.5) (size 0.5 0.5) (property pad_prop_bga) (layers "F.Cu" "F.Paste" "F.Mask") (tstamp 0b10231e-176f-4eed-a79b-3ebd8a349a90))
  (pad "M18" smd circle (at 6.5 0.5) (size 0.5 0.5) (property pad_prop_bga) (layers "F.Cu" "F.Paste" "F.Mask") (tstamp 01623df7-0f64-4995-8328-5978c7543234))
  (pad "M19" smd circle (at 7.5 0.5) (size 0.5 0.5) (property pad_prop_bga) (layers "F.Cu" "F.Paste" "F.Mask") (tstamp 5ad837c9-d0d8-4416-bfe0-30943a2b7eaf))
  (pad "M20" smd circle (at 8.5 0.5) (size 0.5 0.5) (property pad_prop_bga) (layers "F.Cu" "F.Paste" "F.Mask") (tstamp 7a86d282-b1e7-4217-bcaf-d1890d1f16ba))
  (pad "M21" smd circle (at 9.5 0.5) (size 0.5 0.5) (property pad_prop_bga) (layers "F.Cu" "F.Paste" "F.Mask") (tstamp 444e590b-78bc-4ab6-8ea8-bdd0f86854e0))
  (pad "M22" smd circle (at 10.5 0.5) (size 0.5 0.5) (property pad_prop_bga) (layers "F.Cu" "F.Paste" "F.Mask") (tstamp 4b745e4b-9450-4125-b1d4-88894bb376ea))
  (pad "N1" smd circle (at -10.5 1.5) (size 0.5 0.5) (property pad_prop_bga) (layers "F.Cu" "F.Paste" "F.Mask") (tstamp 5ca9623e-a7af-4221-ab35-178ed0fc5093))
  (pad "N2" smd circle (at -9.5 1.5) (size 0.5 0.5) (property pad_prop_bga) (layers "F.Cu" "F.Paste" "F.Mask") (tstamp a4a65825-ad20-4297-8f4c-2f025082be19))
  (pad "N3" smd circle (at -8.5 1.5) (size 0.5 0.5) (property pad_prop_bga) (layers "F.Cu" "F.Paste" "F.Mask") (tstamp 435ba31f-6472-4ccb-9302-8cdd9e94394b))
  (pad "N4" smd circle (at -7.5 1.5) (size 0.5 0.5) (property pad_prop_bga) (layers "F.Cu" "F.Paste" "F.Mask") (tstamp 465cb3c8-ac92-4ca1-95f5-3829bd21bcbb))
  (pad "N5" smd circle (at -6.5 1.5) (size 0.5 0.5) (property pad_prop_bga) (layers "F.Cu" "F.Paste" "F.Mask") (tstamp 0c268ba8-bb98-411c-858e-b26ce32182ed))
  (pad "N6" smd circle (at -5.5 1.5) (size 0.5 0.5) (property pad_prop_bga) (layers "F.Cu" "F.Paste" "F.Mask") (tstamp 75fe53fb-f38a-4537-a931-f9e999c8e44d))
  (pad "N7" smd circle (at -4.5 1.5) (size 0.5 0.5) (property pad_prop_bga) (layers "F.Cu" "F.Paste" "F.Mask") (tstamp 0c323c12-58ef-45d1-bf27-5378cfdff1ea))
  (pad "N8" smd circle (at -3.5 1.5) (size 0.5 0.5) (property pad_prop_bga) (layers "F.Cu" "F.Paste" "F.Mask") (tstamp db8a85ff-1309-4250-9d3b-73222eea99c6))
  (pad "N9" smd circle (at -2.5 1.5) (size 0.5 0.5) (property pad_prop_bga) (layers "F.Cu" "F.Paste" "F.Mask") (tstamp 8daa725c-1ecc-464f-9018-11a13c455e38))
  (pad "N10" smd circle (at -1.5 1.5) (size 0.5 0.5) (property pad_prop_bga) (layers "F.Cu" "F.Paste" "F.Mask") (tstamp 7e3c5693-c75e-46fd-abd8-c7ff4030ce7d))
  (pad "N11" smd circle (at -0.5 1.5) (size 0.5 0.5) (property pad_prop_bga) (layers "F.Cu" "F.Paste" "F.Mask") (tstamp 05adb048-7506-485b-ac95-963cd0af04c2))
  (pad "N12" smd circle (at 0.5 1.5) (size 0.5 0.5) (property pad_prop_bga) (layers "F.Cu" "F.Paste" "F.Mask") (tstamp 40f6bf8c-b87e-4fbe-81fb-b97f82ce7d44))
  (pad "N13" smd circle (at 1.5 1.5) (size 0.5 0.5) (property pad_prop_bga) (layers "F.Cu" "F.Paste" "F.Mask") (tstamp dc41ce1e-c818-459b-801f-0084abdb1691))
  (pad "N14" smd circle (at 2.5 1.5) (size 0.5 0.5) (property pad_prop_bga) (layers "F.Cu" "F.Paste" "F.Mask") (tstamp 3c1767e4-5267-4b04-942e-92d985b6da61))
  (pad "N15" smd circle (at 3.5 1.5) (size 0.5 0.5) (property pad_prop_bga) (layers "F.Cu" "F.Paste" "F.Mask") (tstamp 873cfc2b-2b03-413f-8540-0772bec4e599))
  (pad "N16" smd circle (at 4.5 1.5) (size 0.5 0.5) (property pad_prop_bga) (layers "F.Cu" "F.Paste" "F.Mask") (tstamp ab5db5e4-3670-4792-a09e-20e795d3622a))
  (pad "N17" smd circle (at 5.5 1.5) (size 0.5 0.5) (property pad_prop_bga) (layers "F.Cu" "F.Paste" "F.Mask") (tstamp bfb226de-3be3-4951-9c58-3af36a70bbca))
  (pad "N18" smd circle (at 6.5 1.5) (size 0.5 0.5) (property pad_prop_bga) (layers "F.Cu" "F.Paste" "F.Mask") (tstamp 76c039d0-5e4d-48c9-9462-02c402c0b15a))
  (pad "N19" smd circle (at 7.5 1.5) (size 0.5 0.5) (property pad_prop_bga) (layers "F.Cu" "F.Paste" "F.Mask") (tstamp 30a33857-3c9c-48a6-9952-71fb0876f44b))
  (pad "N20" smd circle (at 8.5 1.5) (size 0.5 0.5) (property pad_prop_bga) (layers "F.Cu" "F.Paste" "F.Mask") (tstamp 3529f828-1599-4bec-b175-401e8d9aa3e9))
  (pad "N21" smd circle (at 9.5 1.5) (size 0.5 0.5) (property pad_prop_bga) (layers "F.Cu" "F.Paste" "F.Mask") (tstamp c68c37e2-caae-4196-8815-44356454f9d7))
  (pad "N22" smd circle (at 10.5 1.5) (size 0.5 0.5) (property pad_prop_bga) (layers "F.Cu" "F.Paste" "F.Mask") (tstamp 83b7e5b9-d2de-48fc-8322-98005a493ef0))
  (pad "P1" smd circle (at -10.5 2.5) (size 0.5 0.5) (property pad_prop_bga) (layers "F.Cu" "F.Paste" "F.Mask") (tstamp 732601b0-6690-456c-9642-1fa3b82b2981))
  (pad "P2" smd circle (at -9.5 2.5) (size 0.5 0.5) (property pad_prop_bga) (layers "F.Cu" "F.Paste" "F.Mask") (tstamp 2a5d0877-77cd-4372-af87-0149a04be2e3))
  (pad "P3" smd circle (at -8.5 2.5) (size 0.5 0.5) (property pad_prop_bga) (layers "F.Cu" "F.Paste" "F.Mask") (tstamp bcd0f219-e899-4358-ad14-34c299a78b1f))
  (pad "P4" smd circle (at -7.5 2.5) (size 0.5 0.5) (property pad_prop_bga) (layers "F.Cu" "F.Paste" "F.Mask") (tstamp 58c5ad0c-24c8-4b54-bf66-1f5068704d3f))
  (pad "P5" smd circle (at -6.5 2.5) (size 0.5 0.5) (property pad_prop_bga) (layers "F.Cu" "F.Paste" "F.Mask") (tstamp 36f899de-d269-40d1-ac82-38c17d5d1b9d))
  (pad "P6" smd circle (at -5.5 2.5) (size 0.5 0.5) (property pad_prop_bga) (layers "F.Cu" "F.Paste" "F.Mask") (tstamp 0ececef4-2af3-484c-ba72-e61a25eb35f5))
  (pad "P7" smd circle (at -4.5 2.5) (size 0.5 0.5) (property pad_prop_bga) (layers "F.Cu" "F.Paste" "F.Mask") (tstamp 40187408-3c34-424c-82e6-e70632222a5b))
  (pad "P8" smd circle (at -3.5 2.5) (size 0.5 0.5) (property pad_prop_bga) (layers "F.Cu" "F.Paste" "F.Mask") (tstamp a4010dbe-3716-4f5e-9653-97e8aa1ceab6))
  (pad "P9" smd circle (at -2.5 2.5) (size 0.5 0.5) (property pad_prop_bga) (layers "F.Cu" "F.Paste" "F.Mask") (tstamp 39b6b719-1360-4de4-8aa1-06f4d8e98a9e))
  (pad "P10" smd circle (at -1.5 2.5) (size 0.5 0.5) (property pad_prop_bga) (layers "F.Cu" "F.Paste" "F.Mask") (tstamp c6445dbb-a358-4597-8e75-59df40bc5bcf))
  (pad "P11" smd circle (at -0.5 2.5) (size 0.5 0.5) (property pad_prop_bga) (layers "F.Cu" "F.Paste" "F.Mask") (tstamp 3dd5f2b8-eb10-44fd-b2c8-c027a85bf2a0))
  (pad "P12" smd circle (at 0.5 2.5) (size 0.5 0.5) (property pad_prop_bga) (layers "F.Cu" "F.Paste" "F.Mask") (tstamp 57eb267a-e067-4888-b417-7737496fd057))
  (pad "P13" smd circle (at 1.5 2.5) (size 0.5 0.5) (property pad_prop_bga) (layers "F.Cu" "F.Paste" "F.Mask") (tstamp 7f8aeacc-71a3-4d78-abe0-2d4ef2eb11ee))
  (pad "P14" smd circle (at 2.5 2.5) (size 0.5 0.5) (property pad_prop_bga) (layers "F.Cu" "F.Paste" "F.Mask") (tstamp d3739c0c-80f0-45c2-8d4a-3a1743e41626))
  (pad "P15" smd circle (at 3.5 2.5) (size 0.5 0.5) (property pad_prop_bga) (layers "F.Cu" "F.Paste" "F.Mask") (tstamp b6379847-58a6-4058-aa39-6e39f07edf27))
  (pad "P16" smd circle (at 4.5 2.5) (size 0.5 0.5) (property pad_prop_bga) (layers "F.Cu" "F.Paste" "F.Mask") (tstamp 5791493a-e40a-4512-abcd-6a42947bb272))
  (pad "P17" smd circle (at 5.5 2.5) (size 0.5 0.5) (property pad_prop_bga) (layers "F.Cu" "F.Paste" "F.Mask") (tstamp 245fc81f-f097-4823-ad66-39740ccf8af8))
  (pad "P18" smd circle (at 6.5 2.5) (size 0.5 0.5) (property pad_prop_bga) (layers "F.Cu" "F.Paste" "F.Mask") (tstamp f1e6f3ef-a6ed-4fe1-b6a0-3a7fd3bb07ca))
  (pad "P19" smd circle (at 7.5 2.5) (size 0.5 0.5) (property pad_prop_bga) (layers "F.Cu" "F.Paste" "F.Mask") (tstamp 896fe563-1075-462a-a355-373010b8ea87))
  (pad "P20" smd circle (at 8.5 2.5) (size 0.5 0.5) (property pad_prop_bga) (layers "F.Cu" "F.Paste" "F.Mask") (tstamp 13db51f5-70d6-417b-824d-bf853e3730ec))
  (pad "P21" smd circle (at 9.5 2.5) (size 0.5 0.5) (property pad_prop_bga) (layers "F.Cu" "F.Paste" "F.Mask") (tstamp 18233204-b43c-47c8-b4c7-7833b93b960b))
  (pad "P22" smd circle (at 10.5 2.5) (size 0.5 0.5) (property pad_prop_bga) (layers "F.Cu" "F.Paste" "F.Mask") (tstamp 5fae51b8-323b-443f-a55c-8dfae299610c))
  (pad "R1" smd circle (at -10.5 3.5) (size 0.5 0.5) (property pad_prop_bga) (layers "F.Cu" "F.Paste" "F.Mask") (tstamp 8e2b8ee4-8cfd-4008-a8de-673f41b404c2))
  (pad "R2" smd circle (at -9.5 3.5) (size 0.5 0.5) (property pad_prop_bga) (layers "F.Cu" "F.Paste" "F.Mask") (tstamp e97faebd-6ab0-45d6-80f9-a2d2dbab0a48))
  (pad "R3" smd circle (at -8.5 3.5) (size 0.5 0.5) (property pad_prop_bga) (layers "F.Cu" "F.Paste" "F.Mask") (tstamp 7ca01604-0349-4d27-a777-284eaa8c13a9))
  (pad "R4" smd circle (at -7.5 3.5) (size 0.5 0.5) (property pad_prop_bga) (layers "F.Cu" "F.Paste" "F.Mask") (tstamp e935fb00-9344-4c69-aaeb-b02ab146a026))
  (pad "R5" smd circle (at -6.5 3.5) (size 0.5 0.5) (property pad_prop_bga) (layers "F.Cu" "F.Paste" "F.Mask") (tstamp 92d2465f-72ac-45ab-9762-f899f6fbc7dc))
  (pad "R6" smd circle (at -5.5 3.5) (size 0.5 0.5) (property pad_prop_bga) (layers "F.Cu" "F.Paste" "F.Mask") (tstamp c4eb8586-e09d-4816-adb8-589283afcb8f))
  (pad "R7" smd circle (at -4.5 3.5) (size 0.5 0.5) (property pad_prop_bga) (layers "F.Cu" "F.Paste" "F.Mask") (tstamp 40a4a0e8-282f-4dcb-bfab-9d2a1df37f94))
  (pad "R8" smd circle (at -3.5 3.5) (size 0.5 0.5) (property pad_prop_bga) (layers "F.Cu" "F.Paste" "F.Mask") (tstamp 62cc5d81-3ab2-4f4a-8104-dbfad60b4117))
  (pad "R9" smd circle (at -2.5 3.5) (size 0.5 0.5) (property pad_prop_bga) (layers "F.Cu" "F.Paste" "F.Mask") (tstamp 1155fc3e-d5f4-4501-9aa6-509aa76858aa))
  (pad "R10" smd circle (at -1.5 3.5) (size 0.5 0.5) (property pad_prop_bga) (layers "F.Cu" "F.Paste" "F.Mask") (tstamp 704eebd9-aee2-4a45-b66d-84bd79019b24))
  (pad "R11" smd circle (at -0.5 3.5) (size 0.5 0.5) (property pad_prop_bga) (layers "F.Cu" "F.Paste" "F.Mask") (tstamp 438a056a-a749-42de-8244-692b0c5b282f))
  (pad "R12" smd circle (at 0.5 3.5) (size 0.5 0.5) (property pad_prop_bga) (layers "F.Cu" "F.Paste" "F.Mask") (tstamp 7d00098c-22a3-4572-b35b-1cafa3f8a793))
  (pad "R13" smd circle (at 1.5 3.5) (size 0.5 0.5) (property pad_prop_bga) (layers "F.Cu" "F.Paste" "F.Mask") (tstamp 9a58d941-80a0-413f-8794-b5c40e27d2ea))
  (pad "R14" smd circle (at 2.5 3.5) (size 0.5 0.5) (property pad_prop_bga) (layers "F.Cu" "F.Paste" "F.Mask") (tstamp f8b5f4d7-7bff-4f30-8b7b-eb541f06bc12))
  (pad "R15" smd circle (at 3.5 3.5) (size 0.5 0.5) (property pad_prop_bga) (layers "F.Cu" "F.Paste" "F.Mask") (tstamp d4245f16-4461-4b39-8328-2641b796ce8d))
  (pad "R16" smd circle (at 4.5 3.5) (size 0.5 0.5) (property pad_prop_bga) (layers "F.Cu" "F.Paste" "F.Mask") (tstamp 6d234b7e-a96e-4237-b3c8-c90deb318276))
  (pad "R17" smd circle (at 5.5 3.5) (size 0.5 0.5) (property pad_prop_bga) (layers "F.Cu" "F.Paste" "F.Mask") (tstamp 3b1bc5c1-6c9f-4027-96ed-f6ab86a12822))
  (pad "R18" smd circle (at 6.5 3.5) (size 0.5 0.5) (property pad_prop_bga) (layers "F.Cu" "F.Paste" "F.Mask") (tstamp 9a5decbe-1070-48f7-9391-21d2096ee8dc))
  (pad "R19" smd circle (at 7.5 3.5) (size 0.5 0.5) (property pad_prop_bga) (layers "F.Cu" "F.Paste" "F.Mask") (tstamp 2ce1f2a3-f9b4-4e3a-abea-6665bced7fcd))
  (pad "R20" smd circle (at 8.5 3.5) (size 0.5 0.5) (property pad_prop_bga) (layers "F.Cu" "F.Paste" "F.Mask") (tstamp 517b0c82-d20c-4534-93ce-6f9fae3c6e26))
  (pad "R21" smd circle (at 9.5 3.5) (size 0.5 0.5) (property pad_prop_bga) (layers "F.Cu" "F.Paste" "F.Mask") (tstamp 9c9b9b98-80d5-4666-bfb0-3d122c3736e0))
  (pad "R22" smd circle (at 10.5 3.5) (size 0.5 0.5) (property pad_prop_bga) (layers "F.Cu" "F.Paste" "F.Mask") (tstamp d6d168a8-dae1-423f-ade0-a3d6b6e345ba))
  (pad "T1" smd circle (at -10.5 4.5) (size 0.5 0.5) (property pad_prop_bga) (layers "F.Cu" "F.Paste" "F.Mask") (tstamp 6d1ef730-70af-4335-8a86-5da3b3e6dc1e))
  (pad "T2" smd circle (at -9.5 4.5) (size 0.5 0.5) (property pad_prop_bga) (layers "F.Cu" "F.Paste" "F.Mask") (tstamp 0928ee40-e8b0-49ba-ab3e-90a22d676368))
  (pad "T3" smd circle (at -8.5 4.5) (size 0.5 0.5) (property pad_prop_bga) (layers "F.Cu" "F.Paste" "F.Mask") (tstamp 54eefe9c-b300-48c8-af5b-94761a03d5fb))
  (pad "T4" smd circle (at -7.5 4.5) (size 0.5 0.5) (property pad_prop_bga) (layers "F.Cu" "F.Paste" "F.Mask") (tstamp 58c994cb-ab90-45c8-a184-15db730d94a8))
  (pad "T5" smd circle (at -6.5 4.5) (size 0.5 0.5) (property pad_prop_bga) (layers "F.Cu" "F.Paste" "F.Mask") (tstamp f4f4f9d2-c8a1-4e4f-afd3-112d70a32836))
  (pad "T6" smd circle (at -5.5 4.5) (size 0.5 0.5) (property pad_prop_bga) (layers "F.Cu" "F.Paste" "F.Mask") (tstamp 9d01e86d-1005-498f-9dd3-d337bdaaf796))
  (pad "T7" smd circle (at -4.5 4.5) (size 0.5 0.5) (property pad_prop_bga) (layers "F.Cu" "F.Paste" "F.Mask") (tstamp e636de3e-ae74-451a-9685-17b7cb30acc8))
  (pad "T8" smd circle (at -3.5 4.5) (size 0.5 0.5) (property pad_prop_bga) (layers "F.Cu" "F.Paste" "F.Mask") (tstamp 7eaddbd6-e8df-4cda-a593-e126cfd9a786))
  (pad "T9" smd circle (at -2.5 4.5) (size 0.5 0.5) (property pad_prop_bga) (layers "F.Cu" "F.Paste" "F.Mask") (tstamp bcfcdaf1-5700-4e04-b13a-d47b487c3e45))
  (pad "T10" smd circle (at -1.5 4.5) (size 0.5 0.5) (property pad_prop_bga) (layers "F.Cu" "F.Paste" "F.Mask") (tstamp 1ac5c878-6c90-4bf5-86a5-b59a662e837d))
  (pad "T11" smd circle (at -0.5 4.5) (size 0.5 0.5) (property pad_prop_bga) (layers "F.Cu" "F.Paste" "F.Mask") (tstamp 04fe9936-e50a-4d83-888b-e2102c7e04d8))
  (pad "T12" smd circle (at 0.5 4.5) (size 0.5 0.5) (property pad_prop_bga) (layers "F.Cu" "F.Paste" "F.Mask") (tstamp 32363266-0452-4e52-bd8f-40c19d95de93))
  (pad "T13" smd circle (at 1.5 4.5) (size 0.5 0.5) (property pad_prop_bga) (layers "F.Cu" "F.Paste" "F.Mask") (tstamp 22688f5c-129a-4c64-9e64-343f6f9f47f4))
  (pad "T14" smd circle (at 2.5 4.5) (size 0.5 0.5) (property pad_prop_bga) (layers "F.Cu" "F.Paste" "F.Mask") (tstamp 29d56192-461e-4bd7-a84b-d41f77224a46))
  (pad "T15" smd circle (at 3.5 4.5) (size 0.5 0.5) (property pad_prop_bga) (layers "F.Cu" "F.Paste" "F.Mask") (tstamp 36f424c7-75e3-4e73-a38a-3adcdebdba12))
  (pad "T16" smd circle (at 4.5 4.5) (size 0.5 0.5) (property pad_prop_bga) (layers "F.Cu" "F.Paste" "F.Mask") (tstamp dfca6a96-ccd3-4a9a-97c2-bc2972fe68fb))
  (pad "T17" smd circle (at 5.5 4.5) (size 0.5 0.5) (property pad_prop_bga) (layers "F.Cu" "F.Paste" "F.Mask") (tstamp 99a15a08-585a-44ab-b9b6-1451dbfd3d82))
  (pad "T18" smd circle (at 6.5 4.5) (size 0.5 0.5) (property pad_prop_bga) (layers "F.Cu" "F.Paste" "F.Mask") (tstamp c19b0727-b5ee-40c7-a235-95a83710f786))
  (pad "T19" smd circle (at 7.5 4.5) (size 0.5 0.5) (property pad_prop_bga) (layers "F.Cu" "F.Paste" "F.Mask") (tstamp 72d097bd-6885-406a-99af-508977be460b))
  (pad "T20" smd circle (at 8.5 4.5) (size 0.5 0.5) (property pad_prop_bga) (layers "F.Cu" "F.Paste" "F.Mask") (tstamp a7cd7171-1306-4085-a8aa-8b8d68d80a22))
  (pad "T21" smd circle (at 9.5 4.5) (size 0.5 0.5) (property pad_prop_bga) (layers "F.Cu" "F.Paste" "F.Mask") (tstamp b8f75ba5-1032-4c76-93c7-846285dc9f06))
  (pad "T22" smd circle (at 10.5 4.5) (size 0.5 0.5) (property pad_prop_bga) (layers "F.Cu" "F.Paste" "F.Mask") (tstamp 1d2f23fe-c1d3-489d-ae17-efbb0dc037b0))
  (pad "U1" smd circle (at -10.5 5.5) (size 0.5 0.5) (property pad_prop_bga) (layers "F.Cu" "F.Paste" "F.Mask") (tstamp 05a8216a-295a-4f27-b759-ac1e0317f76b))
  (pad "U2" smd circle (at -9.5 5.5) (size 0.5 0.5) (property pad_prop_bga) (layers "F.Cu" "F.Paste" "F.Mask") (tstamp c5fd678c-b2be-4f12-a9ec-1b0a3ae00589))
  (pad "U3" smd circle (at -8.5 5.5) (size 0.5 0.5) (property pad_prop_bga) (layers "F.Cu" "F.Paste" "F.Mask") (tstamp 9f75e79b-d3f6-4880-8614-0346719cd1e6))
  (pad "U4" smd circle (at -7.5 5.5) (size 0.5 0.5) (property pad_prop_bga) (layers "F.Cu" "F.Paste" "F.Mask") (tstamp 13b98345-44f9-4fe8-804b-4bbee48a0aac))
  (pad "U5" smd circle (at -6.5 5.5) (size 0.5 0.5) (property pad_prop_bga) (layers "F.Cu" "F.Paste" "F.Mask") (tstamp 60146893-c28c-41a0-8895-2aa1989519ff))
  (pad "U6" smd circle (at -5.5 5.5) (size 0.5 0.5) (property pad_prop_bga) (layers "F.Cu" "F.Paste" "F.Mask") (tstamp 25735401-de8b-4078-881e-fc1be32509bc))
  (pad "U7" smd circle (at -4.5 5.5) (size 0.5 0.5) (property pad_prop_bga) (layers "F.Cu" "F.Paste" "F.Mask") (tstamp 28a0067b-d534-4a3d-b73b-168d2514f3e6))
  (pad "U8" smd circle (at -3.5 5.5) (size 0.5 0.5) (property pad_prop_bga) (layers "F.Cu" "F.Paste" "F.Mask") (tstamp e32520d7-8fe0-4ebb-b178-dba41ee51de8))
  (pad "U9" smd circle (at -2.5 5.5) (size 0.5 0.5) (property pad_prop_bga) (layers "F.Cu" "F.Paste" "F.Mask") (tstamp 465ad4c6-eafe-4523-8af2-42915b19dc2a))
  (pad "U10" smd circle (at -1.5 5.5) (size 0.5 0.5) (property pad_prop_bga) (layers "F.Cu" "F.Paste" "F.Mask") (tstamp 53906a05-2003-4fd4-b71c-9e56eca0fe50))
  (pad "U11" smd circle (at -0.5 5.5) (size 0.5 0.5) (property pad_prop_bga) (layers "F.Cu" "F.Paste" "F.Mask") (tstamp 996dad3e-3d6e-4470-a8b3-5279b7ee8b20))
  (pad "U12" smd circle (at 0.5 5.5) (size 0.5 0.5) (property pad_prop_bga) (layers "F.Cu" "F.Paste" "F.Mask") (tstamp 55fdc56a-9014-4585-abee-adabe14942de))
  (pad "U13" smd circle (at 1.5 5.5) (size 0.5 0.5) (property pad_prop_bga) (layers "F.Cu" "F.Paste" "F.Mask") (tstamp 56162edb-989b-4ef0-bc8f-08205bc5450f))
  (pad "U14" smd circle (at 2.5 5.5) (size 0.5 0.5) (property pad_prop_bga) (layers "F.Cu" "F.Paste" "F.Mask") (tstamp 0f59780d-9ec4-45d4-a365-cf3bf4391445))
  (pad "U15" smd circle (at 3.5 5.5) (size 0.5 0.5) (property pad_prop_bga) (layers "F.Cu" "F.Paste" "F.Mask") (tstamp 2bcfd5d9-bc8e-475d-b004-5836b2ccaea0))
  (pad "U16" smd circle (at 4.5 5.5) (size 0.5 0.5) (property pad_prop_bga) (layers "F.Cu" "F.Paste" "F.Mask") (tstamp 1e652484-3d3d-4971-b025-93c5fb16a94a))
  (pad "U17" smd circle (at 5.5 5.5) (size 0.5 0.5) (property pad_prop_bga) (layers "F.Cu" "F.Paste" "F.Mask") (tstamp b51b27e6-3922-4c72-acbb-049af5e314bc))
  (pad "U18" smd circle (at 6.5 5.5) (size 0.5 0.5) (property pad_prop_bga) (layers "F.Cu" "F.Paste" "F.Mask") (tstamp e43ade4b-fbc3-4eda-baac-ccdd27755a6e))
  (pad "U19" smd circle (at 7.5 5.5) (size 0.5 0.5) (property pad_prop_bga) (layers "F.Cu" "F.Paste" "F.Mask") (tstamp 56f31fe8-5ffa-4d27-8a29-697a1cc0574c))
  (pad "U20" smd circle (at 8.5 5.5) (size 0.5 0.5) (property pad_prop_bga) (layers "F.Cu" "F.Paste" "F.Mask") (tstamp 3fc53784-29a8-4aa0-8e43-1747e949fd9d))
  (pad "U21" smd circle (at 9.5 5.5) (size 0.5 0.5) (property pad_prop_bga) (layers "F.Cu" "F.Paste" "F.Mask") (tstamp 2159525f-98e7-4180-9c2b-48a1001bb493))
  (pad "U22" smd circle (at 10.5 5.5) (size 0.5 0.5) (property pad_prop_bga) (layers "F.Cu" "F.Paste" "F.Mask") (tstamp 0e562761-78aa-4028-b20b-d250498d3362))
  (pad "V1" smd circle (at -10.5 6.5) (size 0.5 0.5) (property pad_prop_bga) (layers "F.Cu" "F.Paste" "F.Mask") (tstamp 7bb39d4c-fa1d-47c9-82c2-13778ed14f3d))
  (pad "V2" smd circle (at -9.5 6.5) (size 0.5 0.5) (property pad_prop_bga) (layers "F.Cu" "F.Paste" "F.Mask") (tstamp c3f7446b-b8f4-414c-8f75-f2c85ea3fa05))
  (pad "V3" smd circle (at -8.5 6.5) (size 0.5 0.5) (property pad_prop_bga) (layers "F.Cu" "F.Paste" "F.Mask") (tstamp a7eab49c-547a-4271-94ad-56e9c41abbae))
  (pad "V4" smd circle (at -7.5 6.5) (size 0.5 0.5) (property pad_prop_bga) (layers "F.Cu" "F.Paste" "F.Mask") (tstamp 90acae41-3a4f-4c9f-8250-131f0e94a942))
  (pad "V5" smd circle (at -6.5 6.5) (size 0.5 0.5) (property pad_prop_bga) (layers "F.Cu" "F.Paste" "F.Mask") (tstamp dbc29b31-4af9-44d7-8ef8-469a3bc468f3))
  (pad "V6" smd circle (at -5.5 6.5) (size 0.5 0.5) (property pad_prop_bga) (layers "F.Cu" "F.Paste" "F.Mask") (tstamp 7dbeed5d-39ba-47d3-bed2-45c35f45729a))
  (pad "V7" smd circle (at -4.5 6.5) (size 0.5 0.5) (property pad_prop_bga) (layers "F.Cu" "F.Paste" "F.Mask") (tstamp 2b152044-0b82-44b3-a601-337c498a40db))
  (pad "V8" smd circle (at -3.5 6.5) (size 0.5 0.5) (property pad_prop_bga) (layers "F.Cu" "F.Paste" "F.Mask") (tstamp 9081c07d-4280-496c-99e8-8cf309036b54))
  (pad "V9" smd circle (at -2.5 6.5) (size 0.5 0.5) (property pad_prop_bga) (layers "F.Cu" "F.Paste" "F.Mask") (tstamp 4e070e5b-5bc6-4ad0-a449-47825ece09f8))
  (pad "V10" smd circle (at -1.5 6.5) (size 0.5 0.5) (property pad_prop_bga) (layers "F.Cu" "F.Paste" "F.Mask") (tstamp 5fb180ba-47f6-4489-956c-b82d3ac3e413))
  (pad "V11" smd circle (at -0.5 6.5) (size 0.5 0.5) (property pad_prop_bga) (layers "F.Cu" "F.Paste" "F.Mask") (tstamp 68bcd729-508a-4333-854c-94536d978674))
  (pad "V12" smd circle (at 0.5 6.5) (size 0.5 0.5) (property pad_prop_bga) (layers "F.Cu" "F.Paste" "F.Mask") (tstamp 7ae0b7ef-6abe-469b-bc15-46b5172475ec))
  (pad "V13" smd circle (at 1.5 6.5) (size 0.5 0.5) (property pad_prop_bga) (layers "F.Cu" "F.Paste" "F.Mask") (tstamp ec52dcba-7fa7-43c4-905b-afdc58a2c277))
  (pad "V14" smd circle (at 2.5 6.5) (size 0.5 0.5) (property pad_prop_bga) (layers "F.Cu" "F.Paste" "F.Mask") (tstamp b92fa0d9-a65d-4053-87f5-9d230858f96a))
  (pad "V15" smd circle (at 3.5 6.5) (size 0.5 0.5) (property pad_prop_bga) (layers "F.Cu" "F.Paste" "F.Mask") (tstamp 41fb6c84-af94-4a72-b263-b7ccd2c211e8))
  (pad "V16" smd circle (at 4.5 6.5) (size 0.5 0.5) (property pad_prop_bga) (layers "F.Cu" "F.Paste" "F.Mask") (tstamp 10d66fb1-fb66-4c9e-9ff3-3d4f29d104cd))
  (pad "V17" smd circle (at 5.5 6.5) (size 0.5 0.5) (property pad_prop_bga) (layers "F.Cu" "F.Paste" "F.Mask") (tstamp 4cfe16a5-419b-484c-9767-abf77a80cb16))
  (pad "V18" smd circle (at 6.5 6.5) (size 0.5 0.5) (property pad_prop_bga) (layers "F.Cu" "F.Paste" "F.Mask") (tstamp b5873cc8-33ba-4666-8d0c-4f2da8d718de))
  (pad "V19" smd circle (at 7.5 6.5) (size 0.5 0.5) (property pad_prop_bga) (layers "F.Cu" "F.Paste" "F.Mask") (tstamp 0be3ac66-a372-46b9-8f48-d074048600fc))
  (pad "V20" smd circle (at 8.5 6.5) (size 0.5 0.5) (property pad_prop_bga) (layers "F.Cu" "F.Paste" "F.Mask") (tstamp c004fc96-bb0e-422a-b251-cd2fb323b3a2))
  (pad "V21" smd circle (at 9.5 6.5) (size 0.5 0.5) (property pad_prop_bga) (layers "F.Cu" "F.Paste" "F.Mask") (tstamp 34e003ea-8dac-4b6e-89e8-83201b2c1ee9))
  (pad "V22" smd circle (at 10.5 6.5) (size 0.5 0.5) (property pad_prop_bga) (layers "F.Cu" "F.Paste" "F.Mask") (tstamp dfa63101-0364-4a1b-addc-b32a78d75457))
  (pad "W1" smd circle (at -10.5 7.5) (size 0.5 0.5) (property pad_prop_bga) (layers "F.Cu" "F.Paste" "F.Mask") (tstamp 54918bd5-858e-4ed7-ac75-99c8596bd1cf))
  (pad "W2" smd circle (at -9.5 7.5) (size 0.5 0.5) (property pad_prop_bga) (layers "F.Cu" "F.Paste" "F.Mask") (tstamp 335735fa-c0d1-4712-b6ab-9aa436d01700))
  (pad "W3" smd circle (at -8.5 7.5) (size 0.5 0.5) (property pad_prop_bga) (layers "F.Cu" "F.Paste" "F.Mask") (tstamp 2cbe3a4d-2e1d-41e0-8d5a-d61e7f0f37d2))
  (pad "W4" smd circle (at -7.5 7.5) (size 0.5 0.5) (property pad_prop_bga) (layers "F.Cu" "F.Paste" "F.Mask") (tstamp d7c64e2f-0475-44a8-be76-84280ce1f2c4))
  (pad "W5" smd circle (at -6.5 7.5) (size 0.5 0.5) (property pad_prop_bga) (layers "F.Cu" "F.Paste" "F.Mask") (tstamp f953bfd6-fb96-4050-b7b7-d999e1e41f00))
  (pad "W6" smd circle (at -5.5 7.5) (size 0.5 0.5) (property pad_prop_bga) (layers "F.Cu" "F.Paste" "F.Mask") (tstamp 00831ec6-a910-466e-b8e4-99532deb29fe))
  (pad "W7" smd circle (at -4.5 7.5) (size 0.5 0.5) (property pad_prop_bga) (layers "F.Cu" "F.Paste" "F.Mask") (tstamp 956e0054-3072-493e-9ce9-a7ea529a0a39))
  (pad "W8" smd circle (at -3.5 7.5) (size 0.5 0.5) (property pad_prop_bga) (layers "F.Cu" "F.Paste" "F.Mask") (tstamp 425e96d1-d872-49b8-bd9c-255b8e17f8d6))
  (pad "W9" smd circle (at -2.5 7.5) (size 0.5 0.5) (property pad_prop_bga) (layers "F.Cu" "F.Paste" "F.Mask") (tstamp 1f598c59-166f-444a-9aa9-aadbcd2444de))
  (pad "W10" smd circle (at -1.5 7.5) (size 0.5 0.5) (property pad_prop_bga) (layers "F.Cu" "F.Paste" "F.Mask") (tstamp 4cb5de02-8874-41fa-b93c-88da3b2a3059))
  (pad "W11" smd circle (at -0.5 7.5) (size 0.5 0.5) (property pad_prop_bga) (layers "F.Cu" "F.Paste" "F.Mask") (tstamp 715d3dc7-be8f-4b63-8160-8ae062c47977))
  (pad "W12" smd circle (at 0.5 7.5) (size 0.5 0.5) (property pad_prop_bga) (layers "F.Cu" "F.Paste" "F.Mask") (tstamp 6c76b1d7-85c0-4268-b9ea-1c9f0947e03f))
  (pad "W13" smd circle (at 1.5 7.5) (size 0.5 0.5) (property pad_prop_bga) (layers "F.Cu" "F.Paste" "F.Mask") (tstamp c6945b31-01a9-48a4-bad5-534492d50b99))
  (pad "W14" smd circle (at 2.5 7.5) (size 0.5 0.5) (property pad_prop_bga) (layers "F.Cu" "F.Paste" "F.Mask") (tstamp f846595a-701e-4b28-8993-642d97d0357b))
  (pad "W15" smd circle (at 3.5 7.5) (size 0.5 0.5) (property pad_prop_bga) (layers "F.Cu" "F.Paste" "F.Mask") (tstamp 6f9ae7df-7154-4142-9990-d0e92b8eadbe))
  (pad "W16" smd circle (at 4.5 7.5) (size 0.5 0.5) (property pad_prop_bga) (layers "F.Cu" "F.Paste" "F.Mask") (tstamp 2099e616-5c31-45d3-acd7-af3b2c6361d0))
  (pad "W17" smd circle (at 5.5 7.5) (size 0.5 0.5) (property pad_prop_bga) (layers "F.Cu" "F.Paste" "F.Mask") (tstamp 40eb0327-0151-42e1-9d0b-ed5c5d856666))
  (pad "W18" smd circle (at 6.5 7.5) (size 0.5 0.5) (property pad_prop_bga) (layers "F.Cu" "F.Paste" "F.Mask") (tstamp 18536278-0ce8-41ab-ae49-694ae009dcba))
  (pad "W19" smd circle (at 7.5 7.5) (size 0.5 0.5) (property pad_prop_bga) (layers "F.Cu" "F.Paste" "F.Mask") (tstamp fadf9413-7eaf-4ad1-bb06-b61c8ba2b9df))
  (pad "W20" smd circle (at 8.5 7.5) (size 0.5 0.5) (property pad_prop_bga) (layers "F.Cu" "F.Paste" "F.Mask") (tstamp 02061439-1156-4a0e-b4ee-f2722c4073de))
  (pad "W21" smd circle (at 9.5 7.5) (size 0.5 0.5) (property pad_prop_bga) (layers "F.Cu" "F.Paste" "F.Mask") (tstamp 7e926712-fc67-4087-8b01-114962060543))
  (pad "W22" smd circle (at 10.5 7.5) (size 0.5 0.5) (property pad_prop_bga) (layers "F.Cu" "F.Paste" "F.Mask") (tstamp 9260af81-fcd3-4b78-9d28-d8992c6b0d6a))
  (pad "Y1" smd circle (at -10.5 8.5) (size 0.5 0.5) (property pad_prop_bga) (layers "F.Cu" "F.Paste" "F.Mask") (tstamp db92cd69-ef54-4802-b625-436a3c2e8e44))
  (pad "Y2" smd circle (at -9.5 8.5) (size 0.5 0.5) (property pad_prop_bga) (layers "F.Cu" "F.Paste" "F.Mask") (tstamp 58e6726c-b96f-4f57-ae7c-b8c475f1845e))
  (pad "Y3" smd circle (at -8.5 8.5) (size 0.5 0.5) (property pad_prop_bga) (layers "F.Cu" "F.Paste" "F.Mask") (tstamp 30fccdbc-d129-4398-9d4d-2b2e744b6e57))
  (pad "Y4" smd circle (at -7.5 8.5) (size 0.5 0.5) (property pad_prop_bga) (layers "F.Cu" "F.Paste" "F.Mask") (tstamp 437869b6-0b3b-486e-b0a3-8cfa1a9a54cf))
  (pad "Y5" smd circle (at -6.5 8.5) (size 0.5 0.5) (property pad_prop_bga) (layers "F.Cu" "F.Paste" "F.Mask") (tstamp 969fcb78-25e1-493e-87d5-0843153b9fa7))
  (pad "Y6" smd circle (at -5.5 8.5) (size 0.5 0.5) (property pad_prop_bga) (layers "F.Cu" "F.Paste" "F.Mask") (tstamp da573ecb-46d4-4351-a620-f8d492842014))
  (pad "Y7" smd circle (at -4.5 8.5) (size 0.5 0.5) (property pad_prop_bga) (layers "F.Cu" "F.Paste" "F.Mask") (tstamp c28b25d2-f6d0-4121-a24c-806414d2e1b3))
  (pad "Y8" smd circle (at -3.5 8.5) (size 0.5 0.5) (property pad_prop_bga) (layers "F.Cu" "F.Paste" "F.Mask") (tstamp a6c20be2-2866-497d-9248-69f7c40fec67))
  (pad "Y9" smd circle (at -2.5 8.5) (size 0.5 0.5) (property pad_prop_bga) (layers "F.Cu" "F.Paste" "F.Mask") (tstamp dbdbd3f7-ab16-4af8-94d9-a66949c3fcf9))
  (pad "Y10" smd circle (at -1.5 8.5) (size 0.5 0.5) (property pad_prop_bga) (layers "F.Cu" "F.Paste" "F.Mask") (tstamp ff613221-804b-4f85-bec9-0b72adf80693))
  (pad "Y11" smd circle (at -0.5 8.5) (size 0.5 0.5) (property pad_prop_bga) (layers "F.Cu" "F.Paste" "F.Mask") (tstamp 45f8a612-92ec-4314-86c4-0ef0fe1f5a14))
  (pad "Y12" smd circle (at 0.5 8.5) (size 0.5 0.5) (property pad_prop_bga) (layers "F.Cu" "F.Paste" "F.Mask") (tstamp c6254e72-3f0f-4145-acb0-d6c609d2fc3f))
  (pad "Y13" smd circle (at 1.5 8.5) (size 0.5 0.5) (property pad_prop_bga) (layers "F.Cu" "F.Paste" "F.Mask") (tstamp 5c3bf193-7415-4265-8340-dcc643051b5f))
  (pad "Y14" smd circle (at 2.5 8.5) (size 0.5 0.5) (property pad_prop_bga) (layers "F.Cu" "F.Paste" "F.Mask") (tstamp abba8e75-1ffe-4223-b663-96a50d95321b))
  (pad "Y15" smd circle (at 3.5 8.5) (size 0.5 0.5) (property pad_prop_bga) (layers "F.Cu" "F.Paste" "F.Mask") (tstamp a6a00854-ed09-4f69-83c8-0608be763da8))
  (pad "Y16" smd circle (at 4.5 8.5) (size 0.5 0.5) (property pad_prop_bga) (layers "F.Cu" "F.Paste" "F.Mask") (tstamp c5a5e661-4516-4818-82d7-629682bc534e))
  (pad "Y17" smd circle (at 5.5 8.5) (size 0.5 0.5) (property pad_prop_bga) (layers "F.Cu" "F.Paste" "F.Mask") (tstamp 574a2a11-c8d4-4ab1-941d-8a17f9de6864))
  (pad "Y18" smd circle (at 6.5 8.5) (size 0.5 0.5) (property pad_prop_bga) (layers "F.Cu" "F.Paste" "F.Mask") (tstamp 6d3675ed-a60b-4dbf-941f-1f204f0a3af2))
  (pad "Y19" smd circle (at 7.5 8.5) (size 0.5 0.5) (property pad_prop_bga) (layers "F.Cu" "F.Paste" "F.Mask") (tstamp df659d69-76a7-419d-832a-c0c9a893cbb5))
  (pad "Y20" smd circle (at 8.5 8.5) (size 0.5 0.5) (property pad_prop_bga) (layers "F.Cu" "F.Paste" "F.Mask") (tstamp b23c3af7-f342-41d1-81e4-b5396b6e2b24))
  (pad "Y21" smd circle (at 9.5 8.5) (size 0.5 0.5) (property pad_prop_bga) (layers "F.Cu" "F.Paste" "F.Mask") (tstamp 4e784b65-a468-4ca7-a7f3-ea66b8a574be))
  (pad "Y22" smd circle (at 10.5 8.5) (size 0.5 0.5) (property pad_prop_bga) (layers "F.Cu" "F.Paste" "F.Mask") (tstamp d325992b-5f37-4a68-8d7c-44d88bceedd6))
  (model "${KICAD6_3DMODEL_DIR}/Package_BGA.3dshapes/BGA-484_23.0x23.0mm_Layout22x22_P1.0mm.wrl"
    (offset (xyz 0 0 0))
    (scale (xyz 1 1 1))
    (rotate (xyz 0 0 0))
  )
)
