(footprint "BGA-352_35.0x35.0mm_Layout26x26_P1.27mm" (version 20211014) (generator pcbnew)
  (layer "F.Cu")
  (tedit 5A058D74)
  (descr "BGA-352, https://www.fujitsu.com/downloads/MICRO/fma/pdfmcu/b352p05.pdf")
  (tags "BGA-352")
  (attr smd)
  (fp_text reference "REF**" (at 0 -18.6) (layer "F.SilkS")
    (effects (font (size 1 1) (thickness 0.15)))
    (tstamp 0eb21d2b-b11c-414e-a5cd-ccc55622bc74)
  )
  (fp_text value "BGA-352_35.0x35.0mm_Layout26x26_P1.27mm" (at 0 19) (layer "F.Fab")
    (effects (font (size 1 1) (thickness 0.15)))
    (tstamp 2b8dc0f5-13aa-405a-8048-9b120713d565)
  )
  (fp_text user "${REFERENCE}" (at 0 0) (layer "F.Fab")
    (effects (font (size 1 1) (thickness 0.15)))
    (tstamp 05178fc9-4d44-4b86-a203-e98cf68e7ca1)
  )
  (fp_line (start -17.6 -17.6) (end 17.6 -17.6) (layer "F.SilkS") (width 0.12) (tstamp 1ae4f809-67b4-40cd-8fe4-6b184726bd46))
  (fp_line (start -16.8 -17.8) (end -17.8 -17.8) (layer "F.SilkS") (width 0.12) (tstamp 2d8f2798-e31d-4653-bf17-c749cf4e0d50))
  (fp_line (start -17.8 -16.8) (end -17.8 -16.8) (layer "F.SilkS") (width 0.12) (tstamp bae16d87-e999-4a87-8b7b-24e71694d937))
  (fp_line (start 17.6 17.6) (end -17.6 17.6) (layer "F.SilkS") (width 0.12) (tstamp c0e51d03-e55b-4e82-be3a-d0e88c18e674))
  (fp_line (start -17.6 17.6) (end -17.6 -17.6) (layer "F.SilkS") (width 0.12) (tstamp c19ab443-cac4-4049-8bb7-26fbc54efa50))
  (fp_line (start -17.8 -17.8) (end -17.8 -16.8) (layer "F.SilkS") (width 0.12) (tstamp e879d3ed-1c0d-4398-ba13-4da4726ae49f))
  (fp_line (start 17.6 -17.6) (end 17.6 17.6) (layer "F.SilkS") (width 0.12) (tstamp f6fc63e9-d6f6-4ec9-a416-e9b19960fd2c))
  (fp_line (start -18.5 -18.5) (end 18.5 -18.5) (layer "F.CrtYd") (width 0.05) (tstamp 457316f9-9800-46ae-b1cf-c1ecc0b4b628))
  (fp_line (start 18.5 18.5) (end -18.5 18.5) (layer "F.CrtYd") (width 0.05) (tstamp ad71f9dd-f5bd-479d-b052-8c3900b87702))
  (fp_line (start -18.5 -18.5) (end -18.5 18.5) (layer "F.CrtYd") (width 0.05) (tstamp b2062328-3990-45c9-a008-7bce4e0334df))
  (fp_line (start 18.5 18.5) (end 18.5 -18.5) (layer "F.CrtYd") (width 0.05) (tstamp d99b175b-6e8a-4f76-8061-31efe6cdc635))
  (fp_line (start -17.5 -16.5) (end -17.5 17.5) (layer "F.Fab") (width 0.1) (tstamp 01b6d7d7-8df5-4072-beaa-d632b5493808))
  (fp_line (start -16.5 -17.5) (end -17.5 -16.5) (layer "F.Fab") (width 0.1) (tstamp 5ac2c26c-5ca3-4b30-b721-28626676125a))
  (fp_line (start 17.5 17.5) (end 17.5 -17.5) (layer "F.Fab") (width 0.1) (tstamp 9f6e3e08-15df-4fd3-affc-de76fcaaa36b))
  (fp_line (start -17.5 17.5) (end 17.5 17.5) (layer "F.Fab") (width 0.1) (tstamp b6b180af-43ae-4533-806f-ca38f00ae436))
  (fp_line (start 17.5 -17.5) (end -16.5 -17.5) (layer "F.Fab") (width 0.1) (tstamp b9346d3a-89d2-4186-a180-9ace007cf04d))
  (pad "A1" smd circle (at -15.88 -15.88) (size 0.76 0.76) (property pad_prop_bga) (layers "F.Cu" "F.Paste" "F.Mask") (tstamp ece0ac4e-fb9e-4813-87fb-ac17c3ca2780))
  (pad "A2" smd circle (at -14.61 -15.88) (size 0.76 0.76) (property pad_prop_bga) (layers "F.Cu" "F.Paste" "F.Mask") (tstamp af981a93-c6be-4883-8adc-b69b23a59f5a))
  (pad "A3" smd circle (at -13.34 -15.88) (size 0.76 0.76) (property pad_prop_bga) (layers "F.Cu" "F.Paste" "F.Mask") (tstamp a539ea99-ac2f-44df-9422-edcdc42ec995))
  (pad "A4" smd circle (at -12.06 -15.88) (size 0.76 0.76) (property pad_prop_bga) (layers "F.Cu" "F.Paste" "F.Mask") (tstamp fd1674c8-4878-4f44-a64a-5c5332e39c4a))
  (pad "A5" smd circle (at -10.79 -15.88) (size 0.76 0.76) (property pad_prop_bga) (layers "F.Cu" "F.Paste" "F.Mask") (tstamp f19c1437-e164-4879-a259-e4ad8365d82b))
  (pad "A6" smd circle (at -9.53 -15.88) (size 0.76 0.76) (property pad_prop_bga) (layers "F.Cu" "F.Paste" "F.Mask") (tstamp db8be2ff-b615-4de0-8b69-0dd3b0300751))
  (pad "A7" smd circle (at -8.26 -15.88) (size 0.76 0.76) (property pad_prop_bga) (layers "F.Cu" "F.Paste" "F.Mask") (tstamp 586fe217-998c-4d13-a579-395fd24437b9))
  (pad "A8" smd circle (at -6.99 -15.88) (size 0.76 0.76) (property pad_prop_bga) (layers "F.Cu" "F.Paste" "F.Mask") (tstamp cdb9afba-2a66-4ac0-b498-55f6b7f07c32))
  (pad "A9" smd circle (at -5.71 -15.88) (size 0.76 0.76) (property pad_prop_bga) (layers "F.Cu" "F.Paste" "F.Mask") (tstamp dbc7e19d-2bd7-4401-95e7-8e74613f23b9))
  (pad "A10" smd circle (at -4.45 -15.88) (size 0.76 0.76) (property pad_prop_bga) (layers "F.Cu" "F.Paste" "F.Mask") (tstamp 78ae4e8d-719e-44aa-9416-94c12600eb4f))
  (pad "A11" smd circle (at -3.17 -15.88) (size 0.76 0.76) (property pad_prop_bga) (layers "F.Cu" "F.Paste" "F.Mask") (tstamp 22f514f5-7c97-4503-a64f-a32c6980d723))
  (pad "A12" smd circle (at -1.91 -15.88) (size 0.76 0.76) (property pad_prop_bga) (layers "F.Cu" "F.Paste" "F.Mask") (tstamp 97c28926-ec82-41db-ac37-68775f6037ea))
  (pad "A13" smd circle (at -0.64 -15.88) (size 0.76 0.76) (property pad_prop_bga) (layers "F.Cu" "F.Paste" "F.Mask") (tstamp dd3a1546-d1d5-40aa-98fd-70632f54e33f))
  (pad "A14" smd circle (at 0.64 -15.88) (size 0.76 0.76) (property pad_prop_bga) (layers "F.Cu" "F.Paste" "F.Mask") (tstamp ab312ad3-ca83-41ea-9c55-0ce4ace226df))
  (pad "A15" smd circle (at 1.91 -15.88) (size 0.76 0.76) (property pad_prop_bga) (layers "F.Cu" "F.Paste" "F.Mask") (tstamp 7ee1613f-a1fc-4752-84fa-5eceb0ec1811))
  (pad "A16" smd circle (at 3.17 -15.88) (size 0.76 0.76) (property pad_prop_bga) (layers "F.Cu" "F.Paste" "F.Mask") (tstamp ab91afc9-581d-4f8a-ac2c-38161fc666e9))
  (pad "A17" smd circle (at 4.45 -15.88) (size 0.76 0.76) (property pad_prop_bga) (layers "F.Cu" "F.Paste" "F.Mask") (tstamp 8e74b721-4d22-4c35-8bca-99cdd0d39213))
  (pad "A18" smd circle (at 5.71 -15.88) (size 0.76 0.76) (property pad_prop_bga) (layers "F.Cu" "F.Paste" "F.Mask") (tstamp 6c154776-fada-43f4-a0ae-a09472c70dba))
  (pad "A19" smd circle (at 6.99 -15.88) (size 0.76 0.76) (property pad_prop_bga) (layers "F.Cu" "F.Paste" "F.Mask") (tstamp 12cb6b1c-8f22-4377-849d-202c7da3d694))
  (pad "A20" smd circle (at 8.26 -15.88) (size 0.76 0.76) (property pad_prop_bga) (layers "F.Cu" "F.Paste" "F.Mask") (tstamp 5e4b072a-79b2-4627-9e6c-01ffad762a23))
  (pad "A21" smd circle (at 9.53 -15.88) (size 0.76 0.76) (property pad_prop_bga) (layers "F.Cu" "F.Paste" "F.Mask") (tstamp a99cbc52-f9f4-4044-801a-0c814d7b0e2f))
  (pad "A22" smd circle (at 10.79 -15.88) (size 0.76 0.76) (property pad_prop_bga) (layers "F.Cu" "F.Paste" "F.Mask") (tstamp ac32adbd-eba9-4935-9007-77c582dc4d07))
  (pad "A23" smd circle (at 12.06 -15.88) (size 0.76 0.76) (property pad_prop_bga) (layers "F.Cu" "F.Paste" "F.Mask") (tstamp 75064d92-8930-4a63-bc3b-827a772673f1))
  (pad "A24" smd circle (at 13.34 -15.88) (size 0.76 0.76) (property pad_prop_bga) (layers "F.Cu" "F.Paste" "F.Mask") (tstamp 42a9437a-5aab-4062-9c4f-99c3770ac53d))
  (pad "A25" smd circle (at 14.61 -15.88) (size 0.76 0.76) (property pad_prop_bga) (layers "F.Cu" "F.Paste" "F.Mask") (tstamp bac8ff1c-def1-498f-a7f2-fd26323c5a70))
  (pad "A26" smd circle (at 15.88 -15.88) (size 0.76 0.76) (property pad_prop_bga) (layers "F.Cu" "F.Paste" "F.Mask") (tstamp 8845263f-0655-4d68-a1c8-754fa5c9d1d1))
  (pad "AA1" smd circle (at -15.88 9.53) (size 0.76 0.76) (property pad_prop_bga) (layers "F.Cu" "F.Paste" "F.Mask") (tstamp 2d1fc406-4c01-494c-b4fb-7f3819d759e9))
  (pad "AA2" smd circle (at -14.61 9.53) (size 0.76 0.76) (property pad_prop_bga) (layers "F.Cu" "F.Paste" "F.Mask") (tstamp d0fed8b5-9e3e-40b8-bee8-34033e70c72b))
  (pad "AA3" smd circle (at -13.34 9.53) (size 0.76 0.76) (property pad_prop_bga) (layers "F.Cu" "F.Paste" "F.Mask") (tstamp 44f43983-f60d-4fe5-a393-9d1800f40318))
  (pad "AA4" smd circle (at -12.06 9.53) (size 0.76 0.76) (property pad_prop_bga) (layers "F.Cu" "F.Paste" "F.Mask") (tstamp 3f40c183-9368-48b4-a586-fbb97577ef83))
  (pad "AA23" smd circle (at 12.06 9.53) (size 0.76 0.76) (property pad_prop_bga) (layers "F.Cu" "F.Paste" "F.Mask") (tstamp fab5e006-9135-4b12-8507-6834fc678921))
  (pad "AA24" smd circle (at 13.34 9.53) (size 0.76 0.76) (property pad_prop_bga) (layers "F.Cu" "F.Paste" "F.Mask") (tstamp 1c5ec7d4-cc98-467a-8798-af4a9760fb0b))
  (pad "AA25" smd circle (at 14.61 9.53) (size 0.76 0.76) (property pad_prop_bga) (layers "F.Cu" "F.Paste" "F.Mask") (tstamp 6a9ee1fe-8acc-481f-bf28-4abf390d6f61))
  (pad "AA26" smd circle (at 15.88 9.53) (size 0.76 0.76) (property pad_prop_bga) (layers "F.Cu" "F.Paste" "F.Mask") (tstamp 5b95035b-c9e6-439c-9271-b498ee63a73c))
  (pad "AB1" smd circle (at -15.88 10.79) (size 0.76 0.76) (property pad_prop_bga) (layers "F.Cu" "F.Paste" "F.Mask") (tstamp fa2c37dc-f5fb-4bb0-adef-71481fee2d10))
  (pad "AB2" smd circle (at -14.61 10.79) (size 0.76 0.76) (property pad_prop_bga) (layers "F.Cu" "F.Paste" "F.Mask") (tstamp 3e7ae7f5-d02d-4f79-9a57-40feea38319a))
  (pad "AB3" smd circle (at -13.34 10.79) (size 0.76 0.76) (property pad_prop_bga) (layers "F.Cu" "F.Paste" "F.Mask") (tstamp 43802807-6e84-47f5-ba5d-baff5c225c7d))
  (pad "AB4" smd circle (at -12.06 10.79) (size 0.76 0.76) (property pad_prop_bga) (layers "F.Cu" "F.Paste" "F.Mask") (tstamp 68135970-3350-41aa-ae2c-dd2e7f555ae8))
  (pad "AB23" smd circle (at 12.06 10.79) (size 0.76 0.76) (property pad_prop_bga) (layers "F.Cu" "F.Paste" "F.Mask") (tstamp 76da3e47-5d60-4241-accc-a9ac6db2c013))
  (pad "AB24" smd circle (at 13.34 10.79) (size 0.76 0.76) (property pad_prop_bga) (layers "F.Cu" "F.Paste" "F.Mask") (tstamp e834c8a5-4cc6-484a-821d-0ffd82fcda2d))
  (pad "AB25" smd circle (at 14.61 10.79) (size 0.76 0.76) (property pad_prop_bga) (layers "F.Cu" "F.Paste" "F.Mask") (tstamp d30e9e91-fa06-452b-9ac1-939ff6e1c2be))
  (pad "AB26" smd circle (at 15.88 10.79) (size 0.76 0.76) (property pad_prop_bga) (layers "F.Cu" "F.Paste" "F.Mask") (tstamp 0667a878-6614-4492-92c4-cecbe2cd4719))
  (pad "AC1" smd circle (at -15.88 12.06) (size 0.76 0.76) (property pad_prop_bga) (layers "F.Cu" "F.Paste" "F.Mask") (tstamp 872134d5-1f9f-4fa0-bb30-8623dbfa6714))
  (pad "AC2" smd circle (at -14.61 12.06) (size 0.76 0.76) (property pad_prop_bga) (layers "F.Cu" "F.Paste" "F.Mask") (tstamp 00c95518-8b96-4057-b887-cb201cda7d00))
  (pad "AC3" smd circle (at -13.34 12.06) (size 0.76 0.76) (property pad_prop_bga) (layers "F.Cu" "F.Paste" "F.Mask") (tstamp 7cf70b9c-c9ed-470e-9900-6adf6963476b))
  (pad "AC4" smd circle (at -12.06 12.06) (size 0.76 0.76) (property pad_prop_bga) (layers "F.Cu" "F.Paste" "F.Mask") (tstamp 23905b66-d478-40e5-8fc5-f631b8b061d7))
  (pad "AC5" smd circle (at -10.79 12.06) (size 0.76 0.76) (property pad_prop_bga) (layers "F.Cu" "F.Paste" "F.Mask") (tstamp d7c69833-7687-4e58-abfe-42dc285255bc))
  (pad "AC6" smd circle (at -9.53 12.06) (size 0.76 0.76) (property pad_prop_bga) (layers "F.Cu" "F.Paste" "F.Mask") (tstamp 26430d78-3d01-401c-a935-65aa21f76f79))
  (pad "AC7" smd circle (at -8.26 12.06) (size 0.76 0.76) (property pad_prop_bga) (layers "F.Cu" "F.Paste" "F.Mask") (tstamp f6563ba2-017f-4db5-88cc-56a2ef63f077))
  (pad "AC8" smd circle (at -6.99 12.06) (size 0.76 0.76) (property pad_prop_bga) (layers "F.Cu" "F.Paste" "F.Mask") (tstamp 38a5af8f-6713-411d-9fde-3c9ca49ddfe6))
  (pad "AC9" smd circle (at -5.71 12.06) (size 0.76 0.76) (property pad_prop_bga) (layers "F.Cu" "F.Paste" "F.Mask") (tstamp 3a9dec3f-2469-45bb-b481-c28515173395))
  (pad "AC10" smd circle (at -4.45 12.06) (size 0.76 0.76) (property pad_prop_bga) (layers "F.Cu" "F.Paste" "F.Mask") (tstamp f26f7d09-6f35-4d5b-8d10-e588839424cc))
  (pad "AC11" smd circle (at -3.17 12.06) (size 0.76 0.76) (property pad_prop_bga) (layers "F.Cu" "F.Paste" "F.Mask") (tstamp 02cdadad-ee1b-4da6-93bc-932b0925321f))
  (pad "AC12" smd circle (at -1.91 12.06) (size 0.76 0.76) (property pad_prop_bga) (layers "F.Cu" "F.Paste" "F.Mask") (tstamp 1e729972-d06c-47be-938a-8d44861b9a3f))
  (pad "AC13" smd circle (at -0.64 12.06) (size 0.76 0.76) (property pad_prop_bga) (layers "F.Cu" "F.Paste" "F.Mask") (tstamp 00dee079-995b-4356-97a9-8681a1d5131c))
  (pad "AC14" smd circle (at 0.64 12.06) (size 0.76 0.76) (property pad_prop_bga) (layers "F.Cu" "F.Paste" "F.Mask") (tstamp 28aecc5e-6c75-4730-8fb2-d4b9905cc52c))
  (pad "AC15" smd circle (at 1.91 12.06) (size 0.76 0.76) (property pad_prop_bga) (layers "F.Cu" "F.Paste" "F.Mask") (tstamp 95b1a0c6-db00-4a6e-b8b7-6359896adf62))
  (pad "AC16" smd circle (at 3.17 12.06) (size 0.76 0.76) (property pad_prop_bga) (layers "F.Cu" "F.Paste" "F.Mask") (tstamp 835389ff-9090-431a-9942-3fbad17522a2))
  (pad "AC17" smd circle (at 4.45 12.06) (size 0.76 0.76) (property pad_prop_bga) (layers "F.Cu" "F.Paste" "F.Mask") (tstamp 53267b74-34af-4894-b826-ad8147f1a8dd))
  (pad "AC18" smd circle (at 5.71 12.06) (size 0.76 0.76) (property pad_prop_bga) (layers "F.Cu" "F.Paste" "F.Mask") (tstamp ae7d3c71-227d-40c2-b016-d65e0cc618f4))
  (pad "AC19" smd circle (at 6.99 12.06) (size 0.76 0.76) (property pad_prop_bga) (layers "F.Cu" "F.Paste" "F.Mask") (tstamp b7002554-3870-4472-b20c-342eb904469d))
  (pad "AC20" smd circle (at 8.26 12.06) (size 0.76 0.76) (property pad_prop_bga) (layers "F.Cu" "F.Paste" "F.Mask") (tstamp e8533726-cad5-41fc-9ba7-7f124fbdd1a1))
  (pad "AC21" smd circle (at 9.53 12.06) (size 0.76 0.76) (property pad_prop_bga) (layers "F.Cu" "F.Paste" "F.Mask") (tstamp 1fcabaf0-68bd-4b28-9db1-75f1c15bdc77))
  (pad "AC22" smd circle (at 10.79 12.06) (size 0.76 0.76) (property pad_prop_bga) (layers "F.Cu" "F.Paste" "F.Mask") (tstamp d413b127-0904-4658-be82-9345248d4430))
  (pad "AC23" smd circle (at 12.06 12.06) (size 0.76 0.76) (property pad_prop_bga) (layers "F.Cu" "F.Paste" "F.Mask") (tstamp 3848301b-fc56-4ee3-a636-a63f23a0d5b0))
  (pad "AC24" smd circle (at 13.34 12.06) (size 0.76 0.76) (property pad_prop_bga) (layers "F.Cu" "F.Paste" "F.Mask") (tstamp f4931d75-a27b-4912-82c2-0f0764c60c83))
  (pad "AC25" smd circle (at 14.61 12.06) (size 0.76 0.76) (property pad_prop_bga) (layers "F.Cu" "F.Paste" "F.Mask") (tstamp 30295f9f-9575-4afe-ac8a-680f1799f1e5))
  (pad "AC26" smd circle (at 15.88 12.06) (size 0.76 0.76) (property pad_prop_bga) (layers "F.Cu" "F.Paste" "F.Mask") (tstamp 2ad5134c-e00f-461c-96b4-66fec80da7a8))
  (pad "AD1" smd circle (at -15.88 13.34) (size 0.76 0.76) (property pad_prop_bga) (layers "F.Cu" "F.Paste" "F.Mask") (tstamp 7dfad557-f990-46a8-a640-eb1b28f35aa9))
  (pad "AD2" smd circle (at -14.61 13.34) (size 0.76 0.76) (property pad_prop_bga) (layers "F.Cu" "F.Paste" "F.Mask") (tstamp f7640282-475b-434d-85f2-e485445b3a84))
  (pad "AD3" smd circle (at -13.34 13.34) (size 0.76 0.76) (property pad_prop_bga) (layers "F.Cu" "F.Paste" "F.Mask") (tstamp f102af77-ca52-4df7-aa9c-6d89b6e8a2e5))
  (pad "AD4" smd circle (at -12.06 13.34) (size 0.76 0.76) (property pad_prop_bga) (layers "F.Cu" "F.Paste" "F.Mask") (tstamp 96d733b3-5ead-4acf-b53b-b9f6b8259896))
  (pad "AD5" smd circle (at -10.79 13.34) (size 0.76 0.76) (property pad_prop_bga) (layers "F.Cu" "F.Paste" "F.Mask") (tstamp df536c5e-5c64-46d2-9fc2-c65be3a5727f))
  (pad "AD6" smd circle (at -9.53 13.34) (size 0.76 0.76) (property pad_prop_bga) (layers "F.Cu" "F.Paste" "F.Mask") (tstamp eef8b5f1-ec00-4e54-b3fe-1808ffc21c35))
  (pad "AD7" smd circle (at -8.26 13.34) (size 0.76 0.76) (property pad_prop_bga) (layers "F.Cu" "F.Paste" "F.Mask") (tstamp 8a620439-b735-4540-b676-0e7b9af69e99))
  (pad "AD8" smd circle (at -6.99 13.34) (size 0.76 0.76) (property pad_prop_bga) (layers "F.Cu" "F.Paste" "F.Mask") (tstamp 9a60a007-386d-4d36-99fd-11cadca178ba))
  (pad "AD9" smd circle (at -5.71 13.34) (size 0.76 0.76) (property pad_prop_bga) (layers "F.Cu" "F.Paste" "F.Mask") (tstamp 5cc7dc5e-6b04-4c60-9f67-de22abc7d522))
  (pad "AD10" smd circle (at -4.45 13.34) (size 0.76 0.76) (property pad_prop_bga) (layers "F.Cu" "F.Paste" "F.Mask") (tstamp 17d7b37f-0dad-47c1-848e-50248b188068))
  (pad "AD11" smd circle (at -3.17 13.34) (size 0.76 0.76) (property pad_prop_bga) (layers "F.Cu" "F.Paste" "F.Mask") (tstamp 57b5386f-bb2d-4555-83bb-824965c684d2))
  (pad "AD12" smd circle (at -1.91 13.34) (size 0.76 0.76) (property pad_prop_bga) (layers "F.Cu" "F.Paste" "F.Mask") (tstamp fd220d46-fb00-4574-b12c-dca9bf2ef967))
  (pad "AD13" smd circle (at -0.64 13.34) (size 0.76 0.76) (property pad_prop_bga) (layers "F.Cu" "F.Paste" "F.Mask") (tstamp 79d23118-2fc3-4d8f-93e3-f4dc76fae075))
  (pad "AD14" smd circle (at 0.64 13.34) (size 0.76 0.76) (property pad_prop_bga) (layers "F.Cu" "F.Paste" "F.Mask") (tstamp aae017db-b12e-44c7-86a4-986ba2452c85))
  (pad "AD15" smd circle (at 1.91 13.34) (size 0.76 0.76) (property pad_prop_bga) (layers "F.Cu" "F.Paste" "F.Mask") (tstamp f9279ec0-b122-4f18-a24f-b2760c4e3eef))
  (pad "AD16" smd circle (at 3.17 13.34) (size 0.76 0.76) (property pad_prop_bga) (layers "F.Cu" "F.Paste" "F.Mask") (tstamp 9879a862-bfdf-4fd2-b7ba-991916625a20))
  (pad "AD17" smd circle (at 4.45 13.34) (size 0.76 0.76) (property pad_prop_bga) (layers "F.Cu" "F.Paste" "F.Mask") (tstamp 193f7d0f-ed53-46a8-8c70-8b7d48aeee04))
  (pad "AD18" smd circle (at 5.71 13.34) (size 0.76 0.76) (property pad_prop_bga) (layers "F.Cu" "F.Paste" "F.Mask") (tstamp a776d7b1-0548-407c-a1b1-cb64a52ce5bd))
  (pad "AD19" smd circle (at 6.99 13.34) (size 0.76 0.76) (property pad_prop_bga) (layers "F.Cu" "F.Paste" "F.Mask") (tstamp 794bda7d-1f99-4a05-96ad-0f341bce13e7))
  (pad "AD20" smd circle (at 8.26 13.34) (size 0.76 0.76) (property pad_prop_bga) (layers "F.Cu" "F.Paste" "F.Mask") (tstamp 164743b6-e003-4d03-8a0f-69d769d0c53c))
  (pad "AD21" smd circle (at 9.53 13.34) (size 0.76 0.76) (property pad_prop_bga) (layers "F.Cu" "F.Paste" "F.Mask") (tstamp 7bc5e28e-b6c0-4506-9d99-cb3c8b5f21b3))
  (pad "AD22" smd circle (at 10.79 13.34) (size 0.76 0.76) (property pad_prop_bga) (layers "F.Cu" "F.Paste" "F.Mask") (tstamp 21e04c42-f4cf-4883-9bb1-caccc814c679))
  (pad "AD23" smd circle (at 12.06 13.34) (size 0.76 0.76) (property pad_prop_bga) (layers "F.Cu" "F.Paste" "F.Mask") (tstamp 73ce8e6c-7d84-4fdf-b634-50655cc9dbfe))
  (pad "AD24" smd circle (at 13.34 13.34) (size 0.76 0.76) (property pad_prop_bga) (layers "F.Cu" "F.Paste" "F.Mask") (tstamp 21173935-f253-4aff-a37f-8df506380bb0))
  (pad "AD25" smd circle (at 14.61 13.34) (size 0.76 0.76) (property pad_prop_bga) (layers "F.Cu" "F.Paste" "F.Mask") (tstamp 95616110-794f-41ee-9600-bbab916e5359))
  (pad "AD26" smd circle (at 15.88 13.34) (size 0.76 0.76) (property pad_prop_bga) (layers "F.Cu" "F.Paste" "F.Mask") (tstamp be284c80-a2b4-4bda-8ce0-5feb29f19669))
  (pad "AE1" smd circle (at -15.88 14.61) (size 0.76 0.76) (property pad_prop_bga) (layers "F.Cu" "F.Paste" "F.Mask") (tstamp d5181edd-0057-43bf-92a0-7fb2a7df411e))
  (pad "AE2" smd circle (at -14.61 14.61) (size 0.76 0.76) (property pad_prop_bga) (layers "F.Cu" "F.Paste" "F.Mask") (tstamp 5c39bf40-0816-47fd-a6b1-2ddbf29a8783))
  (pad "AE3" smd circle (at -13.34 14.61) (size 0.76 0.76) (property pad_prop_bga) (layers "F.Cu" "F.Paste" "F.Mask") (tstamp 0ddbf920-a4a7-47fe-8f4d-a1c3efc79c37))
  (pad "AE4" smd circle (at -12.06 14.61) (size 0.76 0.76) (property pad_prop_bga) (layers "F.Cu" "F.Paste" "F.Mask") (tstamp 93f5820e-8d77-45f2-822b-511b7b553e00))
  (pad "AE5" smd circle (at -10.79 14.61) (size 0.76 0.76) (property pad_prop_bga) (layers "F.Cu" "F.Paste" "F.Mask") (tstamp 72d4aea4-d584-4f48-a0bd-dab392784c05))
  (pad "AE6" smd circle (at -9.53 14.61) (size 0.76 0.76) (property pad_prop_bga) (layers "F.Cu" "F.Paste" "F.Mask") (tstamp 8ec25d6f-60fa-486f-8650-d55ef9606d46))
  (pad "AE7" smd circle (at -8.26 14.61) (size 0.76 0.76) (property pad_prop_bga) (layers "F.Cu" "F.Paste" "F.Mask") (tstamp 766f686e-4ad4-4f8f-a3be-56cee8f92a9c))
  (pad "AE8" smd circle (at -6.99 14.61) (size 0.76 0.76) (property pad_prop_bga) (layers "F.Cu" "F.Paste" "F.Mask") (tstamp 0b1917b4-4beb-4e8a-a60c-446905bace8b))
  (pad "AE9" smd circle (at -5.71 14.61) (size 0.76 0.76) (property pad_prop_bga) (layers "F.Cu" "F.Paste" "F.Mask") (tstamp ece54162-3466-4908-b1a9-3403f6e0b7db))
  (pad "AE10" smd circle (at -4.45 14.61) (size 0.76 0.76) (property pad_prop_bga) (layers "F.Cu" "F.Paste" "F.Mask") (tstamp 364cb937-bad0-458d-aa05-01abc417e693))
  (pad "AE11" smd circle (at -3.17 14.61) (size 0.76 0.76) (property pad_prop_bga) (layers "F.Cu" "F.Paste" "F.Mask") (tstamp 61a81a7d-4311-422d-9c47-55dd136d7929))
  (pad "AE12" smd circle (at -1.91 14.61) (size 0.76 0.76) (property pad_prop_bga) (layers "F.Cu" "F.Paste" "F.Mask") (tstamp a25d990f-5fb2-4941-9c66-bacf8cc6cc61))
  (pad "AE13" smd circle (at -0.64 14.61) (size 0.76 0.76) (property pad_prop_bga) (layers "F.Cu" "F.Paste" "F.Mask") (tstamp 91901be8-6347-4212-a091-edd8eba502ff))
  (pad "AE14" smd circle (at 0.64 14.61) (size 0.76 0.76) (property pad_prop_bga) (layers "F.Cu" "F.Paste" "F.Mask") (tstamp a49f92b5-3535-411e-80fe-5926651e59ae))
  (pad "AE15" smd circle (at 1.91 14.61) (size 0.76 0.76) (property pad_prop_bga) (layers "F.Cu" "F.Paste" "F.Mask") (tstamp 86b6f05a-b77f-4161-aa85-cba831fea7d1))
  (pad "AE16" smd circle (at 3.17 14.61) (size 0.76 0.76) (property pad_prop_bga) (layers "F.Cu" "F.Paste" "F.Mask") (tstamp 28cd161e-a0fe-4d99-914c-2228778c143d))
  (pad "AE17" smd circle (at 4.45 14.61) (size 0.76 0.76) (property pad_prop_bga) (layers "F.Cu" "F.Paste" "F.Mask") (tstamp 0df3d45b-c102-472a-9d63-4a0d8c49690d))
  (pad "AE18" smd circle (at 5.71 14.61) (size 0.76 0.76) (property pad_prop_bga) (layers "F.Cu" "F.Paste" "F.Mask") (tstamp 694cd1a0-1a22-4a57-8949-d2987075f488))
  (pad "AE19" smd circle (at 6.99 14.61) (size 0.76 0.76) (property pad_prop_bga) (layers "F.Cu" "F.Paste" "F.Mask") (tstamp 12ea646c-fcb0-4fbc-bba0-cfe8c4b880ae))
  (pad "AE20" smd circle (at 8.26 14.61) (size 0.76 0.76) (property pad_prop_bga) (layers "F.Cu" "F.Paste" "F.Mask") (tstamp 7346af0b-cc3d-4853-ace1-f3be297e6b0d))
  (pad "AE21" smd circle (at 9.53 14.61) (size 0.76 0.76) (property pad_prop_bga) (layers "F.Cu" "F.Paste" "F.Mask") (tstamp 12b47db0-29c8-4e49-abdc-58b7056176cf))
  (pad "AE22" smd circle (at 10.79 14.61) (size 0.76 0.76) (property pad_prop_bga) (layers "F.Cu" "F.Paste" "F.Mask") (tstamp c6e55724-4f49-441c-be68-2d05bb9d5f76))
  (pad "AE23" smd circle (at 12.06 14.61) (size 0.76 0.76) (property pad_prop_bga) (layers "F.Cu" "F.Paste" "F.Mask") (tstamp 0cfca559-486f-4114-ba9a-025160b9c337))
  (pad "AE24" smd circle (at 13.34 14.61) (size 0.76 0.76) (property pad_prop_bga) (layers "F.Cu" "F.Paste" "F.Mask") (tstamp 8eca6f12-9740-4865-a269-c0473349d64d))
  (pad "AE25" smd circle (at 14.61 14.61) (size 0.76 0.76) (property pad_prop_bga) (layers "F.Cu" "F.Paste" "F.Mask") (tstamp fced0ce7-64ea-4b9a-90aa-1b177ebc054a))
  (pad "AE26" smd circle (at 15.88 14.61) (size 0.76 0.76) (property pad_prop_bga) (layers "F.Cu" "F.Paste" "F.Mask") (tstamp 812da1d6-4095-4e17-90c8-0a5140967e99))
  (pad "AF1" smd circle (at -15.88 15.88) (size 0.76 0.76) (property pad_prop_bga) (layers "F.Cu" "F.Paste" "F.Mask") (tstamp 2082edfb-adb1-459d-b46e-bdad9ebf0b6c))
  (pad "AF2" smd circle (at -14.61 15.88) (size 0.76 0.76) (property pad_prop_bga) (layers "F.Cu" "F.Paste" "F.Mask") (tstamp a7f62aa3-11b0-47d3-83c1-58a957b2fd73))
  (pad "AF3" smd circle (at -13.34 15.88) (size 0.76 0.76) (property pad_prop_bga) (layers "F.Cu" "F.Paste" "F.Mask") (tstamp 40cd2723-13c0-4724-bedd-1a32e843fbd1))
  (pad "AF4" smd circle (at -12.06 15.88) (size 0.76 0.76) (property pad_prop_bga) (layers "F.Cu" "F.Paste" "F.Mask") (tstamp 355f1248-5e34-48ff-abe9-84b6eff499e0))
  (pad "AF5" smd circle (at -10.79 15.88) (size 0.76 0.76) (property pad_prop_bga) (layers "F.Cu" "F.Paste" "F.Mask") (tstamp aedbb245-6e7d-41eb-bf6e-698854612ba1))
  (pad "AF6" smd circle (at -9.53 15.88) (size 0.76 0.76) (property pad_prop_bga) (layers "F.Cu" "F.Paste" "F.Mask") (tstamp be69690e-686a-4ae2-8103-147a9442c8db))
  (pad "AF7" smd circle (at -8.26 15.88) (size 0.76 0.76) (property pad_prop_bga) (layers "F.Cu" "F.Paste" "F.Mask") (tstamp e53d78b5-1b13-4bfa-bfd8-863fcbc3b01e))
  (pad "AF8" smd circle (at -6.99 15.88) (size 0.76 0.76) (property pad_prop_bga) (layers "F.Cu" "F.Paste" "F.Mask") (tstamp a009cf87-51a7-4ef1-83b3-2db99d680621))
  (pad "AF9" smd circle (at -5.71 15.88) (size 0.76 0.76) (property pad_prop_bga) (layers "F.Cu" "F.Paste" "F.Mask") (tstamp b045efbe-eb13-4401-b53d-3c7c6ca5d9bb))
  (pad "AF10" smd circle (at -4.45 15.88) (size 0.76 0.76) (property pad_prop_bga) (layers "F.Cu" "F.Paste" "F.Mask") (tstamp f0a03024-b3ee-45c1-8f45-b922c19acbc0))
  (pad "AF11" smd circle (at -3.17 15.88) (size 0.76 0.76) (property pad_prop_bga) (layers "F.Cu" "F.Paste" "F.Mask") (tstamp 1b70f8ca-c348-4c42-bb83-d3334656e466))
  (pad "AF12" smd circle (at -1.91 15.88) (size 0.76 0.76) (property pad_prop_bga) (layers "F.Cu" "F.Paste" "F.Mask") (tstamp 989962a6-4249-40bd-a8c5-d6bd6e150a51))
  (pad "AF13" smd circle (at -0.64 15.88) (size 0.76 0.76) (property pad_prop_bga) (layers "F.Cu" "F.Paste" "F.Mask") (tstamp 1547c542-5114-4b49-b5a8-68eded71101d))
  (pad "AF14" smd circle (at 0.64 15.88) (size 0.76 0.76) (property pad_prop_bga) (layers "F.Cu" "F.Paste" "F.Mask") (tstamp 5497f7a9-fb3c-405f-9fd1-131c85857f0e))
  (pad "AF15" smd circle (at 1.91 15.88) (size 0.76 0.76) (property pad_prop_bga) (layers "F.Cu" "F.Paste" "F.Mask") (tstamp 21ce5c02-51e7-464d-96bb-02787dbe9792))
  (pad "AF16" smd circle (at 3.17 15.88) (size 0.76 0.76) (property pad_prop_bga) (layers "F.Cu" "F.Paste" "F.Mask") (tstamp 49762082-bbab-44f0-9be2-eeeb4aec10fe))
  (pad "AF17" smd circle (at 4.45 15.88) (size 0.76 0.76) (property pad_prop_bga) (layers "F.Cu" "F.Paste" "F.Mask") (tstamp ff3facd2-812f-40ce-a28e-dd65fed2bad1))
  (pad "AF18" smd circle (at 5.71 15.88) (size 0.76 0.76) (property pad_prop_bga) (layers "F.Cu" "F.Paste" "F.Mask") (tstamp b9396d44-6caa-4558-bd7c-046a65824395))
  (pad "AF19" smd circle (at 6.99 15.88) (size 0.76 0.76) (property pad_prop_bga) (layers "F.Cu" "F.Paste" "F.Mask") (tstamp 3601baa3-767a-49c3-8344-1b0b66c92f90))
  (pad "AF20" smd circle (at 8.26 15.88) (size 0.76 0.76) (property pad_prop_bga) (layers "F.Cu" "F.Paste" "F.Mask") (tstamp efe4cec4-b547-4926-a1a6-39e8963a0f45))
  (pad "AF21" smd circle (at 9.53 15.88) (size 0.76 0.76) (property pad_prop_bga) (layers "F.Cu" "F.Paste" "F.Mask") (tstamp fbc95bd3-33eb-44ab-92c3-07ff828580e9))
  (pad "AF22" smd circle (at 10.79 15.88) (size 0.76 0.76) (property pad_prop_bga) (layers "F.Cu" "F.Paste" "F.Mask") (tstamp 30ddef9e-338b-4900-9a47-274592f1bf99))
  (pad "AF23" smd circle (at 12.06 15.88) (size 0.76 0.76) (property pad_prop_bga) (layers "F.Cu" "F.Paste" "F.Mask") (tstamp 33ac0447-6cac-4df3-9333-88a7016675f9))
  (pad "AF24" smd circle (at 13.34 15.88) (size 0.76 0.76) (property pad_prop_bga) (layers "F.Cu" "F.Paste" "F.Mask") (tstamp eef4291b-91c4-40d1-a6aa-273dfe63f0a6))
  (pad "AF25" smd circle (at 14.61 15.88) (size 0.76 0.76) (property pad_prop_bga) (layers "F.Cu" "F.Paste" "F.Mask") (tstamp f2f2ba9f-bf81-4921-8095-ef7aa9a87fcf))
  (pad "AF26" smd circle (at 15.88 15.88) (size 0.76 0.76) (property pad_prop_bga) (layers "F.Cu" "F.Paste" "F.Mask") (tstamp 16e490f1-22fe-45d9-9cc1-996490d6e4cc))
  (pad "B1" smd circle (at -15.88 -14.61) (size 0.76 0.76) (property pad_prop_bga) (layers "F.Cu" "F.Paste" "F.Mask") (tstamp 4b4fb928-a4c1-4753-b1d3-f55c27126950))
  (pad "B2" smd circle (at -14.61 -14.61) (size 0.76 0.76) (property pad_prop_bga) (layers "F.Cu" "F.Paste" "F.Mask") (tstamp d9d4f70e-0d49-43fb-a4e2-d86daf3bc160))
  (pad "B3" smd circle (at -13.34 -14.61) (size 0.76 0.76) (property pad_prop_bga) (layers "F.Cu" "F.Paste" "F.Mask") (tstamp 6a1882f3-99e9-4e69-926c-001728fb1b40))
  (pad "B4" smd circle (at -12.06 -14.61) (size 0.76 0.76) (property pad_prop_bga) (layers "F.Cu" "F.Paste" "F.Mask") (tstamp f1854d32-94c0-473d-88af-d6449e76210f))
  (pad "B5" smd circle (at -10.79 -14.61) (size 0.76 0.76) (property pad_prop_bga) (layers "F.Cu" "F.Paste" "F.Mask") (tstamp 5db6afd1-42af-4dd6-945e-b73f582ee417))
  (pad "B6" smd circle (at -9.53 -14.61) (size 0.76 0.76) (property pad_prop_bga) (layers "F.Cu" "F.Paste" "F.Mask") (tstamp 0e0c8f32-f5e7-4367-bbd5-bd08f64963ab))
  (pad "B7" smd circle (at -8.26 -14.61) (size 0.76 0.76) (property pad_prop_bga) (layers "F.Cu" "F.Paste" "F.Mask") (tstamp a060168a-cf52-450c-b59e-f4e60e5aa0ed))
  (pad "B8" smd circle (at -6.99 -14.61) (size 0.76 0.76) (property pad_prop_bga) (layers "F.Cu" "F.Paste" "F.Mask") (tstamp dac186d2-dbb4-4d1d-bb61-80220e5b4660))
  (pad "B9" smd circle (at -5.71 -14.61) (size 0.76 0.76) (property pad_prop_bga) (layers "F.Cu" "F.Paste" "F.Mask") (tstamp 2e024288-b796-4ab0-bb14-9ee32d172453))
  (pad "B10" smd circle (at -4.45 -14.61) (size 0.76 0.76) (property pad_prop_bga) (layers "F.Cu" "F.Paste" "F.Mask") (tstamp c4155a91-768c-4ae5-9e2f-c51b47c8caf1))
  (pad "B11" smd circle (at -3.17 -14.61) (size 0.76 0.76) (property pad_prop_bga) (layers "F.Cu" "F.Paste" "F.Mask") (tstamp 2c64e626-7280-460b-a9b7-c3ab5fb87039))
  (pad "B12" smd circle (at -1.91 -14.61) (size 0.76 0.76) (property pad_prop_bga) (layers "F.Cu" "F.Paste" "F.Mask") (tstamp a89ac5f6-3f25-44e5-90c1-a65776205e03))
  (pad "B13" smd circle (at -0.64 -14.61) (size 0.76 0.76) (property pad_prop_bga) (layers "F.Cu" "F.Paste" "F.Mask") (tstamp aede67c3-29bd-4d84-bb25-03f3365e4009))
  (pad "B14" smd circle (at 0.64 -14.61) (size 0.76 0.76) (property pad_prop_bga) (layers "F.Cu" "F.Paste" "F.Mask") (tstamp 0bd81459-b4eb-42ca-a1ff-eeb8b7c96999))
  (pad "B15" smd circle (at 1.91 -14.61) (size 0.76 0.76) (property pad_prop_bga) (layers "F.Cu" "F.Paste" "F.Mask") (tstamp 7eac2d35-f083-4f67-9d36-a394777125fe))
  (pad "B16" smd circle (at 3.17 -14.61) (size 0.76 0.76) (property pad_prop_bga) (layers "F.Cu" "F.Paste" "F.Mask") (tstamp 6f148288-868c-4fc5-b973-028c64d30c8d))
  (pad "B17" smd circle (at 4.45 -14.61) (size 0.76 0.76) (property pad_prop_bga) (layers "F.Cu" "F.Paste" "F.Mask") (tstamp 1199888e-81c6-40f6-a9f8-598cbc84035b))
  (pad "B18" smd circle (at 5.71 -14.61) (size 0.76 0.76) (property pad_prop_bga) (layers "F.Cu" "F.Paste" "F.Mask") (tstamp 8cc33837-36b8-4875-bde3-d77a5fd4b7d4))
  (pad "B19" smd circle (at 6.99 -14.61) (size 0.76 0.76) (property pad_prop_bga) (layers "F.Cu" "F.Paste" "F.Mask") (tstamp 85e03bf4-33c3-4345-ac28-0b5d0c652f45))
  (pad "B20" smd circle (at 8.26 -14.61) (size 0.76 0.76) (property pad_prop_bga) (layers "F.Cu" "F.Paste" "F.Mask") (tstamp dde64106-572e-4ec1-ad0f-621254e727e9))
  (pad "B21" smd circle (at 9.53 -14.61) (size 0.76 0.76) (property pad_prop_bga) (layers "F.Cu" "F.Paste" "F.Mask") (tstamp 2337d6f4-54ec-42f8-ad3f-c0b7398678f3))
  (pad "B22" smd circle (at 10.79 -14.61) (size 0.76 0.76) (property pad_prop_bga) (layers "F.Cu" "F.Paste" "F.Mask") (tstamp 0af6357d-fa48-4b08-b62a-3feb4f66a188))
  (pad "B23" smd circle (at 12.06 -14.61) (size 0.76 0.76) (property pad_prop_bga) (layers "F.Cu" "F.Paste" "F.Mask") (tstamp c6c66db7-16b8-46bc-8a7d-bce84f3c9537))
  (pad "B24" smd circle (at 13.34 -14.61) (size 0.76 0.76) (property pad_prop_bga) (layers "F.Cu" "F.Paste" "F.Mask") (tstamp 3dbb6ec7-34c9-473c-8cd7-ed13a0b977fe))
  (pad "B25" smd circle (at 14.61 -14.61) (size 0.76 0.76) (property pad_prop_bga) (layers "F.Cu" "F.Paste" "F.Mask") (tstamp 5f5fc33b-8372-410b-a151-42e3b5f632ae))
  (pad "B26" smd circle (at 15.88 -14.61) (size 0.76 0.76) (property pad_prop_bga) (layers "F.Cu" "F.Paste" "F.Mask") (tstamp 51a75f81-8b7d-44df-bf10-246b921ba6f0))
  (pad "C1" smd circle (at -15.88 -13.34) (size 0.76 0.76) (property pad_prop_bga) (layers "F.Cu" "F.Paste" "F.Mask") (tstamp d24ee8b3-a902-4177-9a69-27ae26346ee0))
  (pad "C2" smd circle (at -14.61 -13.34) (size 0.76 0.76) (property pad_prop_bga) (layers "F.Cu" "F.Paste" "F.Mask") (tstamp 7b8e7651-38b3-444f-9b8f-adbdb6345ac5))
  (pad "C3" smd circle (at -13.34 -13.34) (size 0.76 0.76) (property pad_prop_bga) (layers "F.Cu" "F.Paste" "F.Mask") (tstamp 8357216b-40d7-4dc5-8098-4d9a8a6a5307))
  (pad "C4" smd circle (at -12.06 -13.34) (size 0.76 0.76) (property pad_prop_bga) (layers "F.Cu" "F.Paste" "F.Mask") (tstamp fa795445-21d6-4840-ab3e-5368b66488a1))
  (pad "C5" smd circle (at -10.79 -13.34) (size 0.76 0.76) (property pad_prop_bga) (layers "F.Cu" "F.Paste" "F.Mask") (tstamp 3d0eaec2-441d-4669-b62f-35c367a16641))
  (pad "C6" smd circle (at -9.53 -13.34) (size 0.76 0.76) (property pad_prop_bga) (layers "F.Cu" "F.Paste" "F.Mask") (tstamp 3c9392a9-ddd3-4498-bf8e-463f5ee9c951))
  (pad "C7" smd circle (at -8.26 -13.34) (size 0.76 0.76) (property pad_prop_bga) (layers "F.Cu" "F.Paste" "F.Mask") (tstamp b6e73827-f4f1-4c34-8bbc-4ed8aa2023d1))
  (pad "C8" smd circle (at -6.99 -13.34) (size 0.76 0.76) (property pad_prop_bga) (layers "F.Cu" "F.Paste" "F.Mask") (tstamp 731c6ba9-ac33-4a18-b050-44355ef67ba3))
  (pad "C9" smd circle (at -5.71 -13.34) (size 0.76 0.76) (property pad_prop_bga) (layers "F.Cu" "F.Paste" "F.Mask") (tstamp 4636a556-2e70-4213-9c6e-89dfadb58632))
  (pad "C10" smd circle (at -4.45 -13.34) (size 0.76 0.76) (property pad_prop_bga) (layers "F.Cu" "F.Paste" "F.Mask") (tstamp b3217127-5904-454f-989d-1a11778ecef1))
  (pad "C11" smd circle (at -3.17 -13.34) (size 0.76 0.76) (property pad_prop_bga) (layers "F.Cu" "F.Paste" "F.Mask") (tstamp 57105bcd-21b2-40f7-a28b-0c8b7fb7160b))
  (pad "C12" smd circle (at -1.91 -13.34) (size 0.76 0.76) (property pad_prop_bga) (layers "F.Cu" "F.Paste" "F.Mask") (tstamp 29c882be-f222-4f36-9cd2-d8f36352c522))
  (pad "C13" smd circle (at -0.64 -13.34) (size 0.76 0.76) (property pad_prop_bga) (layers "F.Cu" "F.Paste" "F.Mask") (tstamp bb22dc23-8e3b-49be-8840-2d62543a194d))
  (pad "C14" smd circle (at 0.64 -13.34) (size 0.76 0.76) (property pad_prop_bga) (layers "F.Cu" "F.Paste" "F.Mask") (tstamp 31f66669-253b-4f3e-94af-f8c9dea61ba7))
  (pad "C15" smd circle (at 1.91 -13.34) (size 0.76 0.76) (property pad_prop_bga) (layers "F.Cu" "F.Paste" "F.Mask") (tstamp 158b7486-f198-46ba-a4bc-5c6e0067366d))
  (pad "C16" smd circle (at 3.17 -13.34) (size 0.76 0.76) (property pad_prop_bga) (layers "F.Cu" "F.Paste" "F.Mask") (tstamp 717fbd2a-2269-452d-9a9b-3ce8055867bb))
  (pad "C17" smd circle (at 4.45 -13.34) (size 0.76 0.76) (property pad_prop_bga) (layers "F.Cu" "F.Paste" "F.Mask") (tstamp fb789487-246a-495d-ae1d-75475ba1b67a))
  (pad "C18" smd circle (at 5.71 -13.34) (size 0.76 0.76) (property pad_prop_bga) (layers "F.Cu" "F.Paste" "F.Mask") (tstamp aa907aaa-e445-40c5-b528-e4f7c2437067))
  (pad "C19" smd circle (at 6.99 -13.34) (size 0.76 0.76) (property pad_prop_bga) (layers "F.Cu" "F.Paste" "F.Mask") (tstamp 175837d7-b928-4b90-b672-3c900cfe9eec))
  (pad "C20" smd circle (at 8.26 -13.34) (size 0.76 0.76) (property pad_prop_bga) (layers "F.Cu" "F.Paste" "F.Mask") (tstamp cce127a3-dfa7-4a92-8a67-305f262621b5))
  (pad "C21" smd circle (at 9.53 -13.34) (size 0.76 0.76) (property pad_prop_bga) (layers "F.Cu" "F.Paste" "F.Mask") (tstamp 85311590-6d8a-4162-91e3-05a9fad6d311))
  (pad "C22" smd circle (at 10.79 -13.34) (size 0.76 0.76) (property pad_prop_bga) (layers "F.Cu" "F.Paste" "F.Mask") (tstamp 8a6bfa25-e94b-48bc-8801-bafa81ec9ea3))
  (pad "C23" smd circle (at 12.06 -13.34) (size 0.76 0.76) (property pad_prop_bga) (layers "F.Cu" "F.Paste" "F.Mask") (tstamp 42f468f3-fad1-4a5c-b258-3476b2dd5cf6))
  (pad "C24" smd circle (at 13.34 -13.34) (size 0.76 0.76) (property pad_prop_bga) (layers "F.Cu" "F.Paste" "F.Mask") (tstamp 3995d816-193f-414d-b795-eb4de483ef97))
  (pad "C25" smd circle (at 14.61 -13.34) (size 0.76 0.76) (property pad_prop_bga) (layers "F.Cu" "F.Paste" "F.Mask") (tstamp 636ad960-ce41-405f-93b2-fb68d63ff300))
  (pad "C26" smd circle (at 15.88 -13.34) (size 0.76 0.76) (property pad_prop_bga) (layers "F.Cu" "F.Paste" "F.Mask") (tstamp 46381b47-0fc7-4cd2-b048-3e5aa3014ce2))
  (pad "D1" smd circle (at -15.88 -12.06) (size 0.76 0.76) (property pad_prop_bga) (layers "F.Cu" "F.Paste" "F.Mask") (tstamp c452a720-3b9f-4e44-87a0-89dc29463128))
  (pad "D2" smd circle (at -14.61 -12.06) (size 0.76 0.76) (property pad_prop_bga) (layers "F.Cu" "F.Paste" "F.Mask") (tstamp 0feaf76d-45ac-4491-8b3f-016efa814dce))
  (pad "D3" smd circle (at -13.34 -12.06) (size 0.76 0.76) (property pad_prop_bga) (layers "F.Cu" "F.Paste" "F.Mask") (tstamp 65fb0ec9-331e-4c5c-ba8f-ab64c7f00a62))
  (pad "D4" smd circle (at -12.06 -12.06) (size 0.76 0.76) (property pad_prop_bga) (layers "F.Cu" "F.Paste" "F.Mask") (tstamp 62c460b3-3722-4e17-9695-688556223b49))
  (pad "D5" smd circle (at -10.79 -12.06) (size 0.76 0.76) (property pad_prop_bga) (layers "F.Cu" "F.Paste" "F.Mask") (tstamp b80cf54c-6d5c-4cc9-a38d-4a35a8d408e6))
  (pad "D6" smd circle (at -9.53 -12.06) (size 0.76 0.76) (property pad_prop_bga) (layers "F.Cu" "F.Paste" "F.Mask") (tstamp 2149079c-de6e-486d-a00c-a40b870f0d3b))
  (pad "D7" smd circle (at -8.26 -12.06) (size 0.76 0.76) (property pad_prop_bga) (layers "F.Cu" "F.Paste" "F.Mask") (tstamp d99ff9d8-b36b-486d-9b6e-154cfdc751a0))
  (pad "D8" smd circle (at -6.99 -12.06) (size 0.76 0.76) (property pad_prop_bga) (layers "F.Cu" "F.Paste" "F.Mask") (tstamp e8d4733b-6d3d-4abd-844d-dd8da2e52299))
  (pad "D9" smd circle (at -5.71 -12.06) (size 0.76 0.76) (property pad_prop_bga) (layers "F.Cu" "F.Paste" "F.Mask") (tstamp 2cb3bad7-6696-405a-9e8f-88fe0fd43b2a))
  (pad "D10" smd circle (at -4.45 -12.06) (size 0.76 0.76) (property pad_prop_bga) (layers "F.Cu" "F.Paste" "F.Mask") (tstamp b8648eb2-7791-4c07-be23-bf58165dfc09))
  (pad "D11" smd circle (at -3.17 -12.06) (size 0.76 0.76) (property pad_prop_bga) (layers "F.Cu" "F.Paste" "F.Mask") (tstamp d9dd4c6d-540f-4fb9-a0ed-69153a2fa7c0))
  (pad "D12" smd circle (at -1.91 -12.06) (size 0.76 0.76) (property pad_prop_bga) (layers "F.Cu" "F.Paste" "F.Mask") (tstamp 58e012a4-d68b-4ee9-8207-90140dbc748b))
  (pad "D13" smd circle (at -0.64 -12.06) (size 0.76 0.76) (property pad_prop_bga) (layers "F.Cu" "F.Paste" "F.Mask") (tstamp a671f3f5-f51c-46d7-ac90-74fec0a92eb4))
  (pad "D14" smd circle (at 0.64 -12.06) (size 0.76 0.76) (property pad_prop_bga) (layers "F.Cu" "F.Paste" "F.Mask") (tstamp 6c818c61-57c5-4a59-bd8a-7a560009a825))
  (pad "D15" smd circle (at 1.91 -12.06) (size 0.76 0.76) (property pad_prop_bga) (layers "F.Cu" "F.Paste" "F.Mask") (tstamp 55a4b203-2991-4160-9b8f-c7fc103bd2c2))
  (pad "D16" smd circle (at 3.17 -12.06) (size 0.76 0.76) (property pad_prop_bga) (layers "F.Cu" "F.Paste" "F.Mask") (tstamp 6479e386-0fe2-4b7a-a7f9-95a497c986e6))
  (pad "D17" smd circle (at 4.45 -12.06) (size 0.76 0.76) (property pad_prop_bga) (layers "F.Cu" "F.Paste" "F.Mask") (tstamp d2f1a1f3-54b3-4d86-b809-b59b2e1f59f3))
  (pad "D18" smd circle (at 5.71 -12.06) (size 0.76 0.76) (property pad_prop_bga) (layers "F.Cu" "F.Paste" "F.Mask") (tstamp e9823af1-71e6-4d0d-a4ce-6fb6b746e08b))
  (pad "D19" smd circle (at 6.99 -12.06) (size 0.76 0.76) (property pad_prop_bga) (layers "F.Cu" "F.Paste" "F.Mask") (tstamp 7febbc6e-a86c-4a29-87ab-808ea1ffe18f))
  (pad "D20" smd circle (at 8.26 -12.06) (size 0.76 0.76) (property pad_prop_bga) (layers "F.Cu" "F.Paste" "F.Mask") (tstamp e1fc26f7-c1c0-45cd-8514-abe4065241da))
  (pad "D21" smd circle (at 9.53 -12.06) (size 0.76 0.76) (property pad_prop_bga) (layers "F.Cu" "F.Paste" "F.Mask") (tstamp 60ca6af1-ee4f-48d7-86a2-166af8a93792))
  (pad "D22" smd circle (at 10.79 -12.06) (size 0.76 0.76) (property pad_prop_bga) (layers "F.Cu" "F.Paste" "F.Mask") (tstamp 926f42f2-e8dc-43a9-9e1f-297b37f84216))
  (pad "D23" smd circle (at 12.06 -12.06) (size 0.76 0.76) (property pad_prop_bga) (layers "F.Cu" "F.Paste" "F.Mask") (tstamp 88955d6a-abfc-4e9c-b253-291ffa4e7d38))
  (pad "D24" smd circle (at 13.34 -12.06) (size 0.76 0.76) (property pad_prop_bga) (layers "F.Cu" "F.Paste" "F.Mask") (tstamp 7f13823f-019a-4afb-9041-505f8fb2de09))
  (pad "D25" smd circle (at 14.61 -12.06) (size 0.76 0.76) (property pad_prop_bga) (layers "F.Cu" "F.Paste" "F.Mask") (tstamp 6e7ca9f5-b1e4-41d9-bc2f-c602b379cf08))
  (pad "D26" smd circle (at 15.88 -12.06) (size 0.76 0.76) (property pad_prop_bga) (layers "F.Cu" "F.Paste" "F.Mask") (tstamp c9a8f591-d05a-4984-a585-c5a6a878ac84))
  (pad "E1" smd circle (at -15.88 -10.79) (size 0.76 0.76) (property pad_prop_bga) (layers "F.Cu" "F.Paste" "F.Mask") (tstamp 970d186c-6440-4770-8d58-48b30dfe41ac))
  (pad "E2" smd circle (at -14.61 -10.79) (size 0.76 0.76) (property pad_prop_bga) (layers "F.Cu" "F.Paste" "F.Mask") (tstamp 70c03988-31a1-499d-a135-a310dbeaa75c))
  (pad "E3" smd circle (at -13.34 -10.79) (size 0.76 0.76) (property pad_prop_bga) (layers "F.Cu" "F.Paste" "F.Mask") (tstamp 1309e478-6739-4f95-b056-7a9331a43c60))
  (pad "E4" smd circle (at -12.06 -10.79) (size 0.76 0.76) (property pad_prop_bga) (layers "F.Cu" "F.Paste" "F.Mask") (tstamp ab0b6a4c-6cc9-4fe3-ae66-e485e9392ec1))
  (pad "E23" smd circle (at 12.06 -10.79) (size 0.76 0.76) (property pad_prop_bga) (layers "F.Cu" "F.Paste" "F.Mask") (tstamp 225ebf52-4fab-4f85-a28e-d6cec3714099))
  (pad "E24" smd circle (at 13.34 -10.79) (size 0.76 0.76) (property pad_prop_bga) (layers "F.Cu" "F.Paste" "F.Mask") (tstamp 3bce01db-5b71-4084-82d6-b4f93fa5b1c2))
  (pad "E25" smd circle (at 14.61 -10.79) (size 0.76 0.76) (property pad_prop_bga) (layers "F.Cu" "F.Paste" "F.Mask") (tstamp a54376d3-2db9-4379-8fc3-537ba7da2bb2))
  (pad "E26" smd circle (at 15.88 -10.79) (size 0.76 0.76) (property pad_prop_bga) (layers "F.Cu" "F.Paste" "F.Mask") (tstamp 96a3526a-0d67-4352-babc-9fd9aeac0d27))
  (pad "F1" smd circle (at -15.88 -9.53) (size 0.76 0.76) (property pad_prop_bga) (layers "F.Cu" "F.Paste" "F.Mask") (tstamp 327e1fe2-e523-4d58-80be-e93be66c0538))
  (pad "F2" smd circle (at -14.61 -9.53) (size 0.76 0.76) (property pad_prop_bga) (layers "F.Cu" "F.Paste" "F.Mask") (tstamp bfc240ea-d339-4db2-a143-f25a6975cade))
  (pad "F3" smd circle (at -13.34 -9.53) (size 0.76 0.76) (property pad_prop_bga) (layers "F.Cu" "F.Paste" "F.Mask") (tstamp 354a05f9-5298-4c29-8e1f-03757723b463))
  (pad "F4" smd circle (at -12.06 -9.53) (size 0.76 0.76) (property pad_prop_bga) (layers "F.Cu" "F.Paste" "F.Mask") (tstamp c3127832-8251-407f-8107-204a7d6fc4e4))
  (pad "F23" smd circle (at 12.06 -9.53) (size 0.76 0.76) (property pad_prop_bga) (layers "F.Cu" "F.Paste" "F.Mask") (tstamp cbaed8ae-ca05-470b-b5b3-b68159838c03))
  (pad "F24" smd circle (at 13.34 -9.53) (size 0.76 0.76) (property pad_prop_bga) (layers "F.Cu" "F.Paste" "F.Mask") (tstamp 955131b8-f678-4768-9d67-343994326d01))
  (pad "F25" smd circle (at 14.61 -9.53) (size 0.76 0.76) (property pad_prop_bga) (layers "F.Cu" "F.Paste" "F.Mask") (tstamp 67812e40-5583-4189-9801-feeec110b159))
  (pad "F26" smd circle (at 15.88 -9.53) (size 0.76 0.76) (property pad_prop_bga) (layers "F.Cu" "F.Paste" "F.Mask") (tstamp 7ddcc1cd-f751-4aa3-8bdc-316673f7f577))
  (pad "G1" smd circle (at -15.88 -8.26) (size 0.76 0.76) (property pad_prop_bga) (layers "F.Cu" "F.Paste" "F.Mask") (tstamp 0cdc5943-9ffe-4a6b-a661-75fef652cbe9))
  (pad "G2" smd circle (at -14.61 -8.26) (size 0.76 0.76) (property pad_prop_bga) (layers "F.Cu" "F.Paste" "F.Mask") (tstamp 5e9b8bac-2e44-4a8f-9b55-1761d5c2c920))
  (pad "G3" smd circle (at -13.34 -8.26) (size 0.76 0.76) (property pad_prop_bga) (layers "F.Cu" "F.Paste" "F.Mask") (tstamp 1fc90db0-aeed-46d2-87d9-290195d545c9))
  (pad "G4" smd circle (at -12.06 -8.26) (size 0.76 0.76) (property pad_prop_bga) (layers "F.Cu" "F.Paste" "F.Mask") (tstamp d52f9064-8f67-42ed-b6b3-990eb9706a0b))
  (pad "G23" smd circle (at 12.06 -8.26) (size 0.76 0.76) (property pad_prop_bga) (layers "F.Cu" "F.Paste" "F.Mask") (tstamp 7bba6ccc-5f66-4e57-bbbb-3cec8304dbae))
  (pad "G24" smd circle (at 13.34 -8.26) (size 0.76 0.76) (property pad_prop_bga) (layers "F.Cu" "F.Paste" "F.Mask") (tstamp 3a01c066-aceb-4f6b-aada-06e3cb92b222))
  (pad "G25" smd circle (at 14.61 -8.26) (size 0.76 0.76) (property pad_prop_bga) (layers "F.Cu" "F.Paste" "F.Mask") (tstamp b7c9b8c4-e8df-45fa-b905-30a25491d2c4))
  (pad "G26" smd circle (at 15.88 -8.26) (size 0.76 0.76) (property pad_prop_bga) (layers "F.Cu" "F.Paste" "F.Mask") (tstamp de88c916-8114-4c9d-b963-7728ef1feab8))
  (pad "H1" smd circle (at -15.88 -6.99) (size 0.76 0.76) (property pad_prop_bga) (layers "F.Cu" "F.Paste" "F.Mask") (tstamp 9d70d04e-fc29-4ee1-8f09-7bb0b990392a))
  (pad "H2" smd circle (at -14.61 -6.99) (size 0.76 0.76) (property pad_prop_bga) (layers "F.Cu" "F.Paste" "F.Mask") (tstamp 251529be-a2b6-4eaf-bd25-7a64d35804ff))
  (pad "H3" smd circle (at -13.34 -6.99) (size 0.76 0.76) (property pad_prop_bga) (layers "F.Cu" "F.Paste" "F.Mask") (tstamp b33e3a20-adbe-4cfc-bfbd-99663ad4ed33))
  (pad "H4" smd circle (at -12.06 -6.99) (size 0.76 0.76) (property pad_prop_bga) (layers "F.Cu" "F.Paste" "F.Mask") (tstamp 7f17701b-bc41-47e1-9233-4319c6c62517))
  (pad "H23" smd circle (at 12.06 -6.99) (size 0.76 0.76) (property pad_prop_bga) (layers "F.Cu" "F.Paste" "F.Mask") (tstamp c98a00a9-93c4-440c-9465-704f5c60c479))
  (pad "H24" smd circle (at 13.34 -6.99) (size 0.76 0.76) (property pad_prop_bga) (layers "F.Cu" "F.Paste" "F.Mask") (tstamp a06ca8b5-1d07-4fc4-9e37-286cf6334b20))
  (pad "H25" smd circle (at 14.61 -6.99) (size 0.76 0.76) (property pad_prop_bga) (layers "F.Cu" "F.Paste" "F.Mask") (tstamp 648cbde1-3e22-45dd-bbf8-5b6181354d70))
  (pad "H26" smd circle (at 15.88 -6.99) (size 0.76 0.76) (property pad_prop_bga) (layers "F.Cu" "F.Paste" "F.Mask") (tstamp cb96e95d-6958-4153-b2db-f78be6dd15bb))
  (pad "J1" smd circle (at -15.88 -5.71) (size 0.76 0.76) (property pad_prop_bga) (layers "F.Cu" "F.Paste" "F.Mask") (tstamp 21088bd5-62b7-4d88-9bd6-436cf611bfad))
  (pad "J2" smd circle (at -14.61 -5.71) (size 0.76 0.76) (property pad_prop_bga) (layers "F.Cu" "F.Paste" "F.Mask") (tstamp 7c0c9a82-4ac8-4145-a9d6-cada540bc4b3))
  (pad "J3" smd circle (at -13.34 -5.71) (size 0.76 0.76) (property pad_prop_bga) (layers "F.Cu" "F.Paste" "F.Mask") (tstamp 9443c839-9cc7-444e-8902-b7edbefe41d4))
  (pad "J4" smd circle (at -12.06 -5.71) (size 0.76 0.76) (property pad_prop_bga) (layers "F.Cu" "F.Paste" "F.Mask") (tstamp 229fac49-6cc7-46be-a9cc-2a2beb4ed59b))
  (pad "J23" smd circle (at 12.06 -5.71) (size 0.76 0.76) (property pad_prop_bga) (layers "F.Cu" "F.Paste" "F.Mask") (tstamp 0c0151a4-a2eb-4aa1-8bf6-a2487cd61eac))
  (pad "J24" smd circle (at 13.34 -5.71) (size 0.76 0.76) (property pad_prop_bga) (layers "F.Cu" "F.Paste" "F.Mask") (tstamp a648e1ce-ad38-4759-b8a9-b7b5877f3315))
  (pad "J25" smd circle (at 14.61 -5.71) (size 0.76 0.76) (property pad_prop_bga) (layers "F.Cu" "F.Paste" "F.Mask") (tstamp 06708da6-22cb-43a0-bfdd-f20f4173a514))
  (pad "J26" smd circle (at 15.88 -5.71) (size 0.76 0.76) (property pad_prop_bga) (layers "F.Cu" "F.Paste" "F.Mask") (tstamp dba80f0f-e67a-4bb1-b63a-3724d3276267))
  (pad "K1" smd circle (at -15.88 -4.45) (size 0.76 0.76) (property pad_prop_bga) (layers "F.Cu" "F.Paste" "F.Mask") (tstamp ac245b70-3c99-45f8-b47f-af4dbe0748f7))
  (pad "K2" smd circle (at -14.61 -4.45) (size 0.76 0.76) (property pad_prop_bga) (layers "F.Cu" "F.Paste" "F.Mask") (tstamp fc4096b3-0d27-4a41-93e3-56d4d1aad802))
  (pad "K3" smd circle (at -13.34 -4.45) (size 0.76 0.76) (property pad_prop_bga) (layers "F.Cu" "F.Paste" "F.Mask") (tstamp 4d78541b-78af-40f7-a8bd-0bee280b1c25))
  (pad "K4" smd circle (at -12.06 -4.45) (size 0.76 0.76) (property pad_prop_bga) (layers "F.Cu" "F.Paste" "F.Mask") (tstamp 4e485b4f-3e7f-47f1-9a2b-5dedc658d000))
  (pad "K23" smd circle (at 12.06 -4.45) (size 0.76 0.76) (property pad_prop_bga) (layers "F.Cu" "F.Paste" "F.Mask") (tstamp 414f1dcf-ff04-46f1-91da-b90319f5a5f7))
  (pad "K24" smd circle (at 13.34 -4.45) (size 0.76 0.76) (property pad_prop_bga) (layers "F.Cu" "F.Paste" "F.Mask") (tstamp 6fe94544-1f62-4397-8918-f08d81bbb6bb))
  (pad "K25" smd circle (at 14.61 -4.45) (size 0.76 0.76) (property pad_prop_bga) (layers "F.Cu" "F.Paste" "F.Mask") (tstamp 4ce5bb36-81ab-44ce-8d03-6a1e028f11f0))
  (pad "K26" smd circle (at 15.88 -4.45) (size 0.76 0.76) (property pad_prop_bga) (layers "F.Cu" "F.Paste" "F.Mask") (tstamp 09e1a513-a3ad-4c20-b3ee-8de2be684ddb))
  (pad "L1" smd circle (at -15.88 -3.17) (size 0.76 0.76) (property pad_prop_bga) (layers "F.Cu" "F.Paste" "F.Mask") (tstamp 0c557542-4e62-44b1-9d04-2bd53562686b))
  (pad "L2" smd circle (at -14.61 -3.17) (size 0.76 0.76) (property pad_prop_bga) (layers "F.Cu" "F.Paste" "F.Mask") (tstamp 4da90db6-174e-475a-9f35-52822a2feabd))
  (pad "L3" smd circle (at -13.34 -3.17) (size 0.76 0.76) (property pad_prop_bga) (layers "F.Cu" "F.Paste" "F.Mask") (tstamp c075db1b-2b35-4942-ae26-9b1927a1162d))
  (pad "L4" smd circle (at -12.06 -3.17) (size 0.76 0.76) (property pad_prop_bga) (layers "F.Cu" "F.Paste" "F.Mask") (tstamp 1e196260-90d9-4759-a24e-3489b0d0acc0))
  (pad "L23" smd circle (at 12.06 -3.17) (size 0.76 0.76) (property pad_prop_bga) (layers "F.Cu" "F.Paste" "F.Mask") (tstamp 822e4e5c-98ac-4490-a007-7994794b7025))
  (pad "L24" smd circle (at 13.34 -3.17) (size 0.76 0.76) (property pad_prop_bga) (layers "F.Cu" "F.Paste" "F.Mask") (tstamp 212c356e-1fa6-42c0-af45-9a20eed9a15c))
  (pad "L25" smd circle (at 14.61 -3.17) (size 0.76 0.76) (property pad_prop_bga) (layers "F.Cu" "F.Paste" "F.Mask") (tstamp 1752334e-4ab3-4557-8fdd-be0ee7367c17))
  (pad "L26" smd circle (at 15.88 -3.17) (size 0.76 0.76) (property pad_prop_bga) (layers "F.Cu" "F.Paste" "F.Mask") (tstamp f7e29249-decc-46b2-a9f2-5e47984e0da7))
  (pad "M1" smd circle (at -15.88 -1.91) (size 0.76 0.76) (property pad_prop_bga) (layers "F.Cu" "F.Paste" "F.Mask") (tstamp a3b8207e-92f5-47ef-a551-582172170204))
  (pad "M2" smd circle (at -14.61 -1.91) (size 0.76 0.76) (property pad_prop_bga) (layers "F.Cu" "F.Paste" "F.Mask") (tstamp 904f27d1-45ef-4fef-a9ed-c3b5b9008aa7))
  (pad "M3" smd circle (at -13.34 -1.91) (size 0.76 0.76) (property pad_prop_bga) (layers "F.Cu" "F.Paste" "F.Mask") (tstamp b0b2445c-8025-49f0-ac50-b0a1007852ca))
  (pad "M4" smd circle (at -12.06 -1.91) (size 0.76 0.76) (property pad_prop_bga) (layers "F.Cu" "F.Paste" "F.Mask") (tstamp 7661ca72-b333-4109-803a-f25f3fdac1e9))
  (pad "M23" smd circle (at 12.06 -1.91) (size 0.76 0.76) (property pad_prop_bga) (layers "F.Cu" "F.Paste" "F.Mask") (tstamp dd85c594-47ae-417c-ad2b-26ed4211399f))
  (pad "M24" smd circle (at 13.34 -1.91) (size 0.76 0.76) (property pad_prop_bga) (layers "F.Cu" "F.Paste" "F.Mask") (tstamp ef4b9cbc-51e1-42d4-a17b-5d60cd507b80))
  (pad "M25" smd circle (at 14.61 -1.91) (size 0.76 0.76) (property pad_prop_bga) (layers "F.Cu" "F.Paste" "F.Mask") (tstamp fad49cd9-6eb5-47e4-b65e-e0fe6ae32985))
  (pad "M26" smd circle (at 15.88 -1.91) (size 0.76 0.76) (property pad_prop_bga) (layers "F.Cu" "F.Paste" "F.Mask") (tstamp 70132b08-3891-4a8a-93cc-7060f69f723b))
  (pad "N1" smd circle (at -15.88 -0.64) (size 0.76 0.76) (property pad_prop_bga) (layers "F.Cu" "F.Paste" "F.Mask") (tstamp c6399307-fbc1-4ef7-a1df-7efc2c430f32))
  (pad "N2" smd circle (at -14.61 -0.64) (size 0.76 0.76) (property pad_prop_bga) (layers "F.Cu" "F.Paste" "F.Mask") (tstamp b823ab8f-e3f1-48c9-ab86-16961b0bb969))
  (pad "N3" smd circle (at -13.34 -0.64) (size 0.76 0.76) (property pad_prop_bga) (layers "F.Cu" "F.Paste" "F.Mask") (tstamp 87e91d5c-66a6-4de0-8c5a-cc6a08d473f6))
  (pad "N4" smd circle (at -12.06 -0.64) (size 0.76 0.76) (property pad_prop_bga) (layers "F.Cu" "F.Paste" "F.Mask") (tstamp 822cf229-3ab5-4033-8033-88bd91e71a35))
  (pad "N23" smd circle (at 12.06 -0.64) (size 0.76 0.76) (property pad_prop_bga) (layers "F.Cu" "F.Paste" "F.Mask") (tstamp 6cdf9281-b5ef-4fb5-89dd-c8c1c640681d))
  (pad "N24" smd circle (at 13.34 -0.64) (size 0.76 0.76) (property pad_prop_bga) (layers "F.Cu" "F.Paste" "F.Mask") (tstamp 85522a40-f4a1-4b63-895b-4997ed7648a4))
  (pad "N25" smd circle (at 14.61 -0.64) (size 0.76 0.76) (property pad_prop_bga) (layers "F.Cu" "F.Paste" "F.Mask") (tstamp 77011a9d-22eb-41c0-943f-80f6eccd010f))
  (pad "N26" smd circle (at 15.88 -0.64) (size 0.76 0.76) (property pad_prop_bga) (layers "F.Cu" "F.Paste" "F.Mask") (tstamp 181e1517-3ee5-42ee-8f4a-6216425e100b))
  (pad "P1" smd circle (at -15.88 0.64) (size 0.76 0.76) (property pad_prop_bga) (layers "F.Cu" "F.Paste" "F.Mask") (tstamp 924d63ed-ed27-4a3d-abee-df063a79f8c6))
  (pad "P2" smd circle (at -14.61 0.64) (size 0.76 0.76) (property pad_prop_bga) (layers "F.Cu" "F.Paste" "F.Mask") (tstamp b8237635-bb7e-42bd-8754-40fbe11b8e1f))
  (pad "P3" smd circle (at -13.34 0.64) (size 0.76 0.76) (property pad_prop_bga) (layers "F.Cu" "F.Paste" "F.Mask") (tstamp 4965e85b-51ec-42b3-8de4-ed7bad959bb6))
  (pad "P4" smd circle (at -12.06 0.64) (size 0.76 0.76) (property pad_prop_bga) (layers "F.Cu" "F.Paste" "F.Mask") (tstamp 4d2d15a3-1cea-4db3-b72c-f9014c3b95ae))
  (pad "P23" smd circle (at 12.06 0.64) (size 0.76 0.76) (property pad_prop_bga) (layers "F.Cu" "F.Paste" "F.Mask") (tstamp 6097b893-ce31-4f09-8cbc-b45cb42ee298))
  (pad "P24" smd circle (at 13.34 0.64) (size 0.76 0.76) (property pad_prop_bga) (layers "F.Cu" "F.Paste" "F.Mask") (tstamp 38abd3f6-79e1-4949-9426-8ff01832017c))
  (pad "P25" smd circle (at 14.61 0.64) (size 0.76 0.76) (property pad_prop_bga) (layers "F.Cu" "F.Paste" "F.Mask") (tstamp a3450457-2a34-49c6-8983-cbeb99813d3e))
  (pad "P26" smd circle (at 15.88 0.64) (size 0.76 0.76) (property pad_prop_bga) (layers "F.Cu" "F.Paste" "F.Mask") (tstamp 996f1348-97ae-4f8d-b940-b603ad15d948))
  (pad "R1" smd circle (at -15.88 1.91) (size 0.76 0.76) (property pad_prop_bga) (layers "F.Cu" "F.Paste" "F.Mask") (tstamp 9040fec5-96e3-4529-9dd3-c5a92174e58a))
  (pad "R2" smd circle (at -14.61 1.91) (size 0.76 0.76) (property pad_prop_bga) (layers "F.Cu" "F.Paste" "F.Mask") (tstamp b3a266c5-04bd-41ce-97b6-905fdb8e557a))
  (pad "R3" smd circle (at -13.34 1.91) (size 0.76 0.76) (property pad_prop_bga) (layers "F.Cu" "F.Paste" "F.Mask") (tstamp e6653b49-4e5e-4cc7-9ddb-413c3780b6bf))
  (pad "R4" smd circle (at -12.06 1.91) (size 0.76 0.76) (property pad_prop_bga) (layers "F.Cu" "F.Paste" "F.Mask") (tstamp f3901ea5-3401-49c6-bd45-8a1700f88141))
  (pad "R23" smd circle (at 12.06 1.91) (size 0.76 0.76) (property pad_prop_bga) (layers "F.Cu" "F.Paste" "F.Mask") (tstamp 0393905b-8ded-4599-81cd-6fbab8eb8ae5))
  (pad "R24" smd circle (at 13.34 1.91) (size 0.76 0.76) (property pad_prop_bga) (layers "F.Cu" "F.Paste" "F.Mask") (tstamp 189e3dc9-6a7b-4bee-80e7-8e5332dda6cc))
  (pad "R25" smd circle (at 14.61 1.91) (size 0.76 0.76) (property pad_prop_bga) (layers "F.Cu" "F.Paste" "F.Mask") (tstamp 9c361da2-4995-4a14-bc11-5f1611489783))
  (pad "R26" smd circle (at 15.88 1.91) (size 0.76 0.76) (property pad_prop_bga) (layers "F.Cu" "F.Paste" "F.Mask") (tstamp 97031a7c-f8b3-4da3-a38b-d91b96cf9e97))
  (pad "T1" smd circle (at -15.88 3.17) (size 0.76 0.76) (property pad_prop_bga) (layers "F.Cu" "F.Paste" "F.Mask") (tstamp e826ebe6-9cdb-40cb-9964-361a51be6110))
  (pad "T2" smd circle (at -14.61 3.17) (size 0.76 0.76) (property pad_prop_bga) (layers "F.Cu" "F.Paste" "F.Mask") (tstamp 46e324ad-7f5a-4790-815c-73cb227791c0))
  (pad "T3" smd circle (at -13.34 3.17) (size 0.76 0.76) (property pad_prop_bga) (layers "F.Cu" "F.Paste" "F.Mask") (tstamp d2c77062-32d2-4f24-8210-86d5bed10124))
  (pad "T4" smd circle (at -12.06 3.17) (size 0.76 0.76) (property pad_prop_bga) (layers "F.Cu" "F.Paste" "F.Mask") (tstamp 1156e89d-7625-448a-9602-448f9ea9ef04))
  (pad "T23" smd circle (at 12.06 3.17) (size 0.76 0.76) (property pad_prop_bga) (layers "F.Cu" "F.Paste" "F.Mask") (tstamp 7261416c-21c4-4eba-82ab-234c04c36668))
  (pad "T24" smd circle (at 13.34 3.17) (size 0.76 0.76) (property pad_prop_bga) (layers "F.Cu" "F.Paste" "F.Mask") (tstamp 1cdc2edb-b341-4436-88cc-733206937435))
  (pad "T25" smd circle (at 14.61 3.17) (size 0.76 0.76) (property pad_prop_bga) (layers "F.Cu" "F.Paste" "F.Mask") (tstamp dec4cf0e-fb54-4131-86bb-221825e7a79d))
  (pad "T26" smd circle (at 15.88 3.17) (size 0.76 0.76) (property pad_prop_bga) (layers "F.Cu" "F.Paste" "F.Mask") (tstamp 5bbfec4d-422f-4590-b125-b80301309a94))
  (pad "U1" smd circle (at -15.88 4.45) (size 0.76 0.76) (property pad_prop_bga) (layers "F.Cu" "F.Paste" "F.Mask") (tstamp e5682521-da65-4711-80a5-98387ad592e5))
  (pad "U2" smd circle (at -14.61 4.45) (size 0.76 0.76) (property pad_prop_bga) (layers "F.Cu" "F.Paste" "F.Mask") (tstamp 7e82b2b7-cd84-4182-b4bc-514a55c15ad8))
  (pad "U3" smd circle (at -13.34 4.45) (size 0.76 0.76) (property pad_prop_bga) (layers "F.Cu" "F.Paste" "F.Mask") (tstamp e339a584-d856-45b3-bddb-9b22f3652982))
  (pad "U4" smd circle (at -12.06 4.45) (size 0.76 0.76) (property pad_prop_bga) (layers "F.Cu" "F.Paste" "F.Mask") (tstamp 41015df5-0eef-46b3-a3a6-12401573a605))
  (pad "U23" smd circle (at 12.06 4.45) (size 0.76 0.76) (property pad_prop_bga) (layers "F.Cu" "F.Paste" "F.Mask") (tstamp 92cda508-4280-4790-a524-7a3a1c0ca325))
  (pad "U24" smd circle (at 13.34 4.45) (size 0.76 0.76) (property pad_prop_bga) (layers "F.Cu" "F.Paste" "F.Mask") (tstamp a8377156-da7a-4e50-a5e9-6e0c5111a0c5))
  (pad "U25" smd circle (at 14.61 4.45) (size 0.76 0.76) (property pad_prop_bga) (layers "F.Cu" "F.Paste" "F.Mask") (tstamp bdff746e-0109-44c4-9c68-2d36ec556ccb))
  (pad "U26" smd circle (at 15.88 4.45) (size 0.76 0.76) (property pad_prop_bga) (layers "F.Cu" "F.Paste" "F.Mask") (tstamp fede60b2-99a8-4143-829f-6c7c5e1230d5))
  (pad "V1" smd circle (at -15.88 5.71) (size 0.76 0.76) (property pad_prop_bga) (layers "F.Cu" "F.Paste" "F.Mask") (tstamp b873dea0-6ce7-4570-9765-bf2022b21004))
  (pad "V2" smd circle (at -14.61 5.71) (size 0.76 0.76) (property pad_prop_bga) (layers "F.Cu" "F.Paste" "F.Mask") (tstamp 50d8bf97-ed4a-497c-9d4f-7be53891b428))
  (pad "V3" smd circle (at -13.34 5.71) (size 0.76 0.76) (property pad_prop_bga) (layers "F.Cu" "F.Paste" "F.Mask") (tstamp cb3d7fc3-406c-45bc-afe9-2c18be15094d))
  (pad "V4" smd circle (at -12.06 5.71) (size 0.76 0.76) (property pad_prop_bga) (layers "F.Cu" "F.Paste" "F.Mask") (tstamp b56c8797-99f2-459a-a77d-bbb63924175b))
  (pad "V23" smd circle (at 12.06 5.71) (size 0.76 0.76) (property pad_prop_bga) (layers "F.Cu" "F.Paste" "F.Mask") (tstamp 11e3a83b-6d8a-47d5-b24b-0d75bb11a9ac))
  (pad "V24" smd circle (at 13.34 5.71) (size 0.76 0.76) (property pad_prop_bga) (layers "F.Cu" "F.Paste" "F.Mask") (tstamp 76313b2a-47c9-41c5-a62b-828f122dcf5c))
  (pad "V25" smd circle (at 14.61 5.71) (size 0.76 0.76) (property pad_prop_bga) (layers "F.Cu" "F.Paste" "F.Mask") (tstamp a1a37097-0f35-4894-b008-9c4243467d99))
  (pad "V26" smd circle (at 15.88 5.71) (size 0.76 0.76) (property pad_prop_bga) (layers "F.Cu" "F.Paste" "F.Mask") (tstamp 887cf1e9-1a5c-49b8-ad94-ebea4cc95270))
  (pad "W1" smd circle (at -15.88 6.99) (size 0.76 0.76) (property pad_prop_bga) (layers "F.Cu" "F.Paste" "F.Mask") (tstamp 04ae08bb-f153-4e70-b650-b33738e6fa21))
  (pad "W2" smd circle (at -14.61 6.99) (size 0.76 0.76) (property pad_prop_bga) (layers "F.Cu" "F.Paste" "F.Mask") (tstamp 221043f4-b937-4eeb-b5a6-a4b74274a90c))
  (pad "W3" smd circle (at -13.34 6.99) (size 0.76 0.76) (property pad_prop_bga) (layers "F.Cu" "F.Paste" "F.Mask") (tstamp a453a257-f25c-4ff3-b9ac-e5b165134e7b))
  (pad "W4" smd circle (at -12.06 6.99) (size 0.76 0.76) (property pad_prop_bga) (layers "F.Cu" "F.Paste" "F.Mask") (tstamp b1dc4914-6135-4a06-b287-84867c2c6bc7))
  (pad "W23" smd circle (at 12.06 6.99) (size 0.76 0.76) (property pad_prop_bga) (layers "F.Cu" "F.Paste" "F.Mask") (tstamp da64ef7d-e9ca-4dfb-b613-26601a959624))
  (pad "W24" smd circle (at 13.34 6.99) (size 0.76 0.76) (property pad_prop_bga) (layers "F.Cu" "F.Paste" "F.Mask") (tstamp a4ef4bcc-398a-40dd-9b96-c1b07d4e385a))
  (pad "W25" smd circle (at 14.61 6.99) (size 0.76 0.76) (property pad_prop_bga) (layers "F.Cu" "F.Paste" "F.Mask") (tstamp 7b84d3f4-99e9-4b71-9981-49a3c73ad514))
  (pad "W26" smd circle (at 15.88 6.99) (size 0.76 0.76) (property pad_prop_bga) (layers "F.Cu" "F.Paste" "F.Mask") (tstamp 4cfb4785-ce37-4d5b-89bc-fdfb9bf68034))
  (pad "Y1" smd circle (at -15.88 8.26) (size 0.76 0.76) (property pad_prop_bga) (layers "F.Cu" "F.Paste" "F.Mask") (tstamp 7a2309dc-af82-4c8e-9fdb-13991de1eb11))
  (pad "Y2" smd circle (at -14.61 8.26) (size 0.76 0.76) (property pad_prop_bga) (layers "F.Cu" "F.Paste" "F.Mask") (tstamp c29367e7-2787-4c34-979d-e2e072180d26))
  (pad "Y3" smd circle (at -13.34 8.26) (size 0.76 0.76) (property pad_prop_bga) (layers "F.Cu" "F.Paste" "F.Mask") (tstamp 7f4f4c60-4732-4429-8fd9-f931df20080c))
  (pad "Y4" smd circle (at -12.06 8.26) (size 0.76 0.76) (property pad_prop_bga) (layers "F.Cu" "F.Paste" "F.Mask") (tstamp 46ade2ba-1254-4faf-ad4b-9011fdb0ffff))
  (pad "Y23" smd circle (at 12.06 8.26) (size 0.76 0.76) (property pad_prop_bga) (layers "F.Cu" "F.Paste" "F.Mask") (tstamp 7f16f636-7c26-4849-b692-9c4bd5813e73))
  (pad "Y24" smd circle (at 13.34 8.26) (size 0.76 0.76) (property pad_prop_bga) (layers "F.Cu" "F.Paste" "F.Mask") (tstamp 46f5f4a4-48c0-406f-8cdf-56744c494d4d))
  (pad "Y25" smd circle (at 14.61 8.26) (size 0.76 0.76) (property pad_prop_bga) (layers "F.Cu" "F.Paste" "F.Mask") (tstamp 5bdb7246-47a8-4fe9-a108-5f7890f5f394))
  (pad "Y26" smd circle (at 15.88 8.26) (size 0.76 0.76) (property pad_prop_bga) (layers "F.Cu" "F.Paste" "F.Mask") (tstamp 6b360544-13e0-4627-8240-68e853160eee))
  (model "${KICAD6_3DMODEL_DIR}/Package_BGA.3dshapes/BGA-352_35.0x35.0mm_Layout26x26_P1.27mm.wrl"
    (offset (xyz 0 0 0))
    (scale (xyz 1 1 1))
    (rotate (xyz 0 0 0))
  )
)
