(footprint "BGA-64_9.0x9.0mm_Layout10x10_P0.8mm" (version 20211014) (generator pcbnew)
  (layer "F.Cu")
  (tedit 5A058D74)
  (descr "BGA-64, 10x10 raster, 9x9mm package, pitch 0.8mm")
  (tags "BGA-64")
  (attr smd)
  (fp_text reference "REF**" (at 0 -5.4) (layer "F.SilkS")
    (effects (font (size 1 1) (thickness 0.15)))
    (tstamp b8e428e7-1f3d-4657-87dc-6b5ac1128a43)
  )
  (fp_text value "BGA-64_9.0x9.0mm_Layout10x10_P0.8mm" (at 0 5.5) (layer "F.Fab")
    (effects (font (size 1 1) (thickness 0.15)))
    (tstamp d62b67f3-9ac1-4b0a-bca1-bcb73f4def36)
  )
  (fp_text user "${REFERENCE}" (at 0 0) (layer "F.Fab")
    (effects (font (size 1 1) (thickness 0.15)))
    (tstamp d86d4b4b-be25-4b18-b2e6-ab5b88599512)
  )
  (fp_line (start 4.6 -4.6) (end -4.6 -4.6) (layer "F.SilkS") (width 0.12) (tstamp 28eeb8a2-dc6f-420e-9a82-8398b1564323))
  (fp_line (start -4.8 -4.1) (end -4.8 -4.8) (layer "F.SilkS") (width 0.12) (tstamp 36db877f-86a2-4249-af63-bbf11f318d7e))
  (fp_line (start 4.6 4.6) (end 4.6 -4.6) (layer "F.SilkS") (width 0.12) (tstamp 4bdf7759-701c-4ea8-929a-51e7f438e012))
  (fp_line (start -4.6 4.6) (end 4.6 4.6) (layer "F.SilkS") (width 0.12) (tstamp b344760c-345e-4a1d-a1d8-a3faffcbc997))
  (fp_line (start -4.8 -4.8) (end -4.1 -4.8) (layer "F.SilkS") (width 0.12) (tstamp bbf009e6-7c1a-4677-a1b1-c63166bf6402))
  (fp_line (start -4.6 -4.6) (end -4.6 4.6) (layer "F.SilkS") (width 0.12) (tstamp cde186b4-564f-40a9-b930-d2609c8d05fd))
  (fp_line (start 5.5 5.5) (end -5.5 5.5) (layer "F.CrtYd") (width 0.05) (tstamp 1fb6a636-3673-48f4-8475-d7a3bfe6aa00))
  (fp_line (start -5.5 -5.5) (end 5.5 -5.5) (layer "F.CrtYd") (width 0.05) (tstamp 6486adfe-13d0-4fcb-b4e6-91b6ad6c1c6f))
  (fp_line (start 5.5 5.5) (end 5.5 -5.5) (layer "F.CrtYd") (width 0.05) (tstamp 7dfd1f05-4693-4573-8449-3a2619e51a83))
  (fp_line (start -5.5 -5.5) (end -5.5 5.5) (layer "F.CrtYd") (width 0.05) (tstamp acfdb96c-9b95-4aa0-9e3a-6595f3a139f0))
  (fp_line (start 4.5 -4.5) (end -4 -4.5) (layer "F.Fab") (width 0.1) (tstamp 330bb4e1-0d96-47ab-b3cc-bab59d4be3da))
  (fp_line (start -4.5 -4) (end -4.5 4.5) (layer "F.Fab") (width 0.1) (tstamp 4e51392c-5d46-45f2-b8ec-d57699cf6dd9))
  (fp_line (start -4 -4.5) (end -4.5 -4) (layer "F.Fab") (width 0.1) (tstamp 6a1f1512-e588-41fe-8da1-5681b79258bb))
  (fp_line (start -4.5 4.5) (end 4.5 4.5) (layer "F.Fab") (width 0.1) (tstamp 733f8eae-f794-405a-a7b2-197f8a5b7906))
  (fp_line (start 4.5 4.5) (end 4.5 -4.5) (layer "F.Fab") (width 0.1) (tstamp d45e919d-427e-486d-8837-a6f4b461f210))
  (pad "A1" smd circle (at -3.6 -3.6) (size 0.5 0.5) (property pad_prop_bga) (layers "F.Cu" "F.Paste" "F.Mask") (tstamp ae96bc39-739c-4596-9537-137ac28086cd))
  (pad "A2" smd circle (at -2.8 -3.6) (size 0.5 0.5) (property pad_prop_bga) (layers "F.Cu" "F.Paste" "F.Mask") (tstamp 136b9d07-9057-4e65-91b4-d4785d85d2c5))
  (pad "A3" smd circle (at -2 -3.6) (size 0.5 0.5) (property pad_prop_bga) (layers "F.Cu" "F.Paste" "F.Mask") (tstamp 0b08f054-971f-45e8-be8a-e63291cbb8b5))
  (pad "A4" smd circle (at -1.2 -3.6) (size 0.5 0.5) (property pad_prop_bga) (layers "F.Cu" "F.Paste" "F.Mask") (tstamp bea20516-36d8-4851-92b2-6f7ceb7d8a6c))
  (pad "A5" smd circle (at -0.4 -3.6) (size 0.5 0.5) (property pad_prop_bga) (layers "F.Cu" "F.Paste" "F.Mask") (tstamp 68d529b9-ceba-4885-8ac0-4ccaebf32dd9))
  (pad "A6" smd circle (at 0.4 -3.6) (size 0.5 0.5) (property pad_prop_bga) (layers "F.Cu" "F.Paste" "F.Mask") (tstamp 5030f3e2-62f5-4c9f-a3a1-bf4972904ca6))
  (pad "A7" smd circle (at 1.2 -3.6) (size 0.5 0.5) (property pad_prop_bga) (layers "F.Cu" "F.Paste" "F.Mask") (tstamp a766b506-ca69-4ad9-b905-1fc65d8aa10b))
  (pad "A8" smd circle (at 2 -3.6) (size 0.5 0.5) (property pad_prop_bga) (layers "F.Cu" "F.Paste" "F.Mask") (tstamp 91ef8631-a35f-4a06-9888-0d59d69e0db8))
  (pad "A9" smd circle (at 2.8 -3.6) (size 0.5 0.5) (property pad_prop_bga) (layers "F.Cu" "F.Paste" "F.Mask") (tstamp a1e90343-6ad1-4ac9-a37c-d7f30a64cb87))
  (pad "A10" smd circle (at 3.6 -3.6) (size 0.5 0.5) (property pad_prop_bga) (layers "F.Cu" "F.Paste" "F.Mask") (tstamp 1847a624-9d6b-4fe9-ab05-83a225b76113))
  (pad "B1" smd circle (at -3.6 -2.8) (size 0.5 0.5) (property pad_prop_bga) (layers "F.Cu" "F.Paste" "F.Mask") (tstamp be06da21-ddf3-4cf4-8117-67b320fa97cf))
  (pad "B2" smd circle (at -2.8 -2.8) (size 0.5 0.5) (property pad_prop_bga) (layers "F.Cu" "F.Paste" "F.Mask") (tstamp 66c0b302-ee66-421c-9d3f-aa09d43eb671))
  (pad "B3" smd circle (at -2 -2.8) (size 0.5 0.5) (property pad_prop_bga) (layers "F.Cu" "F.Paste" "F.Mask") (tstamp 74b482da-2676-4133-b7f8-4a542411d6bd))
  (pad "B4" smd circle (at -1.2 -2.8) (size 0.5 0.5) (property pad_prop_bga) (layers "F.Cu" "F.Paste" "F.Mask") (tstamp 399129d5-b559-4de3-b684-0157b4978b32))
  (pad "B5" smd circle (at -0.4 -2.8) (size 0.5 0.5) (property pad_prop_bga) (layers "F.Cu" "F.Paste" "F.Mask") (tstamp d5a6225a-212e-480e-b093-e4042b55205c))
  (pad "B6" smd circle (at 0.4 -2.8) (size 0.5 0.5) (property pad_prop_bga) (layers "F.Cu" "F.Paste" "F.Mask") (tstamp 5db2cc97-e3a0-42b1-a555-db73502caf39))
  (pad "B7" smd circle (at 1.2 -2.8) (size 0.5 0.5) (property pad_prop_bga) (layers "F.Cu" "F.Paste" "F.Mask") (tstamp ca24a327-0711-4eaa-a11f-bfae345421ee))
  (pad "B8" smd circle (at 2 -2.8) (size 0.5 0.5) (property pad_prop_bga) (layers "F.Cu" "F.Paste" "F.Mask") (tstamp 23ab3b9e-f22e-41b2-9f42-d8a92dddf123))
  (pad "B9" smd circle (at 2.8 -2.8) (size 0.5 0.5) (property pad_prop_bga) (layers "F.Cu" "F.Paste" "F.Mask") (tstamp f3c94cd2-ee4c-42d2-b91b-bd2859812ea4))
  (pad "B10" smd circle (at 3.6 -2.8) (size 0.5 0.5) (property pad_prop_bga) (layers "F.Cu" "F.Paste" "F.Mask") (tstamp 873eeca5-1d06-485c-b28e-eb612fd7a3b6))
  (pad "C1" smd circle (at -3.6 -2) (size 0.5 0.5) (property pad_prop_bga) (layers "F.Cu" "F.Paste" "F.Mask") (tstamp 375d186d-f988-41f0-b8b1-2535d080cad7))
  (pad "C2" smd circle (at -2.8 -2) (size 0.5 0.5) (property pad_prop_bga) (layers "F.Cu" "F.Paste" "F.Mask") (tstamp 629973d3-9729-4bb1-863d-8dedf176bb0e))
  (pad "C9" smd circle (at 2.8 -2) (size 0.5 0.5) (property pad_prop_bga) (layers "F.Cu" "F.Paste" "F.Mask") (tstamp dbd34446-52e5-42ec-85f2-29556b1e8cb7))
  (pad "C10" smd circle (at 3.6 -2) (size 0.5 0.5) (property pad_prop_bga) (layers "F.Cu" "F.Paste" "F.Mask") (tstamp 56a79952-ef84-48b5-ab2a-7e747ff36de5))
  (pad "D1" smd circle (at -3.6 -1.2) (size 0.5 0.5) (property pad_prop_bga) (layers "F.Cu" "F.Paste" "F.Mask") (tstamp 4bc2a3dd-16ac-4d49-82dd-f9127c14bb0a))
  (pad "D2" smd circle (at -2.8 -1.2) (size 0.5 0.5) (property pad_prop_bga) (layers "F.Cu" "F.Paste" "F.Mask") (tstamp 728d8b94-d699-4f3d-adfc-74a87788c675))
  (pad "D9" smd circle (at 2.8 -1.2) (size 0.5 0.5) (property pad_prop_bga) (layers "F.Cu" "F.Paste" "F.Mask") (tstamp 1bec5db3-ad1c-46c2-b204-06c706b9a113))
  (pad "D10" smd circle (at 3.6 -1.2) (size 0.5 0.5) (property pad_prop_bga) (layers "F.Cu" "F.Paste" "F.Mask") (tstamp f807134a-cc37-42df-8520-eb6d7a086eba))
  (pad "E1" smd circle (at -3.6 -0.4) (size 0.5 0.5) (property pad_prop_bga) (layers "F.Cu" "F.Paste" "F.Mask") (tstamp c448ba53-b12b-4af7-97dc-76aeb5034cbd))
  (pad "E2" smd circle (at -2.8 -0.4) (size 0.5 0.5) (property pad_prop_bga) (layers "F.Cu" "F.Paste" "F.Mask") (tstamp c219e7c5-8c95-4738-92f8-7b357d825d89))
  (pad "E9" smd circle (at 2.8 -0.4) (size 0.5 0.5) (property pad_prop_bga) (layers "F.Cu" "F.Paste" "F.Mask") (tstamp e8a3a051-3486-4886-b25f-c1b540c59717))
  (pad "E10" smd circle (at 3.6 -0.4) (size 0.5 0.5) (property pad_prop_bga) (layers "F.Cu" "F.Paste" "F.Mask") (tstamp bf84e554-a515-422d-9413-4c1a14988408))
  (pad "F1" smd circle (at -3.6 0.4) (size 0.5 0.5) (property pad_prop_bga) (layers "F.Cu" "F.Paste" "F.Mask") (tstamp 9d6abaf1-a687-48af-8708-f99e313b1ad0))
  (pad "F2" smd circle (at -2.8 0.4) (size 0.5 0.5) (property pad_prop_bga) (layers "F.Cu" "F.Paste" "F.Mask") (tstamp 247eaef9-d86f-42e9-ba78-1e0af13993f9))
  (pad "F9" smd circle (at 2.8 0.4) (size 0.5 0.5) (property pad_prop_bga) (layers "F.Cu" "F.Paste" "F.Mask") (tstamp 2e5f1e3f-dcab-4163-8837-b12579800d05))
  (pad "F10" smd circle (at 3.6 0.4) (size 0.5 0.5) (property pad_prop_bga) (layers "F.Cu" "F.Paste" "F.Mask") (tstamp 0c1b086f-9d97-45b4-aa2d-0138ea236b2b))
  (pad "G1" smd circle (at -3.6 1.2) (size 0.5 0.5) (property pad_prop_bga) (layers "F.Cu" "F.Paste" "F.Mask") (tstamp 21d1cbd4-0cea-4091-89e9-c85e587a3f02))
  (pad "G2" smd circle (at -2.8 1.2) (size 0.5 0.5) (property pad_prop_bga) (layers "F.Cu" "F.Paste" "F.Mask") (tstamp 55bddbaa-219c-49cf-b743-6a5fe749d97e))
  (pad "G9" smd circle (at 2.8 1.2) (size 0.5 0.5) (property pad_prop_bga) (layers "F.Cu" "F.Paste" "F.Mask") (tstamp 7e2d4c10-2819-4e4b-98cf-77701e04398f))
  (pad "G10" smd circle (at 3.6 1.2) (size 0.5 0.5) (property pad_prop_bga) (layers "F.Cu" "F.Paste" "F.Mask") (tstamp 73f6a483-bd88-4ed2-9787-7e2fa924f6d9))
  (pad "H1" smd circle (at -3.6 2) (size 0.5 0.5) (property pad_prop_bga) (layers "F.Cu" "F.Paste" "F.Mask") (tstamp bdb72852-cce4-4c05-ab28-4897945a1000))
  (pad "H2" smd circle (at -2.8 2) (size 0.5 0.5) (property pad_prop_bga) (layers "F.Cu" "F.Paste" "F.Mask") (tstamp 718337d0-e38d-43b6-b868-52ca99ca991d))
  (pad "H9" smd circle (at 2.8 2) (size 0.5 0.5) (property pad_prop_bga) (layers "F.Cu" "F.Paste" "F.Mask") (tstamp a4403e34-1388-4958-8237-ffe6444a7e30))
  (pad "H10" smd circle (at 3.6 2) (size 0.5 0.5) (property pad_prop_bga) (layers "F.Cu" "F.Paste" "F.Mask") (tstamp 22cfa1d8-6096-426a-98bb-2737dae2d14b))
  (pad "J1" smd circle (at -3.6 2.8) (size 0.5 0.5) (property pad_prop_bga) (layers "F.Cu" "F.Paste" "F.Mask") (tstamp 0d5e0297-21e3-4366-9664-1d28f106d3fb))
  (pad "J2" smd circle (at -2.8 2.8) (size 0.5 0.5) (property pad_prop_bga) (layers "F.Cu" "F.Paste" "F.Mask") (tstamp 63848e39-1f71-42f5-9ff6-7b1cec2a6005))
  (pad "J3" smd circle (at -2 2.8) (size 0.5 0.5) (property pad_prop_bga) (layers "F.Cu" "F.Paste" "F.Mask") (tstamp 467af770-0334-4e58-a168-d8786593bba9))
  (pad "J4" smd circle (at -1.2 2.8) (size 0.5 0.5) (property pad_prop_bga) (layers "F.Cu" "F.Paste" "F.Mask") (tstamp f8e80640-1e82-4118-b193-084913ef2125))
  (pad "J5" smd circle (at -0.38 2.79) (size 0.5 0.5) (property pad_prop_bga) (layers "F.Cu" "F.Paste" "F.Mask") (tstamp 1ac73c29-2766-4c71-98fd-99ee27d99f68))
  (pad "J6" smd circle (at 0.4 2.8) (size 0.5 0.5) (property pad_prop_bga) (layers "F.Cu" "F.Paste" "F.Mask") (tstamp 47095cb2-f39a-46d3-ba62-4b9c1a65cfad))
  (pad "J7" smd circle (at 1.2 2.8) (size 0.5 0.5) (property pad_prop_bga) (layers "F.Cu" "F.Paste" "F.Mask") (tstamp 26eedabb-fafc-4d51-8197-ef2ec67ee739))
  (pad "J8" smd circle (at 2 2.8) (size 0.5 0.5) (property pad_prop_bga) (layers "F.Cu" "F.Paste" "F.Mask") (tstamp 970c361c-5cb6-497f-a1ac-a3a5e465439a))
  (pad "J9" smd circle (at 2.8 2.8) (size 0.5 0.5) (property pad_prop_bga) (layers "F.Cu" "F.Paste" "F.Mask") (tstamp ae899910-dbb2-48d3-9847-bd0e312b5b9a))
  (pad "J10" smd circle (at 3.6 2.8) (size 0.5 0.5) (property pad_prop_bga) (layers "F.Cu" "F.Paste" "F.Mask") (tstamp c393119d-b9c9-4bd7-8c68-09c3e567e72f))
  (pad "K1" smd circle (at -3.6 3.6) (size 0.5 0.5) (property pad_prop_bga) (layers "F.Cu" "F.Paste" "F.Mask") (tstamp 663910cf-ffc9-4747-aaf0-b810a9290779))
  (pad "K2" smd circle (at -2.8 3.6) (size 0.5 0.5) (property pad_prop_bga) (layers "F.Cu" "F.Paste" "F.Mask") (tstamp 05237a72-3aa3-4a0c-9c6e-1b094586309c))
  (pad "K3" smd circle (at -2 3.6) (size 0.5 0.5) (property pad_prop_bga) (layers "F.Cu" "F.Paste" "F.Mask") (tstamp dc53e1a2-5f7a-4e31-93eb-240ba27e4378))
  (pad "K4" smd circle (at -1.2 3.6) (size 0.5 0.5) (property pad_prop_bga) (layers "F.Cu" "F.Paste" "F.Mask") (tstamp d4c91737-aa14-4326-805d-c58f8079b2e8))
  (pad "K5" smd circle (at -0.4 3.6) (size 0.5 0.5) (property pad_prop_bga) (layers "F.Cu" "F.Paste" "F.Mask") (tstamp 03d97aba-f95f-4f48-be80-d67871936ba7))
  (pad "K6" smd circle (at 0.4 3.6) (size 0.5 0.5) (property pad_prop_bga) (layers "F.Cu" "F.Paste" "F.Mask") (tstamp 0d6a3424-452c-4592-824f-dff4472d1e51))
  (pad "K7" smd circle (at 1.2 3.6) (size 0.5 0.5) (property pad_prop_bga) (layers "F.Cu" "F.Paste" "F.Mask") (tstamp 3bafd158-dc71-4d39-bab8-3089856839be))
  (pad "K8" smd circle (at 2 3.6) (size 0.5 0.5) (property pad_prop_bga) (layers "F.Cu" "F.Paste" "F.Mask") (tstamp cabc82da-e2da-4187-9a62-36fdbec71559))
  (pad "K9" smd circle (at 2.8 3.6) (size 0.5 0.5) (property pad_prop_bga) (layers "F.Cu" "F.Paste" "F.Mask") (tstamp 1d3f9737-bb5e-403f-a71e-5ed028f0d61a))
  (pad "K10" smd circle (at 3.6 3.6) (size 0.5 0.5) (property pad_prop_bga) (layers "F.Cu" "F.Paste" "F.Mask") (tstamp 0da203fd-b30d-4600-a9d7-bc747af3b894))
  (model "${KICAD6_3DMODEL_DIR}/Package_BGA.3dshapes/BGA-64_9.0x9.0mm_Layout10x10_P0.8mm.wrl"
    (offset (xyz 0 0 0))
    (scale (xyz 1 1 1))
    (rotate (xyz 0 0 0))
  )
)
