(footprint "Microchip_TFBGA-196_11x11mm_Layout14x14_P0.75mm_SMD" (version 20211014) (generator pcbnew)
  (layer "F.Cu")
  (tedit 5D96CE1E)
  (descr "TFBGA-196, 11.0x11.0mm, 196 Ball, 14x14 Layout, 0.75mm Pitch, http://ww1.microchip.com/downloads/en/DeviceDoc/SAMA5D2-Series-Data-Sheet-DS60001476C.pdf#page=2956")
  (tags "BGA 196 0.75")
  (solder_mask_margin -0.0375)
  (solder_paste_margin 0.000001)
  (attr smd)
  (fp_text reference "REF**" (at 0 -6.5) (layer "F.SilkS")
    (effects (font (size 1 1) (thickness 0.15)))
    (tstamp 1749ae45-8415-4834-8b9f-5f6d08b8d0d2)
  )
  (fp_text value "Microchip_TFBGA-196_11x11mm_Layout14x14_P0.75mm_SMD" (at 0 6.5) (layer "F.Fab")
    (effects (font (size 1 1) (thickness 0.15)))
    (tstamp bf08513c-8ea2-46b8-baf5-80c078de1bef)
  )
  (fp_text user "${REFERENCE}" (at 0 0) (layer "F.Fab")
    (effects (font (size 1 1) (thickness 0.15)))
    (tstamp d79a6332-632a-462c-8210-1880e387812b)
  )
  (fp_line (start -4.61 -5.61) (end 5.61 -5.61) (layer "F.SilkS") (width 0.12) (tstamp 649c6b15-e5e6-42fc-857b-5c8107487d01))
  (fp_line (start -5.61 5.61) (end -5.61 -4.61) (layer "F.SilkS") (width 0.12) (tstamp bb7f84fc-71d4-42f3-acfe-2f92ff20a8b3))
  (fp_line (start 5.61 5.61) (end -5.61 5.61) (layer "F.SilkS") (width 0.12) (tstamp df4dc7f2-1763-4f15-b484-5daab1715063))
  (fp_line (start 5.61 -5.61) (end 5.61 5.61) (layer "F.SilkS") (width 0.12) (tstamp fdc24ef0-74ab-45fb-9b88-a92ca24e4dcd))
  (fp_line (start -6.5 -6.5) (end -6.5 6.5) (layer "F.CrtYd") (width 0.05) (tstamp 116bb26c-b907-463a-aeb1-32ee56468b2c))
  (fp_line (start 6.5 6.5) (end 6.5 -6.5) (layer "F.CrtYd") (width 0.05) (tstamp 1a1e7b6a-58bf-4526-910b-3a0c13982925))
  (fp_line (start -6.5 6.5) (end 6.5 6.5) (layer "F.CrtYd") (width 0.05) (tstamp 61e48472-6880-4d52-907c-e3dd1439957b))
  (fp_line (start 6.5 -6.5) (end -6.5 -6.5) (layer "F.CrtYd") (width 0.05) (tstamp ab27ba76-cf19-49e3-afef-a9b8b432b574))
  (fp_line (start -5.5 -4.5) (end -4.5 -5.5) (layer "F.Fab") (width 0.1) (tstamp 0b8d159e-3e26-43d2-924f-a2a024fd98ae))
  (fp_line (start 5.5 5.5) (end -5.5 5.5) (layer "F.Fab") (width 0.1) (tstamp 1fc3ca06-5af2-44a7-a1cb-8f9c1f7b51da))
  (fp_line (start -5.5 5.5) (end -5.5 -4.5) (layer "F.Fab") (width 0.1) (tstamp 6e6aad21-a309-4bb6-8fac-72c5cffdfa49))
  (fp_line (start -4.5 -5.5) (end 5.5 -5.5) (layer "F.Fab") (width 0.1) (tstamp 83c0eeb4-9ce7-4489-9165-c08f732afa88))
  (fp_line (start 5.5 -5.5) (end 5.5 5.5) (layer "F.Fab") (width 0.1) (tstamp e2eee957-aff9-4519-8d7f-cf88ec1104af))
  (pad "A1" smd circle (at -4.875 -4.875) (size 0.35 0.35) (property pad_prop_bga) (layers "F.Cu" "F.Paste" "F.Mask") (tstamp 6ecb5bec-08b7-4791-abd3-f4871444a5a2))
  (pad "A2" smd circle (at -4.125 -4.875) (size 0.35 0.35) (property pad_prop_bga) (layers "F.Cu" "F.Paste" "F.Mask") (tstamp 7a5928c5-c6b4-43f7-89e2-742500c238d1))
  (pad "A3" smd circle (at -3.375 -4.875) (size 0.35 0.35) (property pad_prop_bga) (layers "F.Cu" "F.Paste" "F.Mask") (tstamp ab60d4b0-a7de-4b6c-afb4-dfaa4737ccf2))
  (pad "A4" smd circle (at -2.625 -4.875) (size 0.35 0.35) (property pad_prop_bga) (layers "F.Cu" "F.Paste" "F.Mask") (tstamp 8b5b1899-d599-4b94-b00a-70a90239cb54))
  (pad "A5" smd circle (at -1.875 -4.875) (size 0.35 0.35) (property pad_prop_bga) (layers "F.Cu" "F.Paste" "F.Mask") (tstamp 555409ff-eece-4440-9e8d-99e7e6067a7d))
  (pad "A6" smd circle (at -1.125 -4.875) (size 0.35 0.35) (property pad_prop_bga) (layers "F.Cu" "F.Paste" "F.Mask") (tstamp 44982012-2926-420d-a23e-5e82bb630f5e))
  (pad "A7" smd circle (at -0.375 -4.875) (size 0.35 0.35) (property pad_prop_bga) (layers "F.Cu" "F.Paste" "F.Mask") (tstamp 4d63e7c3-4d6d-4e87-9732-c7c0c7c53775))
  (pad "A8" smd circle (at 0.375 -4.875) (size 0.35 0.35) (property pad_prop_bga) (layers "F.Cu" "F.Paste" "F.Mask") (tstamp b031390f-3720-4bbf-b425-ef830a4be42c))
  (pad "A9" smd circle (at 1.125 -4.875) (size 0.35 0.35) (property pad_prop_bga) (layers "F.Cu" "F.Paste" "F.Mask") (tstamp b1148303-2dc1-448a-ab72-8338fc2f28d5))
  (pad "A10" smd circle (at 1.875 -4.875) (size 0.35 0.35) (property pad_prop_bga) (layers "F.Cu" "F.Paste" "F.Mask") (tstamp 2fef3de3-3632-4ac0-b74e-eb60e1ae513d))
  (pad "A11" smd circle (at 2.625 -4.875) (size 0.35 0.35) (property pad_prop_bga) (layers "F.Cu" "F.Paste" "F.Mask") (tstamp c761e9a1-04e8-4fb2-aa16-b2cd951514f9))
  (pad "A12" smd circle (at 3.375 -4.875) (size 0.35 0.35) (property pad_prop_bga) (layers "F.Cu" "F.Paste" "F.Mask") (tstamp 51e681f3-da45-484c-9795-97a6adf352c7))
  (pad "A13" smd circle (at 4.125 -4.875) (size 0.35 0.35) (property pad_prop_bga) (layers "F.Cu" "F.Paste" "F.Mask") (tstamp 0e969cc4-d71a-4689-8f45-14f7a3476b25))
  (pad "A14" smd circle (at 4.875 -4.875) (size 0.35 0.35) (property pad_prop_bga) (layers "F.Cu" "F.Paste" "F.Mask") (tstamp 9a69a485-03c7-487b-87f7-0574c6879b8c))
  (pad "B1" smd circle (at -4.875 -4.125) (size 0.35 0.35) (property pad_prop_bga) (layers "F.Cu" "F.Paste" "F.Mask") (tstamp b3e873cf-eb47-455a-994c-993bb169d63f))
  (pad "B2" smd circle (at -4.125 -4.125) (size 0.35 0.35) (property pad_prop_bga) (layers "F.Cu" "F.Paste" "F.Mask") (tstamp d3721390-320a-4595-a0b6-1bd40ef62df3))
  (pad "B3" smd circle (at -3.375 -4.125) (size 0.35 0.35) (property pad_prop_bga) (layers "F.Cu" "F.Paste" "F.Mask") (tstamp 78af652f-5cae-45fd-8272-3b7ce8e04159))
  (pad "B4" smd circle (at -2.625 -4.125) (size 0.35 0.35) (property pad_prop_bga) (layers "F.Cu" "F.Paste" "F.Mask") (tstamp 148d8f1a-0ec4-4a02-bcb3-619a63d2762f))
  (pad "B5" smd circle (at -1.875 -4.125) (size 0.35 0.35) (property pad_prop_bga) (layers "F.Cu" "F.Paste" "F.Mask") (tstamp 51212c9b-115f-45c1-8a88-731d2cb32414))
  (pad "B6" smd circle (at -1.125 -4.125) (size 0.35 0.35) (property pad_prop_bga) (layers "F.Cu" "F.Paste" "F.Mask") (tstamp bafdab53-ddfc-492c-b184-e231769e0061))
  (pad "B7" smd circle (at -0.375 -4.125) (size 0.35 0.35) (property pad_prop_bga) (layers "F.Cu" "F.Paste" "F.Mask") (tstamp d8e5072b-f04e-4cb0-ae86-dd5ab9d43573))
  (pad "B8" smd circle (at 0.375 -4.125) (size 0.35 0.35) (property pad_prop_bga) (layers "F.Cu" "F.Paste" "F.Mask") (tstamp 5cc0a582-07d1-4738-b0d0-a2bdad726628))
  (pad "B9" smd circle (at 1.125 -4.125) (size 0.35 0.35) (property pad_prop_bga) (layers "F.Cu" "F.Paste" "F.Mask") (tstamp 9a3cafbd-ea79-48e9-b580-4734ab73d1ff))
  (pad "B10" smd circle (at 1.875 -4.125) (size 0.35 0.35) (property pad_prop_bga) (layers "F.Cu" "F.Paste" "F.Mask") (tstamp bb15354f-8890-429e-aca1-19a019675f46))
  (pad "B11" smd circle (at 2.625 -4.125) (size 0.35 0.35) (property pad_prop_bga) (layers "F.Cu" "F.Paste" "F.Mask") (tstamp 6c3b07e3-3d72-45f2-9a0b-b0ef8576bbe2))
  (pad "B12" smd circle (at 3.375 -4.125) (size 0.35 0.35) (property pad_prop_bga) (layers "F.Cu" "F.Paste" "F.Mask") (tstamp af5cdea8-d499-40f9-8fa0-66875496c871))
  (pad "B13" smd circle (at 4.125 -4.125) (size 0.35 0.35) (property pad_prop_bga) (layers "F.Cu" "F.Paste" "F.Mask") (tstamp 9a1b8a36-1957-4b2c-86aa-c16ac9b5f3d0))
  (pad "B14" smd circle (at 4.875 -4.125) (size 0.35 0.35) (property pad_prop_bga) (layers "F.Cu" "F.Paste" "F.Mask") (tstamp 758cf161-dddb-4cc3-a2e7-1bd497463806))
  (pad "C1" smd circle (at -4.875 -3.375) (size 0.35 0.35) (property pad_prop_bga) (layers "F.Cu" "F.Paste" "F.Mask") (tstamp 52843841-5a8b-4a22-8805-084240a26bda))
  (pad "C2" smd circle (at -4.125 -3.375) (size 0.35 0.35) (property pad_prop_bga) (layers "F.Cu" "F.Paste" "F.Mask") (tstamp ff4a8dc1-a990-4b57-b765-6d27a7d3b205))
  (pad "C3" smd circle (at -3.375 -3.375) (size 0.35 0.35) (property pad_prop_bga) (layers "F.Cu" "F.Paste" "F.Mask") (tstamp db55c041-5671-4a90-a771-f11e8dea9c52))
  (pad "C4" smd circle (at -2.625 -3.375) (size 0.35 0.35) (property pad_prop_bga) (layers "F.Cu" "F.Paste" "F.Mask") (tstamp ae772c90-d395-43db-a1da-7d65ec6d47ff))
  (pad "C5" smd circle (at -1.875 -3.375) (size 0.35 0.35) (property pad_prop_bga) (layers "F.Cu" "F.Paste" "F.Mask") (tstamp 1178f4db-324d-4ce0-b4b7-c66c3f4a3e46))
  (pad "C6" smd circle (at -1.125 -3.375) (size 0.35 0.35) (property pad_prop_bga) (layers "F.Cu" "F.Paste" "F.Mask") (tstamp 824c13a3-385a-4120-bba7-5314148536c2))
  (pad "C7" smd circle (at -0.375 -3.375) (size 0.35 0.35) (property pad_prop_bga) (layers "F.Cu" "F.Paste" "F.Mask") (tstamp 968e3bd1-06ae-4d42-8229-f4ab8ad3e359))
  (pad "C8" smd circle (at 0.375 -3.375) (size 0.35 0.35) (property pad_prop_bga) (layers "F.Cu" "F.Paste" "F.Mask") (tstamp b4a84499-77f6-4368-b2b1-f9ce6597c58b))
  (pad "C9" smd circle (at 1.125 -3.375) (size 0.35 0.35) (property pad_prop_bga) (layers "F.Cu" "F.Paste" "F.Mask") (tstamp 98e79b95-aae2-43aa-973e-7c0a2fc58789))
  (pad "C10" smd circle (at 1.875 -3.375) (size 0.35 0.35) (property pad_prop_bga) (layers "F.Cu" "F.Paste" "F.Mask") (tstamp 509fe7bc-dce5-4f9f-b179-9d22f35565a9))
  (pad "C11" smd circle (at 2.625 -3.375) (size 0.35 0.35) (property pad_prop_bga) (layers "F.Cu" "F.Paste" "F.Mask") (tstamp dea5c039-6c4d-4f98-9879-66885359e41b))
  (pad "C12" smd circle (at 3.375 -3.375) (size 0.35 0.35) (property pad_prop_bga) (layers "F.Cu" "F.Paste" "F.Mask") (tstamp b217c6be-7aa2-437a-b049-10c54fb53b6e))
  (pad "C13" smd circle (at 4.125 -3.375) (size 0.35 0.35) (property pad_prop_bga) (layers "F.Cu" "F.Paste" "F.Mask") (tstamp 7854462c-bb47-4571-9730-6234f4160d8f))
  (pad "C14" smd circle (at 4.875 -3.375) (size 0.35 0.35) (property pad_prop_bga) (layers "F.Cu" "F.Paste" "F.Mask") (tstamp a4220424-b7d6-4df6-8b26-53dd1aaadafa))
  (pad "D1" smd circle (at -4.875 -2.625) (size 0.35 0.35) (property pad_prop_bga) (layers "F.Cu" "F.Paste" "F.Mask") (tstamp bf9422f4-7465-4a89-8184-24f4039894d6))
  (pad "D2" smd circle (at -4.125 -2.625) (size 0.35 0.35) (property pad_prop_bga) (layers "F.Cu" "F.Paste" "F.Mask") (tstamp 7fc8fc84-5a38-4298-a7fa-cbd51321771d))
  (pad "D3" smd circle (at -3.375 -2.625) (size 0.35 0.35) (property pad_prop_bga) (layers "F.Cu" "F.Paste" "F.Mask") (tstamp 99c0af5d-d208-43ae-949b-1b623755d4bb))
  (pad "D4" smd circle (at -2.625 -2.625) (size 0.35 0.35) (property pad_prop_bga) (layers "F.Cu" "F.Paste" "F.Mask") (tstamp 61dfcc29-dc0a-4dbb-963f-d7cc8c17d519))
  (pad "D5" smd circle (at -1.875 -2.625) (size 0.35 0.35) (property pad_prop_bga) (layers "F.Cu" "F.Paste" "F.Mask") (tstamp b66fab5f-3e96-4133-87b2-935a17a1219a))
  (pad "D6" smd circle (at -1.125 -2.625) (size 0.35 0.35) (property pad_prop_bga) (layers "F.Cu" "F.Paste" "F.Mask") (tstamp 4d074938-aca1-4243-9338-5b67da9fceae))
  (pad "D7" smd circle (at -0.375 -2.625) (size 0.35 0.35) (property pad_prop_bga) (layers "F.Cu" "F.Paste" "F.Mask") (tstamp d9426a09-ee4f-42d4-bd30-efc05b3dc4db))
  (pad "D8" smd circle (at 0.375 -2.625) (size 0.35 0.35) (property pad_prop_bga) (layers "F.Cu" "F.Paste" "F.Mask") (tstamp cd0cb6d5-c677-4c0a-91e3-b8a9cc47abfb))
  (pad "D9" smd circle (at 1.125 -2.625) (size 0.35 0.35) (property pad_prop_bga) (layers "F.Cu" "F.Paste" "F.Mask") (tstamp 9a2fa429-321d-4a5a-9808-8f82b22d3f93))
  (pad "D10" smd circle (at 1.875 -2.625) (size 0.35 0.35) (property pad_prop_bga) (layers "F.Cu" "F.Paste" "F.Mask") (tstamp 6f10336a-39ae-4226-a539-d40638458487))
  (pad "D11" smd circle (at 2.625 -2.625) (size 0.35 0.35) (property pad_prop_bga) (layers "F.Cu" "F.Paste" "F.Mask") (tstamp 1de472e5-3f48-4458-9a5a-9e49d557d984))
  (pad "D12" smd circle (at 3.375 -2.625) (size 0.35 0.35) (property pad_prop_bga) (layers "F.Cu" "F.Paste" "F.Mask") (tstamp b05302a5-bb6d-4f51-a0ed-92ad4c4befb3))
  (pad "D13" smd circle (at 4.125 -2.625) (size 0.35 0.35) (property pad_prop_bga) (layers "F.Cu" "F.Paste" "F.Mask") (tstamp e5c4d4c9-d092-4ce5-b709-65a7717b23ae))
  (pad "D14" smd circle (at 4.875 -2.625) (size 0.35 0.35) (property pad_prop_bga) (layers "F.Cu" "F.Paste" "F.Mask") (tstamp 16d6329c-077b-4815-a5d4-1ffc746e7090))
  (pad "E1" smd circle (at -4.875 -1.875) (size 0.35 0.35) (property pad_prop_bga) (layers "F.Cu" "F.Paste" "F.Mask") (tstamp 9d399baa-89bd-46af-85cf-e41e182c72d7))
  (pad "E2" smd circle (at -4.125 -1.875) (size 0.35 0.35) (property pad_prop_bga) (layers "F.Cu" "F.Paste" "F.Mask") (tstamp 0cf80f10-25b4-4f34-84d0-639468a4d4f0))
  (pad "E3" smd circle (at -3.375 -1.875) (size 0.35 0.35) (property pad_prop_bga) (layers "F.Cu" "F.Paste" "F.Mask") (tstamp f09700b9-6d90-4e91-a6d9-abb83db3a0c2))
  (pad "E4" smd circle (at -2.625 -1.875) (size 0.35 0.35) (property pad_prop_bga) (layers "F.Cu" "F.Paste" "F.Mask") (tstamp 18fb5711-8a48-4235-ae8d-2c47c2d6e695))
  (pad "E5" smd circle (at -1.875 -1.875) (size 0.35 0.35) (property pad_prop_bga) (layers "F.Cu" "F.Paste" "F.Mask") (tstamp a80d4fc6-afc0-436a-8e94-3bb3a551548c))
  (pad "E6" smd circle (at -1.125 -1.875) (size 0.35 0.35) (property pad_prop_bga) (layers "F.Cu" "F.Paste" "F.Mask") (tstamp 2186ea47-15ee-475b-a049-a06203443309))
  (pad "E7" smd circle (at -0.375 -1.875) (size 0.35 0.35) (property pad_prop_bga) (layers "F.Cu" "F.Paste" "F.Mask") (tstamp c4fa4749-602b-43f6-92a4-10ab336f4898))
  (pad "E8" smd circle (at 0.375 -1.875) (size 0.35 0.35) (property pad_prop_bga) (layers "F.Cu" "F.Paste" "F.Mask") (tstamp 5a16f2db-533b-4731-925a-9b0988adead1))
  (pad "E9" smd circle (at 1.125 -1.875) (size 0.35 0.35) (property pad_prop_bga) (layers "F.Cu" "F.Paste" "F.Mask") (tstamp e36f267e-f396-4968-a9ec-f23b2eff9227))
  (pad "E10" smd circle (at 1.875 -1.875) (size 0.35 0.35) (property pad_prop_bga) (layers "F.Cu" "F.Paste" "F.Mask") (tstamp ca64c65c-69ed-494a-a7d4-ce6d8691e0bb))
  (pad "E11" smd circle (at 2.625 -1.875) (size 0.35 0.35) (property pad_prop_bga) (layers "F.Cu" "F.Paste" "F.Mask") (tstamp 7d933be1-3124-4773-a3f7-1a82b80f43f9))
  (pad "E12" smd circle (at 3.375 -1.875) (size 0.35 0.35) (property pad_prop_bga) (layers "F.Cu" "F.Paste" "F.Mask") (tstamp 319705df-d54b-4967-8ad6-81dccfb743e0))
  (pad "E13" smd circle (at 4.125 -1.875) (size 0.35 0.35) (property pad_prop_bga) (layers "F.Cu" "F.Paste" "F.Mask") (tstamp fd266896-d2bb-4d1f-bd75-7af17552e8ac))
  (pad "E14" smd circle (at 4.875 -1.875) (size 0.35 0.35) (property pad_prop_bga) (layers "F.Cu" "F.Paste" "F.Mask") (tstamp 368b4e07-4c1d-4fae-920d-956cc726b264))
  (pad "F1" smd circle (at -4.875 -1.125) (size 0.35 0.35) (property pad_prop_bga) (layers "F.Cu" "F.Paste" "F.Mask") (tstamp 0d80528e-a423-46d4-bc8f-4169207ca2c0))
  (pad "F2" smd circle (at -4.125 -1.125) (size 0.35 0.35) (property pad_prop_bga) (layers "F.Cu" "F.Paste" "F.Mask") (tstamp 79bbfdd9-b527-46e8-a408-3a1d82548d75))
  (pad "F3" smd circle (at -3.375 -1.125) (size 0.35 0.35) (property pad_prop_bga) (layers "F.Cu" "F.Paste" "F.Mask") (tstamp 9757e57a-98b0-48e6-8a61-99b411019844))
  (pad "F4" smd circle (at -2.625 -1.125) (size 0.35 0.35) (property pad_prop_bga) (layers "F.Cu" "F.Paste" "F.Mask") (tstamp e0fb928f-6b74-43e6-b173-b3a893a950d6))
  (pad "F5" smd circle (at -1.875 -1.125) (size 0.35 0.35) (property pad_prop_bga) (layers "F.Cu" "F.Paste" "F.Mask") (tstamp 79baa265-ce83-44a0-b7b3-1a5e6b977cc3))
  (pad "F6" smd circle (at -1.125 -1.125) (size 0.35 0.35) (property pad_prop_bga) (layers "F.Cu" "F.Paste" "F.Mask") (tstamp 8d438583-c6c1-411a-91db-f20704d93a80))
  (pad "F7" smd circle (at -0.375 -1.125) (size 0.35 0.35) (property pad_prop_bga) (layers "F.Cu" "F.Paste" "F.Mask") (tstamp 5ce8e348-29f8-4066-8c26-b2707d54a7a3))
  (pad "F8" smd circle (at 0.375 -1.125) (size 0.35 0.35) (property pad_prop_bga) (layers "F.Cu" "F.Paste" "F.Mask") (tstamp 61ba8050-241d-44d5-922f-3fcf827a9214))
  (pad "F9" smd circle (at 1.125 -1.125) (size 0.35 0.35) (property pad_prop_bga) (layers "F.Cu" "F.Paste" "F.Mask") (tstamp dbe2987f-c741-43d9-bebc-c66ee3b6c9af))
  (pad "F10" smd circle (at 1.875 -1.125) (size 0.35 0.35) (property pad_prop_bga) (layers "F.Cu" "F.Paste" "F.Mask") (tstamp 3a5ad106-b097-46de-81fa-6837ce81c2a5))
  (pad "F11" smd circle (at 2.625 -1.125) (size 0.35 0.35) (property pad_prop_bga) (layers "F.Cu" "F.Paste" "F.Mask") (tstamp 598f2a50-d35d-4d3f-bf1c-9b00ed4b4737))
  (pad "F12" smd circle (at 3.375 -1.125) (size 0.35 0.35) (property pad_prop_bga) (layers "F.Cu" "F.Paste" "F.Mask") (tstamp 3a422444-00cd-4626-a829-1da3ac79a4c1))
  (pad "F13" smd circle (at 4.125 -1.125) (size 0.35 0.35) (property pad_prop_bga) (layers "F.Cu" "F.Paste" "F.Mask") (tstamp 7ecec28a-ffa4-42f9-afde-4de43aa17462))
  (pad "F14" smd circle (at 4.875 -1.125) (size 0.35 0.35) (property pad_prop_bga) (layers "F.Cu" "F.Paste" "F.Mask") (tstamp 761c02ff-263f-4f12-8ff3-1cd0e73f573e))
  (pad "G1" smd circle (at -4.875 -0.375) (size 0.35 0.35) (property pad_prop_bga) (layers "F.Cu" "F.Paste" "F.Mask") (tstamp 4dd2c124-a927-452a-a765-da84dce34c27))
  (pad "G2" smd circle (at -4.125 -0.375) (size 0.35 0.35) (property pad_prop_bga) (layers "F.Cu" "F.Paste" "F.Mask") (tstamp 32211db5-9cd3-48ff-bd0e-d43ceda01ab9))
  (pad "G3" smd circle (at -3.375 -0.375) (size 0.35 0.35) (property pad_prop_bga) (layers "F.Cu" "F.Paste" "F.Mask") (tstamp e043184d-c620-49aa-a500-2f01e93ea0f6))
  (pad "G4" smd circle (at -2.625 -0.375) (size 0.35 0.35) (property pad_prop_bga) (layers "F.Cu" "F.Paste" "F.Mask") (tstamp 578ce1de-33c7-412d-a7b8-6ae496162914))
  (pad "G5" smd circle (at -1.875 -0.375) (size 0.35 0.35) (property pad_prop_bga) (layers "F.Cu" "F.Paste" "F.Mask") (tstamp 78ee0e02-8fe8-4d42-a526-cf85cb4b62c2))
  (pad "G6" smd circle (at -1.125 -0.375) (size 0.35 0.35) (property pad_prop_bga) (layers "F.Cu" "F.Paste" "F.Mask") (tstamp 18f0a33d-4279-4e0d-9dff-c44fddfe9589))
  (pad "G7" smd circle (at -0.375 -0.375) (size 0.35 0.35) (property pad_prop_bga) (layers "F.Cu" "F.Paste" "F.Mask") (tstamp eb76d03c-0e8b-4da0-b096-7677f6f4072b))
  (pad "G8" smd circle (at 0.375 -0.375) (size 0.35 0.35) (property pad_prop_bga) (layers "F.Cu" "F.Paste" "F.Mask") (tstamp 3043e5f3-82f8-480c-a124-b4b86590fb77))
  (pad "G9" smd circle (at 1.125 -0.375) (size 0.35 0.35) (property pad_prop_bga) (layers "F.Cu" "F.Paste" "F.Mask") (tstamp 741b850c-38ce-4e2d-80b6-e9e84b2e1542))
  (pad "G10" smd circle (at 1.875 -0.375) (size 0.35 0.35) (property pad_prop_bga) (layers "F.Cu" "F.Paste" "F.Mask") (tstamp 598f5c1b-5521-440f-9826-ba86f6e8de34))
  (pad "G11" smd circle (at 2.625 -0.375) (size 0.35 0.35) (property pad_prop_bga) (layers "F.Cu" "F.Paste" "F.Mask") (tstamp f00a102a-0ad4-4f8c-a768-4fb4c1341ae5))
  (pad "G12" smd circle (at 3.375 -0.375) (size 0.35 0.35) (property pad_prop_bga) (layers "F.Cu" "F.Paste" "F.Mask") (tstamp 5a448a4d-8750-43bf-bd95-1884c0bbc872))
  (pad "G13" smd circle (at 4.125 -0.375) (size 0.35 0.35) (property pad_prop_bga) (layers "F.Cu" "F.Paste" "F.Mask") (tstamp 483a7357-0973-4204-8557-ed5063fe981e))
  (pad "G14" smd circle (at 4.875 -0.375) (size 0.35 0.35) (property pad_prop_bga) (layers "F.Cu" "F.Paste" "F.Mask") (tstamp 3010e284-cb74-4f77-97ac-59321c9b4dac))
  (pad "H1" smd circle (at -4.875 0.375) (size 0.35 0.35) (property pad_prop_bga) (layers "F.Cu" "F.Paste" "F.Mask") (tstamp 364b9f69-682b-41bf-95cc-062ac95d424d))
  (pad "H2" smd circle (at -4.125 0.375) (size 0.35 0.35) (property pad_prop_bga) (layers "F.Cu" "F.Paste" "F.Mask") (tstamp 5a6ea2f6-c183-4dc1-9135-2dc6b29830a5))
  (pad "H3" smd circle (at -3.375 0.375) (size 0.35 0.35) (property pad_prop_bga) (layers "F.Cu" "F.Paste" "F.Mask") (tstamp 4a771ad7-ad96-4bcc-b6bc-59daf4e21588))
  (pad "H4" smd circle (at -2.625 0.375) (size 0.35 0.35) (property pad_prop_bga) (layers "F.Cu" "F.Paste" "F.Mask") (tstamp ad5bab7a-40cc-4917-bbf5-761c7263d61f))
  (pad "H5" smd circle (at -1.875 0.375) (size 0.35 0.35) (property pad_prop_bga) (layers "F.Cu" "F.Paste" "F.Mask") (tstamp 7a88497d-f40c-4ade-a830-a4358ae93836))
  (pad "H6" smd circle (at -1.125 0.375) (size 0.35 0.35) (property pad_prop_bga) (layers "F.Cu" "F.Paste" "F.Mask") (tstamp af3f6344-bb09-46e2-84ab-b611cd42f537))
  (pad "H7" smd circle (at -0.375 0.375) (size 0.35 0.35) (property pad_prop_bga) (layers "F.Cu" "F.Paste" "F.Mask") (tstamp 847961df-4f66-4d5a-84e2-d4d2fe22bd50))
  (pad "H8" smd circle (at 0.375 0.375) (size 0.35 0.35) (property pad_prop_bga) (layers "F.Cu" "F.Paste" "F.Mask") (tstamp 9956a7be-b39f-417f-b6f3-8a90fd3fde38))
  (pad "H9" smd circle (at 1.125 0.375) (size 0.35 0.35) (property pad_prop_bga) (layers "F.Cu" "F.Paste" "F.Mask") (tstamp 8eb10ba4-cb35-473d-884d-3779ef764a76))
  (pad "H10" smd circle (at 1.875 0.375) (size 0.35 0.35) (property pad_prop_bga) (layers "F.Cu" "F.Paste" "F.Mask") (tstamp f61f0d15-4c80-44ba-b911-2d97cd7793ed))
  (pad "H11" smd circle (at 2.625 0.375) (size 0.35 0.35) (property pad_prop_bga) (layers "F.Cu" "F.Paste" "F.Mask") (tstamp 1c539b4e-5902-4342-a5d8-105f917ccf3f))
  (pad "H12" smd circle (at 3.375 0.375) (size 0.35 0.35) (property pad_prop_bga) (layers "F.Cu" "F.Paste" "F.Mask") (tstamp 047a83ae-8f9e-407c-8b8d-fade267cbc70))
  (pad "H13" smd circle (at 4.125 0.375) (size 0.35 0.35) (property pad_prop_bga) (layers "F.Cu" "F.Paste" "F.Mask") (tstamp 01e5d0a2-a695-496c-8a21-df8ec48314aa))
  (pad "H14" smd circle (at 4.875 0.375) (size 0.35 0.35) (property pad_prop_bga) (layers "F.Cu" "F.Paste" "F.Mask") (tstamp 42186520-65b9-4af7-91b2-bab34c2f9347))
  (pad "J1" smd circle (at -4.875 1.125) (size 0.35 0.35) (property pad_prop_bga) (layers "F.Cu" "F.Paste" "F.Mask") (tstamp 5d8af591-7dcb-4fba-90d6-64dfe5083620))
  (pad "J2" smd circle (at -4.125 1.125) (size 0.35 0.35) (property pad_prop_bga) (layers "F.Cu" "F.Paste" "F.Mask") (tstamp 057b26b7-ac35-4ca2-bbd7-8395ab53d1e6))
  (pad "J3" smd circle (at -3.375 1.125) (size 0.35 0.35) (property pad_prop_bga) (layers "F.Cu" "F.Paste" "F.Mask") (tstamp 6ac7f64e-a8c0-44d8-93c3-d7e3b96289d8))
  (pad "J4" smd circle (at -2.625 1.125) (size 0.35 0.35) (property pad_prop_bga) (layers "F.Cu" "F.Paste" "F.Mask") (tstamp d3ee10c8-a637-4bac-941c-57c02f3eaba5))
  (pad "J5" smd circle (at -1.875 1.125) (size 0.35 0.35) (property pad_prop_bga) (layers "F.Cu" "F.Paste" "F.Mask") (tstamp 81ceba3f-afe8-4540-81b7-b962a8ea523d))
  (pad "J6" smd circle (at -1.125 1.125) (size 0.35 0.35) (property pad_prop_bga) (layers "F.Cu" "F.Paste" "F.Mask") (tstamp 9f45b120-e866-486f-96a2-02a7814d9796))
  (pad "J7" smd circle (at -0.375 1.125) (size 0.35 0.35) (property pad_prop_bga) (layers "F.Cu" "F.Paste" "F.Mask") (tstamp dfe86b0e-046e-4b13-a3d7-31411c2f2ace))
  (pad "J8" smd circle (at 0.375 1.125) (size 0.35 0.35) (property pad_prop_bga) (layers "F.Cu" "F.Paste" "F.Mask") (tstamp d6e29706-c3e2-4586-8a26-f1eed0d6541a))
  (pad "J9" smd circle (at 1.125 1.125) (size 0.35 0.35) (property pad_prop_bga) (layers "F.Cu" "F.Paste" "F.Mask") (tstamp a2799c8f-ffa5-4846-b6dd-647fe1d55253))
  (pad "J10" smd circle (at 1.875 1.125) (size 0.35 0.35) (property pad_prop_bga) (layers "F.Cu" "F.Paste" "F.Mask") (tstamp ac7e6f66-58bd-4dc6-8b1f-47539ea83e1f))
  (pad "J11" smd circle (at 2.625 1.125) (size 0.35 0.35) (property pad_prop_bga) (layers "F.Cu" "F.Paste" "F.Mask") (tstamp abd7a0d2-3f01-4288-8805-0e9b886ff396))
  (pad "J12" smd circle (at 3.375 1.125) (size 0.35 0.35) (property pad_prop_bga) (layers "F.Cu" "F.Paste" "F.Mask") (tstamp bb22d360-9494-4299-aabb-c0c74880ae27))
  (pad "J13" smd circle (at 4.125 1.125) (size 0.35 0.35) (property pad_prop_bga) (layers "F.Cu" "F.Paste" "F.Mask") (tstamp 951394a6-830d-4054-9db3-9119873a7c15))
  (pad "J14" smd circle (at 4.875 1.125) (size 0.35 0.35) (property pad_prop_bga) (layers "F.Cu" "F.Paste" "F.Mask") (tstamp c06a7662-9c9b-477a-952b-b54bdc6cce5c))
  (pad "K1" smd circle (at -4.875 1.875) (size 0.35 0.35) (property pad_prop_bga) (layers "F.Cu" "F.Paste" "F.Mask") (tstamp 4cf7bcdd-f096-4a46-b565-355fcd80f555))
  (pad "K2" smd circle (at -4.125 1.875) (size 0.35 0.35) (property pad_prop_bga) (layers "F.Cu" "F.Paste" "F.Mask") (tstamp 96cfaaf9-2184-4272-b716-7b6ab962bce5))
  (pad "K3" smd circle (at -3.375 1.875) (size 0.35 0.35) (property pad_prop_bga) (layers "F.Cu" "F.Paste" "F.Mask") (tstamp 20ce8787-a61f-4ecb-8c16-9f63a3eb4dfa))
  (pad "K4" smd circle (at -2.625 1.875) (size 0.35 0.35) (property pad_prop_bga) (layers "F.Cu" "F.Paste" "F.Mask") (tstamp 0bd31390-9cf5-474b-9df0-046d19db3e75))
  (pad "K5" smd circle (at -1.875 1.875) (size 0.35 0.35) (property pad_prop_bga) (layers "F.Cu" "F.Paste" "F.Mask") (tstamp 95bdd4f0-541a-46e8-be29-592a80681f12))
  (pad "K6" smd circle (at -1.125 1.875) (size 0.35 0.35) (property pad_prop_bga) (layers "F.Cu" "F.Paste" "F.Mask") (tstamp 56d29ba1-bdd1-4105-b0b7-5c4b8d9eaf3d))
  (pad "K7" smd circle (at -0.375 1.875) (size 0.35 0.35) (property pad_prop_bga) (layers "F.Cu" "F.Paste" "F.Mask") (tstamp 7392ad81-7a2d-477b-ab50-9719f69dc223))
  (pad "K8" smd circle (at 0.375 1.875) (size 0.35 0.35) (property pad_prop_bga) (layers "F.Cu" "F.Paste" "F.Mask") (tstamp 173bb57b-d033-4d72-a157-81d0f3b6cf7c))
  (pad "K9" smd circle (at 1.125 1.875) (size 0.35 0.35) (property pad_prop_bga) (layers "F.Cu" "F.Paste" "F.Mask") (tstamp e340f963-e25f-4040-b4e8-6cd3aeca6346))
  (pad "K10" smd circle (at 1.875 1.875) (size 0.35 0.35) (property pad_prop_bga) (layers "F.Cu" "F.Paste" "F.Mask") (tstamp 9f1254b8-d88c-43bd-aaa7-f2f90c9a144b))
  (pad "K11" smd circle (at 2.625 1.875) (size 0.35 0.35) (property pad_prop_bga) (layers "F.Cu" "F.Paste" "F.Mask") (tstamp f6e6e303-5c88-4a4c-b181-59ee5fc21c06))
  (pad "K12" smd circle (at 3.375 1.875) (size 0.35 0.35) (property pad_prop_bga) (layers "F.Cu" "F.Paste" "F.Mask") (tstamp bd69fe99-447a-419e-839c-70eed1d40348))
  (pad "K13" smd circle (at 4.125 1.875) (size 0.35 0.35) (property pad_prop_bga) (layers "F.Cu" "F.Paste" "F.Mask") (tstamp 765c4a0a-8cfe-4662-9764-52f2432e0040))
  (pad "K14" smd circle (at 4.875 1.875) (size 0.35 0.35) (property pad_prop_bga) (layers "F.Cu" "F.Paste" "F.Mask") (tstamp 307feaa4-3e95-4d09-9259-bc9c83375494))
  (pad "L1" smd circle (at -4.875 2.625) (size 0.35 0.35) (property pad_prop_bga) (layers "F.Cu" "F.Paste" "F.Mask") (tstamp 971a3f79-48a2-4470-a0d5-05e14d071ee1))
  (pad "L2" smd circle (at -4.125 2.625) (size 0.35 0.35) (property pad_prop_bga) (layers "F.Cu" "F.Paste" "F.Mask") (tstamp b5184365-c7ad-407a-b149-a474993ec2b2))
  (pad "L3" smd circle (at -3.375 2.625) (size 0.35 0.35) (property pad_prop_bga) (layers "F.Cu" "F.Paste" "F.Mask") (tstamp a8b64465-7d1c-40ef-8ed3-cd5fa7f47b65))
  (pad "L4" smd circle (at -2.625 2.625) (size 0.35 0.35) (property pad_prop_bga) (layers "F.Cu" "F.Paste" "F.Mask") (tstamp d2df3aa7-a719-45eb-b8de-f2ef0ec4a9eb))
  (pad "L5" smd circle (at -1.875 2.625) (size 0.35 0.35) (property pad_prop_bga) (layers "F.Cu" "F.Paste" "F.Mask") (tstamp 0569d168-336f-4a05-963b-4a4f291e5710))
  (pad "L6" smd circle (at -1.125 2.625) (size 0.35 0.35) (property pad_prop_bga) (layers "F.Cu" "F.Paste" "F.Mask") (tstamp ae7b55ad-fb50-42e0-a7fe-f16f5609cde6))
  (pad "L7" smd circle (at -0.375 2.625) (size 0.35 0.35) (property pad_prop_bga) (layers "F.Cu" "F.Paste" "F.Mask") (tstamp 896d50a4-573b-4ba4-ac36-ec2915ef1abd))
  (pad "L8" smd circle (at 0.375 2.625) (size 0.35 0.35) (property pad_prop_bga) (layers "F.Cu" "F.Paste" "F.Mask") (tstamp 890f9c8b-e35f-469e-86c6-9e31f7b6a624))
  (pad "L9" smd circle (at 1.125 2.625) (size 0.35 0.35) (property pad_prop_bga) (layers "F.Cu" "F.Paste" "F.Mask") (tstamp 537cd34c-608e-4072-87ab-be20c468c5f3))
  (pad "L10" smd circle (at 1.875 2.625) (size 0.35 0.35) (property pad_prop_bga) (layers "F.Cu" "F.Paste" "F.Mask") (tstamp 5c20b1da-aea6-45ca-8ae3-f34af821d02c))
  (pad "L11" smd circle (at 2.625 2.625) (size 0.35 0.35) (property pad_prop_bga) (layers "F.Cu" "F.Paste" "F.Mask") (tstamp d50581e4-0514-4088-9ea0-e9b3011bde9c))
  (pad "L12" smd circle (at 3.375 2.625) (size 0.35 0.35) (property pad_prop_bga) (layers "F.Cu" "F.Paste" "F.Mask") (tstamp c5c8ed6d-9639-45a0-be2c-f19ed1dad833))
  (pad "L13" smd circle (at 4.125 2.625) (size 0.35 0.35) (property pad_prop_bga) (layers "F.Cu" "F.Paste" "F.Mask") (tstamp d2691dbc-0a38-4700-8408-687fa8bd0806))
  (pad "L14" smd circle (at 4.875 2.625) (size 0.35 0.35) (property pad_prop_bga) (layers "F.Cu" "F.Paste" "F.Mask") (tstamp f0efb44d-ab1d-429a-bf29-08c8873dc7e3))
  (pad "M1" smd circle (at -4.875 3.375) (size 0.35 0.35) (property pad_prop_bga) (layers "F.Cu" "F.Paste" "F.Mask") (tstamp 65e5eda9-df75-4d2b-a828-71001cab26af))
  (pad "M2" smd circle (at -4.125 3.375) (size 0.35 0.35) (property pad_prop_bga) (layers "F.Cu" "F.Paste" "F.Mask") (tstamp 5bad3932-fbf3-4553-b348-81956e4ca4bb))
  (pad "M3" smd circle (at -3.375 3.375) (size 0.35 0.35) (property pad_prop_bga) (layers "F.Cu" "F.Paste" "F.Mask") (tstamp ea3b5bf2-f76f-4adc-99ff-c283debb0f50))
  (pad "M4" smd circle (at -2.625 3.375) (size 0.35 0.35) (property pad_prop_bga) (layers "F.Cu" "F.Paste" "F.Mask") (tstamp daeeb768-bf6d-4388-a897-f8f54db0318f))
  (pad "M5" smd circle (at -1.875 3.375) (size 0.35 0.35) (property pad_prop_bga) (layers "F.Cu" "F.Paste" "F.Mask") (tstamp 9a9137af-05d3-483c-b2f5-18f21d1669ef))
  (pad "M6" smd circle (at -1.125 3.375) (size 0.35 0.35) (property pad_prop_bga) (layers "F.Cu" "F.Paste" "F.Mask") (tstamp 03032fba-1c2e-4daa-aa7f-db07f43107e8))
  (pad "M7" smd circle (at -0.375 3.375) (size 0.35 0.35) (property pad_prop_bga) (layers "F.Cu" "F.Paste" "F.Mask") (tstamp 5b6c1b9f-02ad-4985-bdff-611720236a48))
  (pad "M8" smd circle (at 0.375 3.375) (size 0.35 0.35) (property pad_prop_bga) (layers "F.Cu" "F.Paste" "F.Mask") (tstamp 3e15182c-bce1-4cd7-84a8-26a3d6a7f168))
  (pad "M9" smd circle (at 1.125 3.375) (size 0.35 0.35) (property pad_prop_bga) (layers "F.Cu" "F.Paste" "F.Mask") (tstamp 807b9695-039f-4715-aedd-87818734d2a2))
  (pad "M10" smd circle (at 1.875 3.375) (size 0.35 0.35) (property pad_prop_bga) (layers "F.Cu" "F.Paste" "F.Mask") (tstamp 78fec149-24a1-4906-b96f-74212578c726))
  (pad "M11" smd circle (at 2.625 3.375) (size 0.35 0.35) (property pad_prop_bga) (layers "F.Cu" "F.Paste" "F.Mask") (tstamp 198b9bc4-dc8f-4e95-ae78-7052a73d92ee))
  (pad "M12" smd circle (at 3.375 3.375) (size 0.35 0.35) (property pad_prop_bga) (layers "F.Cu" "F.Paste" "F.Mask") (tstamp 8ccd410c-9c7f-4cea-8c36-f53728bb480c))
  (pad "M13" smd circle (at 4.125 3.375) (size 0.35 0.35) (property pad_prop_bga) (layers "F.Cu" "F.Paste" "F.Mask") (tstamp d481a5ca-6cef-4a58-a11f-007a42c099e6))
  (pad "M14" smd circle (at 4.875 3.375) (size 0.35 0.35) (property pad_prop_bga) (layers "F.Cu" "F.Paste" "F.Mask") (tstamp 83893455-74e1-4247-b9c4-11c0e7ea8450))
  (pad "N1" smd circle (at -4.875 4.125) (size 0.35 0.35) (property pad_prop_bga) (layers "F.Cu" "F.Paste" "F.Mask") (tstamp de4d6483-ae4f-45a1-b087-900ba15bc661))
  (pad "N2" smd circle (at -4.125 4.125) (size 0.35 0.35) (property pad_prop_bga) (layers "F.Cu" "F.Paste" "F.Mask") (tstamp 163966d4-81f2-4a8b-8c0c-74cc4a26e3c6))
  (pad "N3" smd circle (at -3.375 4.125) (size 0.35 0.35) (property pad_prop_bga) (layers "F.Cu" "F.Paste" "F.Mask") (tstamp 4ff95671-68b2-4565-b99c-3406fc48028a))
  (pad "N4" smd circle (at -2.625 4.125) (size 0.35 0.35) (property pad_prop_bga) (layers "F.Cu" "F.Paste" "F.Mask") (tstamp 09eb739e-d94b-43a1-9670-9b1503d9352a))
  (pad "N5" smd circle (at -1.875 4.125) (size 0.35 0.35) (property pad_prop_bga) (layers "F.Cu" "F.Paste" "F.Mask") (tstamp 6b671a09-5ffc-415c-98c5-07169483a57e))
  (pad "N6" smd circle (at -1.125 4.125) (size 0.35 0.35) (property pad_prop_bga) (layers "F.Cu" "F.Paste" "F.Mask") (tstamp 2668273e-9b3e-48cb-8439-b92346d7c4a3))
  (pad "N7" smd circle (at -0.375 4.125) (size 0.35 0.35) (property pad_prop_bga) (layers "F.Cu" "F.Paste" "F.Mask") (tstamp e4a998ed-481e-445e-b7c5-232b83b59fac))
  (pad "N8" smd circle (at 0.375 4.125) (size 0.35 0.35) (property pad_prop_bga) (layers "F.Cu" "F.Paste" "F.Mask") (tstamp 902eb1cc-996a-4d73-bc6d-c7fe935bb2ac))
  (pad "N9" smd circle (at 1.125 4.125) (size 0.35 0.35) (property pad_prop_bga) (layers "F.Cu" "F.Paste" "F.Mask") (tstamp e6e81e1c-1039-4cb7-adcc-6ec18b95d38b))
  (pad "N10" smd circle (at 1.875 4.125) (size 0.35 0.35) (property pad_prop_bga) (layers "F.Cu" "F.Paste" "F.Mask") (tstamp 4108457c-ef06-44eb-b02c-59a7ca921481))
  (pad "N11" smd circle (at 2.625 4.125) (size 0.35 0.35) (property pad_prop_bga) (layers "F.Cu" "F.Paste" "F.Mask") (tstamp 26c01c00-7b76-485d-b4fd-0e50a7737f38))
  (pad "N12" smd circle (at 3.375 4.125) (size 0.35 0.35) (property pad_prop_bga) (layers "F.Cu" "F.Paste" "F.Mask") (tstamp fcf82140-6aa2-40f7-beeb-35ede5dbf1a7))
  (pad "N13" smd circle (at 4.125 4.125) (size 0.35 0.35) (property pad_prop_bga) (layers "F.Cu" "F.Paste" "F.Mask") (tstamp 810196e0-747e-4250-b827-39866b0e5fac))
  (pad "N14" smd circle (at 4.875 4.125) (size 0.35 0.35) (property pad_prop_bga) (layers "F.Cu" "F.Paste" "F.Mask") (tstamp 6d2b8104-4f62-405f-b75c-f3bc6e5bbfb8))
  (pad "P1" smd circle (at -4.875 4.875) (size 0.35 0.35) (property pad_prop_bga) (layers "F.Cu" "F.Paste" "F.Mask") (tstamp 2100c43f-e1d2-4838-b50a-a5e6fa25743e))
  (pad "P2" smd circle (at -4.125 4.875) (size 0.35 0.35) (property pad_prop_bga) (layers "F.Cu" "F.Paste" "F.Mask") (tstamp c0a9874a-8a47-46c1-ab31-7ad974991b9e))
  (pad "P3" smd circle (at -3.375 4.875) (size 0.35 0.35) (property pad_prop_bga) (layers "F.Cu" "F.Paste" "F.Mask") (tstamp 8558f4a2-0392-4884-aea4-5507947c6e2c))
  (pad "P4" smd circle (at -2.625 4.875) (size 0.35 0.35) (property pad_prop_bga) (layers "F.Cu" "F.Paste" "F.Mask") (tstamp 6047fd30-d351-4d57-84a0-4433166614b9))
  (pad "P5" smd circle (at -1.875 4.875) (size 0.35 0.35) (property pad_prop_bga) (layers "F.Cu" "F.Paste" "F.Mask") (tstamp d2b6a7b8-ff7d-4867-af4a-95b9cee6f31f))
  (pad "P6" smd circle (at -1.125 4.875) (size 0.35 0.35) (property pad_prop_bga) (layers "F.Cu" "F.Paste" "F.Mask") (tstamp 2c640d95-7f86-42e6-97d2-39eb7a0ad5ed))
  (pad "P7" smd circle (at -0.375 4.875) (size 0.35 0.35) (property pad_prop_bga) (layers "F.Cu" "F.Paste" "F.Mask") (tstamp 0b6685f1-a801-431b-bbde-163a8620f5c4))
  (pad "P8" smd circle (at 0.375 4.875) (size 0.35 0.35) (property pad_prop_bga) (layers "F.Cu" "F.Paste" "F.Mask") (tstamp a3a81afc-ea62-48e6-9fa5-55baf9edbe85))
  (pad "P9" smd circle (at 1.125 4.875) (size 0.35 0.35) (property pad_prop_bga) (layers "F.Cu" "F.Paste" "F.Mask") (tstamp d2ea755a-5533-4ef1-853d-f2287b0f5025))
  (pad "P10" smd circle (at 1.875 4.875) (size 0.35 0.35) (property pad_prop_bga) (layers "F.Cu" "F.Paste" "F.Mask") (tstamp e0a486a3-cb12-49fb-9b4e-9caace35cb03))
  (pad "P11" smd circle (at 2.625 4.875) (size 0.35 0.35) (property pad_prop_bga) (layers "F.Cu" "F.Paste" "F.Mask") (tstamp ddb2be86-e3be-46e5-a505-2ebf323520cd))
  (pad "P12" smd circle (at 3.375 4.875) (size 0.35 0.35) (property pad_prop_bga) (layers "F.Cu" "F.Paste" "F.Mask") (tstamp 67a946aa-bcab-4526-90c5-5311aa92dad1))
  (pad "P13" smd circle (at 4.125 4.875) (size 0.35 0.35) (property pad_prop_bga) (layers "F.Cu" "F.Paste" "F.Mask") (tstamp 6f725fce-21dd-495c-8e66-0cca358b64f1))
  (pad "P14" smd circle (at 4.875 4.875) (size 0.35 0.35) (property pad_prop_bga) (layers "F.Cu" "F.Paste" "F.Mask") (tstamp 440f580a-2492-42f9-aa2a-001ac2ddd425))
  (model "${KICAD6_3DMODEL_DIR}/Package_BGA.3dshapes/Microchip_TFBGA-196_11x11mm_Layout14x14_P0.75mm_SMD.wrl"
    (offset (xyz 0 0 0))
    (scale (xyz 1 1 1))
    (rotate (xyz 0 0 0))
  )
)
