(footprint "ST_uTFBGA-36_3.6x3.6mm_Layout6x6_P0.5mm" (version 20211014) (generator pcbnew)
  (layer "F.Cu")
  (tedit 5E0F8F93)
  (descr "ST uTFBGA-36, 0.25mm pad, 3.6x3.6mm, 36 Ball, 6x6 Layout, 0.5mm Pitch, https://www.st.com/resource/en/datasheet/stulpi01a.pdf")
  (tags "BGA 36 0.5")
  (solder_mask_margin 0.05)
  (attr smd)
  (fp_text reference "REF**" (at 0 -2.8) (layer "F.SilkS")
    (effects (font (size 1 1) (thickness 0.15)))
    (tstamp 06ec6070-8b70-4a4e-9a40-a4aab19bba69)
  )
  (fp_text value "ST_uTFBGA-36_3.6x3.6mm_Layout6x6_P0.5mm" (at 0 2.8) (layer "F.Fab")
    (effects (font (size 1 1) (thickness 0.15)))
    (tstamp 32aabc3f-d791-4066-9cf1-fa9ab4e76cdc)
  )
  (fp_text user "${REFERENCE}" (at 0 0) (layer "F.Fab")
    (effects (font (size 0.84 0.84) (thickness 0.126)))
    (tstamp a25bf0b6-9d42-4aba-bdd8-f0970fc1416d)
  )
  (fp_line (start 1.91 -1.91) (end 1.91 1.91) (layer "F.SilkS") (width 0.12) (tstamp 52d0e2ca-ed54-4a63-8afb-81a4e8bb4e13))
  (fp_line (start 1.91 1.91) (end -1.91 1.91) (layer "F.SilkS") (width 0.12) (tstamp 7fd0ac59-0ef7-4cda-a6de-48f5d5fd93e3))
  (fp_line (start -1.01 -1.91) (end 1.91 -1.91) (layer "F.SilkS") (width 0.12) (tstamp 9c11c1cc-b347-4c3d-8ab4-379b55d8a06d))
  (fp_line (start -1.91 1.91) (end -1.91 -1.01) (layer "F.SilkS") (width 0.12) (tstamp a906b477-0a48-41dc-bc0b-906a9913cd13))
  (fp_line (start -2.8 -2.8) (end -2.8 2.8) (layer "F.CrtYd") (width 0.05) (tstamp 198f7ef4-8f34-4a78-8e21-10783db2950c))
  (fp_line (start 2.8 -2.8) (end -2.8 -2.8) (layer "F.CrtYd") (width 0.05) (tstamp 867645e9-68da-435b-87fa-e07f5597229c))
  (fp_line (start 2.8 2.8) (end 2.8 -2.8) (layer "F.CrtYd") (width 0.05) (tstamp d3d0ef6c-541d-412f-aa57-63083d676ada))
  (fp_line (start -2.8 2.8) (end 2.8 2.8) (layer "F.CrtYd") (width 0.05) (tstamp f128b639-63bf-48ab-be2b-5d8380fe8821))
  (fp_line (start -1.8 -0.9) (end -0.9 -1.8) (layer "F.Fab") (width 0.1) (tstamp 1239ddaa-8b21-405c-b312-f32f8ae49c73))
  (fp_line (start 1.8 -1.8) (end 1.8 1.8) (layer "F.Fab") (width 0.1) (tstamp 28a590d8-7470-497a-be98-be45b57d23a8))
  (fp_line (start 1.8 1.8) (end -1.8 1.8) (layer "F.Fab") (width 0.1) (tstamp 2b1b6ab0-1789-42b5-8744-5662e7253bbb))
  (fp_line (start -0.9 -1.8) (end 1.8 -1.8) (layer "F.Fab") (width 0.1) (tstamp d82adec6-f782-4965-8386-6b6cd8375ec9))
  (fp_line (start -1.8 1.8) (end -1.8 -0.9) (layer "F.Fab") (width 0.1) (tstamp ebbdcf40-1584-4e16-ba7b-d5c71026499e))
  (pad "A1" smd circle (at -1.25 -1.25) (size 0.25 0.25) (property pad_prop_bga) (layers "F.Cu" "F.Paste" "F.Mask") (tstamp eb255f34-ff00-4c0b-b997-0d8cb45a4a7e))
  (pad "A2" smd circle (at -0.75 -1.25) (size 0.25 0.25) (property pad_prop_bga) (layers "F.Cu" "F.Paste" "F.Mask") (tstamp 6d7cdad2-3b20-4ddf-ba20-bccbb5a09baf))
  (pad "A3" smd circle (at -0.25 -1.25) (size 0.25 0.25) (property pad_prop_bga) (layers "F.Cu" "F.Paste" "F.Mask") (tstamp f3e17988-e793-464f-9738-f1deb75a3780))
  (pad "A4" smd circle (at 0.25 -1.25) (size 0.25 0.25) (property pad_prop_bga) (layers "F.Cu" "F.Paste" "F.Mask") (tstamp 70b0c10b-bc34-45db-b6a9-07ea1cc25c32))
  (pad "A5" smd circle (at 0.75 -1.25) (size 0.25 0.25) (property pad_prop_bga) (layers "F.Cu" "F.Paste" "F.Mask") (tstamp 3d732f93-07e8-498b-a3f7-38c98bb65e4a))
  (pad "A6" smd circle (at 1.25 -1.25) (size 0.25 0.25) (property pad_prop_bga) (layers "F.Cu" "F.Paste" "F.Mask") (tstamp 4a742834-5082-444b-a6db-8b3585bdd454))
  (pad "B1" smd circle (at -1.25 -0.75) (size 0.25 0.25) (property pad_prop_bga) (layers "F.Cu" "F.Paste" "F.Mask") (tstamp fcdc4528-8cd2-4c8b-8673-96c98420f5d6))
  (pad "B2" smd circle (at -0.75 -0.75) (size 0.25 0.25) (property pad_prop_bga) (layers "F.Cu" "F.Paste" "F.Mask") (tstamp 0465cba8-a5ec-47fb-9a98-5240032d7070))
  (pad "B3" smd circle (at -0.25 -0.75) (size 0.25 0.25) (property pad_prop_bga) (layers "F.Cu" "F.Paste" "F.Mask") (tstamp c8b33c51-c7ab-4833-9e32-a35bf2588b17))
  (pad "B4" smd circle (at 0.25 -0.75) (size 0.25 0.25) (property pad_prop_bga) (layers "F.Cu" "F.Paste" "F.Mask") (tstamp a1244d6e-4db6-4de0-9678-e957a1c207d1))
  (pad "B5" smd circle (at 0.75 -0.75) (size 0.25 0.25) (property pad_prop_bga) (layers "F.Cu" "F.Paste" "F.Mask") (tstamp 3d30072e-7ebc-45f3-9bdb-74a4ae266e34))
  (pad "B6" smd circle (at 1.25 -0.75) (size 0.25 0.25) (property pad_prop_bga) (layers "F.Cu" "F.Paste" "F.Mask") (tstamp e993da1d-427b-4a7a-a7f2-7349f5786194))
  (pad "C1" smd circle (at -1.25 -0.25) (size 0.25 0.25) (property pad_prop_bga) (layers "F.Cu" "F.Paste" "F.Mask") (tstamp e8d38fe4-6813-4013-93c8-65ca5789df8c))
  (pad "C2" smd circle (at -0.75 -0.25) (size 0.25 0.25) (property pad_prop_bga) (layers "F.Cu" "F.Paste" "F.Mask") (tstamp b3cb98ca-ee74-4901-9a7e-560ec26f57bc))
  (pad "C3" smd circle (at -0.25 -0.25) (size 0.25 0.25) (property pad_prop_bga) (layers "F.Cu" "F.Paste" "F.Mask") (tstamp 5b959d86-dea7-4517-9fd4-e44703f50aae))
  (pad "C4" smd circle (at 0.25 -0.25) (size 0.25 0.25) (property pad_prop_bga) (layers "F.Cu" "F.Paste" "F.Mask") (tstamp f72a342b-f98f-40c4-bada-8eaeb30cd27d))
  (pad "C5" smd circle (at 0.75 -0.25) (size 0.25 0.25) (property pad_prop_bga) (layers "F.Cu" "F.Paste" "F.Mask") (tstamp 871763ac-04a7-4fa5-bab5-c126d6698a52))
  (pad "C6" smd circle (at 1.25 -0.25) (size 0.25 0.25) (property pad_prop_bga) (layers "F.Cu" "F.Paste" "F.Mask") (tstamp da134e93-33d5-4afe-be3a-ea7b51b2fc6a))
  (pad "D1" smd circle (at -1.25 0.25) (size 0.25 0.25) (property pad_prop_bga) (layers "F.Cu" "F.Paste" "F.Mask") (tstamp d256a88e-d9c5-422e-8f3f-e1078d8772ac))
  (pad "D2" smd circle (at -0.75 0.25) (size 0.25 0.25) (property pad_prop_bga) (layers "F.Cu" "F.Paste" "F.Mask") (tstamp b56e3d14-64c7-4afe-a141-ddeaa542a46f))
  (pad "D3" smd circle (at -0.25 0.25) (size 0.25 0.25) (property pad_prop_bga) (layers "F.Cu" "F.Paste" "F.Mask") (tstamp 36363af5-8351-4b50-958e-61f6912927d9))
  (pad "D4" smd circle (at 0.25 0.25) (size 0.25 0.25) (property pad_prop_bga) (layers "F.Cu" "F.Paste" "F.Mask") (tstamp 2de27deb-3730-4010-8664-3bc8f147b615))
  (pad "D5" smd circle (at 0.75 0.25) (size 0.25 0.25) (property pad_prop_bga) (layers "F.Cu" "F.Paste" "F.Mask") (tstamp c324b8cc-9dcd-4c0d-ad55-11f8f2925663))
  (pad "D6" smd circle (at 1.25 0.25) (size 0.25 0.25) (property pad_prop_bga) (layers "F.Cu" "F.Paste" "F.Mask") (tstamp b63f2c2b-6a86-44f7-a5bf-4d55b09d7b61))
  (pad "E1" smd circle (at -1.25 0.75) (size 0.25 0.25) (property pad_prop_bga) (layers "F.Cu" "F.Paste" "F.Mask") (tstamp 849883c2-b2ed-4ba7-922b-7067247172f2))
  (pad "E2" smd circle (at -0.75 0.75) (size 0.25 0.25) (property pad_prop_bga) (layers "F.Cu" "F.Paste" "F.Mask") (tstamp f4df45f3-a0d4-472f-8e6c-6452b541f6ac))
  (pad "E3" smd circle (at -0.25 0.75) (size 0.25 0.25) (property pad_prop_bga) (layers "F.Cu" "F.Paste" "F.Mask") (tstamp e2b45a3d-7856-4dbb-bcfb-5d2ee5b5a5b4))
  (pad "E4" smd circle (at 0.25 0.75) (size 0.25 0.25) (property pad_prop_bga) (layers "F.Cu" "F.Paste" "F.Mask") (tstamp 81e4cc3b-c384-4af2-b3ed-0f70675c6079))
  (pad "E5" smd circle (at 0.75 0.75) (size 0.25 0.25) (property pad_prop_bga) (layers "F.Cu" "F.Paste" "F.Mask") (tstamp 55f088fb-3ec7-4e79-8f47-7f568a02ca6d))
  (pad "E6" smd circle (at 1.25 0.75) (size 0.25 0.25) (property pad_prop_bga) (layers "F.Cu" "F.Paste" "F.Mask") (tstamp fd6a6bc6-efa1-4d84-9cc9-d113bd5f0bed))
  (pad "F1" smd circle (at -1.25 1.25) (size 0.25 0.25) (property pad_prop_bga) (layers "F.Cu" "F.Paste" "F.Mask") (tstamp de51452c-8fdf-4ac0-a76c-46ded0c40317))
  (pad "F2" smd circle (at -0.75 1.25) (size 0.25 0.25) (property pad_prop_bga) (layers "F.Cu" "F.Paste" "F.Mask") (tstamp 87038e49-3a33-4560-892c-5cb4963b648a))
  (pad "F3" smd circle (at -0.25 1.25) (size 0.25 0.25) (property pad_prop_bga) (layers "F.Cu" "F.Paste" "F.Mask") (tstamp 0d849cef-bd1e-4f17-a12f-db328863adbe))
  (pad "F4" smd circle (at 0.25 1.25) (size 0.25 0.25) (property pad_prop_bga) (layers "F.Cu" "F.Paste" "F.Mask") (tstamp cb327c6c-e7d8-44db-83cb-34d4f1b3fb23))
  (pad "F5" smd circle (at 0.75 1.25) (size 0.25 0.25) (property pad_prop_bga) (layers "F.Cu" "F.Paste" "F.Mask") (tstamp ff9f0f52-950d-47e7-ab1f-82bcf247d260))
  (pad "F6" smd circle (at 1.25 1.25) (size 0.25 0.25) (property pad_prop_bga) (layers "F.Cu" "F.Paste" "F.Mask") (tstamp 0d819b75-4737-4995-96f1-07a065dcc0f3))
  (model "${KICAD6_3DMODEL_DIR}/Package_BGA.3dshapes/ST_uTFBGA-36_3.6x3.6mm_Layout6x6_P0.5mm.wrl"
    (offset (xyz 0 0 0))
    (scale (xyz 1 1 1))
    (rotate (xyz 0 0 0))
  )
)
