(footprint "Texas_DSBGA-5_0.822x1.116mm_Layout2x1x2_P0.4mm" (version 20211014) (generator pcbnew)
  (layer "F.Cu")
  (tedit 5A6F67B3)
  (descr "Texas Instruments, DSBGA, 0.822x1.116mm, 5 bump 2x1x2 array, NSMD pad definition (http://www.ti.com/lit/ds/symlink/opa330.pdf, http://www.ti.com/lit/an/snva009ag/snva009ag.pdf)")
  (tags "Texas Instruments DSBGA BGA YFF S-XBGA-N5")
  (solder_mask_margin 0.05)
  (attr smd)
  (fp_text reference "REF**" (at 0 -1.8) (layer "F.SilkS")
    (effects (font (size 1 1) (thickness 0.15)))
    (tstamp e620fcfd-f5ea-430d-8a4e-e1aae1933e22)
  )
  (fp_text value "Texas_DSBGA-5_0.822x1.116mm_Layout2x1x2_P0.4mm" (at 0 1.8) (layer "F.Fab")
    (effects (font (size 1 1) (thickness 0.15)))
    (tstamp 72f17ec2-20d3-41a0-855a-d73f7f3f1c3f)
  )
  (fp_text user "${REFERENCE}" (at 0 0 90) (layer "F.Fab")
    (effects (font (size 0.3 0.3) (thickness 0.05)))
    (tstamp ae2aebdb-1851-410d-9e97-e4bfaa15890d)
  )
  (fp_line (start -0.731 -0.878) (end -0.731 -0.378) (layer "F.SilkS") (width 0.12) (tstamp 39a529a4-9778-4ecd-8917-e40850d7572f))
  (fp_line (start 0.531 -0.678) (end 0.531 0.678) (layer "F.SilkS") (width 0.12) (tstamp 71e9125f-a5f8-4962-b599-7a640483b6db))
  (fp_line (start 0.531 -0.678) (end -0.531 -0.678) (layer "F.SilkS") (width 0.12) (tstamp 7a9101ac-6349-4728-a8ca-b2bfefa63e85))
  (fp_line (start -0.231 -0.878) (end -0.731 -0.878) (layer "F.SilkS") (width 0.12) (tstamp 8f99f35e-e7fe-4a35-91e9-0b22fbd157d4))
  (fp_line (start -0.531 -0.678) (end -0.531 0.678) (layer "F.SilkS") (width 0.12) (tstamp 9e06e48e-b6be-4f49-8020-84acec64c755))
  (fp_line (start -0.531 0.678) (end 0.531 0.678) (layer "F.SilkS") (width 0.12) (tstamp db3e277a-8f16-4b44-b3e4-eb6850a24914))
  (fp_line (start 1.42 1.56) (end 1.42 -1.56) (layer "F.CrtYd") (width 0.05) (tstamp 09b344b6-50d2-4d84-936c-b8c8387de256))
  (fp_line (start -1.42 -1.56) (end 1.42 -1.56) (layer "F.CrtYd") (width 0.05) (tstamp 245905f0-e371-483a-9e4f-d75540162b19))
  (fp_line (start -1.42 -1.56) (end -1.42 1.56) (layer "F.CrtYd") (width 0.05) (tstamp 9f5246e5-fda9-4188-9fd6-6d506f97f09d))
  (fp_line (start 1.42 1.56) (end -1.42 1.56) (layer "F.CrtYd") (width 0.05) (tstamp a614c8e0-c725-4914-a425-717c24278881))
  (fp_line (start -0.411 -0.358) (end -0.411 0.558) (layer "F.Fab") (width 0.1) (tstamp 109466b1-77d3-4b58-b0ad-3dc619caf376))
  (fp_line (start 0.411 -0.558) (end -0.211 -0.558) (layer "F.Fab") (width 0.1) (tstamp 67771529-9982-4e17-a54a-d457b23cb132))
  (fp_line (start -0.411 -0.358) (end -0.211 -0.558) (layer "F.Fab") (width 0.1) (tstamp 75be757c-4b71-4469-81bb-a1dd70f39b0b))
  (fp_line (start -0.411 0.558) (end 0.411 0.558) (layer "F.Fab") (width 0.1) (tstamp b0ea1d47-8eb6-449d-a92d-b7f2a8b235e2))
  (fp_line (start 0.411 0.558) (end 0.411 -0.558) (layer "F.Fab") (width 0.1) (tstamp ea3ba315-5684-4813-a3d5-39e6f197eb47))
  (pad "" smd rect (at 0.2 0.3465) (size 0.25 0.25) (layers "F.Paste") (tstamp 66e193f0-4ebb-46e0-9aae-d3a29bf5bdd6))
  (pad "" smd rect (at 0.2 -0.3465) (size 0.25 0.25) (layers "F.Paste") (tstamp 7890cfe6-a8d4-41e7-a8fb-8c6acc0d57ac))
  (pad "" smd rect (at -0.2 0.3465) (size 0.25 0.25) (layers "F.Paste") (tstamp 879fad14-f0b7-4a5b-8cb7-1761f062a5f3))
  (pad "" smd rect (at 0 0) (size 0.25 0.25) (layers "F.Paste") (tstamp 9b5a0118-51b5-484e-b0c2-f544a753cc85))
  (pad "" smd rect (at -0.2 -0.3465) (size 0.25 0.25) (layers "F.Paste") (tstamp d40589c3-1e52-4756-ab0b-48fce2dbcd71))
  (pad "A1" smd circle (at -0.2 -0.3465) (size 0.225 0.225) (property pad_prop_bga) (layers "F.Cu" "F.Mask") (tstamp 2b03e330-2d30-465a-8ac4-817e5b1b3788))
  (pad "A3" smd circle (at 0.2 -0.3465) (size 0.225 0.225) (property pad_prop_bga) (layers "F.Cu" "F.Mask") (tstamp 59749c98-711d-42a2-ae45-d054960e45db))
  (pad "B2" smd circle (at 0 0) (size 0.225 0.225) (property pad_prop_bga) (layers "F.Cu" "F.Mask") (tstamp 42314c9e-b954-41d3-85c3-aff3865380f0))
  (pad "C1" smd circle (at -0.2 0.3465) (size 0.225 0.225) (property pad_prop_bga) (layers "F.Cu" "F.Mask") (tstamp ad681c67-a7b1-429a-b1cd-2ab864120c89))
  (pad "C3" smd circle (at 0.2 0.3465) (size 0.225 0.225) (property pad_prop_bga) (layers "F.Cu" "F.Mask") (tstamp a238c636-4629-4bd6-8e78-0a93d3afc2c6))
  (model "${KICAD6_3DMODEL_DIR}/Package_BGA.3dshapes/Texas_DSBGA-5_0.822x1.116mm_Layout2x1x2_P0.4mm.wrl"
    (offset (xyz 0 0 0))
    (scale (xyz 1 1 1))
    (rotate (xyz 0 0 0))
  )
)
