(footprint "Texas_DSBGA-12_1.36x1.86mm_Layout3x4_P0.5mm" (version 20211014) (generator pcbnew)
  (layer "F.Cu")
  (tedit 5A0AA1EB)
  (descr "Texas Instruments, DSBGA, 1.36x1.86mm, 12 bump 3x4 (area) array, NSMD pad definition (http://www.ti.com/lit/ds/symlink/txs0104e.pdf, http://www.ti.com/lit/an/snva009ag/snva009ag.pdf)")
  (tags "Texas Instruments DSBGA BGA")
  (solder_mask_margin 0.05)
  (attr smd)
  (fp_text reference "REF**" (at 0 -2) (layer "F.SilkS")
    (effects (font (size 1 1) (thickness 0.15)))
    (tstamp 52e841db-4b49-4c59-9461-24125bd04396)
  )
  (fp_text value "Texas_DSBGA-12_1.36x1.86mm_Layout3x4_P0.5mm" (at 0 2) (layer "F.Fab")
    (effects (font (size 1 1) (thickness 0.15)))
    (tstamp 9c4c9ccd-6862-44c6-9264-dbb6739411fc)
  )
  (fp_text user "${REFERENCE}" (at 0 0 90) (layer "F.Fab")
    (effects (font (size 0.3 0.3) (thickness 0.045)))
    (tstamp 6bb28a87-0c28-4815-b963-c8ca1bc3f5cd)
  )
  (fp_line (start -0.765 1.025) (end 0.775 1.025) (layer "F.SilkS") (width 0.12) (tstamp 57453a9d-c362-4459-96bc-24cc28496075))
  (fp_line (start -1 -1.25) (end -1 -1.25) (layer "F.SilkS") (width 0.12) (tstamp 70868543-49c8-4cd2-a559-72c7cdb94ee2))
  (fp_line (start -0.775 -1.025) (end 0.765 -1.025) (layer "F.SilkS") (width 0.12) (tstamp 7408884c-e8bd-4dc3-99f9-e931fdba69ef))
  (fp_line (start 0.775 1.025) (end 0.775 -1.025) (layer "F.SilkS") (width 0.12) (tstamp b174fd7a-14a8-4ba7-9ee1-01a14a0e70ea))
  (fp_line (start -0.775 -1.025) (end -0.775 1.025) (layer "F.SilkS") (width 0.12) (tstamp be779cef-900b-42bc-a358-1e8427a19aac))
  (fp_line (start -1 -1.25) (end -1 -0.25) (layer "F.SilkS") (width 0.12) (tstamp c355e135-3f85-4cc5-9cc4-e527f424844f))
  (fp_line (start 0 -1.25) (end -1 -1.25) (layer "F.SilkS") (width 0.12) (tstamp f37d9fdf-2948-46b8-9695-c1959afefd0a))
  (fp_line (start -1.68 -1.93) (end 1.68 -1.93) (layer "F.CrtYd") (width 0.05) (tstamp 49862b96-7374-4622-b9c7-ecd847922694))
  (fp_line (start -1.68 1.93) (end 1.68 1.93) (layer "F.CrtYd") (width 0.05) (tstamp 91f9f60c-87b2-4929-853d-a4da3ca56344))
  (fp_line (start -1.68 1.93) (end -1.68 -1.93) (layer "F.CrtYd") (width 0.05) (tstamp 9e45129c-4e03-447f-94e2-59c41cb4c731))
  (fp_line (start 1.68 -1.93) (end 1.68 1.93) (layer "F.CrtYd") (width 0.05) (tstamp c9bf3bc2-aef9-4c81-acd1-a0cd6696d19b))
  (fp_line (start -0.68 0.93) (end -0.68 -0.4) (layer "F.Fab") (width 0.1) (tstamp 28cacd8e-33ec-4dbc-a61f-85c939827e8c))
  (fp_line (start -0.68 0.93) (end 0.68 0.93) (layer "F.Fab") (width 0.1) (tstamp 28fbeedc-01ed-427a-94c9-e5c42c2741ab))
  (fp_line (start 0.68 -0.93) (end -0.15 -0.93) (layer "F.Fab") (width 0.1) (tstamp 9cb004cf-2504-48a3-a987-24dfeb0267d9))
  (fp_line (start -0.68 -0.4) (end -0.15 -0.93) (layer "F.Fab") (width 0.1) (tstamp e3f8bf15-969c-461c-96bb-d608a58c8413))
  (fp_line (start 0.68 0.93) (end 0.68 -0.93) (layer "F.Fab") (width 0.1) (tstamp f0c7227e-c6af-4ed3-9070-3f4716f32366))
  (pad "" smd rect (at 0 0.75) (size 0.3 0.3) (layers "F.Paste") (tstamp 1809c0e2-a94d-4408-9131-1c35b5fe378d))
  (pad "" smd rect (at 0 0.25) (size 0.3 0.3) (layers "F.Paste") (tstamp 23fc046d-590d-456b-8641-1bc5739ef5cd))
  (pad "" smd rect (at -0.5 -0.75) (size 0.3 0.3) (layers "F.Paste") (tstamp 24e22fd5-bc78-4e94-afcc-ecf7034db925))
  (pad "" smd rect (at 0.5 -0.25) (size 0.3 0.3) (layers "F.Paste") (tstamp 282ad6ef-bb30-40a6-8a52-7e7eaea79700))
  (pad "" smd rect (at -0.5 0.25) (size 0.3 0.3) (layers "F.Paste") (tstamp 4e46ded6-6799-46af-953e-0bd191084a3d))
  (pad "" smd rect (at 0.5 -0.75) (size 0.3 0.3) (layers "F.Paste") (tstamp 7a225c32-96e0-4599-b689-d98a7faf808b))
  (pad "" smd rect (at 0.5 0.25) (size 0.3 0.3) (layers "F.Paste") (tstamp b0bb7492-08ad-4e66-88c2-de93160b590b))
  (pad "" smd rect (at 0 -0.75) (size 0.3 0.3) (layers "F.Paste") (tstamp b422d30d-6e9a-4416-9c7d-5a4bb2fc9359))
  (pad "" smd rect (at -0.5 0.75) (size 0.3 0.3) (layers "F.Paste") (tstamp e4821644-b58c-4658-8b17-cd648381f260))
  (pad "" smd rect (at 0.5 0.75) (size 0.3 0.3) (layers "F.Paste") (tstamp ef27a91a-e21e-4e0b-a309-1baa33ff7a98))
  (pad "" smd rect (at -0.5 -0.25) (size 0.3 0.3) (layers "F.Paste") (tstamp fc547b26-03bf-4cb1-a12a-1f430f656347))
  (pad "" smd rect (at 0 -0.25) (size 0.3 0.3) (layers "F.Paste") (tstamp fd61076a-95ef-446c-b0de-62730389cceb))
  (pad "A1" smd circle (at -0.5 -0.75) (size 0.265 0.265) (property pad_prop_bga) (layers "F.Cu" "F.Mask") (tstamp 934cafa8-f84c-4bf3-9c16-74bb225c00fb))
  (pad "A2" smd circle (at 0 -0.75) (size 0.265 0.265) (property pad_prop_bga) (layers "F.Cu" "F.Mask") (tstamp 2aa095cd-b50d-4222-90e7-36178dba0a45))
  (pad "A3" smd circle (at 0.5 -0.75) (size 0.265 0.265) (property pad_prop_bga) (layers "F.Cu" "F.Mask") (tstamp 57b87f5a-1069-4500-a1d2-c833efaeea21))
  (pad "B1" smd circle (at -0.5 -0.25) (size 0.265 0.265) (property pad_prop_bga) (layers "F.Cu" "F.Mask") (tstamp 1df0b973-390d-42c9-8ed5-ba672f2373f2))
  (pad "B2" smd circle (at 0 -0.25) (size 0.265 0.265) (property pad_prop_bga) (layers "F.Cu" "F.Mask") (tstamp bab3ad60-b89f-4cee-8206-fbe59d158f40))
  (pad "B3" smd circle (at 0.5 -0.25) (size 0.265 0.265) (property pad_prop_bga) (layers "F.Cu" "F.Mask") (tstamp 0bd11d17-d421-40d3-91bd-f2e776d03081))
  (pad "C1" smd circle (at -0.5 0.25) (size 0.265 0.265) (property pad_prop_bga) (layers "F.Cu" "F.Mask") (tstamp 0e1db08e-8640-4a91-9244-4fd54ed0e237))
  (pad "C2" smd circle (at 0 0.25) (size 0.265 0.265) (property pad_prop_bga) (layers "F.Cu" "F.Mask") (tstamp ecb55703-a837-4a22-8341-0b73679cd216))
  (pad "C3" smd circle (at 0.5 0.25) (size 0.265 0.265) (property pad_prop_bga) (layers "F.Cu" "F.Mask") (tstamp b6af1117-6b39-4b75-a8d4-507b7eb47a71))
  (pad "D1" smd circle (at -0.5 0.75) (size 0.265 0.265) (property pad_prop_bga) (layers "F.Cu" "F.Mask") (tstamp 1ab5bf34-43e8-4134-aee8-5baa3b05da81))
  (pad "D2" smd circle (at 0 0.75) (size 0.265 0.265) (property pad_prop_bga) (layers "F.Cu" "F.Mask") (tstamp d16fecca-6c4c-4689-bfb6-f7caa1154705))
  (pad "D3" smd circle (at 0.5 0.75) (size 0.265 0.265) (property pad_prop_bga) (layers "F.Cu" "F.Mask") (tstamp afe21dbd-1016-4415-80ca-57e118190e76))
  (model "${KICAD6_3DMODEL_DIR}/Package_BGA.3dshapes/Texas_DSBGA-12_1.36x1.86mm_Layout3x4_P0.5mm.wrl"
    (offset (xyz 0 0 0))
    (scale (xyz 1 1 1))
    (rotate (xyz 0 0 0))
  )
)
