(footprint "Texas_MicroStar_Junior_BGA-80_5.0x5.0mm_Layout9x9_P0.5mm" (version 20211014) (generator pcbnew)
  (layer "F.Cu")
  (tedit 5A058D74)
  (descr "Texas Instruments, BGA Microstar Junior, 5x5mm, 80 ball 9x9 grid, NSMD pad definition (http://www.ti.com/lit/ds/symlink/tlv320aic23b.pdf, http://www.ti.com/lit/wp/ssyz015b/ssyz015b.pdf)")
  (tags "Texas_Junior_BGA-80")
  (solder_mask_margin 0.05)
  (attr smd)
  (fp_text reference "REF**" (at 0 -3.7) (layer "F.SilkS")
    (effects (font (size 1 1) (thickness 0.15)))
    (tstamp 710eaa2b-9052-42af-8d3c-e003133fbbb1)
  )
  (fp_text value "Texas_MicroStar_Junior_BGA-80_5.0x5.0mm_Layout9x9_P0.5mm" (at 0 3.7) (layer "F.Fab")
    (effects (font (size 1 1) (thickness 0.15)))
    (tstamp 3b6f4821-7eff-4e66-a48d-b4f3ae05526c)
  )
  (fp_text user "${REFERENCE}" (at 0 0) (layer "F.Fab")
    (effects (font (size 1 1) (thickness 0.15)))
    (tstamp dff82fbc-dcce-4494-844c-f2862a14b757)
  )
  (fp_line (start 2.6 -2.6) (end 2.6 2.6) (layer "F.SilkS") (width 0.12) (tstamp 0b38b0ec-fca0-49bf-952e-d11a34b9caf1))
  (fp_line (start -2.8 -2.8) (end -1.8 -2.8) (layer "F.SilkS") (width 0.12) (tstamp 6d7f0f99-3b5d-4602-b9c5-dbbb469e92a7))
  (fp_line (start 2.6 2.6) (end 2.6 2.6) (layer "F.SilkS") (width 0.12) (tstamp 758dabff-adbc-4133-86d2-71fd9bbe7012))
  (fp_line (start -2.8 -1.8) (end -2.8 -2.8) (layer "F.SilkS") (width 0.12) (tstamp a519494f-be94-4d7a-9614-d5bab296aaed))
  (fp_line (start 2.6 2.6) (end -2.6 2.6) (layer "F.SilkS") (width 0.12) (tstamp a665a04b-8a99-4d0e-9a6b-a5506741a0c6))
  (fp_line (start -2.6 2.6) (end -2.6 -2.6) (layer "F.SilkS") (width 0.12) (tstamp ca4d5ffa-fdcc-4854-9a55-a7e00efc66f2))
  (fp_line (start -2.6 -2.6) (end 2.6 -2.6) (layer "F.SilkS") (width 0.12) (tstamp d9790beb-07bb-4911-87ac-55755aa19b12))
  (fp_line (start 3 -3) (end 3 3) (layer "F.CrtYd") (width 0.05) (tstamp 55cb88a5-0bd0-4478-8b1c-f9f048b58a08))
  (fp_line (start 3 3) (end -3 3) (layer "F.CrtYd") (width 0.05) (tstamp 6b50459b-a87b-4aa1-a26a-7ff082c21c80))
  (fp_line (start -3 -3) (end 3 -3) (layer "F.CrtYd") (width 0.05) (tstamp 8e474741-c907-46df-9314-b320a7791f40))
  (fp_line (start -3 3) (end -3 -3) (layer "F.CrtYd") (width 0.05) (tstamp ffa101e5-06b7-4daa-b534-859d23714b76))
  (fp_line (start 2.5 2.5) (end -2.5 2.5) (layer "F.Fab") (width 0.1) (tstamp 204685e0-9201-4721-8f53-f1a5dcec2307))
  (fp_line (start 2.5 -2.5) (end 2.5 2.5) (layer "F.Fab") (width 0.1) (tstamp 21d747d2-a11e-4537-9eab-6c9fa8458935))
  (fp_line (start -2 -2.5) (end -2.5 -2) (layer "F.Fab") (width 0.1) (tstamp 5ea42001-31da-4a1e-9a07-079f9e38e601))
  (fp_line (start -2.5 2.5) (end -2.5 -2) (layer "F.Fab") (width 0.1) (tstamp b331e190-ffb0-448a-acc2-8b3f1650cbbb))
  (fp_line (start -2 -2.5) (end 2.5 -2.5) (layer "F.Fab") (width 0.1) (tstamp c22a8800-2c80-4f8e-89ac-5732b5a06399))
  (pad "A1" smd circle (at -2 -2) (size 0.25 0.25) (property pad_prop_bga) (layers "F.Cu" "F.Paste" "F.Mask") (tstamp 71f7dc24-55d8-43a6-abae-c8bd4c43d38f))
  (pad "A2" smd circle (at -1.5 -2) (size 0.25 0.25) (property pad_prop_bga) (layers "F.Cu" "F.Paste" "F.Mask") (tstamp f7257692-8153-4dc4-b2dc-e26caf4bebf5))
  (pad "A3" smd circle (at -1 -2) (size 0.25 0.25) (property pad_prop_bga) (layers "F.Cu" "F.Paste" "F.Mask") (tstamp b7bb0936-c03d-4341-a539-bc5e6d4e7bac))
  (pad "A4" smd circle (at -0.5 -2) (size 0.25 0.25) (property pad_prop_bga) (layers "F.Cu" "F.Paste" "F.Mask") (tstamp 4c862d84-49cc-4196-a9f5-486fc066828f))
  (pad "A5" smd circle (at 0 -2) (size 0.25 0.25) (property pad_prop_bga) (layers "F.Cu" "F.Paste" "F.Mask") (tstamp 82db5a70-ad52-4ef0-8595-4ea1774414da))
  (pad "A6" smd circle (at 0.5 -2) (size 0.25 0.25) (property pad_prop_bga) (layers "F.Cu" "F.Paste" "F.Mask") (tstamp e02906a9-68c6-4102-924a-7cb82efbd341))
  (pad "A7" smd circle (at 1 -2) (size 0.25 0.25) (property pad_prop_bga) (layers "F.Cu" "F.Paste" "F.Mask") (tstamp 786e3bf3-868a-48ff-84ee-ede69b1f7d8f))
  (pad "A8" smd circle (at 1.5 -2) (size 0.25 0.25) (property pad_prop_bga) (layers "F.Cu" "F.Paste" "F.Mask") (tstamp ca80153b-c7ff-4aef-920e-06a127fde7bb))
  (pad "A9" smd circle (at 2 -2) (size 0.25 0.25) (property pad_prop_bga) (layers "F.Cu" "F.Paste" "F.Mask") (tstamp 036534f2-1958-4a49-bf28-069492923bb1))
  (pad "B1" smd circle (at -2 -1.5) (size 0.25 0.25) (property pad_prop_bga) (layers "F.Cu" "F.Paste" "F.Mask") (tstamp 8b864314-d788-4b52-84ff-e6181ae65d01))
  (pad "B2" smd circle (at -1.5 -1.5) (size 0.25 0.25) (property pad_prop_bga) (layers "F.Cu" "F.Paste" "F.Mask") (tstamp 50771ab9-0b17-4a93-9c36-9ff22c30d76d))
  (pad "B3" smd circle (at -1 -1.5) (size 0.25 0.25) (property pad_prop_bga) (layers "F.Cu" "F.Paste" "F.Mask") (tstamp 946b8939-b766-4e0d-8cc6-a240f2445d06))
  (pad "B4" smd circle (at -0.5 -1.5) (size 0.25 0.25) (property pad_prop_bga) (layers "F.Cu" "F.Paste" "F.Mask") (tstamp bac47bd1-2579-4c9d-975d-99c56f780b7d))
  (pad "B5" smd circle (at 0 -1.5) (size 0.25 0.25) (property pad_prop_bga) (layers "F.Cu" "F.Paste" "F.Mask") (tstamp 18324d5c-e89d-4a9d-8576-a36abf06ef6f))
  (pad "B6" smd circle (at 0.5 -1.5) (size 0.25 0.25) (property pad_prop_bga) (layers "F.Cu" "F.Paste" "F.Mask") (tstamp d92b2333-4ca2-4bb6-a7c6-2e13549ea934))
  (pad "B7" smd circle (at 1 -1.5) (size 0.25 0.25) (property pad_prop_bga) (layers "F.Cu" "F.Paste" "F.Mask") (tstamp a8e36338-c93d-44b9-bdbb-88c9061e3c9e))
  (pad "B8" smd circle (at 1.5 -1.5) (size 0.25 0.25) (property pad_prop_bga) (layers "F.Cu" "F.Paste" "F.Mask") (tstamp 75fcb3af-f09e-4c19-9248-a121ff7e4d9b))
  (pad "B9" smd circle (at 2 -1.5) (size 0.25 0.25) (property pad_prop_bga) (layers "F.Cu" "F.Paste" "F.Mask") (tstamp f0decd0b-8e63-4481-86fd-ca2df2535923))
  (pad "C1" smd circle (at -2 -1) (size 0.25 0.25) (property pad_prop_bga) (layers "F.Cu" "F.Paste" "F.Mask") (tstamp bbe6d03a-95d3-4913-a368-fbe4e4d7ee57))
  (pad "C2" smd circle (at -1.5 -1) (size 0.25 0.25) (property pad_prop_bga) (layers "F.Cu" "F.Paste" "F.Mask") (tstamp a32c0eb0-7399-44f1-b737-90c1e671b652))
  (pad "C4" smd circle (at -0.5 -1) (size 0.25 0.25) (property pad_prop_bga) (layers "F.Cu" "F.Paste" "F.Mask") (tstamp ef5845be-a77c-4f54-830e-c03f27108b76))
  (pad "C5" smd circle (at 0 -1) (size 0.25 0.25) (property pad_prop_bga) (layers "F.Cu" "F.Paste" "F.Mask") (tstamp d4224540-98d4-444a-bb21-4384c378414f))
  (pad "C6" smd circle (at 0.5 -1) (size 0.25 0.25) (property pad_prop_bga) (layers "F.Cu" "F.Paste" "F.Mask") (tstamp 9cc7d427-c535-41f8-8e7b-415ee07bc981))
  (pad "C7" smd circle (at 1 -1) (size 0.25 0.25) (property pad_prop_bga) (layers "F.Cu" "F.Paste" "F.Mask") (tstamp e4444140-0a5c-4a3d-8eed-ec1f47f50649))
  (pad "C8" smd circle (at 1.5 -1) (size 0.25 0.25) (property pad_prop_bga) (layers "F.Cu" "F.Paste" "F.Mask") (tstamp 9dbe0cfb-6a0a-4a4b-b697-85376d22cea9))
  (pad "C9" smd circle (at 2 -1) (size 0.25 0.25) (property pad_prop_bga) (layers "F.Cu" "F.Paste" "F.Mask") (tstamp 7a0b31a7-7672-47b6-b1d3-4ba8b20613b6))
  (pad "D1" smd circle (at -2 -0.5) (size 0.25 0.25) (property pad_prop_bga) (layers "F.Cu" "F.Paste" "F.Mask") (tstamp a440389c-5560-4103-9831-f99b9f822a52))
  (pad "D2" smd circle (at -1.5 -0.5) (size 0.25 0.25) (property pad_prop_bga) (layers "F.Cu" "F.Paste" "F.Mask") (tstamp bb42705c-35d6-4858-a04c-cbd4589962e6))
  (pad "D3" smd circle (at -1 -0.5) (size 0.25 0.25) (property pad_prop_bga) (layers "F.Cu" "F.Paste" "F.Mask") (tstamp 621622a5-c2d1-4197-b4f7-9825445acdb4))
  (pad "D4" smd circle (at -0.5 -0.5) (size 0.25 0.25) (property pad_prop_bga) (layers "F.Cu" "F.Paste" "F.Mask") (tstamp e1169952-ddc0-4eb9-9864-5e3bd308a68a))
  (pad "D5" smd circle (at 0 -0.5) (size 0.25 0.25) (property pad_prop_bga) (layers "F.Cu" "F.Paste" "F.Mask") (tstamp 041e809b-6de0-4cb7-b80a-f5eafc4e491b))
  (pad "D6" smd circle (at 0.5 -0.5) (size 0.25 0.25) (property pad_prop_bga) (layers "F.Cu" "F.Paste" "F.Mask") (tstamp 92e21969-c559-43d7-8a4c-1a1cf2689932))
  (pad "D7" smd circle (at 1 -0.5) (size 0.25 0.25) (property pad_prop_bga) (layers "F.Cu" "F.Paste" "F.Mask") (tstamp d35223b8-dfca-4e1d-968d-66a608ae7da1))
  (pad "D8" smd circle (at 1.5 -0.5) (size 0.25 0.25) (property pad_prop_bga) (layers "F.Cu" "F.Paste" "F.Mask") (tstamp 3ae74038-08d7-4521-b573-71eef4d2bd47))
  (pad "D9" smd circle (at 2 -0.5) (size 0.25 0.25) (property pad_prop_bga) (layers "F.Cu" "F.Paste" "F.Mask") (tstamp 8ddec768-a787-428b-a761-98e48ab87271))
  (pad "E1" smd circle (at -2 0) (size 0.25 0.25) (property pad_prop_bga) (layers "F.Cu" "F.Paste" "F.Mask") (tstamp 6cb024ee-16a1-4ff3-bfbd-2c0d8d9e988f))
  (pad "E2" smd circle (at -1.5 0) (size 0.25 0.25) (property pad_prop_bga) (layers "F.Cu" "F.Paste" "F.Mask") (tstamp 5ad760d5-d1a2-4d03-8482-2c2d9fc4fe18))
  (pad "E3" smd circle (at -1 0) (size 0.25 0.25) (property pad_prop_bga) (layers "F.Cu" "F.Paste" "F.Mask") (tstamp 566642c8-a15c-4375-9dce-1eb906fe9e30))
  (pad "E4" smd circle (at -0.5 0) (size 0.25 0.25) (property pad_prop_bga) (layers "F.Cu" "F.Paste" "F.Mask") (tstamp d50ad780-5ef8-4974-9704-1c729fcf7f9a))
  (pad "E5" smd circle (at 0 0) (size 0.25 0.25) (property pad_prop_bga) (layers "F.Cu" "F.Paste" "F.Mask") (tstamp 1b4506a3-5ee4-4b9c-beaf-124d5b57c956))
  (pad "E6" smd circle (at 0.5 0) (size 0.25 0.25) (property pad_prop_bga) (layers "F.Cu" "F.Paste" "F.Mask") (tstamp fa4660e7-78ca-4c40-8820-fc4eccf76285))
  (pad "E7" smd circle (at 1 0) (size 0.25 0.25) (property pad_prop_bga) (layers "F.Cu" "F.Paste" "F.Mask") (tstamp fde618b5-6044-44f5-97a5-8b4f98a76957))
  (pad "E8" smd circle (at 1.5 0) (size 0.25 0.25) (property pad_prop_bga) (layers "F.Cu" "F.Paste" "F.Mask") (tstamp eada837c-ab78-4d35-9b98-6cb2562d1254))
  (pad "E9" smd circle (at 2 0) (size 0.25 0.25) (property pad_prop_bga) (layers "F.Cu" "F.Paste" "F.Mask") (tstamp c37b075f-0339-4dde-b387-3ca3228c9738))
  (pad "F1" smd circle (at -2 0.5) (size 0.25 0.25) (property pad_prop_bga) (layers "F.Cu" "F.Paste" "F.Mask") (tstamp 86975fc5-ddf2-4f59-a3fc-a98bc0e6ccc3))
  (pad "F2" smd circle (at -1.5 0.5) (size 0.25 0.25) (property pad_prop_bga) (layers "F.Cu" "F.Paste" "F.Mask") (tstamp bcbdfd46-bd14-44e7-900b-7f00056e6023))
  (pad "F3" smd circle (at -1 0.5) (size 0.25 0.25) (property pad_prop_bga) (layers "F.Cu" "F.Paste" "F.Mask") (tstamp 93f6d46f-b8b0-447b-a723-8bba2b6fad5c))
  (pad "F4" smd circle (at -0.5 0.5) (size 0.25 0.25) (property pad_prop_bga) (layers "F.Cu" "F.Paste" "F.Mask") (tstamp 3d9ce3c1-8b68-4625-8ca7-6b07769658af))
  (pad "F5" smd circle (at 0 0.5) (size 0.25 0.25) (property pad_prop_bga) (layers "F.Cu" "F.Paste" "F.Mask") (tstamp 36ab48a4-93b2-4dfa-ac3e-eb2c3957fce8))
  (pad "F6" smd circle (at 0.5 0.5) (size 0.25 0.25) (property pad_prop_bga) (layers "F.Cu" "F.Paste" "F.Mask") (tstamp 1de8eb1e-06f9-4872-8f6b-2779a41aebc0))
  (pad "F7" smd circle (at 1 0.5) (size 0.25 0.25) (property pad_prop_bga) (layers "F.Cu" "F.Paste" "F.Mask") (tstamp 9556573b-f760-4d40-b467-0e7d5b461b3a))
  (pad "F8" smd circle (at 1.5 0.5) (size 0.25 0.25) (property pad_prop_bga) (layers "F.Cu" "F.Paste" "F.Mask") (tstamp 903b39e3-cd9f-46ef-99df-83b7169ed87c))
  (pad "F9" smd circle (at 2 0.5) (size 0.25 0.25) (property pad_prop_bga) (layers "F.Cu" "F.Paste" "F.Mask") (tstamp 587589f9-1d3c-4ad0-b1ac-ae18b1847df1))
  (pad "G1" smd circle (at -2 1) (size 0.25 0.25) (property pad_prop_bga) (layers "F.Cu" "F.Paste" "F.Mask") (tstamp 3bc33bf4-db18-4850-bbc6-4c9b01a75029))
  (pad "G2" smd circle (at -1.5 1) (size 0.25 0.25) (property pad_prop_bga) (layers "F.Cu" "F.Paste" "F.Mask") (tstamp aa2c6b8a-2df6-4b4b-bf75-b2993db5cde3))
  (pad "G3" smd circle (at -1 1) (size 0.25 0.25) (property pad_prop_bga) (layers "F.Cu" "F.Paste" "F.Mask") (tstamp 06c23b22-8394-480d-a538-63851c6cee94))
  (pad "G4" smd circle (at -0.5 1) (size 0.25 0.25) (property pad_prop_bga) (layers "F.Cu" "F.Paste" "F.Mask") (tstamp 325b1f88-9099-4485-9a41-6451ac8e0818))
  (pad "G5" smd circle (at 0 1) (size 0.25 0.25) (property pad_prop_bga) (layers "F.Cu" "F.Paste" "F.Mask") (tstamp 5704a8f9-e020-4919-99d6-46c02ab090b1))
  (pad "G6" smd circle (at 0.5 1) (size 0.25 0.25) (property pad_prop_bga) (layers "F.Cu" "F.Paste" "F.Mask") (tstamp df235aab-d20c-4714-8873-d3a7afa977bc))
  (pad "G7" smd circle (at 1 1) (size 0.25 0.25) (property pad_prop_bga) (layers "F.Cu" "F.Paste" "F.Mask") (tstamp d6d90ae5-f2b8-4f64-aac2-526440bd18f7))
  (pad "G8" smd circle (at 1.5 1) (size 0.25 0.25) (property pad_prop_bga) (layers "F.Cu" "F.Paste" "F.Mask") (tstamp eea11f2c-0ce2-4301-9bcf-13f0dbd8e414))
  (pad "G9" smd circle (at 2 1) (size 0.25 0.25) (property pad_prop_bga) (layers "F.Cu" "F.Paste" "F.Mask") (tstamp 38609241-279f-4423-9d26-578d7a99c1d2))
  (pad "H1" smd circle (at -2 1.5) (size 0.25 0.25) (property pad_prop_bga) (layers "F.Cu" "F.Paste" "F.Mask") (tstamp 4183c9c0-d80d-46d9-92cf-2f8f32837b5d))
  (pad "H2" smd circle (at -1.5 1.5) (size 0.25 0.25) (property pad_prop_bga) (layers "F.Cu" "F.Paste" "F.Mask") (tstamp 4fcf4daa-7a82-45c4-8cc3-e922d050f1a8))
  (pad "H3" smd circle (at -1 1.5) (size 0.25 0.25) (property pad_prop_bga) (layers "F.Cu" "F.Paste" "F.Mask") (tstamp 70dc9db9-9e37-45f9-bcfc-9bf6318a65ee))
  (pad "H4" smd circle (at -0.5 1.5) (size 0.25 0.25) (property pad_prop_bga) (layers "F.Cu" "F.Paste" "F.Mask") (tstamp c40d8720-8aab-4875-a4a0-d1d34fca5180))
  (pad "H5" smd circle (at 0 1.5) (size 0.25 0.25) (property pad_prop_bga) (layers "F.Cu" "F.Paste" "F.Mask") (tstamp b47cff61-4a98-4b79-b9f3-5d25965ad1ed))
  (pad "H6" smd circle (at 0.5 1.5) (size 0.25 0.25) (property pad_prop_bga) (layers "F.Cu" "F.Paste" "F.Mask") (tstamp d978fc0a-ead4-4b38-80de-b13ce9127e0d))
  (pad "H7" smd circle (at 1 1.5) (size 0.25 0.25) (property pad_prop_bga) (layers "F.Cu" "F.Paste" "F.Mask") (tstamp 21afa237-5d01-4126-9639-e58dfc9abac2))
  (pad "H8" smd circle (at 1.5 1.5) (size 0.25 0.25) (property pad_prop_bga) (layers "F.Cu" "F.Paste" "F.Mask") (tstamp 9169d32c-eddc-43db-874f-cd10608ee14b))
  (pad "H9" smd circle (at 2 1.5) (size 0.25 0.25) (property pad_prop_bga) (layers "F.Cu" "F.Paste" "F.Mask") (tstamp 1796a3b8-0dc4-4b81-a509-614c17ba347a))
  (pad "J1" smd circle (at -2 2) (size 0.25 0.25) (property pad_prop_bga) (layers "F.Cu" "F.Paste" "F.Mask") (tstamp 21c37bdc-fc0d-4668-9a42-96be3c909e8f))
  (pad "J2" smd circle (at -1.5 2) (size 0.25 0.25) (property pad_prop_bga) (layers "F.Cu" "F.Paste" "F.Mask") (tstamp d257bef3-6447-428f-894a-9aaf5a3dbc8e))
  (pad "J3" smd circle (at -1 2) (size 0.25 0.25) (property pad_prop_bga) (layers "F.Cu" "F.Paste" "F.Mask") (tstamp 13d1fbea-e579-4e09-9071-eb89d500ddce))
  (pad "J4" smd circle (at -0.5 2) (size 0.25 0.25) (property pad_prop_bga) (layers "F.Cu" "F.Paste" "F.Mask") (tstamp ba21d87d-ccac-4c4a-a6de-6e4e1c8aff51))
  (pad "J5" smd circle (at 0 2) (size 0.25 0.25) (property pad_prop_bga) (layers "F.Cu" "F.Paste" "F.Mask") (tstamp f765e20d-2187-41fc-81c9-bc7bc03a82c2))
  (pad "J6" smd circle (at 0.5 2) (size 0.25 0.25) (property pad_prop_bga) (layers "F.Cu" "F.Paste" "F.Mask") (tstamp 05d66600-2bc0-4b7a-9795-e0620ade600b))
  (pad "J7" smd circle (at 1 2) (size 0.25 0.25) (property pad_prop_bga) (layers "F.Cu" "F.Paste" "F.Mask") (tstamp 91945733-71d1-4ed9-9f2a-7e70a8cbb085))
  (pad "J8" smd circle (at 1.5 2) (size 0.25 0.25) (property pad_prop_bga) (layers "F.Cu" "F.Paste" "F.Mask") (tstamp 911881ac-49e3-428b-b3fc-3c7764274774))
  (pad "J9" smd circle (at 2 2) (size 0.25 0.25) (property pad_prop_bga) (layers "F.Cu" "F.Paste" "F.Mask") (tstamp 4e25af42-cb41-47e6-9165-3b4365227f36))
  (model "${KICAD6_3DMODEL_DIR}/Package_BGA.3dshapes/Texas_MicroStar_Junior_BGA-80_5.0x5.0mm_Layout9x9_P0.5mm.wrl"
    (offset (xyz 0 0 0))
    (scale (xyz 1 1 1))
    (rotate (xyz 0 0 0))
  )
)
