(footprint "TFBGA-121_10x10mm_Layout11x11_P0.8mm" (version 20211014) (generator pcbnew)
  (layer "F.Cu")
  (tedit 5BC02699)
  (descr "TFBGA-121, 11x11 raster, 10x10mm package, pitch 0.8mm; http://ww1.microchip.com/downloads/en/PackagingSpec/00000049BQ.pdf#p495")
  (tags "BGA 121 0.8")
  (solder_mask_margin 0.035)
  (solder_paste_margin 0.000001)
  (attr smd)
  (fp_text reference "REF**" (at 0 -6) (layer "F.SilkS")
    (effects (font (size 1 1) (thickness 0.15)))
    (tstamp 2d163c19-bebf-47fa-bec9-c508d9f0489b)
  )
  (fp_text value "TFBGA-121_10x10mm_Layout11x11_P0.8mm" (at 0 6) (layer "F.Fab")
    (effects (font (size 1 1) (thickness 0.15)))
    (tstamp be4925f6-981a-4af0-9fd0-6374230728f0)
  )
  (fp_text user "${REFERENCE}" (at 0 0) (layer "F.Fab")
    (effects (font (size 1 1) (thickness 0.15)))
    (tstamp 5ef7b88e-6d02-413e-9afe-07fceaf3b391)
  )
  (fp_line (start 5.11 -5.11) (end 5.11 5.11) (layer "F.SilkS") (width 0.12) (tstamp 40dd733c-a265-43ca-972b-b8931e21e3a0))
  (fp_line (start 5.11 5.11) (end -5.11 5.11) (layer "F.SilkS") (width 0.12) (tstamp 6f5056b9-9728-4130-bfcf-d2032866cf18))
  (fp_line (start -4.11 -5.11) (end 5.11 -5.11) (layer "F.SilkS") (width 0.12) (tstamp b051d7c3-1ee7-4600-8530-742e90413524))
  (fp_line (start -5.11 5.11) (end -5.11 -4.11) (layer "F.SilkS") (width 0.12) (tstamp c617c8fb-7230-4861-9704-6aeb14347dee))
  (fp_line (start 6 6) (end 6 -6) (layer "F.CrtYd") (width 0.05) (tstamp 34316fea-d249-4e4f-9256-7de99346e64b))
  (fp_line (start 6 -6) (end -6 -6) (layer "F.CrtYd") (width 0.05) (tstamp 3b82c198-7b2a-4237-99b2-225f8fa0c00e))
  (fp_line (start -6 -6) (end -6 6) (layer "F.CrtYd") (width 0.05) (tstamp 5e420abb-214a-4c37-995c-e016731aa4cb))
  (fp_line (start -6 6) (end 6 6) (layer "F.CrtYd") (width 0.05) (tstamp a87404d3-1a11-427e-8ce6-95ffb595ffe0))
  (fp_line (start -4 -5) (end 5 -5) (layer "F.Fab") (width 0.1) (tstamp 1c8d7bf3-8296-4d60-87e9-09a0e00a068f))
  (fp_line (start 5 5) (end -5 5) (layer "F.Fab") (width 0.1) (tstamp 30810ccb-52f2-4dcc-b82a-f9e197623d90))
  (fp_line (start -5 -4) (end -4 -5) (layer "F.Fab") (width 0.1) (tstamp 8bffff56-27aa-4c4a-811e-72cb2f4c3af2))
  (fp_line (start -5 5) (end -5 -4) (layer "F.Fab") (width 0.1) (tstamp bbb8bcb2-d3ea-46da-a2b4-76e28cc49cef))
  (fp_line (start 5 -5) (end 5 5) (layer "F.Fab") (width 0.1) (tstamp df01bbf0-5e6b-4c21-9d15-2328c6972b10))
  (pad "A1" smd circle (at -4 -4) (size 0.4 0.4) (property pad_prop_bga) (layers "F.Cu" "F.Paste" "F.Mask") (tstamp b87aa8f4-c4fc-4ffc-a9e0-ea60e5ad9dd8))
  (pad "A2" smd circle (at -3.2 -4) (size 0.4 0.4) (property pad_prop_bga) (layers "F.Cu" "F.Paste" "F.Mask") (tstamp b9f79812-680c-47f2-a8a9-3f70d174467b))
  (pad "A3" smd circle (at -2.4 -4) (size 0.4 0.4) (property pad_prop_bga) (layers "F.Cu" "F.Paste" "F.Mask") (tstamp 01429fc7-bd06-425c-8272-a052f2b2566d))
  (pad "A4" smd circle (at -1.6 -4) (size 0.4 0.4) (property pad_prop_bga) (layers "F.Cu" "F.Paste" "F.Mask") (tstamp 316645e7-3de8-4415-96fa-b9faa87a20cb))
  (pad "A5" smd circle (at -0.8 -4) (size 0.4 0.4) (property pad_prop_bga) (layers "F.Cu" "F.Paste" "F.Mask") (tstamp c4a041f5-6f26-4267-85dd-ada24570a0ac))
  (pad "A6" smd circle (at 0 -4) (size 0.4 0.4) (property pad_prop_bga) (layers "F.Cu" "F.Paste" "F.Mask") (tstamp 25ff9a9c-6bb2-4341-8d3e-97384e516c8e))
  (pad "A7" smd circle (at 0.8 -4) (size 0.4 0.4) (property pad_prop_bga) (layers "F.Cu" "F.Paste" "F.Mask") (tstamp 93030add-b1aa-4225-87aa-edc563fc7602))
  (pad "A8" smd circle (at 1.6 -4) (size 0.4 0.4) (property pad_prop_bga) (layers "F.Cu" "F.Paste" "F.Mask") (tstamp ce088de5-a785-4b6c-b65a-ac452a49539b))
  (pad "A9" smd circle (at 2.4 -4) (size 0.4 0.4) (property pad_prop_bga) (layers "F.Cu" "F.Paste" "F.Mask") (tstamp a746d952-a90f-4d5e-979b-3b953b8f6c0c))
  (pad "A10" smd circle (at 3.2 -4) (size 0.4 0.4) (property pad_prop_bga) (layers "F.Cu" "F.Paste" "F.Mask") (tstamp 24ba327d-526f-46cd-a1ea-ebc68c7388f5))
  (pad "A11" smd circle (at 4 -4) (size 0.4 0.4) (property pad_prop_bga) (layers "F.Cu" "F.Paste" "F.Mask") (tstamp 5effa9e6-ca51-4623-b7b1-cb4c82ad5abf))
  (pad "B1" smd circle (at -4 -3.2) (size 0.4 0.4) (property pad_prop_bga) (layers "F.Cu" "F.Paste" "F.Mask") (tstamp 7a569e75-0f0d-46ce-9ee6-3c7bdb5f45cf))
  (pad "B2" smd circle (at -3.2 -3.2) (size 0.4 0.4) (property pad_prop_bga) (layers "F.Cu" "F.Paste" "F.Mask") (tstamp 6581ba20-92ad-4bb2-985d-3f9e55baf761))
  (pad "B3" smd circle (at -2.4 -3.2) (size 0.4 0.4) (property pad_prop_bga) (layers "F.Cu" "F.Paste" "F.Mask") (tstamp b3d15c5e-65db-476d-9d6f-49771ec1764e))
  (pad "B4" smd circle (at -1.6 -3.2) (size 0.4 0.4) (property pad_prop_bga) (layers "F.Cu" "F.Paste" "F.Mask") (tstamp 577a062d-57a6-4b32-af5f-d8cfa25989df))
  (pad "B5" smd circle (at -0.8 -3.2) (size 0.4 0.4) (property pad_prop_bga) (layers "F.Cu" "F.Paste" "F.Mask") (tstamp 5f11d9d6-0b0f-47d7-b98b-ff2823d0fd42))
  (pad "B6" smd circle (at 0 -3.2) (size 0.4 0.4) (property pad_prop_bga) (layers "F.Cu" "F.Paste" "F.Mask") (tstamp 7b3c6e38-94c8-4eb8-a7af-de6f32ece2d5))
  (pad "B7" smd circle (at 0.8 -3.2) (size 0.4 0.4) (property pad_prop_bga) (layers "F.Cu" "F.Paste" "F.Mask") (tstamp b1121950-f98c-496a-84de-9b11a94817f0))
  (pad "B8" smd circle (at 1.6 -3.2) (size 0.4 0.4) (property pad_prop_bga) (layers "F.Cu" "F.Paste" "F.Mask") (tstamp 08785dda-d163-48cf-9314-67437eba7054))
  (pad "B9" smd circle (at 2.4 -3.2) (size 0.4 0.4) (property pad_prop_bga) (layers "F.Cu" "F.Paste" "F.Mask") (tstamp c58cfbc5-8506-47db-90b6-c52e498366fe))
  (pad "B10" smd circle (at 3.2 -3.2) (size 0.4 0.4) (property pad_prop_bga) (layers "F.Cu" "F.Paste" "F.Mask") (tstamp 73fd0a37-2af6-4636-bc12-a68bad06d0f1))
  (pad "B11" smd circle (at 4 -3.2) (size 0.4 0.4) (property pad_prop_bga) (layers "F.Cu" "F.Paste" "F.Mask") (tstamp b9022ee4-42c6-4408-b68e-8a3763ac91ec))
  (pad "C1" smd circle (at -4 -2.4) (size 0.4 0.4) (property pad_prop_bga) (layers "F.Cu" "F.Paste" "F.Mask") (tstamp 43e0653e-a4d7-4ada-9a2b-c88546329571))
  (pad "C2" smd circle (at -3.2 -2.4) (size 0.4 0.4) (property pad_prop_bga) (layers "F.Cu" "F.Paste" "F.Mask") (tstamp 5d231794-e9ce-457c-810b-defb59811800))
  (pad "C3" smd circle (at -2.4 -2.4) (size 0.4 0.4) (property pad_prop_bga) (layers "F.Cu" "F.Paste" "F.Mask") (tstamp 1e96b007-2c75-433d-bb86-c709fd2f3f70))
  (pad "C4" smd circle (at -1.6 -2.4) (size 0.4 0.4) (property pad_prop_bga) (layers "F.Cu" "F.Paste" "F.Mask") (tstamp 38e1b177-1dcb-43bc-9197-a1dea9392e5f))
  (pad "C5" smd circle (at -0.8 -2.4) (size 0.4 0.4) (property pad_prop_bga) (layers "F.Cu" "F.Paste" "F.Mask") (tstamp 8dfe15d6-6f61-4e52-a42e-d9c75d46701c))
  (pad "C6" smd circle (at 0 -2.4) (size 0.4 0.4) (property pad_prop_bga) (layers "F.Cu" "F.Paste" "F.Mask") (tstamp 92e9de2e-4076-4e43-8aa1-415b40d23283))
  (pad "C7" smd circle (at 0.8 -2.4) (size 0.4 0.4) (property pad_prop_bga) (layers "F.Cu" "F.Paste" "F.Mask") (tstamp 0f7ef708-cd57-440b-91a3-cd828b127b3c))
  (pad "C8" smd circle (at 1.6 -2.4) (size 0.4 0.4) (property pad_prop_bga) (layers "F.Cu" "F.Paste" "F.Mask") (tstamp d5f6dcb7-89b4-44ce-aae9-030953323676))
  (pad "C9" smd circle (at 2.4 -2.4) (size 0.4 0.4) (property pad_prop_bga) (layers "F.Cu" "F.Paste" "F.Mask") (tstamp aeac21d6-2b8c-4ffa-bd56-e2138d7dce09))
  (pad "C10" smd circle (at 3.2 -2.4) (size 0.4 0.4) (property pad_prop_bga) (layers "F.Cu" "F.Paste" "F.Mask") (tstamp 084b615d-ce0e-47ea-9cbe-0ebdd423c8ff))
  (pad "C11" smd circle (at 4 -2.4) (size 0.4 0.4) (property pad_prop_bga) (layers "F.Cu" "F.Paste" "F.Mask") (tstamp 7856162c-9690-4b62-94d4-b88534b4bb47))
  (pad "D1" smd circle (at -4 -1.6) (size 0.4 0.4) (property pad_prop_bga) (layers "F.Cu" "F.Paste" "F.Mask") (tstamp 25e1365d-d38b-42a8-a9e2-c3f55c95877e))
  (pad "D2" smd circle (at -3.2 -1.6) (size 0.4 0.4) (property pad_prop_bga) (layers "F.Cu" "F.Paste" "F.Mask") (tstamp 07179d8f-0855-4880-b442-93b547990d6c))
  (pad "D3" smd circle (at -2.4 -1.6) (size 0.4 0.4) (property pad_prop_bga) (layers "F.Cu" "F.Paste" "F.Mask") (tstamp 2de84e36-2c9e-4e20-bf8c-87158e3d80f3))
  (pad "D4" smd circle (at -1.6 -1.6) (size 0.4 0.4) (property pad_prop_bga) (layers "F.Cu" "F.Paste" "F.Mask") (tstamp a8d3756e-f7e5-414e-b133-dbde78b789fd))
  (pad "D5" smd circle (at -0.8 -1.6) (size 0.4 0.4) (property pad_prop_bga) (layers "F.Cu" "F.Paste" "F.Mask") (tstamp ea869e7b-2dc6-4df5-860e-907e6cbec1d0))
  (pad "D6" smd circle (at 0 -1.6) (size 0.4 0.4) (property pad_prop_bga) (layers "F.Cu" "F.Paste" "F.Mask") (tstamp afc32420-b033-4b0a-8373-ed07bab293a5))
  (pad "D7" smd circle (at 0.8 -1.6) (size 0.4 0.4) (property pad_prop_bga) (layers "F.Cu" "F.Paste" "F.Mask") (tstamp 2a39fb1b-0a55-4ab3-a041-a2ecf567a0eb))
  (pad "D8" smd circle (at 1.6 -1.6) (size 0.4 0.4) (property pad_prop_bga) (layers "F.Cu" "F.Paste" "F.Mask") (tstamp 7123d69b-3d7d-4cf1-ad90-f7fba2d78c3f))
  (pad "D9" smd circle (at 2.4 -1.6) (size 0.4 0.4) (property pad_prop_bga) (layers "F.Cu" "F.Paste" "F.Mask") (tstamp f59a76d5-21a4-4623-992c-1bdc564e978c))
  (pad "D10" smd circle (at 3.2 -1.6) (size 0.4 0.4) (property pad_prop_bga) (layers "F.Cu" "F.Paste" "F.Mask") (tstamp 12788c6c-5d8a-4788-9752-c8da4be48c7d))
  (pad "D11" smd circle (at 4 -1.6) (size 0.4 0.4) (property pad_prop_bga) (layers "F.Cu" "F.Paste" "F.Mask") (tstamp ba71d76d-d4ca-4170-9b1b-fa7f97c72f3c))
  (pad "E1" smd circle (at -4 -0.8) (size 0.4 0.4) (property pad_prop_bga) (layers "F.Cu" "F.Paste" "F.Mask") (tstamp 1a44ca6f-71d1-4fc7-ae68-5e872e5003c9))
  (pad "E2" smd circle (at -3.2 -0.8) (size 0.4 0.4) (property pad_prop_bga) (layers "F.Cu" "F.Paste" "F.Mask") (tstamp 76a8310f-47ca-4109-90f0-de4d3f55df93))
  (pad "E3" smd circle (at -2.4 -0.8) (size 0.4 0.4) (property pad_prop_bga) (layers "F.Cu" "F.Paste" "F.Mask") (tstamp 47611789-cc13-40fc-98f4-239299c3c77e))
  (pad "E4" smd circle (at -1.6 -0.8) (size 0.4 0.4) (property pad_prop_bga) (layers "F.Cu" "F.Paste" "F.Mask") (tstamp b039e984-f6ac-462d-87fb-daf69759a279))
  (pad "E5" smd circle (at -0.8 -0.8) (size 0.4 0.4) (property pad_prop_bga) (layers "F.Cu" "F.Paste" "F.Mask") (tstamp aa23cecc-210f-40a0-86c4-6243d2cc1ab1))
  (pad "E6" smd circle (at 0 -0.8) (size 0.4 0.4) (property pad_prop_bga) (layers "F.Cu" "F.Paste" "F.Mask") (tstamp ff1a20c7-a6cd-4186-994e-a531c1ee2092))
  (pad "E7" smd circle (at 0.8 -0.8) (size 0.4 0.4) (property pad_prop_bga) (layers "F.Cu" "F.Paste" "F.Mask") (tstamp 55802a15-db4b-462f-9165-41759524d397))
  (pad "E8" smd circle (at 1.6 -0.8) (size 0.4 0.4) (property pad_prop_bga) (layers "F.Cu" "F.Paste" "F.Mask") (tstamp 6ea57ea6-5411-411e-9fc3-264125348808))
  (pad "E9" smd circle (at 2.4 -0.8) (size 0.4 0.4) (property pad_prop_bga) (layers "F.Cu" "F.Paste" "F.Mask") (tstamp 2b92c971-24d2-46d0-ad52-0aaa1105f955))
  (pad "E10" smd circle (at 3.2 -0.8) (size 0.4 0.4) (property pad_prop_bga) (layers "F.Cu" "F.Paste" "F.Mask") (tstamp 41e4c0cc-4af8-44c4-9d40-4aea413e5ae1))
  (pad "E11" smd circle (at 4 -0.8) (size 0.4 0.4) (property pad_prop_bga) (layers "F.Cu" "F.Paste" "F.Mask") (tstamp 1288b85c-d20d-49ee-9642-09cf984a3ff4))
  (pad "F1" smd circle (at -4 0) (size 0.4 0.4) (property pad_prop_bga) (layers "F.Cu" "F.Paste" "F.Mask") (tstamp d402d870-f866-4ec9-8ad6-ac3671267c78))
  (pad "F2" smd circle (at -3.2 0) (size 0.4 0.4) (property pad_prop_bga) (layers "F.Cu" "F.Paste" "F.Mask") (tstamp e668d99b-f1f2-4a64-bb70-b1de2b6d2b9f))
  (pad "F3" smd circle (at -2.4 0) (size 0.4 0.4) (property pad_prop_bga) (layers "F.Cu" "F.Paste" "F.Mask") (tstamp a1aa19e0-6202-4bc3-9134-e27c3ecde0fb))
  (pad "F4" smd circle (at -1.6 0) (size 0.4 0.4) (property pad_prop_bga) (layers "F.Cu" "F.Paste" "F.Mask") (tstamp 211ff7cc-c819-48f9-a6ba-0b30cfa8f14d))
  (pad "F5" smd circle (at -0.8 0) (size 0.4 0.4) (property pad_prop_bga) (layers "F.Cu" "F.Paste" "F.Mask") (tstamp 3d2d0f6b-4186-46e7-9b76-32589aa78e02))
  (pad "F6" smd circle (at 0 0) (size 0.4 0.4) (property pad_prop_bga) (layers "F.Cu" "F.Paste" "F.Mask") (tstamp e810a791-ee73-4748-ab7d-7e4ef3c21c5a))
  (pad "F7" smd circle (at 0.8 0) (size 0.4 0.4) (property pad_prop_bga) (layers "F.Cu" "F.Paste" "F.Mask") (tstamp 790b2f00-edfc-4f20-94b4-ae8fc6bc6b18))
  (pad "F8" smd circle (at 1.6 0) (size 0.4 0.4) (property pad_prop_bga) (layers "F.Cu" "F.Paste" "F.Mask") (tstamp 486f1ab0-50f9-4711-820b-32110280a07d))
  (pad "F9" smd circle (at 2.4 0) (size 0.4 0.4) (property pad_prop_bga) (layers "F.Cu" "F.Paste" "F.Mask") (tstamp 38da742f-e474-46e5-8daf-b7117cfd7136))
  (pad "F10" smd circle (at 3.2 0) (size 0.4 0.4) (property pad_prop_bga) (layers "F.Cu" "F.Paste" "F.Mask") (tstamp fe30d19a-c7dd-4443-ac18-9063f3a98851))
  (pad "F11" smd circle (at 4 0) (size 0.4 0.4) (property pad_prop_bga) (layers "F.Cu" "F.Paste" "F.Mask") (tstamp bf9c62cc-f6c4-4ced-9878-43750e01215e))
  (pad "G1" smd circle (at -4 0.8) (size 0.4 0.4) (property pad_prop_bga) (layers "F.Cu" "F.Paste" "F.Mask") (tstamp bbc6d55b-91d6-4ebc-9e22-05f48eafef0e))
  (pad "G2" smd circle (at -3.2 0.8) (size 0.4 0.4) (property pad_prop_bga) (layers "F.Cu" "F.Paste" "F.Mask") (tstamp c212efcf-d733-4fd7-8d06-789c17ea54b1))
  (pad "G3" smd circle (at -2.4 0.8) (size 0.4 0.4) (property pad_prop_bga) (layers "F.Cu" "F.Paste" "F.Mask") (tstamp c9d21f1a-d328-4dce-9859-96c1d3b685f1))
  (pad "G4" smd circle (at -1.6 0.8) (size 0.4 0.4) (property pad_prop_bga) (layers "F.Cu" "F.Paste" "F.Mask") (tstamp 0019cb1e-f85d-4ea7-a8b2-02edfc346c5a))
  (pad "G5" smd circle (at -0.8 0.8) (size 0.4 0.4) (property pad_prop_bga) (layers "F.Cu" "F.Paste" "F.Mask") (tstamp 311c7425-2ac6-4d86-88a7-4684ece157b3))
  (pad "G6" smd circle (at 0 0.8) (size 0.4 0.4) (property pad_prop_bga) (layers "F.Cu" "F.Paste" "F.Mask") (tstamp 37cfdea7-b44a-4d0f-a361-6e100ae9adef))
  (pad "G7" smd circle (at 0.8 0.8) (size 0.4 0.4) (property pad_prop_bga) (layers "F.Cu" "F.Paste" "F.Mask") (tstamp b492e36e-72dd-4708-a17a-46573ee8dad4))
  (pad "G8" smd circle (at 1.6 0.8) (size 0.4 0.4) (property pad_prop_bga) (layers "F.Cu" "F.Paste" "F.Mask") (tstamp cba16bc4-781a-43a0-82cb-79f92f2bc2fa))
  (pad "G9" smd circle (at 2.4 0.8) (size 0.4 0.4) (property pad_prop_bga) (layers "F.Cu" "F.Paste" "F.Mask") (tstamp e23e6a1c-9acf-4e6b-8905-f03df4329b54))
  (pad "G10" smd circle (at 3.2 0.8) (size 0.4 0.4) (property pad_prop_bga) (layers "F.Cu" "F.Paste" "F.Mask") (tstamp 6c3d1247-1804-4f3b-893f-84736948095a))
  (pad "G11" smd circle (at 4 0.8) (size 0.4 0.4) (property pad_prop_bga) (layers "F.Cu" "F.Paste" "F.Mask") (tstamp 3b7e86ff-c0d9-4496-acb1-fada684c5b48))
  (pad "H1" smd circle (at -4 1.6) (size 0.4 0.4) (property pad_prop_bga) (layers "F.Cu" "F.Paste" "F.Mask") (tstamp 35b7abb5-e74c-4af0-9034-c1b62269b434))
  (pad "H2" smd circle (at -3.2 1.6) (size 0.4 0.4) (property pad_prop_bga) (layers "F.Cu" "F.Paste" "F.Mask") (tstamp b2574bfd-5760-4d33-9fe2-952e32db0e5d))
  (pad "H3" smd circle (at -2.4 1.6) (size 0.4 0.4) (property pad_prop_bga) (layers "F.Cu" "F.Paste" "F.Mask") (tstamp da321b3b-d569-4097-b060-0af0dd230676))
  (pad "H4" smd circle (at -1.6 1.6) (size 0.4 0.4) (property pad_prop_bga) (layers "F.Cu" "F.Paste" "F.Mask") (tstamp 6458cd3a-dfc6-4fa6-80a3-c4c90e94dfa1))
  (pad "H5" smd circle (at -0.8 1.6) (size 0.4 0.4) (property pad_prop_bga) (layers "F.Cu" "F.Paste" "F.Mask") (tstamp 798233b3-884c-4255-a678-f7abc0ad63c2))
  (pad "H6" smd circle (at 0 1.6) (size 0.4 0.4) (property pad_prop_bga) (layers "F.Cu" "F.Paste" "F.Mask") (tstamp e03f8033-da84-4d2d-8294-600b871ae365))
  (pad "H7" smd circle (at 0.8 1.6) (size 0.4 0.4) (property pad_prop_bga) (layers "F.Cu" "F.Paste" "F.Mask") (tstamp c105e0e8-7f62-4218-b4a4-c2df9ca00fd6))
  (pad "H8" smd circle (at 1.6 1.6) (size 0.4 0.4) (property pad_prop_bga) (layers "F.Cu" "F.Paste" "F.Mask") (tstamp 58dab380-e4a1-484b-ae43-dcca5a5f0838))
  (pad "H9" smd circle (at 2.4 1.6) (size 0.4 0.4) (property pad_prop_bga) (layers "F.Cu" "F.Paste" "F.Mask") (tstamp 79897b85-ade7-4048-a05f-6a4ad7dee0be))
  (pad "H10" smd circle (at 3.2 1.6) (size 0.4 0.4) (property pad_prop_bga) (layers "F.Cu" "F.Paste" "F.Mask") (tstamp 9c840b95-aecb-4ede-956e-2dbb3a097940))
  (pad "H11" smd circle (at 4 1.6) (size 0.4 0.4) (property pad_prop_bga) (layers "F.Cu" "F.Paste" "F.Mask") (tstamp fd6bf73f-5988-4b73-b7bc-70a1d2403572))
  (pad "J1" smd circle (at -4 2.4) (size 0.4 0.4) (property pad_prop_bga) (layers "F.Cu" "F.Paste" "F.Mask") (tstamp 5b2d2191-490e-4376-9724-c3d5dbac045e))
  (pad "J2" smd circle (at -3.2 2.4) (size 0.4 0.4) (property pad_prop_bga) (layers "F.Cu" "F.Paste" "F.Mask") (tstamp a1c93fdd-e3f6-4c03-871c-77fd337b0af3))
  (pad "J3" smd circle (at -2.4 2.4) (size 0.4 0.4) (property pad_prop_bga) (layers "F.Cu" "F.Paste" "F.Mask") (tstamp d8944090-94a7-42b9-a069-28c83f7d2f29))
  (pad "J4" smd circle (at -1.6 2.4) (size 0.4 0.4) (property pad_prop_bga) (layers "F.Cu" "F.Paste" "F.Mask") (tstamp 3fea2d6d-7074-488b-8382-ee9aba05ed3a))
  (pad "J5" smd circle (at -0.8 2.4) (size 0.4 0.4) (property pad_prop_bga) (layers "F.Cu" "F.Paste" "F.Mask") (tstamp dd2834c6-9175-4f3c-acb3-5d9d9240d78f))
  (pad "J6" smd circle (at 0 2.4) (size 0.4 0.4) (property pad_prop_bga) (layers "F.Cu" "F.Paste" "F.Mask") (tstamp e6a68803-fdec-490b-9ea3-ea6ccc83c39b))
  (pad "J7" smd circle (at 0.8 2.4) (size 0.4 0.4) (property pad_prop_bga) (layers "F.Cu" "F.Paste" "F.Mask") (tstamp 34e8cfe2-665b-4d91-b7cb-8b58a49b4e65))
  (pad "J8" smd circle (at 1.6 2.4) (size 0.4 0.4) (property pad_prop_bga) (layers "F.Cu" "F.Paste" "F.Mask") (tstamp 1dbdc09e-dac7-4b91-a8a5-90cc3ccb32b9))
  (pad "J9" smd circle (at 2.4 2.4) (size 0.4 0.4) (property pad_prop_bga) (layers "F.Cu" "F.Paste" "F.Mask") (tstamp 24edb0ca-f08b-4fc3-aee5-4ad346730d7a))
  (pad "J10" smd circle (at 3.2 2.4) (size 0.4 0.4) (property pad_prop_bga) (layers "F.Cu" "F.Paste" "F.Mask") (tstamp 518d21dc-87e8-44f3-82d6-537ee87ed02b))
  (pad "J11" smd circle (at 4 2.4) (size 0.4 0.4) (property pad_prop_bga) (layers "F.Cu" "F.Paste" "F.Mask") (tstamp 5c51cfee-1713-4d11-b1ed-183e71e287b4))
  (pad "K1" smd circle (at -4 3.2) (size 0.4 0.4) (property pad_prop_bga) (layers "F.Cu" "F.Paste" "F.Mask") (tstamp 8ae3806c-f4a2-40c9-92f9-53addd8cc67c))
  (pad "K2" smd circle (at -3.2 3.2) (size 0.4 0.4) (property pad_prop_bga) (layers "F.Cu" "F.Paste" "F.Mask") (tstamp 07c959ec-3e84-4d03-9917-cdf76ae56dfb))
  (pad "K3" smd circle (at -2.4 3.2) (size 0.4 0.4) (property pad_prop_bga) (layers "F.Cu" "F.Paste" "F.Mask") (tstamp 923e31e7-2b83-4dfe-a859-14744cfee132))
  (pad "K4" smd circle (at -1.6 3.2) (size 0.4 0.4) (property pad_prop_bga) (layers "F.Cu" "F.Paste" "F.Mask") (tstamp c07199b5-d214-4e87-8da3-1a7f1b2e5cf1))
  (pad "K5" smd circle (at -0.8 3.2) (size 0.4 0.4) (property pad_prop_bga) (layers "F.Cu" "F.Paste" "F.Mask") (tstamp 4fb56a49-707a-4c64-a816-ee773e50feb8))
  (pad "K6" smd circle (at 0 3.2) (size 0.4 0.4) (property pad_prop_bga) (layers "F.Cu" "F.Paste" "F.Mask") (tstamp 01eca534-a9fc-43a5-b4ed-620e9ddcaf17))
  (pad "K7" smd circle (at 0.8 3.2) (size 0.4 0.4) (property pad_prop_bga) (layers "F.Cu" "F.Paste" "F.Mask") (tstamp 2f4a0ace-99d0-44c2-ad77-8f133bd3ab8b))
  (pad "K8" smd circle (at 1.6 3.2) (size 0.4 0.4) (property pad_prop_bga) (layers "F.Cu" "F.Paste" "F.Mask") (tstamp 5fceb4cc-cf04-4543-95db-801f78f3d66b))
  (pad "K9" smd circle (at 2.4 3.2) (size 0.4 0.4) (property pad_prop_bga) (layers "F.Cu" "F.Paste" "F.Mask") (tstamp 14a120aa-33fc-4d0b-8d2e-6c36625f2558))
  (pad "K10" smd circle (at 3.2 3.2) (size 0.4 0.4) (property pad_prop_bga) (layers "F.Cu" "F.Paste" "F.Mask") (tstamp 0c2e338d-60ba-49b4-8d1f-0cd3a134dce2))
  (pad "K11" smd circle (at 4 3.2) (size 0.4 0.4) (property pad_prop_bga) (layers "F.Cu" "F.Paste" "F.Mask") (tstamp 6edcaf4f-dbd0-470d-a78c-48dc6ab22a62))
  (pad "L1" smd circle (at -4 4) (size 0.4 0.4) (property pad_prop_bga) (layers "F.Cu" "F.Paste" "F.Mask") (tstamp ebe052ad-d1db-4f29-acb8-9d5ff2d8fbd4))
  (pad "L2" smd circle (at -3.2 4) (size 0.4 0.4) (property pad_prop_bga) (layers "F.Cu" "F.Paste" "F.Mask") (tstamp 8da59c99-5d19-4e5d-b228-ffd40f359529))
  (pad "L3" smd circle (at -2.4 4) (size 0.4 0.4) (property pad_prop_bga) (layers "F.Cu" "F.Paste" "F.Mask") (tstamp d210128b-82d9-4192-b71b-4d9b1c7a7474))
  (pad "L4" smd circle (at -1.6 4) (size 0.4 0.4) (property pad_prop_bga) (layers "F.Cu" "F.Paste" "F.Mask") (tstamp 60cdffce-d18c-48a9-a1ee-ff4e4bd53f1f))
  (pad "L5" smd circle (at -0.8 4) (size 0.4 0.4) (property pad_prop_bga) (layers "F.Cu" "F.Paste" "F.Mask") (tstamp 295c5d51-5cd7-4c55-b6fa-4264f55c9e74))
  (pad "L6" smd circle (at 0 4) (size 0.4 0.4) (property pad_prop_bga) (layers "F.Cu" "F.Paste" "F.Mask") (tstamp 1e180e95-4e4b-4091-9476-d75c10c0e5e1))
  (pad "L7" smd circle (at 0.8 4) (size 0.4 0.4) (property pad_prop_bga) (layers "F.Cu" "F.Paste" "F.Mask") (tstamp f6106668-a7ea-4d4f-bf13-a7c7fe18aebb))
  (pad "L8" smd circle (at 1.6 4) (size 0.4 0.4) (property pad_prop_bga) (layers "F.Cu" "F.Paste" "F.Mask") (tstamp e3002f88-4f82-4d3a-94e3-be5070ade9f3))
  (pad "L9" smd circle (at 2.4 4) (size 0.4 0.4) (property pad_prop_bga) (layers "F.Cu" "F.Paste" "F.Mask") (tstamp 5df0a39f-201b-42b3-8391-5e3685f1465f))
  (pad "L10" smd circle (at 3.2 4) (size 0.4 0.4) (property pad_prop_bga) (layers "F.Cu" "F.Paste" "F.Mask") (tstamp 0cdc5bf5-f446-4b92-b659-24d29ad35248))
  (pad "L11" smd circle (at 4 4) (size 0.4 0.4) (property pad_prop_bga) (layers "F.Cu" "F.Paste" "F.Mask") (tstamp aae2441b-f79e-459d-85f8-2ee639b83fe1))
  (model "${KICAD6_3DMODEL_DIR}/Package_BGA.3dshapes/TFBGA-121_10x10mm_Layout11x11_P0.8mm.wrl"
    (offset (xyz 0 0 0))
    (scale (xyz 1 1 1))
    (rotate (xyz 0 0 0))
  )
)
