(footprint "UCBGA-81_4x4mm_Layout9x9_P0.4mm" (version 20211014) (generator pcbnew)
  (layer "F.Cu")
  (tedit 5BA15F5B)
  (descr "UCBGA-81, 9x9 raster, 4x4mm package, pitch 0.4mm; https://www.latticesemi.com/view_document?document_id=213")
  (tags "BGA 81 0.4")
  (solder_mask_margin 0.035)
  (solder_paste_margin 0.000001)
  (attr smd)
  (fp_text reference "REF**" (at 0 -3) (layer "F.SilkS")
    (effects (font (size 1 1) (thickness 0.15)))
    (tstamp 84ec4909-9bd3-4034-8540-6f529ff54ed8)
  )
  (fp_text value "UCBGA-81_4x4mm_Layout9x9_P0.4mm" (at 0 3) (layer "F.Fab")
    (effects (font (size 1 1) (thickness 0.15)))
    (tstamp 794db67f-08a0-4bf4-a2a4-49e571a798a5)
  )
  (fp_text user "${REFERENCE}" (at 0 0) (layer "F.Fab")
    (effects (font (size 0.93 0.93) (thickness 0.1395)))
    (tstamp 01047089-3f22-4c28-9d9e-c8b245ccacdb)
  )
  (fp_line (start -2.11 2.11) (end -2.11 -1.11) (layer "F.SilkS") (width 0.12) (tstamp 11341dce-4c47-473c-9efa-fa910b30f980))
  (fp_line (start 2.11 -2.11) (end 2.11 2.11) (layer "F.SilkS") (width 0.12) (tstamp 4aa8ab96-1a03-4083-b47c-eb8dc068806e))
  (fp_line (start 2.11 2.11) (end -2.11 2.11) (layer "F.SilkS") (width 0.12) (tstamp 8793d84d-5f8f-4395-bba7-73ffe28cf132))
  (fp_line (start -1.11 -2.11) (end 2.11 -2.11) (layer "F.SilkS") (width 0.12) (tstamp bfd33d83-1478-4723-8414-b443db611493))
  (fp_line (start 3 -3) (end -3 -3) (layer "F.CrtYd") (width 0.05) (tstamp 60b50861-570f-48ed-9ac9-936e9534a6b5))
  (fp_line (start -3 3) (end 3 3) (layer "F.CrtYd") (width 0.05) (tstamp c3b85d29-c2c2-4cfe-aa4f-974335c2417d))
  (fp_line (start -3 -3) (end -3 3) (layer "F.CrtYd") (width 0.05) (tstamp c69cdafe-e5e6-4357-a76f-a9aed972c6ed))
  (fp_line (start 3 3) (end 3 -3) (layer "F.CrtYd") (width 0.05) (tstamp def853af-4889-441a-8969-f884cd474a3b))
  (fp_line (start -2 -1) (end -1 -2) (layer "F.Fab") (width 0.1) (tstamp 07c1446e-d017-4432-8b47-2d885cec80fb))
  (fp_line (start 2 2) (end -2 2) (layer "F.Fab") (width 0.1) (tstamp 0bf7e387-3e96-46b7-996f-ae9efec91451))
  (fp_line (start -2 2) (end -2 -1) (layer "F.Fab") (width 0.1) (tstamp 4fe48f24-241c-4d93-9fd8-96d0f8cd9f1c))
  (fp_line (start 2 -2) (end 2 2) (layer "F.Fab") (width 0.1) (tstamp 5bbbce65-220a-4182-b1e8-949f171019d2))
  (fp_line (start -1 -2) (end 2 -2) (layer "F.Fab") (width 0.1) (tstamp 66ddab43-cd90-4a27-b54e-e0de6066775d))
  (pad "A1" smd circle (at -1.6 -1.6) (size 0.27 0.27) (property pad_prop_bga) (layers "F.Cu" "F.Paste" "F.Mask") (tstamp 2b3116f7-91f7-417e-9575-0ccf3fea56e5))
  (pad "A2" smd circle (at -1.2 -1.6) (size 0.27 0.27) (property pad_prop_bga) (layers "F.Cu" "F.Paste" "F.Mask") (tstamp 1c3806c6-c4a2-419e-85c6-09a83c534248))
  (pad "A3" smd circle (at -0.8 -1.6) (size 0.27 0.27) (property pad_prop_bga) (layers "F.Cu" "F.Paste" "F.Mask") (tstamp d977ed14-c191-405f-b5f2-270fb5252b37))
  (pad "A4" smd circle (at -0.4 -1.6) (size 0.27 0.27) (property pad_prop_bga) (layers "F.Cu" "F.Paste" "F.Mask") (tstamp 2bab5245-04ce-4c6b-b28d-07c195748609))
  (pad "A5" smd circle (at 0 -1.6) (size 0.27 0.27) (property pad_prop_bga) (layers "F.Cu" "F.Paste" "F.Mask") (tstamp 6323f45d-c7f0-4a56-92ad-5c5df8bacabb))
  (pad "A6" smd circle (at 0.4 -1.6) (size 0.27 0.27) (property pad_prop_bga) (layers "F.Cu" "F.Paste" "F.Mask") (tstamp b62fcc02-038a-4c97-8b36-4cde253440de))
  (pad "A7" smd circle (at 0.8 -1.6) (size 0.27 0.27) (property pad_prop_bga) (layers "F.Cu" "F.Paste" "F.Mask") (tstamp f9f8350e-4a6b-4f25-988e-9588649dd863))
  (pad "A8" smd circle (at 1.2 -1.6) (size 0.27 0.27) (property pad_prop_bga) (layers "F.Cu" "F.Paste" "F.Mask") (tstamp c6e1dc85-dbdf-4812-acfa-28a8bd1ca091))
  (pad "A9" smd circle (at 1.6 -1.6) (size 0.27 0.27) (property pad_prop_bga) (layers "F.Cu" "F.Paste" "F.Mask") (tstamp dad104e3-c14d-4986-8677-c194c0b93b01))
  (pad "B1" smd circle (at -1.6 -1.2) (size 0.27 0.27) (property pad_prop_bga) (layers "F.Cu" "F.Paste" "F.Mask") (tstamp 2dc9188f-77f7-405b-96fa-e04b6fa4c496))
  (pad "B2" smd circle (at -1.2 -1.2) (size 0.27 0.27) (property pad_prop_bga) (layers "F.Cu" "F.Paste" "F.Mask") (tstamp 8e054a29-0d8e-4170-bac4-eb6873640d52))
  (pad "B3" smd circle (at -0.8 -1.2) (size 0.27 0.27) (property pad_prop_bga) (layers "F.Cu" "F.Paste" "F.Mask") (tstamp 326c579f-c233-4605-b6af-a392a52022ea))
  (pad "B4" smd circle (at -0.4 -1.2) (size 0.27 0.27) (property pad_prop_bga) (layers "F.Cu" "F.Paste" "F.Mask") (tstamp 82fdc266-5cf2-413e-a11a-389bcf94d574))
  (pad "B5" smd circle (at 0 -1.2) (size 0.27 0.27) (property pad_prop_bga) (layers "F.Cu" "F.Paste" "F.Mask") (tstamp f92a7648-778d-4ab3-bdc7-5a9eb47b9767))
  (pad "B6" smd circle (at 0.4 -1.2) (size 0.27 0.27) (property pad_prop_bga) (layers "F.Cu" "F.Paste" "F.Mask") (tstamp cbd21f80-b334-449f-ac6e-7aed0db43d8c))
  (pad "B7" smd circle (at 0.8 -1.2) (size 0.27 0.27) (property pad_prop_bga) (layers "F.Cu" "F.Paste" "F.Mask") (tstamp fa7be52e-246e-47f8-97ed-b11fd93da43e))
  (pad "B8" smd circle (at 1.2 -1.2) (size 0.27 0.27) (property pad_prop_bga) (layers "F.Cu" "F.Paste" "F.Mask") (tstamp d218503d-66f1-45fd-a1b9-bf2ba50cb43c))
  (pad "B9" smd circle (at 1.6 -1.2) (size 0.27 0.27) (property pad_prop_bga) (layers "F.Cu" "F.Paste" "F.Mask") (tstamp 955b1a0c-b848-450d-8242-f95d977cde4c))
  (pad "C1" smd circle (at -1.6 -0.8) (size 0.27 0.27) (property pad_prop_bga) (layers "F.Cu" "F.Paste" "F.Mask") (tstamp 52e417e2-0898-494e-991a-d5e7d226e9e8))
  (pad "C2" smd circle (at -1.2 -0.8) (size 0.27 0.27) (property pad_prop_bga) (layers "F.Cu" "F.Paste" "F.Mask") (tstamp d7c42abe-e07e-41f1-99d5-bc65c244bc0c))
  (pad "C3" smd circle (at -0.8 -0.8) (size 0.27 0.27) (property pad_prop_bga) (layers "F.Cu" "F.Paste" "F.Mask") (tstamp c7f6793c-6cec-4880-be21-9bd4f62ca818))
  (pad "C4" smd circle (at -0.4 -0.8) (size 0.27 0.27) (property pad_prop_bga) (layers "F.Cu" "F.Paste" "F.Mask") (tstamp 8b08e124-3e82-46a5-b577-65d4ce12b240))
  (pad "C5" smd circle (at 0 -0.8) (size 0.27 0.27) (property pad_prop_bga) (layers "F.Cu" "F.Paste" "F.Mask") (tstamp e1ba10ac-2c77-44e1-9c70-07b2bfb3d951))
  (pad "C6" smd circle (at 0.4 -0.8) (size 0.27 0.27) (property pad_prop_bga) (layers "F.Cu" "F.Paste" "F.Mask") (tstamp 90945905-2df9-42d4-bb94-4889efdf2a05))
  (pad "C7" smd circle (at 0.8 -0.8) (size 0.27 0.27) (property pad_prop_bga) (layers "F.Cu" "F.Paste" "F.Mask") (tstamp 94a77c4a-40fe-4090-9b8e-4895a3bebf67))
  (pad "C8" smd circle (at 1.2 -0.8) (size 0.27 0.27) (property pad_prop_bga) (layers "F.Cu" "F.Paste" "F.Mask") (tstamp 157be633-4cb9-4799-b4b5-06762d8a0320))
  (pad "C9" smd circle (at 1.6 -0.8) (size 0.27 0.27) (property pad_prop_bga) (layers "F.Cu" "F.Paste" "F.Mask") (tstamp bb20f469-dd2f-49b3-a1c8-f12b936fbb75))
  (pad "D1" smd circle (at -1.6 -0.4) (size 0.27 0.27) (property pad_prop_bga) (layers "F.Cu" "F.Paste" "F.Mask") (tstamp b1b50165-011d-4d2f-8be2-104a22425e96))
  (pad "D2" smd circle (at -1.2 -0.4) (size 0.27 0.27) (property pad_prop_bga) (layers "F.Cu" "F.Paste" "F.Mask") (tstamp 4461e362-7235-492e-8e81-e8460af77b0f))
  (pad "D3" smd circle (at -0.8 -0.4) (size 0.27 0.27) (property pad_prop_bga) (layers "F.Cu" "F.Paste" "F.Mask") (tstamp f1a1472e-f888-49b5-afe5-9d684823ad3e))
  (pad "D4" smd circle (at -0.4 -0.4) (size 0.27 0.27) (property pad_prop_bga) (layers "F.Cu" "F.Paste" "F.Mask") (tstamp c340862f-3d1c-43e3-a7e8-68eba96227c6))
  (pad "D5" smd circle (at 0 -0.4) (size 0.27 0.27) (property pad_prop_bga) (layers "F.Cu" "F.Paste" "F.Mask") (tstamp bf4500f2-a625-4a10-8a97-66c035eebed4))
  (pad "D6" smd circle (at 0.4 -0.4) (size 0.27 0.27) (property pad_prop_bga) (layers "F.Cu" "F.Paste" "F.Mask") (tstamp e14f4eb4-fe2c-4e44-8134-e3f8d8bea878))
  (pad "D7" smd circle (at 0.8 -0.4) (size 0.27 0.27) (property pad_prop_bga) (layers "F.Cu" "F.Paste" "F.Mask") (tstamp 5ad31dcb-55e3-44a9-838b-9273fc867451))
  (pad "D8" smd circle (at 1.2 -0.4) (size 0.27 0.27) (property pad_prop_bga) (layers "F.Cu" "F.Paste" "F.Mask") (tstamp 7ffdfde9-7ad8-4983-9012-309371de2bf5))
  (pad "D9" smd circle (at 1.6 -0.4) (size 0.27 0.27) (property pad_prop_bga) (layers "F.Cu" "F.Paste" "F.Mask") (tstamp bad086cb-02fb-49cd-bd0b-bbabcd8935de))
  (pad "E1" smd circle (at -1.6 0) (size 0.27 0.27) (property pad_prop_bga) (layers "F.Cu" "F.Paste" "F.Mask") (tstamp 020a1ad6-3ee8-4b9d-a37e-eae211dff0d5))
  (pad "E2" smd circle (at -1.2 0) (size 0.27 0.27) (property pad_prop_bga) (layers "F.Cu" "F.Paste" "F.Mask") (tstamp 5d108390-1a46-4ede-b71b-df26d1514403))
  (pad "E3" smd circle (at -0.8 0) (size 0.27 0.27) (property pad_prop_bga) (layers "F.Cu" "F.Paste" "F.Mask") (tstamp 7922d64f-52f7-42ec-a8f7-a076d0c7a73e))
  (pad "E4" smd circle (at -0.4 0) (size 0.27 0.27) (property pad_prop_bga) (layers "F.Cu" "F.Paste" "F.Mask") (tstamp c62d3a11-17ab-42b3-8e2b-5155563bd900))
  (pad "E5" smd circle (at 0 0) (size 0.27 0.27) (property pad_prop_bga) (layers "F.Cu" "F.Paste" "F.Mask") (tstamp b0fcd6e4-f0b4-4dda-af1f-dd6ad4ebe013))
  (pad "E6" smd circle (at 0.4 0) (size 0.27 0.27) (property pad_prop_bga) (layers "F.Cu" "F.Paste" "F.Mask") (tstamp 8b8ad2a6-dcfb-4bb5-8524-dbb570f8df0f))
  (pad "E7" smd circle (at 0.8 0) (size 0.27 0.27) (property pad_prop_bga) (layers "F.Cu" "F.Paste" "F.Mask") (tstamp b999a139-b4e9-40cb-86c4-9fac58704e72))
  (pad "E8" smd circle (at 1.2 0) (size 0.27 0.27) (property pad_prop_bga) (layers "F.Cu" "F.Paste" "F.Mask") (tstamp cf7fcd61-74d6-4636-bd80-d53912055c38))
  (pad "E9" smd circle (at 1.6 0) (size 0.27 0.27) (property pad_prop_bga) (layers "F.Cu" "F.Paste" "F.Mask") (tstamp 31822efc-b718-4575-be02-7ecc331e3acf))
  (pad "F1" smd circle (at -1.6 0.4) (size 0.27 0.27) (property pad_prop_bga) (layers "F.Cu" "F.Paste" "F.Mask") (tstamp 29451d06-71a9-44cd-a0b3-1ddfd3060ed4))
  (pad "F2" smd circle (at -1.2 0.4) (size 0.27 0.27) (property pad_prop_bga) (layers "F.Cu" "F.Paste" "F.Mask") (tstamp 222eaaa7-111f-49e3-9ee5-82061caed825))
  (pad "F3" smd circle (at -0.8 0.4) (size 0.27 0.27) (property pad_prop_bga) (layers "F.Cu" "F.Paste" "F.Mask") (tstamp ad5df5e8-d6e9-4ff0-8c75-ea0e3cf5624f))
  (pad "F4" smd circle (at -0.4 0.4) (size 0.27 0.27) (property pad_prop_bga) (layers "F.Cu" "F.Paste" "F.Mask") (tstamp 573aad73-5499-43b8-9f8f-bf47b43e0b1d))
  (pad "F5" smd circle (at 0 0.4) (size 0.27 0.27) (property pad_prop_bga) (layers "F.Cu" "F.Paste" "F.Mask") (tstamp a78a34d5-413b-4d95-941e-bda4f4b65da4))
  (pad "F6" smd circle (at 0.4 0.4) (size 0.27 0.27) (property pad_prop_bga) (layers "F.Cu" "F.Paste" "F.Mask") (tstamp 5f166f04-8157-4b08-8615-9fe1c77411f7))
  (pad "F7" smd circle (at 0.8 0.4) (size 0.27 0.27) (property pad_prop_bga) (layers "F.Cu" "F.Paste" "F.Mask") (tstamp 81a14246-df2c-4908-8c71-586a884e301c))
  (pad "F8" smd circle (at 1.2 0.4) (size 0.27 0.27) (property pad_prop_bga) (layers "F.Cu" "F.Paste" "F.Mask") (tstamp fba281b2-26e8-49de-8b5c-c3d6d970c34e))
  (pad "F9" smd circle (at 1.6 0.4) (size 0.27 0.27) (property pad_prop_bga) (layers "F.Cu" "F.Paste" "F.Mask") (tstamp e65c5fbf-177d-402e-9aae-f622721cf379))
  (pad "G1" smd circle (at -1.6 0.8) (size 0.27 0.27) (property pad_prop_bga) (layers "F.Cu" "F.Paste" "F.Mask") (tstamp af799152-8c0a-40c4-ae5d-260d53f6df57))
  (pad "G2" smd circle (at -1.2 0.8) (size 0.27 0.27) (property pad_prop_bga) (layers "F.Cu" "F.Paste" "F.Mask") (tstamp ddc5d3ae-9f4c-4d1b-8eb2-b94d0aea0374))
  (pad "G3" smd circle (at -0.8 0.8) (size 0.27 0.27) (property pad_prop_bga) (layers "F.Cu" "F.Paste" "F.Mask") (tstamp 9235e799-acc7-4a06-a354-16e78a7bf060))
  (pad "G4" smd circle (at -0.4 0.8) (size 0.27 0.27) (property pad_prop_bga) (layers "F.Cu" "F.Paste" "F.Mask") (tstamp 60a9219a-8752-4030-a533-361e82a5536b))
  (pad "G5" smd circle (at 0 0.8) (size 0.27 0.27) (property pad_prop_bga) (layers "F.Cu" "F.Paste" "F.Mask") (tstamp 4d96d3f5-aca8-4f2b-bc62-d2904b3e9904))
  (pad "G6" smd circle (at 0.4 0.8) (size 0.27 0.27) (property pad_prop_bga) (layers "F.Cu" "F.Paste" "F.Mask") (tstamp 2592e65d-d5ed-47b8-b76b-8999c14325f1))
  (pad "G7" smd circle (at 0.8 0.8) (size 0.27 0.27) (property pad_prop_bga) (layers "F.Cu" "F.Paste" "F.Mask") (tstamp 9263ed7b-8ab0-4c1a-ad0f-8a5932806594))
  (pad "G8" smd circle (at 1.2 0.8) (size 0.27 0.27) (property pad_prop_bga) (layers "F.Cu" "F.Paste" "F.Mask") (tstamp 3b774957-be68-4346-8962-f846d478b645))
  (pad "G9" smd circle (at 1.6 0.8) (size 0.27 0.27) (property pad_prop_bga) (layers "F.Cu" "F.Paste" "F.Mask") (tstamp c25a10fe-4827-4e2a-8126-342c7c2cad41))
  (pad "H1" smd circle (at -1.6 1.2) (size 0.27 0.27) (property pad_prop_bga) (layers "F.Cu" "F.Paste" "F.Mask") (tstamp dcff5eee-fdfb-4881-b64a-7fe9c40fd35a))
  (pad "H2" smd circle (at -1.2 1.2) (size 0.27 0.27) (property pad_prop_bga) (layers "F.Cu" "F.Paste" "F.Mask") (tstamp b75de780-784d-4fd3-8e1b-21a621fbf40c))
  (pad "H3" smd circle (at -0.8 1.2) (size 0.27 0.27) (property pad_prop_bga) (layers "F.Cu" "F.Paste" "F.Mask") (tstamp 1f14fcd0-dc44-44d4-826c-d28b137e66f5))
  (pad "H4" smd circle (at -0.4 1.2) (size 0.27 0.27) (property pad_prop_bga) (layers "F.Cu" "F.Paste" "F.Mask") (tstamp 4efc54f5-8e53-4cb5-a261-414e05b96842))
  (pad "H5" smd circle (at 0 1.2) (size 0.27 0.27) (property pad_prop_bga) (layers "F.Cu" "F.Paste" "F.Mask") (tstamp 80776d57-f48c-4601-9d59-664725a7da8d))
  (pad "H6" smd circle (at 0.4 1.2) (size 0.27 0.27) (property pad_prop_bga) (layers "F.Cu" "F.Paste" "F.Mask") (tstamp 27ae8439-15d2-4e1b-8df4-1931f05acfb4))
  (pad "H7" smd circle (at 0.8 1.2) (size 0.27 0.27) (property pad_prop_bga) (layers "F.Cu" "F.Paste" "F.Mask") (tstamp 8c511133-e4df-431d-9e93-7007ac9ea1bb))
  (pad "H8" smd circle (at 1.2 1.2) (size 0.27 0.27) (property pad_prop_bga) (layers "F.Cu" "F.Paste" "F.Mask") (tstamp b2accf59-e003-4beb-b18f-ebc7e8e4bc7c))
  (pad "H9" smd circle (at 1.6 1.2) (size 0.27 0.27) (property pad_prop_bga) (layers "F.Cu" "F.Paste" "F.Mask") (tstamp b5bdd736-930e-49ba-8e3b-e02d83eafdcf))
  (pad "J1" smd circle (at -1.6 1.6) (size 0.27 0.27) (property pad_prop_bga) (layers "F.Cu" "F.Paste" "F.Mask") (tstamp a05dcab0-e6ca-4515-b443-f94e1ffe3259))
  (pad "J2" smd circle (at -1.2 1.6) (size 0.27 0.27) (property pad_prop_bga) (layers "F.Cu" "F.Paste" "F.Mask") (tstamp 257d7173-4030-457e-b866-e17f95c8a886))
  (pad "J3" smd circle (at -0.8 1.6) (size 0.27 0.27) (property pad_prop_bga) (layers "F.Cu" "F.Paste" "F.Mask") (tstamp 25ba32a2-ba29-4d0b-9580-2a0b46017aaf))
  (pad "J4" smd circle (at -0.4 1.6) (size 0.27 0.27) (property pad_prop_bga) (layers "F.Cu" "F.Paste" "F.Mask") (tstamp ccbe4a7c-7432-49f5-94fe-095e596171e0))
  (pad "J5" smd circle (at 0 1.6) (size 0.27 0.27) (property pad_prop_bga) (layers "F.Cu" "F.Paste" "F.Mask") (tstamp 0536e6dd-d817-4e5d-83c6-2798a14c0827))
  (pad "J6" smd circle (at 0.4 1.6) (size 0.27 0.27) (property pad_prop_bga) (layers "F.Cu" "F.Paste" "F.Mask") (tstamp a9f8a889-612a-45ae-9b54-49d64f0e81d8))
  (pad "J7" smd circle (at 0.8 1.6) (size 0.27 0.27) (property pad_prop_bga) (layers "F.Cu" "F.Paste" "F.Mask") (tstamp 3821ee4d-1bbf-4a5b-bc80-607d4e6ed917))
  (pad "J8" smd circle (at 1.2 1.6) (size 0.27 0.27) (property pad_prop_bga) (layers "F.Cu" "F.Paste" "F.Mask") (tstamp ce3ee8ff-860a-40a1-9be5-4609d51dac33))
  (pad "J9" smd circle (at 1.6 1.6) (size 0.27 0.27) (property pad_prop_bga) (layers "F.Cu" "F.Paste" "F.Mask") (tstamp 59762a07-5205-44de-802a-626f08c625ad))
  (model "${KICAD6_3DMODEL_DIR}/Package_BGA.3dshapes/UCBGA-81_4x4mm_Layout9x9_P0.4mm.wrl"
    (offset (xyz 0 0 0))
    (scale (xyz 1 1 1))
    (rotate (xyz 0 0 0))
  )
)
