(footprint "UFBGA-132_7x7mm_Layout12x12_P0.5mm" (version 20211014) (generator pcbnew)
  (layer "F.Cu")
  (tedit 5ADF9FCE)
  (descr "UFBGA-132, 12x12 raster, 7x7mm package, pitch 0.5mm; see section 7.4 of http://www.st.com/resource/en/datasheet/stm32l152zc.pdf")
  (tags "BGA 132 0.5")
  (attr smd)
  (fp_text reference "REF**" (at 0 -4.5) (layer "F.SilkS")
    (effects (font (size 1 1) (thickness 0.15)))
    (tstamp 3ed63a8e-d4e0-42b5-9709-601750d39f89)
  )
  (fp_text value "UFBGA-132_7x7mm_Layout12x12_P0.5mm" (at 0 4.5) (layer "F.Fab")
    (effects (font (size 1 1) (thickness 0.15)))
    (tstamp df6938f9-ea8e-43a9-b74a-7d849e20cde4)
  )
  (fp_text user "${REFERENCE}" (at 0 0) (layer "F.Fab")
    (effects (font (size 1 1) (thickness 0.15)))
    (tstamp 39f175da-9ae4-44c7-be8a-6f4e56e6de4c)
  )
  (fp_line (start 3.625 -3.625) (end 3.625 3.625) (layer "F.SilkS") (width 0.12) (tstamp 02b964e5-798e-4b25-8d75-af8aadeb04ef))
  (fp_line (start -2.625 -3.625) (end 3.625 -3.625) (layer "F.SilkS") (width 0.12) (tstamp 0cb4f554-fa23-4ac8-ba81-16b48793ed5b))
  (fp_line (start 3.625 3.625) (end -3.625 3.625) (layer "F.SilkS") (width 0.12) (tstamp 3be29585-6f6b-4b61-bbb6-e61f73ae9cae))
  (fp_line (start -3.625 3.625) (end -3.625 -2.625) (layer "F.SilkS") (width 0.12) (tstamp 955a8e49-5ea1-4ffe-b634-d01b229681bc))
  (fp_line (start -4.5 4.5) (end 4.5 4.5) (layer "F.CrtYd") (width 0.05) (tstamp 144f3c13-b02d-45ee-94c9-c88e7c826eb6))
  (fp_line (start 4.5 -4.5) (end -4.5 -4.5) (layer "F.CrtYd") (width 0.05) (tstamp 383d851f-7fe7-4b60-8848-e306cf0e8cc4))
  (fp_line (start -4.5 -4.5) (end -4.5 4.5) (layer "F.CrtYd") (width 0.05) (tstamp 957b41d3-f682-42a5-93a6-b8a2e67cf241))
  (fp_line (start 4.5 4.5) (end 4.5 -4.5) (layer "F.CrtYd") (width 0.05) (tstamp de091479-07e1-404e-b795-a118e835e98d))
  (fp_line (start -3.5 -2.5) (end -2.5 -3.5) (layer "F.Fab") (width 0.1) (tstamp 18aea38b-5f4c-45f6-95c6-e51e137aee2c))
  (fp_line (start 3.5 3.5) (end -3.5 3.5) (layer "F.Fab") (width 0.1) (tstamp 49892e1b-0862-48e1-a233-b3ad8c2526af))
  (fp_line (start -3.5 3.5) (end -3.5 -2.5) (layer "F.Fab") (width 0.1) (tstamp 8553c2e0-0576-490f-8fe4-b4211cf0e91c))
  (fp_line (start -2.5 -3.5) (end 3.5 -3.5) (layer "F.Fab") (width 0.1) (tstamp e56de44b-9508-486a-98a0-3ebd9f1c0e6e))
  (fp_line (start 3.5 -3.5) (end 3.5 3.5) (layer "F.Fab") (width 0.1) (tstamp fc0871fa-a209-4120-9ffd-336b8c59d8d3))
  (pad "A1" smd circle (at -2.75 -2.75) (size 0.27 0.27) (property pad_prop_bga) (layers "F.Cu" "F.Paste" "F.Mask") (tstamp eed8be19-1a0f-40a3-87b1-a89f974fe781))
  (pad "A2" smd circle (at -2.25 -2.75) (size 0.27 0.27) (property pad_prop_bga) (layers "F.Cu" "F.Paste" "F.Mask") (tstamp 4370eefb-447a-487e-9c6d-25603348274a))
  (pad "A3" smd circle (at -1.75 -2.75) (size 0.27 0.27) (property pad_prop_bga) (layers "F.Cu" "F.Paste" "F.Mask") (tstamp c884952a-b9ed-4fc2-ab8c-adbd92ce0736))
  (pad "A4" smd circle (at -1.25 -2.75) (size 0.27 0.27) (property pad_prop_bga) (layers "F.Cu" "F.Paste" "F.Mask") (tstamp f4c0da84-3aa5-4fea-aca3-49a119a81c85))
  (pad "A5" smd circle (at -0.75 -2.75) (size 0.27 0.27) (property pad_prop_bga) (layers "F.Cu" "F.Paste" "F.Mask") (tstamp e56b01f6-2b12-4bad-b40e-d2ef0f92ad72))
  (pad "A6" smd circle (at -0.25 -2.75) (size 0.27 0.27) (property pad_prop_bga) (layers "F.Cu" "F.Paste" "F.Mask") (tstamp 244dffb2-1e97-4c63-8249-d9504554de90))
  (pad "A7" smd circle (at 0.25 -2.75) (size 0.27 0.27) (property pad_prop_bga) (layers "F.Cu" "F.Paste" "F.Mask") (tstamp f6b41198-98a9-4115-a2a1-7a0b9c14bf27))
  (pad "A8" smd circle (at 0.75 -2.75) (size 0.27 0.27) (property pad_prop_bga) (layers "F.Cu" "F.Paste" "F.Mask") (tstamp 6ec040aa-d874-4b38-b67d-fcb11c9d4ed5))
  (pad "A9" smd circle (at 1.25 -2.75) (size 0.27 0.27) (property pad_prop_bga) (layers "F.Cu" "F.Paste" "F.Mask") (tstamp f02c1d99-7437-476a-aee1-9df5823dbea9))
  (pad "A10" smd circle (at 1.75 -2.75) (size 0.27 0.27) (property pad_prop_bga) (layers "F.Cu" "F.Paste" "F.Mask") (tstamp 92a8f832-2739-4ff7-8c26-f590f9038815))
  (pad "A11" smd circle (at 2.25 -2.75) (size 0.27 0.27) (property pad_prop_bga) (layers "F.Cu" "F.Paste" "F.Mask") (tstamp bd027f6f-d6d1-4545-8e65-cf292941f263))
  (pad "A12" smd circle (at 2.75 -2.75) (size 0.27 0.27) (property pad_prop_bga) (layers "F.Cu" "F.Paste" "F.Mask") (tstamp 5bc0e363-b6c3-42f6-8a43-4662171a092b))
  (pad "B1" smd circle (at -2.75 -2.25) (size 0.27 0.27) (property pad_prop_bga) (layers "F.Cu" "F.Paste" "F.Mask") (tstamp e10f238e-7e45-4163-8724-fd97ca1fef86))
  (pad "B2" smd circle (at -2.25 -2.25) (size 0.27 0.27) (property pad_prop_bga) (layers "F.Cu" "F.Paste" "F.Mask") (tstamp ecb3aa29-174b-4b7e-84f5-7695529c1f16))
  (pad "B3" smd circle (at -1.75 -2.25) (size 0.27 0.27) (property pad_prop_bga) (layers "F.Cu" "F.Paste" "F.Mask") (tstamp 089a4943-1ea2-4ceb-9e44-312acb96c2ee))
  (pad "B4" smd circle (at -1.25 -2.25) (size 0.27 0.27) (property pad_prop_bga) (layers "F.Cu" "F.Paste" "F.Mask") (tstamp ad594107-f182-450a-b359-02405ab21ee4))
  (pad "B5" smd circle (at -0.75 -2.25) (size 0.27 0.27) (property pad_prop_bga) (layers "F.Cu" "F.Paste" "F.Mask") (tstamp 6e696d94-15c3-475b-a1c5-2029fe37eff5))
  (pad "B6" smd circle (at -0.25 -2.25) (size 0.27 0.27) (property pad_prop_bga) (layers "F.Cu" "F.Paste" "F.Mask") (tstamp 3312441e-c3c8-4b99-bf77-a7095d715e48))
  (pad "B7" smd circle (at 0.25 -2.25) (size 0.27 0.27) (property pad_prop_bga) (layers "F.Cu" "F.Paste" "F.Mask") (tstamp 924a091a-a579-4ca5-bd26-83520467f3ec))
  (pad "B8" smd circle (at 0.75 -2.25) (size 0.27 0.27) (property pad_prop_bga) (layers "F.Cu" "F.Paste" "F.Mask") (tstamp 2413f11b-2418-488d-a38e-c9b7ee92d68b))
  (pad "B9" smd circle (at 1.25 -2.25) (size 0.27 0.27) (property pad_prop_bga) (layers "F.Cu" "F.Paste" "F.Mask") (tstamp 93275cd2-dc7c-437b-a1a3-b048d5a1bf86))
  (pad "B10" smd circle (at 1.75 -2.25) (size 0.27 0.27) (property pad_prop_bga) (layers "F.Cu" "F.Paste" "F.Mask") (tstamp 3e766ef1-40d8-4560-9a93-c42754637508))
  (pad "B11" smd circle (at 2.25 -2.25) (size 0.27 0.27) (property pad_prop_bga) (layers "F.Cu" "F.Paste" "F.Mask") (tstamp 1639ca65-0913-4843-b277-906d7c190464))
  (pad "B12" smd circle (at 2.75 -2.25) (size 0.27 0.27) (property pad_prop_bga) (layers "F.Cu" "F.Paste" "F.Mask") (tstamp 0fdf3818-f52c-4757-9ec9-bae7ddb7aa2b))
  (pad "C1" smd circle (at -2.75 -1.75) (size 0.27 0.27) (property pad_prop_bga) (layers "F.Cu" "F.Paste" "F.Mask") (tstamp d731aa15-50ee-42d3-862a-5a7e7a602045))
  (pad "C2" smd circle (at -2.25 -1.75) (size 0.27 0.27) (property pad_prop_bga) (layers "F.Cu" "F.Paste" "F.Mask") (tstamp 27b43399-b02f-4457-878f-bbc9b0c665b1))
  (pad "C3" smd circle (at -1.75 -1.75) (size 0.27 0.27) (property pad_prop_bga) (layers "F.Cu" "F.Paste" "F.Mask") (tstamp 4efd7e16-167e-4fb7-89d5-a972fbf23f0b))
  (pad "C4" smd circle (at -1.25 -1.75) (size 0.27 0.27) (property pad_prop_bga) (layers "F.Cu" "F.Paste" "F.Mask") (tstamp e6c24456-087a-4f07-82a5-1915fed8bbbc))
  (pad "C5" smd circle (at -0.75 -1.75) (size 0.27 0.27) (property pad_prop_bga) (layers "F.Cu" "F.Paste" "F.Mask") (tstamp b159aacf-b8b9-4463-b00d-ab7a06f1eefe))
  (pad "C6" smd circle (at -0.25 -1.75) (size 0.27 0.27) (property pad_prop_bga) (layers "F.Cu" "F.Paste" "F.Mask") (tstamp e012a975-0097-4379-b341-d4d803e69d9d))
  (pad "C7" smd circle (at 0.25 -1.75) (size 0.27 0.27) (property pad_prop_bga) (layers "F.Cu" "F.Paste" "F.Mask") (tstamp 4667e249-e8d2-4f9c-b54f-594de718373f))
  (pad "C8" smd circle (at 0.75 -1.75) (size 0.27 0.27) (property pad_prop_bga) (layers "F.Cu" "F.Paste" "F.Mask") (tstamp c1cf8696-bfc9-440a-b7de-f5726ce5dc4c))
  (pad "C9" smd circle (at 1.25 -1.75) (size 0.27 0.27) (property pad_prop_bga) (layers "F.Cu" "F.Paste" "F.Mask") (tstamp 77b3cf74-5888-479d-b515-b8006f8f57b1))
  (pad "C10" smd circle (at 1.75 -1.75) (size 0.27 0.27) (property pad_prop_bga) (layers "F.Cu" "F.Paste" "F.Mask") (tstamp 198257e7-9bee-4fca-8cb2-956b18c27f3c))
  (pad "C11" smd circle (at 2.25 -1.75) (size 0.27 0.27) (property pad_prop_bga) (layers "F.Cu" "F.Paste" "F.Mask") (tstamp 7d273daa-4ba9-4b57-a303-65ae94b476a8))
  (pad "C12" smd circle (at 2.75 -1.75) (size 0.27 0.27) (property pad_prop_bga) (layers "F.Cu" "F.Paste" "F.Mask") (tstamp c737f315-8133-4c12-af01-7113c0f50772))
  (pad "D1" smd circle (at -2.75 -1.25) (size 0.27 0.27) (property pad_prop_bga) (layers "F.Cu" "F.Paste" "F.Mask") (tstamp a8e4816a-3c9a-4c00-9bd0-4efa7b5a9e92))
  (pad "D2" smd circle (at -2.25 -1.25) (size 0.27 0.27) (property pad_prop_bga) (layers "F.Cu" "F.Paste" "F.Mask") (tstamp 16dec3bd-5097-4e97-8851-62912f9a7df6))
  (pad "D3" smd circle (at -1.75 -1.25) (size 0.27 0.27) (property pad_prop_bga) (layers "F.Cu" "F.Paste" "F.Mask") (tstamp 6269bf57-21bb-4ffb-bca1-1aead2889fa5))
  (pad "D4" smd circle (at -1.25 -1.25) (size 0.27 0.27) (property pad_prop_bga) (layers "F.Cu" "F.Paste" "F.Mask") (tstamp dbb593cd-1e91-4088-b562-0526e9be0260))
  (pad "D5" smd circle (at -0.75 -1.25) (size 0.27 0.27) (property pad_prop_bga) (layers "F.Cu" "F.Paste" "F.Mask") (tstamp 16edae86-0aec-4e31-9e5d-4440421cb5e1))
  (pad "D6" smd circle (at -0.25 -1.25) (size 0.27 0.27) (property pad_prop_bga) (layers "F.Cu" "F.Paste" "F.Mask") (tstamp f61ed1e4-b9ba-48ae-a2f8-fc0cc3b5fbec))
  (pad "D7" smd circle (at 0.25 -1.25) (size 0.27 0.27) (property pad_prop_bga) (layers "F.Cu" "F.Paste" "F.Mask") (tstamp a0744996-aeaa-4cfa-bd14-569d4bf355c3))
  (pad "D8" smd circle (at 0.75 -1.25) (size 0.27 0.27) (property pad_prop_bga) (layers "F.Cu" "F.Paste" "F.Mask") (tstamp 2f707da3-0a0c-4b56-bd32-6d0e539087ec))
  (pad "D9" smd circle (at 1.25 -1.25) (size 0.27 0.27) (property pad_prop_bga) (layers "F.Cu" "F.Paste" "F.Mask") (tstamp c24d574a-2936-40fa-84b5-71c166fd14f3))
  (pad "D10" smd circle (at 1.75 -1.25) (size 0.27 0.27) (property pad_prop_bga) (layers "F.Cu" "F.Paste" "F.Mask") (tstamp ee390f53-f502-46c9-a144-eac8db227670))
  (pad "D11" smd circle (at 2.25 -1.25) (size 0.27 0.27) (property pad_prop_bga) (layers "F.Cu" "F.Paste" "F.Mask") (tstamp 91f49001-3ca6-414f-b8da-adae7a2dd1a0))
  (pad "D12" smd circle (at 2.75 -1.25) (size 0.27 0.27) (property pad_prop_bga) (layers "F.Cu" "F.Paste" "F.Mask") (tstamp 3b9e372c-5ec0-4eaf-b755-fcbb8838efd4))
  (pad "E1" smd circle (at -2.75 -0.75) (size 0.27 0.27) (property pad_prop_bga) (layers "F.Cu" "F.Paste" "F.Mask") (tstamp 2314bbcf-ca8c-4ef1-a27c-da7cf89b68ab))
  (pad "E2" smd circle (at -2.25 -0.75) (size 0.27 0.27) (property pad_prop_bga) (layers "F.Cu" "F.Paste" "F.Mask") (tstamp 82fd15f9-66ea-4938-bfe1-78f85fc24e3e))
  (pad "E3" smd circle (at -1.75 -0.75) (size 0.27 0.27) (property pad_prop_bga) (layers "F.Cu" "F.Paste" "F.Mask") (tstamp df46702b-8400-494c-834a-120bf26425e4))
  (pad "E4" smd circle (at -1.25 -0.75) (size 0.27 0.27) (property pad_prop_bga) (layers "F.Cu" "F.Paste" "F.Mask") (tstamp 5ff8fd6a-2ce6-4530-8db0-3977a905c3d1))
  (pad "E9" smd circle (at 1.25 -0.75) (size 0.27 0.27) (property pad_prop_bga) (layers "F.Cu" "F.Paste" "F.Mask") (tstamp e5c6255f-f717-48b6-bc20-68ffce82a8b6))
  (pad "E10" smd circle (at 1.75 -0.75) (size 0.27 0.27) (property pad_prop_bga) (layers "F.Cu" "F.Paste" "F.Mask") (tstamp d540c0e4-f49b-429a-afc7-5ca4e70b23bf))
  (pad "E11" smd circle (at 2.25 -0.75) (size 0.27 0.27) (property pad_prop_bga) (layers "F.Cu" "F.Paste" "F.Mask") (tstamp 3c967ec0-206f-4dd5-95a5-756787efd69e))
  (pad "E12" smd circle (at 2.75 -0.75) (size 0.27 0.27) (property pad_prop_bga) (layers "F.Cu" "F.Paste" "F.Mask") (tstamp 71eb8147-0e50-4090-a0c5-f7627fa518b4))
  (pad "F1" smd circle (at -2.75 -0.25) (size 0.27 0.27) (property pad_prop_bga) (layers "F.Cu" "F.Paste" "F.Mask") (tstamp 6785eb3a-8d51-4a01-9f8e-c46a6f4bdc3d))
  (pad "F2" smd circle (at -2.25 -0.25) (size 0.27 0.27) (property pad_prop_bga) (layers "F.Cu" "F.Paste" "F.Mask") (tstamp 124d79af-d39e-484b-a39a-caf8f360116c))
  (pad "F3" smd circle (at -1.75 -0.25) (size 0.27 0.27) (property pad_prop_bga) (layers "F.Cu" "F.Paste" "F.Mask") (tstamp bbb133d0-fa50-46ee-92c0-78c48bfd24a6))
  (pad "F4" smd circle (at -1.25 -0.25) (size 0.27 0.27) (property pad_prop_bga) (layers "F.Cu" "F.Paste" "F.Mask") (tstamp 684aa94b-4d7b-40cc-9648-5a32b90561f0))
  (pad "F6" smd circle (at -0.25 -0.25) (size 0.27 0.27) (property pad_prop_bga) (layers "F.Cu" "F.Paste" "F.Mask") (tstamp f5d183b0-4861-494c-86e2-3fc54f6e9634))
  (pad "F7" smd circle (at 0.25 -0.25) (size 0.27 0.27) (property pad_prop_bga) (layers "F.Cu" "F.Paste" "F.Mask") (tstamp 45544cc1-adca-40d6-8626-166abe14023a))
  (pad "F9" smd circle (at 1.25 -0.25) (size 0.27 0.27) (property pad_prop_bga) (layers "F.Cu" "F.Paste" "F.Mask") (tstamp b2594d09-0d39-4378-90a9-093338219b7b))
  (pad "F10" smd circle (at 1.75 -0.25) (size 0.27 0.27) (property pad_prop_bga) (layers "F.Cu" "F.Paste" "F.Mask") (tstamp 2f8a073a-305d-4fd6-a296-886a7a9f6071))
  (pad "F11" smd circle (at 2.25 -0.25) (size 0.27 0.27) (property pad_prop_bga) (layers "F.Cu" "F.Paste" "F.Mask") (tstamp 3d313add-1b6d-4059-8558-512cb4e02352))
  (pad "F12" smd circle (at 2.75 -0.25) (size 0.27 0.27) (property pad_prop_bga) (layers "F.Cu" "F.Paste" "F.Mask") (tstamp ce95895e-48be-48cd-984e-630710da66f3))
  (pad "G1" smd circle (at -2.75 0.25) (size 0.27 0.27) (property pad_prop_bga) (layers "F.Cu" "F.Paste" "F.Mask") (tstamp ed3eb455-d73a-4c72-a952-1ba1fdb6fda7))
  (pad "G2" smd circle (at -2.25 0.25) (size 0.27 0.27) (property pad_prop_bga) (layers "F.Cu" "F.Paste" "F.Mask") (tstamp 35b3ab5e-bfb3-4c20-bb64-004e84e71462))
  (pad "G3" smd circle (at -1.75 0.25) (size 0.27 0.27) (property pad_prop_bga) (layers "F.Cu" "F.Paste" "F.Mask") (tstamp 91644148-0723-4b15-b92d-49a4f11aa8d5))
  (pad "G4" smd circle (at -1.25 0.25) (size 0.27 0.27) (property pad_prop_bga) (layers "F.Cu" "F.Paste" "F.Mask") (tstamp b6837b2d-90f4-4e75-8824-38e5cb189421))
  (pad "G6" smd circle (at -0.25 0.25) (size 0.27 0.27) (property pad_prop_bga) (layers "F.Cu" "F.Paste" "F.Mask") (tstamp 81ebd2f7-c1c3-4575-97a7-1905084bf4a7))
  (pad "G7" smd circle (at 0.25 0.25) (size 0.27 0.27) (property pad_prop_bga) (layers "F.Cu" "F.Paste" "F.Mask") (tstamp 53586862-34ca-4564-9023-658b1cfd6962))
  (pad "G9" smd circle (at 1.25 0.25) (size 0.27 0.27) (property pad_prop_bga) (layers "F.Cu" "F.Paste" "F.Mask") (tstamp a00dc78b-0cc7-423d-9493-7e90b97e0638))
  (pad "G10" smd circle (at 1.75 0.25) (size 0.27 0.27) (property pad_prop_bga) (layers "F.Cu" "F.Paste" "F.Mask") (tstamp 503c92b0-5c9d-456e-a0fb-fa452fc460fb))
  (pad "G11" smd circle (at 2.25 0.25) (size 0.27 0.27) (property pad_prop_bga) (layers "F.Cu" "F.Paste" "F.Mask") (tstamp 3e1bdf81-df9d-4741-bc90-88adfa092189))
  (pad "G12" smd circle (at 2.75 0.25) (size 0.27 0.27) (property pad_prop_bga) (layers "F.Cu" "F.Paste" "F.Mask") (tstamp 65ceba40-4199-42c1-ac49-6ce52bf54c31))
  (pad "H1" smd circle (at -2.75 0.75) (size 0.27 0.27) (property pad_prop_bga) (layers "F.Cu" "F.Paste" "F.Mask") (tstamp e5f50dd1-ef1f-4bee-afc2-39c01ae474b4))
  (pad "H2" smd circle (at -2.25 0.75) (size 0.27 0.27) (property pad_prop_bga) (layers "F.Cu" "F.Paste" "F.Mask") (tstamp c41875b9-9e5a-4e2f-81c1-cf738f7157e6))
  (pad "H3" smd circle (at -1.75 0.75) (size 0.27 0.27) (property pad_prop_bga) (layers "F.Cu" "F.Paste" "F.Mask") (tstamp f7e0af79-2be8-4ce8-9459-c0ffff5da0cb))
  (pad "H4" smd circle (at -1.25 0.75) (size 0.27 0.27) (property pad_prop_bga) (layers "F.Cu" "F.Paste" "F.Mask") (tstamp 86cb4900-6759-4600-a50a-57b34f1a7824))
  (pad "H9" smd circle (at 1.25 0.75) (size 0.27 0.27) (property pad_prop_bga) (layers "F.Cu" "F.Paste" "F.Mask") (tstamp 57c26384-9cb2-4c42-8b7d-8347af39df8a))
  (pad "H10" smd circle (at 1.75 0.75) (size 0.27 0.27) (property pad_prop_bga) (layers "F.Cu" "F.Paste" "F.Mask") (tstamp 8c326e31-f080-49ec-8870-d46c2e6f23a9))
  (pad "H11" smd circle (at 2.25 0.75) (size 0.27 0.27) (property pad_prop_bga) (layers "F.Cu" "F.Paste" "F.Mask") (tstamp fe8bcbf6-08a6-4b53-b1e2-9c3c07237430))
  (pad "H12" smd circle (at 2.75 0.75) (size 0.27 0.27) (property pad_prop_bga) (layers "F.Cu" "F.Paste" "F.Mask") (tstamp 4c1f197c-1ae1-4fc0-a2cc-7ee7524380b5))
  (pad "J1" smd circle (at -2.75 1.25) (size 0.27 0.27) (property pad_prop_bga) (layers "F.Cu" "F.Paste" "F.Mask") (tstamp 425b104a-a6c6-49a6-83eb-6d18c6366096))
  (pad "J2" smd circle (at -2.25 1.25) (size 0.27 0.27) (property pad_prop_bga) (layers "F.Cu" "F.Paste" "F.Mask") (tstamp 9f693f01-3823-461e-9f24-6d3401d0465f))
  (pad "J3" smd circle (at -1.75 1.25) (size 0.27 0.27) (property pad_prop_bga) (layers "F.Cu" "F.Paste" "F.Mask") (tstamp 4dcb6d92-f72c-4b71-8839-dced572c2466))
  (pad "J4" smd circle (at -1.25 1.25) (size 0.27 0.27) (property pad_prop_bga) (layers "F.Cu" "F.Paste" "F.Mask") (tstamp 546bb1b0-9ddb-4c70-b8ff-fc55fcb93924))
  (pad "J5" smd circle (at -0.75 1.25) (size 0.27 0.27) (property pad_prop_bga) (layers "F.Cu" "F.Paste" "F.Mask") (tstamp 3bb4c43a-efaa-4121-a9c2-b06ae846e330))
  (pad "J6" smd circle (at -0.25 1.25) (size 0.27 0.27) (property pad_prop_bga) (layers "F.Cu" "F.Paste" "F.Mask") (tstamp 56321b0a-ecd9-4fa3-ad50-9be176b9dac3))
  (pad "J7" smd circle (at 0.25 1.25) (size 0.27 0.27) (property pad_prop_bga) (layers "F.Cu" "F.Paste" "F.Mask") (tstamp 0c915436-f3c5-46c6-b6c7-398159e2236a))
  (pad "J8" smd circle (at 0.75 1.25) (size 0.27 0.27) (property pad_prop_bga) (layers "F.Cu" "F.Paste" "F.Mask") (tstamp 9f447cb9-cc84-496c-b1af-b030c3840b94))
  (pad "J9" smd circle (at 1.25 1.25) (size 0.27 0.27) (property pad_prop_bga) (layers "F.Cu" "F.Paste" "F.Mask") (tstamp 8231d734-0393-4274-b4e9-353493a878f0))
  (pad "J10" smd circle (at 1.75 1.25) (size 0.27 0.27) (property pad_prop_bga) (layers "F.Cu" "F.Paste" "F.Mask") (tstamp 7600732b-b115-49a2-9ff1-6950b3b4bb87))
  (pad "J11" smd circle (at 2.25 1.25) (size 0.27 0.27) (property pad_prop_bga) (layers "F.Cu" "F.Paste" "F.Mask") (tstamp e8fdb28f-ee17-48b1-ae4e-dd81b76eafa0))
  (pad "J12" smd circle (at 2.75 1.25) (size 0.27 0.27) (property pad_prop_bga) (layers "F.Cu" "F.Paste" "F.Mask") (tstamp 850a600e-6f72-491f-81f6-cbbc491d13de))
  (pad "K1" smd circle (at -2.75 1.75) (size 0.27 0.27) (property pad_prop_bga) (layers "F.Cu" "F.Paste" "F.Mask") (tstamp c9d74017-6a8a-467e-a280-45823a14d5bc))
  (pad "K2" smd circle (at -2.25 1.75) (size 0.27 0.27) (property pad_prop_bga) (layers "F.Cu" "F.Paste" "F.Mask") (tstamp 810f5a27-2cca-4a36-96a4-d9efabd59d45))
  (pad "K3" smd circle (at -1.75 1.75) (size 0.27 0.27) (property pad_prop_bga) (layers "F.Cu" "F.Paste" "F.Mask") (tstamp e0ac41f4-3f4a-4b53-b18f-c61ab1b6f56b))
  (pad "K4" smd circle (at -1.25 1.75) (size 0.27 0.27) (property pad_prop_bga) (layers "F.Cu" "F.Paste" "F.Mask") (tstamp 6529513d-852f-4692-b466-490620fd20c1))
  (pad "K5" smd circle (at -0.75 1.75) (size 0.27 0.27) (property pad_prop_bga) (layers "F.Cu" "F.Paste" "F.Mask") (tstamp 81a2aca9-28c1-4701-89df-614ce176b06a))
  (pad "K6" smd circle (at -0.25 1.75) (size 0.27 0.27) (property pad_prop_bga) (layers "F.Cu" "F.Paste" "F.Mask") (tstamp 466469e1-b18a-4c89-801e-e798c878695a))
  (pad "K7" smd circle (at 0.25 1.75) (size 0.27 0.27) (property pad_prop_bga) (layers "F.Cu" "F.Paste" "F.Mask") (tstamp 10bf7231-930b-4895-8d75-2f0d12974429))
  (pad "K8" smd circle (at 0.75 1.75) (size 0.27 0.27) (property pad_prop_bga) (layers "F.Cu" "F.Paste" "F.Mask") (tstamp 66263863-eda5-4f65-851e-07423ed71ea1))
  (pad "K9" smd circle (at 1.25 1.75) (size 0.27 0.27) (property pad_prop_bga) (layers "F.Cu" "F.Paste" "F.Mask") (tstamp b30bf026-4de0-4998-b6c0-ccebf6ff4585))
  (pad "K10" smd circle (at 1.75 1.75) (size 0.27 0.27) (property pad_prop_bga) (layers "F.Cu" "F.Paste" "F.Mask") (tstamp 7155588d-2feb-469e-b659-0e50826e75da))
  (pad "K11" smd circle (at 2.25 1.75) (size 0.27 0.27) (property pad_prop_bga) (layers "F.Cu" "F.Paste" "F.Mask") (tstamp 83e976e0-7551-4fb6-9461-265a4f402ac5))
  (pad "K12" smd circle (at 2.75 1.75) (size 0.27 0.27) (property pad_prop_bga) (layers "F.Cu" "F.Paste" "F.Mask") (tstamp cfd19e60-64c9-4cdd-81c7-f3b3cdf6a247))
  (pad "L1" smd circle (at -2.75 2.25) (size 0.27 0.27) (property pad_prop_bga) (layers "F.Cu" "F.Paste" "F.Mask") (tstamp 54f7b49b-f2b5-4fc4-aa51-91ea7abc7e14))
  (pad "L2" smd circle (at -2.25 2.25) (size 0.27 0.27) (property pad_prop_bga) (layers "F.Cu" "F.Paste" "F.Mask") (tstamp ca522305-1659-4e11-8f60-692e858d6eab))
  (pad "L3" smd circle (at -1.75 2.25) (size 0.27 0.27) (property pad_prop_bga) (layers "F.Cu" "F.Paste" "F.Mask") (tstamp 1e683af2-3681-49a3-9758-e2a2f8028a67))
  (pad "L4" smd circle (at -1.25 2.25) (size 0.27 0.27) (property pad_prop_bga) (layers "F.Cu" "F.Paste" "F.Mask") (tstamp 1df0f403-c1a1-45b1-9d20-a759b2cafbaa))
  (pad "L5" smd circle (at -0.75 2.25) (size 0.27 0.27) (property pad_prop_bga) (layers "F.Cu" "F.Paste" "F.Mask") (tstamp ee3d875f-135d-434c-b017-cf3735b28061))
  (pad "L6" smd circle (at -0.25 2.25) (size 0.27 0.27) (property pad_prop_bga) (layers "F.Cu" "F.Paste" "F.Mask") (tstamp ecf5dbc0-ab2c-42ca-8c4d-9e19a28bcbde))
  (pad "L7" smd circle (at 0.25 2.25) (size 0.27 0.27) (property pad_prop_bga) (layers "F.Cu" "F.Paste" "F.Mask") (tstamp 178e8cb8-8e4f-4aec-b1eb-a201ce2368df))
  (pad "L8" smd circle (at 0.75 2.25) (size 0.27 0.27) (property pad_prop_bga) (layers "F.Cu" "F.Paste" "F.Mask") (tstamp b2b990f4-39c9-4901-ad57-58792052b986))
  (pad "L9" smd circle (at 1.25 2.25) (size 0.27 0.27) (property pad_prop_bga) (layers "F.Cu" "F.Paste" "F.Mask") (tstamp a6c8df19-bcd2-4d9a-99f5-15176030025a))
  (pad "L10" smd circle (at 1.75 2.25) (size 0.27 0.27) (property pad_prop_bga) (layers "F.Cu" "F.Paste" "F.Mask") (tstamp 8baaba10-3c4a-4481-8308-c71b623807b2))
  (pad "L11" smd circle (at 2.25 2.25) (size 0.27 0.27) (property pad_prop_bga) (layers "F.Cu" "F.Paste" "F.Mask") (tstamp 3c3a736d-7c5d-429a-b976-8e7d126ec65d))
  (pad "L12" smd circle (at 2.75 2.25) (size 0.27 0.27) (property pad_prop_bga) (layers "F.Cu" "F.Paste" "F.Mask") (tstamp 996e2542-6140-4c24-8d71-b35ac68cdf67))
  (pad "M1" smd circle (at -2.75 2.75) (size 0.27 0.27) (property pad_prop_bga) (layers "F.Cu" "F.Paste" "F.Mask") (tstamp cfe740a0-0093-4f40-a7b4-fd84013e02e2))
  (pad "M2" smd circle (at -2.25 2.75) (size 0.27 0.27) (property pad_prop_bga) (layers "F.Cu" "F.Paste" "F.Mask") (tstamp 496f788e-088d-414d-a225-ca1f78963418))
  (pad "M3" smd circle (at -1.75 2.75) (size 0.27 0.27) (property pad_prop_bga) (layers "F.Cu" "F.Paste" "F.Mask") (tstamp 0e5ec9f4-94d7-4811-b32b-8d47e93cc9f2))
  (pad "M4" smd circle (at -1.25 2.75) (size 0.27 0.27) (property pad_prop_bga) (layers "F.Cu" "F.Paste" "F.Mask") (tstamp bf77b43b-0b48-4a0f-9539-54578e7499ee))
  (pad "M5" smd circle (at -0.75 2.75) (size 0.27 0.27) (property pad_prop_bga) (layers "F.Cu" "F.Paste" "F.Mask") (tstamp ad284703-67f3-4e34-85a1-58a4107e090b))
  (pad "M6" smd circle (at -0.25 2.75) (size 0.27 0.27) (property pad_prop_bga) (layers "F.Cu" "F.Paste" "F.Mask") (tstamp fb712a27-3bbe-4b94-8a12-f4aa8f8e1bd1))
  (pad "M7" smd circle (at 0.25 2.75) (size 0.27 0.27) (property pad_prop_bga) (layers "F.Cu" "F.Paste" "F.Mask") (tstamp d469d63e-22cc-4e4f-b010-2e54010e66d9))
  (pad "M8" smd circle (at 0.75 2.75) (size 0.27 0.27) (property pad_prop_bga) (layers "F.Cu" "F.Paste" "F.Mask") (tstamp 41042cee-5e04-4409-98b6-3597451a0546))
  (pad "M9" smd circle (at 1.25 2.75) (size 0.27 0.27) (property pad_prop_bga) (layers "F.Cu" "F.Paste" "F.Mask") (tstamp 701379d0-ac44-422d-9deb-5647e810e610))
  (pad "M10" smd circle (at 1.75 2.75) (size 0.27 0.27) (property pad_prop_bga) (layers "F.Cu" "F.Paste" "F.Mask") (tstamp 65674412-d795-4a53-bb4f-f53cb8df2edf))
  (pad "M11" smd circle (at 2.25 2.75) (size 0.27 0.27) (property pad_prop_bga) (layers "F.Cu" "F.Paste" "F.Mask") (tstamp bba9eb13-1b2c-4562-98e4-c6baa29325c0))
  (pad "M12" smd circle (at 2.75 2.75) (size 0.27 0.27) (property pad_prop_bga) (layers "F.Cu" "F.Paste" "F.Mask") (tstamp 065784b0-05f5-4091-8803-43ba3f2cbc9a))
  (model "${KICAD6_3DMODEL_DIR}/Package_BGA.3dshapes/UFBGA-132_7x7mm_Layout12x12_P0.5mm.wrl"
    (offset (xyz 0 0 0))
    (scale (xyz 1 1 1))
    (rotate (xyz 0 0 0))
  )
)
