(footprint "UFBGA-64_5x5mm_Layout8x8_P0.5mm" (version 20211014) (generator pcbnew)
  (layer "F.Cu")
  (tedit 5ADF9FCE)
  (descr "UFBGA-64, 8x8 raster, 5x5mm package, pitch 0.5mm; see section 7.1 of http://www.st.com/resource/en/datasheet/stm32f051t8.pdf")
  (tags "BGA 64 0.5")
  (attr smd)
  (fp_text reference "REF**" (at 0 -3.5) (layer "F.SilkS")
    (effects (font (size 1 1) (thickness 0.15)))
    (tstamp 1eb7ebd4-2fca-4c96-82b4-ff8b0f6f933c)
  )
  (fp_text value "UFBGA-64_5x5mm_Layout8x8_P0.5mm" (at 0 3.5) (layer "F.Fab")
    (effects (font (size 1 1) (thickness 0.15)))
    (tstamp 2722d31c-13b5-4b59-b4f4-ee73241e66ef)
  )
  (fp_text user "${REFERENCE}" (at 0 0) (layer "F.Fab")
    (effects (font (size 1 1) (thickness 0.15)))
    (tstamp 85203d2a-d551-4ef2-9a12-30c00c4d1233)
  )
  (fp_line (start 2.625 -2.625) (end 2.625 2.625) (layer "F.SilkS") (width 0.12) (tstamp 223ef00a-addd-4496-9737-11ec920ee9d4))
  (fp_line (start 2.625 2.625) (end -2.625 2.625) (layer "F.SilkS") (width 0.12) (tstamp b80501d9-e3b1-47aa-8788-63b04e082048))
  (fp_line (start -2.625 2.625) (end -2.625 -1.625) (layer "F.SilkS") (width 0.12) (tstamp cd139c97-1e64-432e-a39f-a1df45f441ff))
  (fp_line (start -1.625 -2.625) (end 2.625 -2.625) (layer "F.SilkS") (width 0.12) (tstamp fb0ea85a-c9d6-4c7f-ab0c-bfa0b2187b2e))
  (fp_line (start -3.5 -3.5) (end -3.5 3.5) (layer "F.CrtYd") (width 0.05) (tstamp 47ad405a-217d-431b-a3b4-4afa155def34))
  (fp_line (start 3.5 3.5) (end 3.5 -3.5) (layer "F.CrtYd") (width 0.05) (tstamp 63c5ea0f-f798-428d-8909-d87b778823f1))
  (fp_line (start -3.5 3.5) (end 3.5 3.5) (layer "F.CrtYd") (width 0.05) (tstamp b1cef5b4-7c1a-4dd8-84f2-5c13a51f94e5))
  (fp_line (start 3.5 -3.5) (end -3.5 -3.5) (layer "F.CrtYd") (width 0.05) (tstamp b96cb430-bed9-4d6f-831a-86755a217a1c))
  (fp_line (start -2.5 2.5) (end -2.5 -1.5) (layer "F.Fab") (width 0.1) (tstamp 7dbee165-b2b1-4cb4-8776-cf0bcd2f7374))
  (fp_line (start -2.5 -1.5) (end -1.5 -2.5) (layer "F.Fab") (width 0.1) (tstamp 824b2bed-2b05-4757-af18-ed680e22daf5))
  (fp_line (start 2.5 -2.5) (end 2.5 2.5) (layer "F.Fab") (width 0.1) (tstamp a60077bf-344b-48e0-ba94-0a14177a530d))
  (fp_line (start -1.5 -2.5) (end 2.5 -2.5) (layer "F.Fab") (width 0.1) (tstamp c3513896-7fbd-4f5b-8d11-bc013bf8d188))
  (fp_line (start 2.5 2.5) (end -2.5 2.5) (layer "F.Fab") (width 0.1) (tstamp d944e0e1-00f1-4b96-a985-e09cc7031ec4))
  (pad "A1" smd circle (at -1.75 -1.75) (size 0.28 0.28) (property pad_prop_bga) (layers "F.Cu" "F.Paste" "F.Mask") (tstamp 8b8e1e82-4268-4004-b44b-8b36bfb10c20))
  (pad "A2" smd circle (at -1.25 -1.75) (size 0.28 0.28) (property pad_prop_bga) (layers "F.Cu" "F.Paste" "F.Mask") (tstamp 53dd7d60-fbc0-4ea3-80eb-be29498a4a05))
  (pad "A3" smd circle (at -0.75 -1.75) (size 0.28 0.28) (property pad_prop_bga) (layers "F.Cu" "F.Paste" "F.Mask") (tstamp f07404d5-c81d-49f9-afc6-ce6c515669e8))
  (pad "A4" smd circle (at -0.25 -1.75) (size 0.28 0.28) (property pad_prop_bga) (layers "F.Cu" "F.Paste" "F.Mask") (tstamp 1ab6fb29-804a-4024-8c36-585ee909a003))
  (pad "A5" smd circle (at 0.25 -1.75) (size 0.28 0.28) (property pad_prop_bga) (layers "F.Cu" "F.Paste" "F.Mask") (tstamp e9821615-40ea-4c2f-846d-2da007074250))
  (pad "A6" smd circle (at 0.75 -1.75) (size 0.28 0.28) (property pad_prop_bga) (layers "F.Cu" "F.Paste" "F.Mask") (tstamp 2c16f0e7-66f4-4cc5-b7d7-339d96eb9624))
  (pad "A7" smd circle (at 1.25 -1.75) (size 0.28 0.28) (property pad_prop_bga) (layers "F.Cu" "F.Paste" "F.Mask") (tstamp ef96aa80-a015-4529-b21f-b44a04dcaff9))
  (pad "A8" smd circle (at 1.75 -1.75) (size 0.28 0.28) (property pad_prop_bga) (layers "F.Cu" "F.Paste" "F.Mask") (tstamp 24c129ee-7587-4f73-bcf9-48458f863546))
  (pad "B1" smd circle (at -1.75 -1.25) (size 0.28 0.28) (property pad_prop_bga) (layers "F.Cu" "F.Paste" "F.Mask") (tstamp 728b9790-41d9-4b97-b94f-f1a01a735301))
  (pad "B2" smd circle (at -1.25 -1.25) (size 0.28 0.28) (property pad_prop_bga) (layers "F.Cu" "F.Paste" "F.Mask") (tstamp a8c219e7-4a72-4377-bd0b-ace021c1b77c))
  (pad "B3" smd circle (at -0.75 -1.25) (size 0.28 0.28) (property pad_prop_bga) (layers "F.Cu" "F.Paste" "F.Mask") (tstamp 3c4a5482-1293-4876-b056-e9152c345809))
  (pad "B4" smd circle (at -0.25 -1.25) (size 0.28 0.28) (property pad_prop_bga) (layers "F.Cu" "F.Paste" "F.Mask") (tstamp d8201ecd-aba2-49cb-828a-1eb350466aa5))
  (pad "B5" smd circle (at 0.25 -1.25) (size 0.28 0.28) (property pad_prop_bga) (layers "F.Cu" "F.Paste" "F.Mask") (tstamp 9137ea7f-4591-4547-a218-2a685d448a5d))
  (pad "B6" smd circle (at 0.75 -1.25) (size 0.28 0.28) (property pad_prop_bga) (layers "F.Cu" "F.Paste" "F.Mask") (tstamp ad25d48d-49b8-4d3a-b93e-cd6d6b85e573))
  (pad "B7" smd circle (at 1.25 -1.25) (size 0.28 0.28) (property pad_prop_bga) (layers "F.Cu" "F.Paste" "F.Mask") (tstamp 32c63d54-6413-4a97-97ee-07b4598f5f6d))
  (pad "B8" smd circle (at 1.75 -1.25) (size 0.28 0.28) (property pad_prop_bga) (layers "F.Cu" "F.Paste" "F.Mask") (tstamp cde407b9-26ca-4dc5-a465-3d86af343749))
  (pad "C1" smd circle (at -1.75 -0.75) (size 0.28 0.28) (property pad_prop_bga) (layers "F.Cu" "F.Paste" "F.Mask") (tstamp e34cfc3c-7ff2-43de-9b5e-3aba1d93023d))
  (pad "C2" smd circle (at -1.25 -0.75) (size 0.28 0.28) (property pad_prop_bga) (layers "F.Cu" "F.Paste" "F.Mask") (tstamp 2b15f90b-d518-451c-8c23-e47e364c5476))
  (pad "C3" smd circle (at -0.75 -0.75) (size 0.28 0.28) (property pad_prop_bga) (layers "F.Cu" "F.Paste" "F.Mask") (tstamp a4abadc6-0c5e-4f2a-9a3d-10efcdca3ecc))
  (pad "C4" smd circle (at -0.25 -0.75) (size 0.28 0.28) (property pad_prop_bga) (layers "F.Cu" "F.Paste" "F.Mask") (tstamp db1aba26-8e12-462b-8939-b472820dbff8))
  (pad "C5" smd circle (at 0.25 -0.75) (size 0.28 0.28) (property pad_prop_bga) (layers "F.Cu" "F.Paste" "F.Mask") (tstamp 97fe81c0-2734-45a6-b734-2ab821744178))
  (pad "C6" smd circle (at 0.75 -0.75) (size 0.28 0.28) (property pad_prop_bga) (layers "F.Cu" "F.Paste" "F.Mask") (tstamp c6acd682-bc1a-4689-bf2c-39a21506b921))
  (pad "C7" smd circle (at 1.25 -0.75) (size 0.28 0.28) (property pad_prop_bga) (layers "F.Cu" "F.Paste" "F.Mask") (tstamp 298bff86-00ba-4e78-bdc7-2c07484a6b1e))
  (pad "C8" smd circle (at 1.75 -0.75) (size 0.28 0.28) (property pad_prop_bga) (layers "F.Cu" "F.Paste" "F.Mask") (tstamp 7e9865aa-30ff-4a01-b4e8-b06ff5170ede))
  (pad "D1" smd circle (at -1.75 -0.25) (size 0.28 0.28) (property pad_prop_bga) (layers "F.Cu" "F.Paste" "F.Mask") (tstamp 2581b887-da5b-43fb-89e5-a8ed55207e26))
  (pad "D2" smd circle (at -1.25 -0.25) (size 0.28 0.28) (property pad_prop_bga) (layers "F.Cu" "F.Paste" "F.Mask") (tstamp 3379d29c-c9ff-40e5-b7e8-fa76ee29ac0a))
  (pad "D3" smd circle (at -0.75 -0.25) (size 0.28 0.28) (property pad_prop_bga) (layers "F.Cu" "F.Paste" "F.Mask") (tstamp eb0a387e-1337-4395-847d-0b2d507b0505))
  (pad "D4" smd circle (at -0.25 -0.25) (size 0.28 0.28) (property pad_prop_bga) (layers "F.Cu" "F.Paste" "F.Mask") (tstamp 7c1c4cb0-1e2e-4e05-ab95-79c21ff69007))
  (pad "D5" smd circle (at 0.25 -0.25) (size 0.28 0.28) (property pad_prop_bga) (layers "F.Cu" "F.Paste" "F.Mask") (tstamp 93bde596-b1da-4bb9-b837-414c624a34b2))
  (pad "D6" smd circle (at 0.75 -0.25) (size 0.28 0.28) (property pad_prop_bga) (layers "F.Cu" "F.Paste" "F.Mask") (tstamp 642ecb7c-d45d-4e21-9deb-2024995c5013))
  (pad "D7" smd circle (at 1.25 -0.25) (size 0.28 0.28) (property pad_prop_bga) (layers "F.Cu" "F.Paste" "F.Mask") (tstamp 793b8b8a-6041-47f5-a439-a3b2b06810f8))
  (pad "D8" smd circle (at 1.75 -0.25) (size 0.28 0.28) (property pad_prop_bga) (layers "F.Cu" "F.Paste" "F.Mask") (tstamp 00bcde7b-94af-413c-9353-2eee3c439ad0))
  (pad "E1" smd circle (at -1.75 0.25) (size 0.28 0.28) (property pad_prop_bga) (layers "F.Cu" "F.Paste" "F.Mask") (tstamp 0c32a2c2-6c28-4ac2-90aa-9f82a5ccf748))
  (pad "E2" smd circle (at -1.25 0.25) (size 0.28 0.28) (property pad_prop_bga) (layers "F.Cu" "F.Paste" "F.Mask") (tstamp 065830fa-c744-4e94-9177-694e334d99fd))
  (pad "E3" smd circle (at -0.75 0.25) (size 0.28 0.28) (property pad_prop_bga) (layers "F.Cu" "F.Paste" "F.Mask") (tstamp bdca437e-2457-49ac-83c4-ea6469369d29))
  (pad "E4" smd circle (at -0.25 0.25) (size 0.28 0.28) (property pad_prop_bga) (layers "F.Cu" "F.Paste" "F.Mask") (tstamp d6b1842f-0b83-49dd-bf38-14a233184b66))
  (pad "E5" smd circle (at 0.25 0.25) (size 0.28 0.28) (property pad_prop_bga) (layers "F.Cu" "F.Paste" "F.Mask") (tstamp a5dee254-ae09-469d-ba65-3b27d1116455))
  (pad "E6" smd circle (at 0.75 0.25) (size 0.28 0.28) (property pad_prop_bga) (layers "F.Cu" "F.Paste" "F.Mask") (tstamp 34feb1a4-64d6-4323-b894-869f29a7107a))
  (pad "E7" smd circle (at 1.25 0.25) (size 0.28 0.28) (property pad_prop_bga) (layers "F.Cu" "F.Paste" "F.Mask") (tstamp 373135ce-8eef-4561-a073-c9424e0af912))
  (pad "E8" smd circle (at 1.75 0.25) (size 0.28 0.28) (property pad_prop_bga) (layers "F.Cu" "F.Paste" "F.Mask") (tstamp 78d00783-8471-44b5-a356-d4e11e17271e))
  (pad "F1" smd circle (at -1.75 0.75) (size 0.28 0.28) (property pad_prop_bga) (layers "F.Cu" "F.Paste" "F.Mask") (tstamp 1a590902-e03b-4e78-b081-53c84ea95e67))
  (pad "F2" smd circle (at -1.25 0.75) (size 0.28 0.28) (property pad_prop_bga) (layers "F.Cu" "F.Paste" "F.Mask") (tstamp 16f39789-4560-4125-9471-a146c563cc72))
  (pad "F3" smd circle (at -0.75 0.75) (size 0.28 0.28) (property pad_prop_bga) (layers "F.Cu" "F.Paste" "F.Mask") (tstamp be81ef20-44b4-4ebf-b398-9f6c863a7e86))
  (pad "F4" smd circle (at -0.25 0.75) (size 0.28 0.28) (property pad_prop_bga) (layers "F.Cu" "F.Paste" "F.Mask") (tstamp db2add58-b043-46e6-b942-867b467ee5e7))
  (pad "F5" smd circle (at 0.25 0.75) (size 0.28 0.28) (property pad_prop_bga) (layers "F.Cu" "F.Paste" "F.Mask") (tstamp f2c897d1-f17d-445d-b973-069dd9eefdeb))
  (pad "F6" smd circle (at 0.75 0.75) (size 0.28 0.28) (property pad_prop_bga) (layers "F.Cu" "F.Paste" "F.Mask") (tstamp 8efe2547-97d4-41b7-ad53-81c9f95d303a))
  (pad "F7" smd circle (at 1.25 0.75) (size 0.28 0.28) (property pad_prop_bga) (layers "F.Cu" "F.Paste" "F.Mask") (tstamp ee875f96-ed24-4b7e-ab95-a79860706d2c))
  (pad "F8" smd circle (at 1.75 0.75) (size 0.28 0.28) (property pad_prop_bga) (layers "F.Cu" "F.Paste" "F.Mask") (tstamp c8067b8c-8d3c-49b1-9a89-6626d0ecc332))
  (pad "G1" smd circle (at -1.75 1.25) (size 0.28 0.28) (property pad_prop_bga) (layers "F.Cu" "F.Paste" "F.Mask") (tstamp 69031e76-fc88-4fca-ac0d-5c0304fa57af))
  (pad "G2" smd circle (at -1.25 1.25) (size 0.28 0.28) (property pad_prop_bga) (layers "F.Cu" "F.Paste" "F.Mask") (tstamp 2eba7a5a-2192-4126-addf-1f8a0bdf9b59))
  (pad "G3" smd circle (at -0.75 1.25) (size 0.28 0.28) (property pad_prop_bga) (layers "F.Cu" "F.Paste" "F.Mask") (tstamp 5bb8d527-16fc-4ccf-93e4-eb7791007a8b))
  (pad "G4" smd circle (at -0.25 1.25) (size 0.28 0.28) (property pad_prop_bga) (layers "F.Cu" "F.Paste" "F.Mask") (tstamp 70981447-b1d5-49a3-9e0b-1f9748bdc2e2))
  (pad "G5" smd circle (at 0.25 1.25) (size 0.28 0.28) (property pad_prop_bga) (layers "F.Cu" "F.Paste" "F.Mask") (tstamp ce032e3a-4219-4e97-8072-3d73680aca08))
  (pad "G6" smd circle (at 0.75 1.25) (size 0.28 0.28) (property pad_prop_bga) (layers "F.Cu" "F.Paste" "F.Mask") (tstamp 6f0eb353-0284-4ed8-85c0-a868835e0dba))
  (pad "G7" smd circle (at 1.25 1.25) (size 0.28 0.28) (property pad_prop_bga) (layers "F.Cu" "F.Paste" "F.Mask") (tstamp 019568a0-c0b7-4d1a-a224-c6a966ec70fe))
  (pad "G8" smd circle (at 1.75 1.25) (size 0.28 0.28) (property pad_prop_bga) (layers "F.Cu" "F.Paste" "F.Mask") (tstamp 33a4a9e7-4aab-4528-bbd4-c8b2106ef1ca))
  (pad "H1" smd circle (at -1.75 1.75) (size 0.28 0.28) (property pad_prop_bga) (layers "F.Cu" "F.Paste" "F.Mask") (tstamp 0f475fdf-b528-4663-840e-f138d783410e))
  (pad "H2" smd circle (at -1.25 1.75) (size 0.28 0.28) (property pad_prop_bga) (layers "F.Cu" "F.Paste" "F.Mask") (tstamp 0ca6227e-e5fe-4b01-8ac5-b6399353b383))
  (pad "H3" smd circle (at -0.75 1.75) (size 0.28 0.28) (property pad_prop_bga) (layers "F.Cu" "F.Paste" "F.Mask") (tstamp 7910ed6f-7d6e-4375-940d-b31969796d3a))
  (pad "H4" smd circle (at -0.25 1.75) (size 0.28 0.28) (property pad_prop_bga) (layers "F.Cu" "F.Paste" "F.Mask") (tstamp 0d5be3d8-de1d-4a8f-9971-fbfc38280fa0))
  (pad "H5" smd circle (at 0.25 1.75) (size 0.28 0.28) (property pad_prop_bga) (layers "F.Cu" "F.Paste" "F.Mask") (tstamp 55cd9a55-4835-483b-b69c-bbf8718806d8))
  (pad "H6" smd circle (at 0.75 1.75) (size 0.28 0.28) (property pad_prop_bga) (layers "F.Cu" "F.Paste" "F.Mask") (tstamp 8b9c7029-fe3a-4213-8c6a-c765f3dfc4de))
  (pad "H7" smd circle (at 1.25 1.75) (size 0.28 0.28) (property pad_prop_bga) (layers "F.Cu" "F.Paste" "F.Mask") (tstamp 8eb3a262-2b91-4653-8a5c-55c056b652a5))
  (pad "H8" smd circle (at 1.75 1.75) (size 0.28 0.28) (property pad_prop_bga) (layers "F.Cu" "F.Paste" "F.Mask") (tstamp 8edf73a9-cf13-4353-bc80-bce071020616))
  (model "${KICAD6_3DMODEL_DIR}/Package_BGA.3dshapes/UFBGA-64_5x5mm_Layout8x8_P0.5mm.wrl"
    (offset (xyz 0 0 0))
    (scale (xyz 1 1 1))
    (rotate (xyz 0 0 0))
  )
)
