(footprint "VFBGA-86_6x6mm_Layout10x10_P0.55mm_Ball0.25mm_Pad0.2mm" (version 20211014) (generator pcbnew)
  (layer "F.Cu")
  (tedit 5F4BD366)
  (descr "VFBGA-86, 6.0x6.0mm, 86 Ball, 10x10 Layout, 0.55mm Pitch, https://www.dialog-semiconductor.com/sites/default/files/da1469x_datasheet_3v1.pdf#page=740")
  (tags "BGA 86 0.55")
  (attr smd)
  (fp_text reference "REF**" (at 0 -4) (layer "F.SilkS")
    (effects (font (size 1 1) (thickness 0.15)))
    (tstamp b12928d4-ee1a-4356-89b9-6052c232aef0)
  )
  (fp_text value "VFBGA-86_6x6mm_Layout10x10_P0.55mm_Ball0.25mm_Pad0.2mm" (at 0 4) (layer "F.Fab")
    (effects (font (size 1 1) (thickness 0.15)))
    (tstamp 001cedd3-7d94-4bbf-8d8d-a04db6f720ed)
  )
  (fp_text user "${REFERENCE}" (at 0 0) (layer "F.Fab")
    (effects (font (size 1 1) (thickness 0.15)))
    (tstamp 56e7dab8-af79-456b-8594-601c0d35e427)
  )
  (fp_line (start -2.11 -3.11) (end 3.11 -3.11) (layer "F.SilkS") (width 0.12) (tstamp 053f1a6b-2840-4b9a-b440-7c6532b935c0))
  (fp_line (start 3.11 3.11) (end -3.11 3.11) (layer "F.SilkS") (width 0.12) (tstamp 2646c722-4773-47a2-a6a9-e4bd64fbeb9d))
  (fp_line (start -3.11 3.11) (end -3.11 -2.11) (layer "F.SilkS") (width 0.12) (tstamp bc4aaf20-28d3-4dec-93c5-68ac133085a9))
  (fp_line (start 3.11 -3.11) (end 3.11 3.11) (layer "F.SilkS") (width 0.12) (tstamp d842b390-4c25-4025-9dcb-a6e9820e082f))
  (fp_line (start 4 4) (end 4 -4) (layer "F.CrtYd") (width 0.05) (tstamp 2252bd9e-8972-4645-912d-3c81181957c0))
  (fp_line (start 4 -4) (end -4 -4) (layer "F.CrtYd") (width 0.05) (tstamp 43945a12-ef91-45cb-ba41-69d4b1701141))
  (fp_line (start -4 -4) (end -4 4) (layer "F.CrtYd") (width 0.05) (tstamp 477b0833-5df2-4e38-88b0-23b5c3bdafd4))
  (fp_line (start -4 4) (end 4 4) (layer "F.CrtYd") (width 0.05) (tstamp f9749996-4acd-429b-bba0-8b62fb899f90))
  (fp_line (start 3 -3) (end 3 3) (layer "F.Fab") (width 0.1) (tstamp 0fa7f6f4-ba66-4305-9aa8-53f5d4313001))
  (fp_line (start -3 3) (end -3 -2) (layer "F.Fab") (width 0.1) (tstamp 96e104c5-4f4f-4c49-a5d7-3ebf9323bcbc))
  (fp_line (start 3 3) (end -3 3) (layer "F.Fab") (width 0.1) (tstamp a0882c21-04e6-45ac-9589-c934c6b553d0))
  (fp_line (start -3 -2) (end -2 -3) (layer "F.Fab") (width 0.1) (tstamp f699509a-414b-422d-a323-206ffc2a8c2b))
  (fp_line (start -2 -3) (end 3 -3) (layer "F.Fab") (width 0.1) (tstamp f90fb52c-1132-4773-9606-d720689f66a6))
  (pad "A1" smd circle (at -2.475 -2.475) (size 0.2 0.2) (property pad_prop_bga) (layers "F.Cu" "F.Paste" "F.Mask") (tstamp aace79ce-b207-4125-bea4-7bd0bbf4947a))
  (pad "A2" smd circle (at -1.925 -2.475) (size 0.2 0.2) (property pad_prop_bga) (layers "F.Cu" "F.Paste" "F.Mask") (tstamp d8c7d110-419d-49f7-a656-e2d504ea10f9))
  (pad "A3" smd circle (at -1.375 -2.475) (size 0.2 0.2) (property pad_prop_bga) (layers "F.Cu" "F.Paste" "F.Mask") (tstamp 483ecf3d-08d2-4561-9e97-3a7b4941e486))
  (pad "A4" smd circle (at -0.825 -2.475) (size 0.2 0.2) (property pad_prop_bga) (layers "F.Cu" "F.Paste" "F.Mask") (tstamp 6bae39da-84ab-4879-9cdc-044921311fce))
  (pad "A5" smd circle (at -0.275 -2.475) (size 0.2 0.2) (property pad_prop_bga) (layers "F.Cu" "F.Paste" "F.Mask") (tstamp 7ab52df4-8d38-4f66-8206-2951b5c6e1ef))
  (pad "A6" smd circle (at 0.275 -2.475) (size 0.2 0.2) (property pad_prop_bga) (layers "F.Cu" "F.Paste" "F.Mask") (tstamp d6cf5e22-63b8-4c26-9fc3-48d773677678))
  (pad "A7" smd circle (at 0.825 -2.475) (size 0.2 0.2) (property pad_prop_bga) (layers "F.Cu" "F.Paste" "F.Mask") (tstamp 5e0000cd-78c8-4e29-b7d9-e985c736bdc4))
  (pad "A8" smd circle (at 1.375 -2.475) (size 0.2 0.2) (property pad_prop_bga) (layers "F.Cu" "F.Paste" "F.Mask") (tstamp 77c84470-db5e-4cea-919d-bfc196728f6b))
  (pad "A9" smd circle (at 1.925 -2.475) (size 0.2 0.2) (property pad_prop_bga) (layers "F.Cu" "F.Paste" "F.Mask") (tstamp 324719d7-9cd1-4519-bfe2-4509ed2b21aa))
  (pad "A10" smd circle (at 2.475 -2.475) (size 0.2 0.2) (property pad_prop_bga) (layers "F.Cu" "F.Paste" "F.Mask") (tstamp d543a2cc-a4d3-4de7-b3cc-76a4cf3876ce))
  (pad "B1" smd circle (at -2.475 -1.925) (size 0.2 0.2) (property pad_prop_bga) (layers "F.Cu" "F.Paste" "F.Mask") (tstamp e5c63b2d-360f-416d-ab2d-8b75791e45ec))
  (pad "B2" smd circle (at -1.925 -1.925) (size 0.2 0.2) (property pad_prop_bga) (layers "F.Cu" "F.Paste" "F.Mask") (tstamp 4f8fa9a3-9d79-4073-bb97-e0e2b1256bd7))
  (pad "B3" smd circle (at -1.375 -1.925) (size 0.2 0.2) (property pad_prop_bga) (layers "F.Cu" "F.Paste" "F.Mask") (tstamp c97acc62-c940-4625-b544-a4adc424d7a2))
  (pad "B4" smd circle (at -0.825 -1.925) (size 0.2 0.2) (property pad_prop_bga) (layers "F.Cu" "F.Paste" "F.Mask") (tstamp fc38047d-5ef0-4f43-844a-a68215bc77e7))
  (pad "B5" smd circle (at -0.275 -1.925) (size 0.2 0.2) (property pad_prop_bga) (layers "F.Cu" "F.Paste" "F.Mask") (tstamp cdd6c6f4-6146-4064-b38b-5a3371d1458f))
  (pad "B7" smd circle (at 0.825 -1.925) (size 0.2 0.2) (property pad_prop_bga) (layers "F.Cu" "F.Paste" "F.Mask") (tstamp b0f24ce9-ef03-486a-ba48-1318388fa8d5))
  (pad "B8" smd circle (at 1.375 -1.925) (size 0.2 0.2) (property pad_prop_bga) (layers "F.Cu" "F.Paste" "F.Mask") (tstamp 0da1ee2c-1740-4aab-8a56-bc310a3fc124))
  (pad "B9" smd circle (at 1.925 -1.925) (size 0.2 0.2) (property pad_prop_bga) (layers "F.Cu" "F.Paste" "F.Mask") (tstamp 400e8a23-64ed-4339-9400-558daf1c8918))
  (pad "B10" smd circle (at 2.475 -1.925) (size 0.2 0.2) (property pad_prop_bga) (layers "F.Cu" "F.Paste" "F.Mask") (tstamp a85389ff-7b78-48f0-8914-0ac31b6dc85f))
  (pad "C1" smd circle (at -2.475 -1.375) (size 0.2 0.2) (property pad_prop_bga) (layers "F.Cu" "F.Paste" "F.Mask") (tstamp 0204bf94-a400-4ca9-bb66-a7c4009baa51))
  (pad "C2" smd circle (at -1.925 -1.375) (size 0.2 0.2) (property pad_prop_bga) (layers "F.Cu" "F.Paste" "F.Mask") (tstamp d9b65155-eabb-404c-9a93-977e68ae4cfe))
  (pad "C3" smd circle (at -1.375 -1.375) (size 0.2 0.2) (property pad_prop_bga) (layers "F.Cu" "F.Paste" "F.Mask") (tstamp 16c33e8f-0cd8-4c7b-a7b4-3060e40797bd))
  (pad "C4" smd circle (at -0.825 -1.375) (size 0.2 0.2) (property pad_prop_bga) (layers "F.Cu" "F.Paste" "F.Mask") (tstamp 8afa07da-54c5-49ba-9710-15da180f247a))
  (pad "C6" smd circle (at 0.275 -1.375) (size 0.2 0.2) (property pad_prop_bga) (layers "F.Cu" "F.Paste" "F.Mask") (tstamp 2388b083-22be-4b59-9a70-15a886915efb))
  (pad "C8" smd circle (at 1.375 -1.375) (size 0.2 0.2) (property pad_prop_bga) (layers "F.Cu" "F.Paste" "F.Mask") (tstamp 09b1fada-af8d-4369-a332-b9b3b087d4ec))
  (pad "C9" smd circle (at 1.925 -1.375) (size 0.2 0.2) (property pad_prop_bga) (layers "F.Cu" "F.Paste" "F.Mask") (tstamp cb39c6a7-b977-405e-a8d7-35f0331239ff))
  (pad "C10" smd circle (at 2.475 -1.375) (size 0.2 0.2) (property pad_prop_bga) (layers "F.Cu" "F.Paste" "F.Mask") (tstamp 620e25c3-5d45-464f-81b0-be78eebcbb4b))
  (pad "D1" smd circle (at -2.475 -0.825) (size 0.2 0.2) (property pad_prop_bga) (layers "F.Cu" "F.Paste" "F.Mask") (tstamp 1e76510a-70e0-4b92-a392-f40b84dbe27b))
  (pad "D2" smd circle (at -1.925 -0.825) (size 0.2 0.2) (property pad_prop_bga) (layers "F.Cu" "F.Paste" "F.Mask") (tstamp fb29fb9e-4b3e-46ad-bc06-fc473ed8e82d))
  (pad "D3" smd circle (at -1.375 -0.825) (size 0.2 0.2) (property pad_prop_bga) (layers "F.Cu" "F.Paste" "F.Mask") (tstamp 1d74d9fa-d586-4145-9c8d-a94fc5ef3e3c))
  (pad "D5" smd circle (at -0.275 -0.825) (size 0.2 0.2) (property pad_prop_bga) (layers "F.Cu" "F.Paste" "F.Mask") (tstamp c289fbe6-a683-4aaa-aacf-309451ad551a))
  (pad "D6" smd circle (at 0.275 -0.825) (size 0.2 0.2) (property pad_prop_bga) (layers "F.Cu" "F.Paste" "F.Mask") (tstamp 68e10eaf-fc77-48c7-95c3-24821a5e5b92))
  (pad "D9" smd circle (at 1.925 -0.825) (size 0.2 0.2) (property pad_prop_bga) (layers "F.Cu" "F.Paste" "F.Mask") (tstamp 1ae3ae25-39e8-49b1-bc67-0d3d215c36dc))
  (pad "D10" smd circle (at 2.475 -0.825) (size 0.2 0.2) (property pad_prop_bga) (layers "F.Cu" "F.Paste" "F.Mask") (tstamp e94a4aa7-a1b2-4f2e-a9d5-4bc4426e4d40))
  (pad "E1" smd circle (at -2.475 -0.275) (size 0.2 0.2) (property pad_prop_bga) (layers "F.Cu" "F.Paste" "F.Mask") (tstamp d43b9476-de1d-4017-87d0-1529decc1517))
  (pad "E2" smd circle (at -1.925 -0.275) (size 0.2 0.2) (property pad_prop_bga) (layers "F.Cu" "F.Paste" "F.Mask") (tstamp c1a22dcb-5712-4f8e-b96c-43d965a0ca99))
  (pad "E4" smd circle (at -0.825 -0.275) (size 0.2 0.2) (property pad_prop_bga) (layers "F.Cu" "F.Paste" "F.Mask") (tstamp f9384eea-2b51-4bdd-9076-2a42c6750837))
  (pad "E6" smd circle (at 0.275 -0.275) (size 0.2 0.2) (property pad_prop_bga) (layers "F.Cu" "F.Paste" "F.Mask") (tstamp b5e7e67b-1d72-4bac-bbd3-1d4548c295b4))
  (pad "E8" smd circle (at 1.375 -0.275) (size 0.2 0.2) (property pad_prop_bga) (layers "F.Cu" "F.Paste" "F.Mask") (tstamp f436a4a1-89f5-4cdd-9499-525b8999797b))
  (pad "E9" smd circle (at 1.925 -0.275) (size 0.2 0.2) (property pad_prop_bga) (layers "F.Cu" "F.Paste" "F.Mask") (tstamp ea885fb4-af8d-4cf2-8bc4-ae94fb23b3d7))
  (pad "E10" smd circle (at 2.475 -0.275) (size 0.2 0.2) (property pad_prop_bga) (layers "F.Cu" "F.Paste" "F.Mask") (tstamp 262caf4f-4f97-4e01-889b-e82f2f7533be))
  (pad "F1" smd circle (at -2.475 0.275) (size 0.2 0.2) (property pad_prop_bga) (layers "F.Cu" "F.Paste" "F.Mask") (tstamp a572eb12-3d4d-4050-b641-7f8c8ceb91d9))
  (pad "F2" smd circle (at -1.925 0.275) (size 0.2 0.2) (property pad_prop_bga) (layers "F.Cu" "F.Paste" "F.Mask") (tstamp 44a043f9-4a0f-4e66-b836-d3b8b116fa6a))
  (pad "F3" smd circle (at -1.375 0.275) (size 0.2 0.2) (property pad_prop_bga) (layers "F.Cu" "F.Paste" "F.Mask") (tstamp 9c2fd799-cfff-49da-920b-be76467f88dd))
  (pad "F4" smd circle (at -0.825 0.275) (size 0.2 0.2) (property pad_prop_bga) (layers "F.Cu" "F.Paste" "F.Mask") (tstamp b48530b0-7023-40d8-b39f-8cd3fc67892c))
  (pad "F5" smd circle (at -0.275 0.275) (size 0.2 0.2) (property pad_prop_bga) (layers "F.Cu" "F.Paste" "F.Mask") (tstamp 920e06a5-9050-4ee4-b21e-1a7396f57a0b))
  (pad "F7" smd circle (at 0.825 0.275) (size 0.2 0.2) (property pad_prop_bga) (layers "F.Cu" "F.Paste" "F.Mask") (tstamp 0feab1a1-2a9a-4e17-ac93-1396bfc70a81))
  (pad "F9" smd circle (at 1.925 0.275) (size 0.2 0.2) (property pad_prop_bga) (layers "F.Cu" "F.Paste" "F.Mask") (tstamp 6785a8a9-0adf-4744-9f3e-843b760b8674))
  (pad "F10" smd circle (at 2.475 0.275) (size 0.2 0.2) (property pad_prop_bga) (layers "F.Cu" "F.Paste" "F.Mask") (tstamp ffc8412f-12a8-41f1-b738-6a58b68baa45))
  (pad "G1" smd circle (at -2.475 0.825) (size 0.2 0.2) (property pad_prop_bga) (layers "F.Cu" "F.Paste" "F.Mask") (tstamp 853f4e08-9074-4969-950b-0b1ab125cb92))
  (pad "G2" smd circle (at -1.925 0.825) (size 0.2 0.2) (property pad_prop_bga) (layers "F.Cu" "F.Paste" "F.Mask") (tstamp 6a915485-ee5c-4992-96fb-230a8ce41cb1))
  (pad "G3" smd circle (at -1.375 0.825) (size 0.2 0.2) (property pad_prop_bga) (layers "F.Cu" "F.Paste" "F.Mask") (tstamp 6c8161fb-f0f0-40a5-8809-7156bb74900c))
  (pad "G4" smd circle (at -0.825 0.825) (size 0.2 0.2) (property pad_prop_bga) (layers "F.Cu" "F.Paste" "F.Mask") (tstamp 19879e19-6090-471a-8dad-8d627cb24cc0))
  (pad "G5" smd circle (at -0.275 0.825) (size 0.2 0.2) (property pad_prop_bga) (layers "F.Cu" "F.Paste" "F.Mask") (tstamp 8ea220a6-89ea-4571-8f3f-38e79a6b7113))
  (pad "G6" smd circle (at 0.275 0.825) (size 0.2 0.2) (property pad_prop_bga) (layers "F.Cu" "F.Paste" "F.Mask") (tstamp 5e3e6889-1970-47d6-928e-4c77adf58cc2))
  (pad "G8" smd circle (at 1.375 0.825) (size 0.2 0.2) (property pad_prop_bga) (layers "F.Cu" "F.Paste" "F.Mask") (tstamp 36d827c0-12ac-445b-b69b-c9c88531eef5))
  (pad "G9" smd circle (at 1.925 0.825) (size 0.2 0.2) (property pad_prop_bga) (layers "F.Cu" "F.Paste" "F.Mask") (tstamp 4067af97-7d1c-4c22-8c8e-1f8e1b0b8c98))
  (pad "G10" smd circle (at 2.475 0.825) (size 0.2 0.2) (property pad_prop_bga) (layers "F.Cu" "F.Paste" "F.Mask") (tstamp f907be0b-8078-43f2-ba63-e7eb0448cb0e))
  (pad "H1" smd circle (at -2.475 1.375) (size 0.2 0.2) (property pad_prop_bga) (layers "F.Cu" "F.Paste" "F.Mask") (tstamp bd09aee8-70e6-47ba-b8b2-1f693f948ef2))
  (pad "H2" smd circle (at -1.925 1.375) (size 0.2 0.2) (property pad_prop_bga) (layers "F.Cu" "F.Paste" "F.Mask") (tstamp 2d45b1ef-b7ea-4534-8653-be345cd28221))
  (pad "H3" smd circle (at -1.375 1.375) (size 0.2 0.2) (property pad_prop_bga) (layers "F.Cu" "F.Paste" "F.Mask") (tstamp 7779410e-94ac-4a98-b456-97776d0907c3))
  (pad "H5" smd circle (at -0.275 1.375) (size 0.2 0.2) (property pad_prop_bga) (layers "F.Cu" "F.Paste" "F.Mask") (tstamp 5576f50b-c628-4c0b-9dd9-9a3d38794ccd))
  (pad "H7" smd circle (at 0.825 1.375) (size 0.2 0.2) (property pad_prop_bga) (layers "F.Cu" "F.Paste" "F.Mask") (tstamp d44c990f-a863-4176-ad3c-1d034835ca85))
  (pad "H8" smd circle (at 1.375 1.375) (size 0.2 0.2) (property pad_prop_bga) (layers "F.Cu" "F.Paste" "F.Mask") (tstamp 6c61a216-c4e0-4247-a4db-7c8a2684363a))
  (pad "H9" smd circle (at 1.925 1.375) (size 0.2 0.2) (property pad_prop_bga) (layers "F.Cu" "F.Paste" "F.Mask") (tstamp 91d755ae-3fd7-43cf-8344-47b0c7c3a8ab))
  (pad "H10" smd circle (at 2.475 1.375) (size 0.2 0.2) (property pad_prop_bga) (layers "F.Cu" "F.Paste" "F.Mask") (tstamp d67de32b-6d1f-4781-a6b2-773b01750909))
  (pad "J1" smd circle (at -2.475 1.925) (size 0.2 0.2) (property pad_prop_bga) (layers "F.Cu" "F.Paste" "F.Mask") (tstamp f855fd67-601f-4b9d-9ea9-d244717b9e6d))
  (pad "J2" smd circle (at -1.925 1.925) (size 0.2 0.2) (property pad_prop_bga) (layers "F.Cu" "F.Paste" "F.Mask") (tstamp a648df43-c729-4914-a0d8-576a215568b0))
  (pad "J3" smd circle (at -1.375 1.925) (size 0.2 0.2) (property pad_prop_bga) (layers "F.Cu" "F.Paste" "F.Mask") (tstamp e0a29947-3d1b-4874-9dfa-f721e6c1d979))
  (pad "J4" smd circle (at -0.825 1.925) (size 0.2 0.2) (property pad_prop_bga) (layers "F.Cu" "F.Paste" "F.Mask") (tstamp 5866aad8-526d-411e-826b-06e46baf8d97))
  (pad "J5" smd circle (at -0.275 1.925) (size 0.2 0.2) (property pad_prop_bga) (layers "F.Cu" "F.Paste" "F.Mask") (tstamp cc123f1e-4665-4505-9889-c2e89c62d6bd))
  (pad "J6" smd circle (at 0.275 1.925) (size 0.2 0.2) (property pad_prop_bga) (layers "F.Cu" "F.Paste" "F.Mask") (tstamp ba23ba28-a478-4ff7-845f-4d720fb35405))
  (pad "J7" smd circle (at 0.825 1.925) (size 0.2 0.2) (property pad_prop_bga) (layers "F.Cu" "F.Paste" "F.Mask") (tstamp ca96c876-7749-47bc-8571-99dd9a7ffd89))
  (pad "J8" smd circle (at 1.375 1.925) (size 0.2 0.2) (property pad_prop_bga) (layers "F.Cu" "F.Paste" "F.Mask") (tstamp d4b733dd-e00d-47bc-9753-9331ab33118f))
  (pad "J9" smd circle (at 1.925 1.925) (size 0.2 0.2) (property pad_prop_bga) (layers "F.Cu" "F.Paste" "F.Mask") (tstamp 0fba4088-34f0-4b2d-9235-8e25f9c3817a))
  (pad "J10" smd circle (at 2.475 1.925) (size 0.2 0.2) (property pad_prop_bga) (layers "F.Cu" "F.Paste" "F.Mask") (tstamp b417b23f-5986-426e-9856-398d62c62659))
  (pad "K1" smd circle (at -2.475 2.475) (size 0.2 0.2) (property pad_prop_bga) (layers "F.Cu" "F.Paste" "F.Mask") (tstamp 2cf70e7d-0e84-4ca6-82e7-d4f5bafe7e0b))
  (pad "K2" smd circle (at -1.925 2.475) (size 0.2 0.2) (property pad_prop_bga) (layers "F.Cu" "F.Paste" "F.Mask") (tstamp 64cf937c-d775-4092-a2d5-bcc9d7c65b36))
  (pad "K3" smd circle (at -1.375 2.475) (size 0.2 0.2) (property pad_prop_bga) (layers "F.Cu" "F.Paste" "F.Mask") (tstamp 8bbf6ef8-bcba-41c3-919b-f56122e24121))
  (pad "K4" smd circle (at -0.825 2.475) (size 0.2 0.2) (property pad_prop_bga) (layers "F.Cu" "F.Paste" "F.Mask") (tstamp 9c52d034-020c-487c-aa70-a3799a94a9e0))
  (pad "K5" smd circle (at -0.275 2.475) (size 0.2 0.2) (property pad_prop_bga) (layers "F.Cu" "F.Paste" "F.Mask") (tstamp 107f22b1-7485-4986-b603-940c32f82c18))
  (pad "K6" smd circle (at 0.275 2.475) (size 0.2 0.2) (property pad_prop_bga) (layers "F.Cu" "F.Paste" "F.Mask") (tstamp edfa1d47-d4f0-4ef7-82e9-52c0a9ff10ef))
  (pad "K7" smd circle (at 0.825 2.475) (size 0.2 0.2) (property pad_prop_bga) (layers "F.Cu" "F.Paste" "F.Mask") (tstamp 65e11fe3-31f1-445a-8e61-6cc4e6c0fef9))
  (pad "K8" smd circle (at 1.375 2.475) (size 0.2 0.2) (property pad_prop_bga) (layers "F.Cu" "F.Paste" "F.Mask") (tstamp 5e11e5dc-38ee-4822-8513-61b6c63dc79f))
  (pad "K9" smd circle (at 1.925 2.475) (size 0.2 0.2) (property pad_prop_bga) (layers "F.Cu" "F.Paste" "F.Mask") (tstamp 1ee61fa1-7a9f-42c6-903d-1ad8fce27a46))
  (pad "K10" smd circle (at 2.475 2.475) (size 0.2 0.2) (property pad_prop_bga) (layers "F.Cu" "F.Paste" "F.Mask") (tstamp 925d7296-4f1c-4a40-b7ba-512cfe7f7267))
  (model "${KICAD6_3DMODEL_DIR}/Package_BGA.3dshapes/VFBGA-86_6x6mm_Layout10x10_P0.55mm_Ball0.25mm_Pad0.2mm.wrl"
    (offset (xyz 0 0 0))
    (scale (xyz 1 1 1))
    (rotate (xyz 0 0 0))
  )
)
