(footprint "WLP-4_0.73x0.73mm_Layout2x2_P0.35mm_Ball0.22mm_Pad0.2mm_NSMD" (version 20211014) (generator pcbnew)
  (layer "F.Cu")
  (tedit 5C04A2A1)
  (descr "WLP-4, 2x2 raster, 0.73x0.73mm package, pitch 0.35mm; https://datasheets.maximintegrated.com/en/ds/MAX40200.pdf")
  (tags "BGA 4 0.35")
  (solder_mask_margin 0.02)
  (solder_paste_margin 0.000001)
  (attr smd)
  (fp_text reference "REF**" (at 0 -1.364) (layer "F.SilkS")
    (effects (font (size 1 1) (thickness 0.15)))
    (tstamp dfae0aca-ad1c-44d4-a9ba-fc3379d16240)
  )
  (fp_text value "WLP-4_0.73x0.73mm_Layout2x2_P0.35mm_Ball0.22mm_Pad0.2mm_NSMD" (at 0 1.364) (layer "F.Fab")
    (effects (font (size 1 1) (thickness 0.15)))
    (tstamp eaf15103-bfc4-4daf-bfec-e099908fe046)
  )
  (fp_text user "${REFERENCE}" (at 0 0) (layer "F.Fab")
    (effects (font (size 0.17 0.17) (thickness 0.0255)))
    (tstamp 18a498ac-da1b-4009-ba2b-5fe2348460af)
  )
  (fp_line (start 0.474 0.474) (end -0.474 0.474) (layer "F.SilkS") (width 0.12) (tstamp 6718e978-2b27-414e-81cb-6aa5f25860ef))
  (fp_line (start 0.474 -0.474) (end 0.474 0.474) (layer "F.SilkS") (width 0.12) (tstamp 884fbf8c-ce41-42f7-9568-4dfa92a5e080))
  (fp_line (start -0.292 -0.474) (end 0.474 -0.474) (layer "F.SilkS") (width 0.12) (tstamp a3a09e1e-c1e2-47ae-bfa0-59dfc7d6de55))
  (fp_line (start -0.474 0.474) (end -0.474 -0.292) (layer "F.SilkS") (width 0.12) (tstamp a4545c60-1812-458d-8d31-c42c0a5b1bdf))
  (fp_line (start -1.37 1.37) (end 1.37 1.37) (layer "F.CrtYd") (width 0.05) (tstamp 639c052d-b90f-4786-abb8-8a3dd5d4398d))
  (fp_line (start 1.37 -1.37) (end -1.37 -1.37) (layer "F.CrtYd") (width 0.05) (tstamp 7a4ae38b-a9ff-4189-a4a8-d0c4ae9cd762))
  (fp_line (start 1.37 1.37) (end 1.37 -1.37) (layer "F.CrtYd") (width 0.05) (tstamp bffad8c2-0e70-41bd-9561-b6517727c4bc))
  (fp_line (start -1.37 -1.37) (end -1.37 1.37) (layer "F.CrtYd") (width 0.05) (tstamp e2dcf9b9-f43d-4a56-9572-a93d3f86492a))
  (fp_line (start 0.364 -0.364) (end 0.364 0.364) (layer "F.Fab") (width 0.1) (tstamp 18226c16-7c0d-489a-bb73-cfb3ce7e95c6))
  (fp_line (start 0.364 0.364) (end -0.364 0.364) (layer "F.Fab") (width 0.1) (tstamp 772bce79-e68b-4cf0-9f4c-7bc39d287160))
  (fp_line (start -0.182 -0.364) (end 0.364 -0.364) (layer "F.Fab") (width 0.1) (tstamp 7e1f5d60-2268-4329-ac96-cbda6b73a693))
  (fp_line (start -0.364 0.364) (end -0.364 -0.182) (layer "F.Fab") (width 0.1) (tstamp b2e48042-8449-4d9d-89fb-c094e649cddb))
  (fp_line (start -0.364 -0.182) (end -0.182 -0.364) (layer "F.Fab") (width 0.1) (tstamp c36e7050-123e-48e2-bdac-761425160470))
  (pad "A1" smd circle (at -0.175 -0.175) (size 0.2 0.2) (property pad_prop_bga) (layers "F.Cu" "F.Paste" "F.Mask") (tstamp 5519f858-8e2c-436f-a162-c655f350d1c3))
  (pad "A2" smd circle (at 0.175 -0.175) (size 0.2 0.2) (property pad_prop_bga) (layers "F.Cu" "F.Paste" "F.Mask") (tstamp ea775086-5197-4b18-add3-1a8158efe96d))
  (pad "B1" smd circle (at -0.175 0.175) (size 0.2 0.2) (property pad_prop_bga) (layers "F.Cu" "F.Paste" "F.Mask") (tstamp 75d0b33b-d5a0-4aaa-89b9-f88bddb16ee5))
  (pad "B2" smd circle (at 0.175 0.175) (size 0.2 0.2) (property pad_prop_bga) (layers "F.Cu" "F.Paste" "F.Mask") (tstamp 91f5d827-2ce7-465a-b801-eb6922564225))
  (model "${KICAD6_3DMODEL_DIR}/Package_BGA.3dshapes/WLP-4_0.73x0.73mm_Layout2x2_P0.35mm_Ball0.22mm_Pad0.2mm_NSMD.wrl"
    (offset (xyz 0 0 0))
    (scale (xyz 1 1 1))
    (rotate (xyz 0 0 0))
  )
)
