(footprint "XBGA-121_10x10mm_Layout11x11_P0.8mm" (version 20211014) (generator pcbnew)
  (layer "F.Cu")
  (tedit 5C154903)
  (descr "XBGA-121, 11x11 raster, 10x10mm package, pitch 0.6mm; http://ww1.microchip.com/downloads/en/DeviceDoc/39969b.pdf")
  (tags "BGA 121 0.8")
  (solder_mask_margin 0.04)
  (solder_paste_margin 0.0001)
  (attr smd)
  (fp_text reference "REF**" (at 0 -6) (layer "F.SilkS")
    (effects (font (size 1 1) (thickness 0.15)))
    (tstamp 9f7425d7-4888-4d4d-b333-ced980dc6fb0)
  )
  (fp_text value "XBGA-121_10x10mm_Layout11x11_P0.8mm" (at 0 6) (layer "F.Fab")
    (effects (font (size 1 1) (thickness 0.15)))
    (tstamp e6f509c3-cbdb-4f83-9bf1-b5cd4f6444f8)
  )
  (fp_text user "${REFERENCE}" (at 0 0) (layer "F.Fab")
    (effects (font (size 1 1) (thickness 0.15)))
    (tstamp 274d638f-ee25-4a20-9e1a-27bc299370c8)
  )
  (fp_line (start -5.11 5.11) (end -5.11 -4.11) (layer "F.SilkS") (width 0.12) (tstamp 016b2486-20f6-4f05-906c-39ad8936ac3d))
  (fp_line (start 5.11 -5.11) (end 5.11 5.11) (layer "F.SilkS") (width 0.12) (tstamp 2a0fdae4-fd4f-4d9f-8129-f8ba4c309b67))
  (fp_line (start -4.11 -5.11) (end 5.11 -5.11) (layer "F.SilkS") (width 0.12) (tstamp 663d1ea9-4d9c-4f2e-828d-674d94b21177))
  (fp_line (start 5.11 5.11) (end -5.11 5.11) (layer "F.SilkS") (width 0.12) (tstamp f307239f-76ce-4fd5-9ee2-056ac2cdcd68))
  (fp_line (start 6 6) (end 6 -6) (layer "F.CrtYd") (width 0.05) (tstamp 6321c62b-326c-4142-abdc-3b796a56eb91))
  (fp_line (start 6 -6) (end -6 -6) (layer "F.CrtYd") (width 0.05) (tstamp 8e6fd652-7bb8-4f6d-b786-13677395e953))
  (fp_line (start -6 6) (end 6 6) (layer "F.CrtYd") (width 0.05) (tstamp ce50a7af-79c5-4c46-b09b-c723745e64fc))
  (fp_line (start -6 -6) (end -6 6) (layer "F.CrtYd") (width 0.05) (tstamp fc102399-57d8-454b-a410-250c46345f11))
  (fp_line (start -5 -4) (end -4 -5) (layer "F.Fab") (width 0.1) (tstamp 0e864ad4-31a4-4f33-9d63-d03123e6cc65))
  (fp_line (start 5 -5) (end 5 5) (layer "F.Fab") (width 0.1) (tstamp 4677074b-c1fa-4fc6-97df-d0b34d5df64c))
  (fp_line (start -5 5) (end -5 -4) (layer "F.Fab") (width 0.1) (tstamp 7cd38322-12c9-40e3-8849-41c85e87b3c1))
  (fp_line (start -4 -5) (end 5 -5) (layer "F.Fab") (width 0.1) (tstamp 90a8f460-cd40-496c-b171-934294f2a4db))
  (fp_line (start 5 5) (end -5 5) (layer "F.Fab") (width 0.1) (tstamp e3ab450f-6f7f-4304-8fc0-201ee5921cc0))
  (pad "A1" smd circle (at -4 -4) (size 0.32 0.32) (property pad_prop_bga) (layers "F.Cu" "F.Paste" "F.Mask") (tstamp a8b30ff2-9af9-4d0b-8803-bc9432d09983))
  (pad "A2" smd circle (at -3.2 -4) (size 0.32 0.32) (property pad_prop_bga) (layers "F.Cu" "F.Paste" "F.Mask") (tstamp bde0c78f-6b89-428c-9f65-bc39c22c3f42))
  (pad "A3" smd circle (at -2.4 -4) (size 0.32 0.32) (property pad_prop_bga) (layers "F.Cu" "F.Paste" "F.Mask") (tstamp b586ecda-33f9-43f2-9565-c6e0712286c4))
  (pad "A4" smd circle (at -1.6 -4) (size 0.32 0.32) (property pad_prop_bga) (layers "F.Cu" "F.Paste" "F.Mask") (tstamp e1487456-5976-4ba5-8956-2d8ec000feff))
  (pad "A5" smd circle (at -0.8 -4) (size 0.32 0.32) (property pad_prop_bga) (layers "F.Cu" "F.Paste" "F.Mask") (tstamp 7bae1a60-e975-472e-9a22-a6f6235aeb3f))
  (pad "A6" smd circle (at 0 -4) (size 0.32 0.32) (property pad_prop_bga) (layers "F.Cu" "F.Paste" "F.Mask") (tstamp 59c6c708-2f5f-4af7-85e8-51b4baa9be1f))
  (pad "A7" smd circle (at 0.8 -4) (size 0.32 0.32) (property pad_prop_bga) (layers "F.Cu" "F.Paste" "F.Mask") (tstamp 2caa3c82-9874-4b1c-873f-fcb5bccef676))
  (pad "A8" smd circle (at 1.6 -4) (size 0.32 0.32) (property pad_prop_bga) (layers "F.Cu" "F.Paste" "F.Mask") (tstamp 5917aa2e-c948-4398-a85b-cd8c8f1eb1e9))
  (pad "A9" smd circle (at 2.4 -4) (size 0.32 0.32) (property pad_prop_bga) (layers "F.Cu" "F.Paste" "F.Mask") (tstamp 7481140e-f440-44c8-9288-7f14df5462be))
  (pad "A10" smd circle (at 3.2 -4) (size 0.32 0.32) (property pad_prop_bga) (layers "F.Cu" "F.Paste" "F.Mask") (tstamp 50525c7e-dd12-4611-9d9b-10d34204129c))
  (pad "A11" smd circle (at 4 -4) (size 0.32 0.32) (property pad_prop_bga) (layers "F.Cu" "F.Paste" "F.Mask") (tstamp a490773b-1c7a-4ae1-bd61-5aa2c5367b87))
  (pad "B1" smd circle (at -4 -3.2) (size 0.32 0.32) (property pad_prop_bga) (layers "F.Cu" "F.Paste" "F.Mask") (tstamp 530640d9-fc82-44bb-9b51-ca93bc217098))
  (pad "B2" smd circle (at -3.2 -3.2) (size 0.32 0.32) (property pad_prop_bga) (layers "F.Cu" "F.Paste" "F.Mask") (tstamp d22283e4-7691-4322-a94d-a393634c2f36))
  (pad "B3" smd circle (at -2.4 -3.2) (size 0.32 0.32) (property pad_prop_bga) (layers "F.Cu" "F.Paste" "F.Mask") (tstamp ad4d002c-a51b-4c5e-8e15-2d08469afb49))
  (pad "B4" smd circle (at -1.6 -3.2) (size 0.32 0.32) (property pad_prop_bga) (layers "F.Cu" "F.Paste" "F.Mask") (tstamp 81a6821d-aa9d-44b8-a1b5-cf30334ae16f))
  (pad "B5" smd circle (at -0.8 -3.2) (size 0.32 0.32) (property pad_prop_bga) (layers "F.Cu" "F.Paste" "F.Mask") (tstamp 434297bb-5090-4f1e-b8d1-eb9aadb32dcf))
  (pad "B6" smd circle (at 0 -3.2) (size 0.32 0.32) (property pad_prop_bga) (layers "F.Cu" "F.Paste" "F.Mask") (tstamp 3e76c48a-93c6-4d50-aa14-b73240023033))
  (pad "B7" smd circle (at 0.8 -3.2) (size 0.32 0.32) (property pad_prop_bga) (layers "F.Cu" "F.Paste" "F.Mask") (tstamp 9a0304d6-4043-4d65-ae1f-8492cba94144))
  (pad "B8" smd circle (at 1.6 -3.2) (size 0.32 0.32) (property pad_prop_bga) (layers "F.Cu" "F.Paste" "F.Mask") (tstamp 3a3206a3-32b6-45cc-b212-eaea8cf9a958))
  (pad "B9" smd circle (at 2.4 -3.2) (size 0.32 0.32) (property pad_prop_bga) (layers "F.Cu" "F.Paste" "F.Mask") (tstamp 86c62b1c-45f8-4b81-9d43-8ad02ec6f6d4))
  (pad "B10" smd circle (at 3.2 -3.2) (size 0.32 0.32) (property pad_prop_bga) (layers "F.Cu" "F.Paste" "F.Mask") (tstamp 3b09810f-299e-4165-be70-c8891cbe1780))
  (pad "B11" smd circle (at 4 -3.2) (size 0.32 0.32) (property pad_prop_bga) (layers "F.Cu" "F.Paste" "F.Mask") (tstamp c8950a74-42ec-4108-98c9-1c55d625f40c))
  (pad "C1" smd circle (at -4 -2.4) (size 0.32 0.32) (property pad_prop_bga) (layers "F.Cu" "F.Paste" "F.Mask") (tstamp a28b704c-b485-4596-9646-6b7522a04dbd))
  (pad "C2" smd circle (at -3.2 -2.4) (size 0.32 0.32) (property pad_prop_bga) (layers "F.Cu" "F.Paste" "F.Mask") (tstamp 55e5b884-2ebb-4900-b19e-71512823c1fb))
  (pad "C3" smd circle (at -2.4 -2.4) (size 0.32 0.32) (property pad_prop_bga) (layers "F.Cu" "F.Paste" "F.Mask") (tstamp ec981d25-5452-428b-940f-2a77395a37ba))
  (pad "C4" smd circle (at -1.6 -2.4) (size 0.32 0.32) (property pad_prop_bga) (layers "F.Cu" "F.Paste" "F.Mask") (tstamp 193993d7-91d7-46c4-bb32-a7ec5cd5b002))
  (pad "C5" smd circle (at -0.8 -2.4) (size 0.32 0.32) (property pad_prop_bga) (layers "F.Cu" "F.Paste" "F.Mask") (tstamp 18af4154-174d-4bfd-9eb0-9af01cb43181))
  (pad "C6" smd circle (at 0 -2.4) (size 0.32 0.32) (property pad_prop_bga) (layers "F.Cu" "F.Paste" "F.Mask") (tstamp f0c759f6-adf1-466a-95a6-8ff92c4381b3))
  (pad "C7" smd circle (at 0.8 -2.4) (size 0.32 0.32) (property pad_prop_bga) (layers "F.Cu" "F.Paste" "F.Mask") (tstamp 1df5248a-a73a-4f61-8d01-ceaf43fc001d))
  (pad "C8" smd circle (at 1.6 -2.4) (size 0.32 0.32) (property pad_prop_bga) (layers "F.Cu" "F.Paste" "F.Mask") (tstamp ab1093ff-8b7b-4c05-9f28-e8b07635faa3))
  (pad "C9" smd circle (at 2.4 -2.4) (size 0.32 0.32) (property pad_prop_bga) (layers "F.Cu" "F.Paste" "F.Mask") (tstamp 6d39aa2d-55cc-4b61-b05d-8ed57abdedb3))
  (pad "C10" smd circle (at 3.2 -2.4) (size 0.32 0.32) (property pad_prop_bga) (layers "F.Cu" "F.Paste" "F.Mask") (tstamp 9912ee33-4a04-4117-90d3-6e4c31bee302))
  (pad "C11" smd circle (at 4 -2.4) (size 0.32 0.32) (property pad_prop_bga) (layers "F.Cu" "F.Paste" "F.Mask") (tstamp 612da2ac-1fc4-45cc-8f4a-24b85ff6df0f))
  (pad "D1" smd circle (at -4 -1.6) (size 0.32 0.32) (property pad_prop_bga) (layers "F.Cu" "F.Paste" "F.Mask") (tstamp cdad05cb-fd93-48c5-bf88-e5951a7f548f))
  (pad "D2" smd circle (at -3.2 -1.6) (size 0.32 0.32) (property pad_prop_bga) (layers "F.Cu" "F.Paste" "F.Mask") (tstamp f644889c-221a-4551-89f0-1f7d00f8c3cf))
  (pad "D3" smd circle (at -2.4 -1.6) (size 0.32 0.32) (property pad_prop_bga) (layers "F.Cu" "F.Paste" "F.Mask") (tstamp 1d16590a-344e-4471-8d2a-504b14273678))
  (pad "D4" smd circle (at -1.6 -1.6) (size 0.32 0.32) (property pad_prop_bga) (layers "F.Cu" "F.Paste" "F.Mask") (tstamp aeeaefa8-a538-4381-b7f7-8ed936a268fd))
  (pad "D5" smd circle (at -0.8 -1.6) (size 0.32 0.32) (property pad_prop_bga) (layers "F.Cu" "F.Paste" "F.Mask") (tstamp a046b634-fdf2-4540-a5a6-57ff78100b9a))
  (pad "D6" smd circle (at 0 -1.6) (size 0.32 0.32) (property pad_prop_bga) (layers "F.Cu" "F.Paste" "F.Mask") (tstamp 1dc0549d-c0c2-489e-bda0-f312718eb640))
  (pad "D7" smd circle (at 0.8 -1.6) (size 0.32 0.32) (property pad_prop_bga) (layers "F.Cu" "F.Paste" "F.Mask") (tstamp 445aa76a-296a-450e-8253-e1537b6e6fe7))
  (pad "D8" smd circle (at 1.6 -1.6) (size 0.32 0.32) (property pad_prop_bga) (layers "F.Cu" "F.Paste" "F.Mask") (tstamp 4238c10e-dd05-4f6c-9b05-85a5cc988ea7))
  (pad "D9" smd circle (at 2.4 -1.6) (size 0.32 0.32) (property pad_prop_bga) (layers "F.Cu" "F.Paste" "F.Mask") (tstamp 44dd3833-3c09-4340-bf59-5a8a4b5e0623))
  (pad "D10" smd circle (at 3.2 -1.6) (size 0.32 0.32) (property pad_prop_bga) (layers "F.Cu" "F.Paste" "F.Mask") (tstamp 43b0a786-f3c9-455d-986d-f9cb707b7f8c))
  (pad "D11" smd circle (at 4 -1.6) (size 0.32 0.32) (property pad_prop_bga) (layers "F.Cu" "F.Paste" "F.Mask") (tstamp 9bd97083-008d-4106-877e-4a86118b03d2))
  (pad "E1" smd circle (at -4 -0.8) (size 0.32 0.32) (property pad_prop_bga) (layers "F.Cu" "F.Paste" "F.Mask") (tstamp cbeccb55-4658-46cf-abc9-0462dd45519f))
  (pad "E2" smd circle (at -3.2 -0.8) (size 0.32 0.32) (property pad_prop_bga) (layers "F.Cu" "F.Paste" "F.Mask") (tstamp bd4e7ff4-e822-43be-86a6-406b79801d1c))
  (pad "E3" smd circle (at -2.4 -0.8) (size 0.32 0.32) (property pad_prop_bga) (layers "F.Cu" "F.Paste" "F.Mask") (tstamp a1964576-d23e-48c9-8ce0-df39c01d42a7))
  (pad "E4" smd circle (at -1.6 -0.8) (size 0.32 0.32) (property pad_prop_bga) (layers "F.Cu" "F.Paste" "F.Mask") (tstamp d14fad5e-a822-4ec4-b8b4-09e587115905))
  (pad "E5" smd circle (at -0.8 -0.8) (size 0.32 0.32) (property pad_prop_bga) (layers "F.Cu" "F.Paste" "F.Mask") (tstamp 68d498c9-54f8-403c-9256-a244a6ef954c))
  (pad "E6" smd circle (at 0 -0.8) (size 0.32 0.32) (property pad_prop_bga) (layers "F.Cu" "F.Paste" "F.Mask") (tstamp 324a7c2c-7499-4138-b6f5-17c5dd3158f6))
  (pad "E7" smd circle (at 0.8 -0.8) (size 0.32 0.32) (property pad_prop_bga) (layers "F.Cu" "F.Paste" "F.Mask") (tstamp 3d5a4322-9875-48f7-8690-ed571c1ea8a2))
  (pad "E8" smd circle (at 1.6 -0.8) (size 0.32 0.32) (property pad_prop_bga) (layers "F.Cu" "F.Paste" "F.Mask") (tstamp c2f82061-6e32-48fd-9ffc-e635ee6b900e))
  (pad "E9" smd circle (at 2.4 -0.8) (size 0.32 0.32) (property pad_prop_bga) (layers "F.Cu" "F.Paste" "F.Mask") (tstamp 07a72948-dbd8-4d97-adeb-1fe4573838d9))
  (pad "E10" smd circle (at 3.2 -0.8) (size 0.32 0.32) (property pad_prop_bga) (layers "F.Cu" "F.Paste" "F.Mask") (tstamp 4e03d3e1-5a1d-45a1-882b-90fb295c0f47))
  (pad "E11" smd circle (at 4 -0.8) (size 0.32 0.32) (property pad_prop_bga) (layers "F.Cu" "F.Paste" "F.Mask") (tstamp 2340e884-22a3-4d43-b0f6-bff4806205b8))
  (pad "F1" smd circle (at -4 0) (size 0.32 0.32) (property pad_prop_bga) (layers "F.Cu" "F.Paste" "F.Mask") (tstamp 9a7e3042-abe3-4e5f-bbee-5ea9e3511663))
  (pad "F2" smd circle (at -3.2 0) (size 0.32 0.32) (property pad_prop_bga) (layers "F.Cu" "F.Paste" "F.Mask") (tstamp 3127f5f8-141c-4628-9af5-b59ecfca0362))
  (pad "F3" smd circle (at -2.4 0) (size 0.32 0.32) (property pad_prop_bga) (layers "F.Cu" "F.Paste" "F.Mask") (tstamp 6badeda3-a511-4284-891a-9421caa32750))
  (pad "F4" smd circle (at -1.6 0) (size 0.32 0.32) (property pad_prop_bga) (layers "F.Cu" "F.Paste" "F.Mask") (tstamp 3fb257d4-bd8b-4f4c-b0e1-03add11109a1))
  (pad "F5" smd circle (at -0.8 0) (size 0.32 0.32) (property pad_prop_bga) (layers "F.Cu" "F.Paste" "F.Mask") (tstamp 47972e7a-f2b8-4158-87e3-e3a8e7397b62))
  (pad "F6" smd circle (at 0 0) (size 0.32 0.32) (property pad_prop_bga) (layers "F.Cu" "F.Paste" "F.Mask") (tstamp d5a1bf77-5f33-4cf7-9972-d466cb908d0a))
  (pad "F7" smd circle (at 0.8 0) (size 0.32 0.32) (property pad_prop_bga) (layers "F.Cu" "F.Paste" "F.Mask") (tstamp 66d45985-a065-41a1-aad6-d2e83b292bc5))
  (pad "F8" smd circle (at 1.6 0) (size 0.32 0.32) (property pad_prop_bga) (layers "F.Cu" "F.Paste" "F.Mask") (tstamp 96a31fa4-7eab-4df5-b551-811c7e6c6c18))
  (pad "F9" smd circle (at 2.4 0) (size 0.32 0.32) (property pad_prop_bga) (layers "F.Cu" "F.Paste" "F.Mask") (tstamp b95b1274-4319-4f46-9c6d-cd98644a3e7d))
  (pad "F10" smd circle (at 3.2 0) (size 0.32 0.32) (property pad_prop_bga) (layers "F.Cu" "F.Paste" "F.Mask") (tstamp 4c54acb9-ed95-4ba6-b0fa-37f4f9d228ce))
  (pad "F11" smd circle (at 4 0) (size 0.32 0.32) (property pad_prop_bga) (layers "F.Cu" "F.Paste" "F.Mask") (tstamp 7e26f1ec-fb22-4520-a204-b9064048f421))
  (pad "G1" smd circle (at -4 0.8) (size 0.32 0.32) (property pad_prop_bga) (layers "F.Cu" "F.Paste" "F.Mask") (tstamp 1904f009-9948-4c58-b162-80985c9401b8))
  (pad "G2" smd circle (at -3.2 0.8) (size 0.32 0.32) (property pad_prop_bga) (layers "F.Cu" "F.Paste" "F.Mask") (tstamp 374da972-d5e2-4ebd-91da-d2f723c28eaa))
  (pad "G3" smd circle (at -2.4 0.8) (size 0.32 0.32) (property pad_prop_bga) (layers "F.Cu" "F.Paste" "F.Mask") (tstamp c368a4ae-b556-41ff-98e9-121cc46acd4f))
  (pad "G4" smd circle (at -1.6 0.8) (size 0.32 0.32) (property pad_prop_bga) (layers "F.Cu" "F.Paste" "F.Mask") (tstamp 066923a7-f7ef-409d-afd5-3e65d577ad00))
  (pad "G5" smd circle (at -0.8 0.8) (size 0.32 0.32) (property pad_prop_bga) (layers "F.Cu" "F.Paste" "F.Mask") (tstamp 467e7498-4b4f-4b38-9ae4-5de182afe426))
  (pad "G6" smd circle (at 0 0.8) (size 0.32 0.32) (property pad_prop_bga) (layers "F.Cu" "F.Paste" "F.Mask") (tstamp abd2b1e8-a0b0-4c3e-89d7-bb643c24b418))
  (pad "G7" smd circle (at 0.8 0.8) (size 0.32 0.32) (property pad_prop_bga) (layers "F.Cu" "F.Paste" "F.Mask") (tstamp 5236c685-89c4-4e69-b00d-5c001b992946))
  (pad "G8" smd circle (at 1.6 0.8) (size 0.32 0.32) (property pad_prop_bga) (layers "F.Cu" "F.Paste" "F.Mask") (tstamp b9c754a8-868e-4265-850d-bd9528bdfe89))
  (pad "G9" smd circle (at 2.4 0.8) (size 0.32 0.32) (property pad_prop_bga) (layers "F.Cu" "F.Paste" "F.Mask") (tstamp 8a63a8cb-4802-4c07-b76a-fd7f0b1df826))
  (pad "G10" smd circle (at 3.2 0.8) (size 0.32 0.32) (property pad_prop_bga) (layers "F.Cu" "F.Paste" "F.Mask") (tstamp cc0b38cd-27d6-4d09-a287-86536f6e9595))
  (pad "G11" smd circle (at 4 0.8) (size 0.32 0.32) (property pad_prop_bga) (layers "F.Cu" "F.Paste" "F.Mask") (tstamp 82e351d7-cfb4-4703-a8ab-bdb6a8e04ecc))
  (pad "H1" smd circle (at -4 1.6) (size 0.32 0.32) (property pad_prop_bga) (layers "F.Cu" "F.Paste" "F.Mask") (tstamp a32b5e7b-624e-4eb8-abb4-726a8bea15c9))
  (pad "H2" smd circle (at -3.2 1.6) (size 0.32 0.32) (property pad_prop_bga) (layers "F.Cu" "F.Paste" "F.Mask") (tstamp 6c5f5461-f072-4b15-8f31-6c3038e986c7))
  (pad "H3" smd circle (at -2.4 1.6) (size 0.32 0.32) (property pad_prop_bga) (layers "F.Cu" "F.Paste" "F.Mask") (tstamp f54e973e-fe89-42aa-8d8f-ee122647c4b5))
  (pad "H4" smd circle (at -1.6 1.6) (size 0.32 0.32) (property pad_prop_bga) (layers "F.Cu" "F.Paste" "F.Mask") (tstamp dac25441-9e7c-4bf9-b63d-246bce3c9bbb))
  (pad "H5" smd circle (at -0.8 1.6) (size 0.32 0.32) (property pad_prop_bga) (layers "F.Cu" "F.Paste" "F.Mask") (tstamp 64e1062b-e2bc-4056-9b8d-6cd18ba0e665))
  (pad "H6" smd circle (at 0 1.6) (size 0.32 0.32) (property pad_prop_bga) (layers "F.Cu" "F.Paste" "F.Mask") (tstamp 25715bd3-abc3-4a24-b75e-5f800c094c2d))
  (pad "H7" smd circle (at 0.8 1.6) (size 0.32 0.32) (property pad_prop_bga) (layers "F.Cu" "F.Paste" "F.Mask") (tstamp a3ec81ae-335d-4219-ac00-04ce2f9c9962))
  (pad "H8" smd circle (at 1.6 1.6) (size 0.32 0.32) (property pad_prop_bga) (layers "F.Cu" "F.Paste" "F.Mask") (tstamp 63f1ed1e-c518-49d3-813f-c94d54c9af75))
  (pad "H9" smd circle (at 2.4 1.6) (size 0.32 0.32) (property pad_prop_bga) (layers "F.Cu" "F.Paste" "F.Mask") (tstamp d3bb68f7-0f95-4bf1-b787-cbe63504a6e3))
  (pad "H10" smd circle (at 3.2 1.6) (size 0.32 0.32) (property pad_prop_bga) (layers "F.Cu" "F.Paste" "F.Mask") (tstamp 73a1b344-809d-4b45-bc45-cffb36a605fc))
  (pad "H11" smd circle (at 4 1.6) (size 0.32 0.32) (property pad_prop_bga) (layers "F.Cu" "F.Paste" "F.Mask") (tstamp a409e8c9-82d7-435a-ad07-2133f31188a1))
  (pad "J1" smd circle (at -4 2.4) (size 0.32 0.32) (property pad_prop_bga) (layers "F.Cu" "F.Paste" "F.Mask") (tstamp 320e4098-bdeb-475c-a906-286d2ba18cf0))
  (pad "J2" smd circle (at -3.2 2.4) (size 0.32 0.32) (property pad_prop_bga) (layers "F.Cu" "F.Paste" "F.Mask") (tstamp 3b7c6815-085d-49e0-aac3-c0ceb04ca82f))
  (pad "J3" smd circle (at -2.4 2.4) (size 0.32 0.32) (property pad_prop_bga) (layers "F.Cu" "F.Paste" "F.Mask") (tstamp 33fbd774-9d1e-4555-b49d-5fed17aa44d7))
  (pad "J4" smd circle (at -1.6 2.4) (size 0.32 0.32) (property pad_prop_bga) (layers "F.Cu" "F.Paste" "F.Mask") (tstamp d13f2176-cd2e-46ce-a36e-a08ddc5d9303))
  (pad "J5" smd circle (at -0.8 2.4) (size 0.32 0.32) (property pad_prop_bga) (layers "F.Cu" "F.Paste" "F.Mask") (tstamp ae99823a-ec37-4d74-b552-6a78b59a4299))
  (pad "J6" smd circle (at 0 2.4) (size 0.32 0.32) (property pad_prop_bga) (layers "F.Cu" "F.Paste" "F.Mask") (tstamp ce8c5e63-d268-4381-81ae-212562d5480d))
  (pad "J7" smd circle (at 0.8 2.4) (size 0.32 0.32) (property pad_prop_bga) (layers "F.Cu" "F.Paste" "F.Mask") (tstamp 7eedccd6-c7f3-49b3-a6bc-54dffd41fa22))
  (pad "J8" smd circle (at 1.6 2.4) (size 0.32 0.32) (property pad_prop_bga) (layers "F.Cu" "F.Paste" "F.Mask") (tstamp 17c27298-4a94-4d41-bb35-ca853113bd04))
  (pad "J9" smd circle (at 2.4 2.4) (size 0.32 0.32) (property pad_prop_bga) (layers "F.Cu" "F.Paste" "F.Mask") (tstamp 62a237a2-ea2a-4a7b-ae09-359c5dab0359))
  (pad "J10" smd circle (at 3.2 2.4) (size 0.32 0.32) (property pad_prop_bga) (layers "F.Cu" "F.Paste" "F.Mask") (tstamp 2ea301f9-ffa9-4b5c-9fa7-3770e14275b7))
  (pad "J11" smd circle (at 4 2.4) (size 0.32 0.32) (property pad_prop_bga) (layers "F.Cu" "F.Paste" "F.Mask") (tstamp 0e201f7f-ea4e-45f3-bfbb-a287a423f622))
  (pad "K1" smd circle (at -4 3.2) (size 0.32 0.32) (property pad_prop_bga) (layers "F.Cu" "F.Paste" "F.Mask") (tstamp 52b22a0b-6131-4807-a818-a6efb5c56951))
  (pad "K2" smd circle (at -3.2 3.2) (size 0.32 0.32) (property pad_prop_bga) (layers "F.Cu" "F.Paste" "F.Mask") (tstamp bf7d97ab-ff2b-4f47-8a4f-b2bad7e5012e))
  (pad "K3" smd circle (at -2.4 3.2) (size 0.32 0.32) (property pad_prop_bga) (layers "F.Cu" "F.Paste" "F.Mask") (tstamp ff2f679a-d650-45ed-9698-0203c9b15cb4))
  (pad "K4" smd circle (at -1.6 3.2) (size 0.32 0.32) (property pad_prop_bga) (layers "F.Cu" "F.Paste" "F.Mask") (tstamp f787d102-01df-4d9e-875c-d60b9b6ef06c))
  (pad "K5" smd circle (at -0.8 3.2) (size 0.32 0.32) (property pad_prop_bga) (layers "F.Cu" "F.Paste" "F.Mask") (tstamp a72cbf79-591a-48ed-bcc0-41fc95a233f2))
  (pad "K6" smd circle (at 0 3.2) (size 0.32 0.32) (property pad_prop_bga) (layers "F.Cu" "F.Paste" "F.Mask") (tstamp fef3a65e-2548-4066-bba7-7d4d9f731485))
  (pad "K7" smd circle (at 0.8 3.2) (size 0.32 0.32) (property pad_prop_bga) (layers "F.Cu" "F.Paste" "F.Mask") (tstamp 346ed088-cd42-411f-b61b-c01b65ea4a14))
  (pad "K8" smd circle (at 1.6 3.2) (size 0.32 0.32) (property pad_prop_bga) (layers "F.Cu" "F.Paste" "F.Mask") (tstamp 7f4fa55f-e4d9-4bf7-8f1e-f9bd93d2c017))
  (pad "K9" smd circle (at 2.4 3.2) (size 0.32 0.32) (property pad_prop_bga) (layers "F.Cu" "F.Paste" "F.Mask") (tstamp 37b60bcd-7e8c-4dd5-ae6b-d4d2fdff61ea))
  (pad "K10" smd circle (at 3.2 3.2) (size 0.32 0.32) (property pad_prop_bga) (layers "F.Cu" "F.Paste" "F.Mask") (tstamp 7859c9d3-59fa-49e7-9f82-8be25a78be09))
  (pad "K11" smd circle (at 4 3.2) (size 0.32 0.32) (property pad_prop_bga) (layers "F.Cu" "F.Paste" "F.Mask") (tstamp a2682d1f-b0b6-4605-8865-80bd2d0360b6))
  (pad "L1" smd circle (at -4 4) (size 0.32 0.32) (property pad_prop_bga) (layers "F.Cu" "F.Paste" "F.Mask") (tstamp 2d24f310-d9ff-4075-9f9d-b52025b4667a))
  (pad "L2" smd circle (at -3.2 4) (size 0.32 0.32) (property pad_prop_bga) (layers "F.Cu" "F.Paste" "F.Mask") (tstamp c2bf84f2-8484-4e91-988a-e3a9804d3277))
  (pad "L3" smd circle (at -2.4 4) (size 0.32 0.32) (property pad_prop_bga) (layers "F.Cu" "F.Paste" "F.Mask") (tstamp 1c9c7cbf-ffd9-46cc-b2d0-a50bf2ff4250))
  (pad "L4" smd circle (at -1.6 4) (size 0.32 0.32) (property pad_prop_bga) (layers "F.Cu" "F.Paste" "F.Mask") (tstamp 0e5838b9-0a92-4877-b2ad-5cffb9b1009a))
  (pad "L5" smd circle (at -0.8 4) (size 0.32 0.32) (property pad_prop_bga) (layers "F.Cu" "F.Paste" "F.Mask") (tstamp 1c39447a-7393-4d6f-a44d-073aacbd5e53))
  (pad "L6" smd circle (at 0 4) (size 0.32 0.32) (property pad_prop_bga) (layers "F.Cu" "F.Paste" "F.Mask") (tstamp a8667c0f-0777-413f-b526-18e96bf81e91))
  (pad "L7" smd circle (at 0.8 4) (size 0.32 0.32) (property pad_prop_bga) (layers "F.Cu" "F.Paste" "F.Mask") (tstamp 370a0f3a-f88b-4bc0-b6f0-7a24cec6f63a))
  (pad "L8" smd circle (at 1.6 4) (size 0.32 0.32) (property pad_prop_bga) (layers "F.Cu" "F.Paste" "F.Mask") (tstamp 34dce73f-3aa8-42f9-b81f-8e55915adbff))
  (pad "L9" smd circle (at 2.4 4) (size 0.32 0.32) (property pad_prop_bga) (layers "F.Cu" "F.Paste" "F.Mask") (tstamp b3e67a9d-2067-4e6b-b6dc-ea60bb9130f5))
  (pad "L10" smd circle (at 3.2 4) (size 0.32 0.32) (property pad_prop_bga) (layers "F.Cu" "F.Paste" "F.Mask") (tstamp 1cfcc38d-bf09-4e08-b13d-b5504d0fb426))
  (pad "L11" smd circle (at 4 4) (size 0.32 0.32) (property pad_prop_bga) (layers "F.Cu" "F.Paste" "F.Mask") (tstamp 521d1f26-0bfe-4528-bd54-95376674ee44))
  (model "${KICAD6_3DMODEL_DIR}/Package_BGA.3dshapes/XBGA-121_10x10mm_Layout11x11_P0.8mm.wrl"
    (offset (xyz 0 0 0))
    (scale (xyz 1 1 1))
    (rotate (xyz 0 0 0))
  )
)
