(footprint "XFBGA-36_3.5x3.5mm_Layout6x6_P0.5mm" (version 20211014) (generator pcbnew)
  (layer "F.Cu")
  (tedit 5A4E89C9)
  (descr "XFBGA-36, https://www.nxp.com/docs/en/package-information/SOT1555-1.pdf")
  (tags "XFBGA-36")
  (attr smd)
  (fp_text reference "REF**" (at 0 -3.6) (layer "F.SilkS")
    (effects (font (size 1 1) (thickness 0.15)))
    (tstamp 9abea186-13b2-436e-839a-4a449e767df4)
  )
  (fp_text value "XFBGA-36_3.5x3.5mm_Layout6x6_P0.5mm" (at 0 3.8) (layer "F.Fab")
    (effects (font (size 1 1) (thickness 0.15)))
    (tstamp d98f74ea-0b85-4c20-b77a-1412ce04cb59)
  )
  (fp_text user "${REFERENCE}" (at 0 0) (layer "F.Fab")
    (effects (font (size 0.5 0.5) (thickness 0.125)))
    (tstamp e8e0f032-36ba-43bb-a4ae-5485ec2f74ec)
  )
  (fp_line (start -1.85 1.85) (end -1.85 -1.85) (layer "F.SilkS") (width 0.1) (tstamp 083e711b-1a80-4438-9256-20f088a65eb7))
  (fp_line (start -1.85 -1.85) (end 1.85 -1.85) (layer "F.SilkS") (width 0.1) (tstamp 192a0e71-ab5e-44f0-96a4-8d48df5d1960))
  (fp_line (start -2.05 -2.05) (end -2.05 -1.25) (layer "F.SilkS") (width 0.1) (tstamp 34efd760-ed7a-4fbe-8b16-326bb7bc8378))
  (fp_line (start -1.85 1.85) (end 1.85 1.85) (layer "F.SilkS") (width 0.1) (tstamp 70c93ac0-6398-48cb-8476-935c8e399cc4))
  (fp_line (start -1.25 -2.05) (end -2.05 -2.05) (layer "F.SilkS") (width 0.1) (tstamp 7e5ffb95-4fad-4bbe-933e-c010b077af70))
  (fp_line (start 1.85 1.85) (end 1.85 -1.85) (layer "F.SilkS") (width 0.1) (tstamp defeca8b-5b96-4392-83fb-908eb4ce6215))
  (fp_line (start -2.85 2.85) (end 2.85 2.85) (layer "F.CrtYd") (width 0.05) (tstamp 139a307e-41ac-4c10-8a61-eb094a563048))
  (fp_line (start -2.85 -2.85) (end 2.85 -2.85) (layer "F.CrtYd") (width 0.05) (tstamp 2fd1f32b-af96-409a-86d2-6aae8f25b9b5))
  (fp_line (start -2.85 2.85) (end -2.85 -2.85) (layer "F.CrtYd") (width 0.05) (tstamp 7ab320c7-570b-46b5-a0bb-7fef45d75660))
  (fp_line (start 2.85 2.85) (end 2.85 -2.85) (layer "F.CrtYd") (width 0.05) (tstamp 8a5b996b-3bbf-4701-9a3f-40f0dab5f654))
  (fp_line (start -1.75 -1.25) (end -1.25 -1.75) (layer "F.Fab") (width 0.1) (tstamp 5139c727-0897-4947-9420-3a3470355639))
  (fp_line (start 1.75 1.75) (end 1.75 -1.75) (layer "F.Fab") (width 0.1) (tstamp 615d3cd6-ea36-4889-a70c-438ed239b8b3))
  (fp_line (start -1.25 -1.75) (end 1.75 -1.75) (layer "F.Fab") (width 0.1) (tstamp 6a889fc9-0bb4-4cd3-8130-fcab845dc078))
  (fp_line (start -1.75 1.75) (end -1.75 -1.25) (layer "F.Fab") (width 0.1) (tstamp 8b94c2aa-887c-4b58-8757-cb091b0d9ee2))
  (fp_line (start -1.75 1.75) (end 1.75 1.75) (layer "F.Fab") (width 0.1) (tstamp fd948e12-b1a1-4fbd-ab63-25fc1f19bb0f))
  (pad "A1" smd circle (at -1.25 -1.25) (size 0.33 0.33) (property pad_prop_bga) (layers "F.Cu" "F.Paste" "F.Mask") (tstamp b5f2d932-5066-4f13-94a9-506975e823ad))
  (pad "A2" smd circle (at -0.75 -1.25) (size 0.33 0.33) (property pad_prop_bga) (layers "F.Cu" "F.Paste" "F.Mask") (tstamp 0d46bc83-0476-4358-90d9-0c257d192b83))
  (pad "A3" smd circle (at -0.25 -1.25) (size 0.33 0.33) (property pad_prop_bga) (layers "F.Cu" "F.Paste" "F.Mask") (tstamp 17b09ec1-8101-4d6f-8db4-ac3cf8bb6cfb))
  (pad "A4" smd circle (at 0.25 -1.25) (size 0.33 0.33) (property pad_prop_bga) (layers "F.Cu" "F.Paste" "F.Mask") (tstamp 7d1087f3-d562-4c4f-98fc-4cff1f874211))
  (pad "A5" smd circle (at 0.75 -1.25) (size 0.33 0.33) (property pad_prop_bga) (layers "F.Cu" "F.Paste" "F.Mask") (tstamp fb745f79-7b31-47bd-b90a-f59d5e18f1e2))
  (pad "A6" smd circle (at 1.25 -1.25) (size 0.33 0.33) (property pad_prop_bga) (layers "F.Cu" "F.Paste" "F.Mask") (tstamp d9d565d0-b288-4e24-b4ed-cb72c6b8da82))
  (pad "B1" smd circle (at -1.25 -0.75) (size 0.33 0.33) (property pad_prop_bga) (layers "F.Cu" "F.Paste" "F.Mask") (tstamp 18e15eae-053f-4704-9826-71acd82990a8))
  (pad "B2" smd circle (at -0.75 -0.75) (size 0.33 0.33) (property pad_prop_bga) (layers "F.Cu" "F.Paste" "F.Mask") (tstamp 5d990765-3bbc-4e35-b8dd-625154868151))
  (pad "B3" smd circle (at -0.25 -0.75) (size 0.33 0.33) (property pad_prop_bga) (layers "F.Cu" "F.Paste" "F.Mask") (tstamp 447aaa61-a972-4805-a7c8-5813e127d953))
  (pad "B4" smd circle (at 0.25 -0.75) (size 0.33 0.33) (property pad_prop_bga) (layers "F.Cu" "F.Paste" "F.Mask") (tstamp 3d7007ac-802f-4f05-84ed-81eaf26a5007))
  (pad "B5" smd circle (at 0.75 -0.75) (size 0.33 0.33) (property pad_prop_bga) (layers "F.Cu" "F.Paste" "F.Mask") (tstamp 420ec113-755d-4a98-8a34-a2fb8328ea07))
  (pad "B6" smd circle (at 1.25 -0.75) (size 0.33 0.33) (property pad_prop_bga) (layers "F.Cu" "F.Paste" "F.Mask") (tstamp b6a5ae09-462d-45d1-a57b-3e6e3de635c4))
  (pad "C1" smd circle (at -1.25 -0.25) (size 0.33 0.33) (property pad_prop_bga) (layers "F.Cu" "F.Paste" "F.Mask") (tstamp 76f3fcca-4c33-42da-98b9-ae24687e812f))
  (pad "C2" smd circle (at -0.75 -0.25) (size 0.33 0.33) (property pad_prop_bga) (layers "F.Cu" "F.Paste" "F.Mask") (tstamp 4dc15492-6de4-4d8f-a784-d2b50043a81a))
  (pad "C3" smd circle (at -0.25 -0.25) (size 0.33 0.33) (property pad_prop_bga) (layers "F.Cu" "F.Paste" "F.Mask") (tstamp d3c96f4e-212d-4241-a556-003baa694d6f))
  (pad "C4" smd circle (at 0.25 -0.25) (size 0.33 0.33) (property pad_prop_bga) (layers "F.Cu" "F.Paste" "F.Mask") (tstamp 88d08d4a-f9c5-445c-ab29-143476446723))
  (pad "C5" smd circle (at 0.75 -0.25) (size 0.33 0.33) (property pad_prop_bga) (layers "F.Cu" "F.Paste" "F.Mask") (tstamp 53e87913-78b4-4b61-a013-8f0350439382))
  (pad "C6" smd circle (at 1.25 -0.25) (size 0.33 0.33) (property pad_prop_bga) (layers "F.Cu" "F.Paste" "F.Mask") (tstamp c3f449c9-4ffe-4747-863e-c42f148629a7))
  (pad "D1" smd circle (at -1.25 0.25) (size 0.33 0.33) (property pad_prop_bga) (layers "F.Cu" "F.Paste" "F.Mask") (tstamp c7101afa-5bfe-4e56-9efb-37b39f4c6bd9))
  (pad "D2" smd circle (at -0.75 0.25) (size 0.33 0.33) (property pad_prop_bga) (layers "F.Cu" "F.Paste" "F.Mask") (tstamp c976c08d-e989-451b-9ada-e56426ca5513))
  (pad "D3" smd circle (at -0.25 0.25) (size 0.33 0.33) (property pad_prop_bga) (layers "F.Cu" "F.Paste" "F.Mask") (tstamp 89c2342a-52aa-4c72-a6e5-1a98c51d0235))
  (pad "D4" smd circle (at 0.25 0.25) (size 0.33 0.33) (property pad_prop_bga) (layers "F.Cu" "F.Paste" "F.Mask") (tstamp 07fefa5f-208c-46cf-9d1d-01c9aa17c385))
  (pad "D5" smd circle (at 0.75 0.25) (size 0.33 0.33) (property pad_prop_bga) (layers "F.Cu" "F.Paste" "F.Mask") (tstamp 79bf3161-ac15-41c0-93c5-ae659a7c540f))
  (pad "D6" smd circle (at 1.25 0.25) (size 0.33 0.33) (property pad_prop_bga) (layers "F.Cu" "F.Paste" "F.Mask") (tstamp baec0f8f-16fc-467b-abfb-1cdaf4f66d8e))
  (pad "E1" smd circle (at -1.25 0.75) (size 0.33 0.33) (property pad_prop_bga) (layers "F.Cu" "F.Paste" "F.Mask") (tstamp 7a7055ca-33f4-4ff8-b15e-08eab9d617e8))
  (pad "E2" smd circle (at -0.75 0.75) (size 0.33 0.33) (property pad_prop_bga) (layers "F.Cu" "F.Paste" "F.Mask") (tstamp d06d522a-53c5-4776-a8b5-692af80543f5))
  (pad "E3" smd circle (at -0.25 0.75) (size 0.33 0.33) (property pad_prop_bga) (layers "F.Cu" "F.Paste" "F.Mask") (tstamp 148f75eb-dbaa-40d4-b40a-a8d94605031e))
  (pad "E4" smd circle (at 0.25 0.75) (size 0.33 0.33) (property pad_prop_bga) (layers "F.Cu" "F.Paste" "F.Mask") (tstamp bfde133d-5105-4a3a-9150-bec807a5784e))
  (pad "E5" smd circle (at 0.75 0.75) (size 0.33 0.33) (property pad_prop_bga) (layers "F.Cu" "F.Paste" "F.Mask") (tstamp fc415795-8273-4f93-a240-6958752254f7))
  (pad "E6" smd circle (at 1.25 0.75) (size 0.33 0.33) (property pad_prop_bga) (layers "F.Cu" "F.Paste" "F.Mask") (tstamp 53c83c21-350e-4206-a931-dfc9550bfd29))
  (pad "F1" smd circle (at -1.25 1.25) (size 0.33 0.33) (property pad_prop_bga) (layers "F.Cu" "F.Paste" "F.Mask") (tstamp 5d6e59f4-9911-47f1-9b65-9173c12147bd))
  (pad "F2" smd circle (at -0.75 1.25) (size 0.33 0.33) (property pad_prop_bga) (layers "F.Cu" "F.Paste" "F.Mask") (tstamp bb986523-1680-456e-a41a-cefbd2bacc3d))
  (pad "F3" smd circle (at -0.25 1.25) (size 0.33 0.33) (property pad_prop_bga) (layers "F.Cu" "F.Paste" "F.Mask") (tstamp 570f4e08-615c-49dc-ac73-3bd779748fcf))
  (pad "F4" smd circle (at 0.25 1.25) (size 0.33 0.33) (property pad_prop_bga) (layers "F.Cu" "F.Paste" "F.Mask") (tstamp 219d8037-c460-42e3-a97e-68470f76fde9))
  (pad "F5" smd circle (at 0.75 1.25) (size 0.33 0.33) (property pad_prop_bga) (layers "F.Cu" "F.Paste" "F.Mask") (tstamp d18d2ac3-cb44-49e4-8257-4e5d8158a29f))
  (pad "F6" smd circle (at 1.25 1.25) (size 0.33 0.33) (property pad_prop_bga) (layers "F.Cu" "F.Paste" "F.Mask") (tstamp 20621839-a69c-414f-91da-88f588659683))
  (model "${KICAD6_3DMODEL_DIR}/Package_BGA.3dshapes/XFBGA-36_3.5x3.5mm_Layout6x6_P0.5mm.wrl"
    (offset (xyz 0 0 0))
    (scale (xyz 1 1 1))
    (rotate (xyz 0 0 0))
  )
)
