(footprint "XFBGA-64_5.0x5.0mm_Layout8x8_P0.5mm" (version 20211014) (generator pcbnew)
  (layer "F.Cu")
  (tedit 5A4E62B6)
  (descr "XFBGA-64, https://www.nxp.com/docs/en/package-information/SOT1555-1.pdf")
  (tags "XFBGA-64")
  (attr smd)
  (fp_text reference "REF**" (at 0 -4.4) (layer "F.SilkS")
    (effects (font (size 1 1) (thickness 0.15)))
    (tstamp dc12e556-84aa-4168-bab8-676f933317f0)
  )
  (fp_text value "XFBGA-64_5.0x5.0mm_Layout8x8_P0.5mm" (at 0 4.5) (layer "F.Fab")
    (effects (font (size 1 1) (thickness 0.15)))
    (tstamp f2c074cf-8275-4c72-8f7a-f2242021fe82)
  )
  (fp_text user "${REFERENCE}" (at 0 0) (layer "F.Fab")
    (effects (font (size 0.5 0.5) (thickness 0.1)))
    (tstamp 788f3dfa-6a7f-4bb8-9f72-5048531bb246)
  )
  (fp_line (start -2.2 -2.8) (end -2.8 -2.8) (layer "F.SilkS") (width 0.12) (tstamp 17edb6c3-57e2-460e-88cc-d5e2e6753f31))
  (fp_line (start 2.6 -2.6) (end 2.6 2.6) (layer "F.SilkS") (width 0.12) (tstamp 494dda69-f6a2-4a50-a909-5f17a5c44202))
  (fp_line (start -2.6 -2.6) (end 2.6 -2.6) (layer "F.SilkS") (width 0.12) (tstamp 6ef427a0-dea9-4b26-b509-3697ac656aeb))
  (fp_line (start -2.8 -2.8) (end -2.8 -2.2) (layer "F.SilkS") (width 0.12) (tstamp 8664ef2c-6043-4b6a-be09-f4f681d346f0))
  (fp_line (start -2.6 2.6) (end 2.6 2.6) (layer "F.SilkS") (width 0.12) (tstamp 9e63b935-0b68-4dbe-925c-d86a4071895d))
  (fp_line (start -2.6 -2.6) (end -2.6 2.6) (layer "F.SilkS") (width 0.12) (tstamp ac5ba3d0-85aa-415b-a655-fdc73e6d639f))
  (fp_line (start -3.5 3.5) (end 3.5 3.5) (layer "F.CrtYd") (width 0.05) (tstamp 4c86f3fa-c9a1-43b9-bf1e-9c83e3c0cc6e))
  (fp_line (start 3.5 3.5) (end 3.5 -3.5) (layer "F.CrtYd") (width 0.05) (tstamp 8b00661f-9352-43dc-8bce-e24985733f8d))
  (fp_line (start -3.5 3.5) (end -3.5 -3.5) (layer "F.CrtYd") (width 0.05) (tstamp 9bd13d3b-5cc6-4470-a1b4-2869baea5e4d))
  (fp_line (start -3.5 -3.5) (end 3.5 -3.5) (layer "F.CrtYd") (width 0.05) (tstamp e19739ba-50f1-40ea-adf0-6c9939d0e8d1))
  (fp_line (start 2.5 2.5) (end 2.5 -2.5) (layer "F.Fab") (width 0.1) (tstamp 0852826c-e3ee-4d96-ba13-be4f31a7fa5e))
  (fp_line (start -2.5 -2) (end -2 -2.5) (layer "F.Fab") (width 0.1) (tstamp 0cab2325-4e8d-4210-bbdb-e5c5f08bbb6d))
  (fp_line (start -2.5 2.5) (end -2.5 -2) (layer "F.Fab") (width 0.1) (tstamp 15913323-5456-4b76-a92a-32c35d951a44))
  (fp_line (start -2.5 2.5) (end 2.5 2.5) (layer "F.Fab") (width 0.1) (tstamp 5f87cec1-e61d-461a-9c3a-f7bee02e651e))
  (fp_line (start -2 -2.5) (end 2.5 -2.5) (layer "F.Fab") (width 0.1) (tstamp c5b5f388-1df1-434b-b7c6-35657060c156))
  (pad "A1" smd circle (at -1.75 -1.75) (size 0.35 0.35) (property pad_prop_bga) (layers "F.Cu" "F.Paste" "F.Mask") (tstamp bb3a97b2-d1a3-4c3e-b9d4-cd07df0dc37f))
  (pad "A2" smd circle (at -1.25 -1.75) (size 0.35 0.35) (property pad_prop_bga) (layers "F.Cu" "F.Paste" "F.Mask") (tstamp 7cca3145-8442-49fa-a240-efd6759ac3d0))
  (pad "A3" smd circle (at -0.75 -1.75) (size 0.35 0.35) (property pad_prop_bga) (layers "F.Cu" "F.Paste" "F.Mask") (tstamp becf8d49-8e07-46db-8898-8abcb9bccf2a))
  (pad "A4" smd circle (at -0.25 -1.75) (size 0.35 0.35) (property pad_prop_bga) (layers "F.Cu" "F.Paste" "F.Mask") (tstamp bea3e914-5a15-4051-a45b-67f8548ac72a))
  (pad "A5" smd circle (at 0.25 -1.75) (size 0.35 0.35) (property pad_prop_bga) (layers "F.Cu" "F.Paste" "F.Mask") (tstamp d4b8affc-0dfc-4fe9-9e85-9138f443243c))
  (pad "A6" smd circle (at 0.75 -1.75) (size 0.35 0.35) (property pad_prop_bga) (layers "F.Cu" "F.Paste" "F.Mask") (tstamp e3649ad7-9dc1-4329-91de-f95f8618cf1f))
  (pad "A7" smd circle (at 1.25 -1.75) (size 0.35 0.35) (property pad_prop_bga) (layers "F.Cu" "F.Paste" "F.Mask") (tstamp 1c3e617e-e170-4f34-a528-e54ce5ccabee))
  (pad "A8" smd circle (at 1.75 -1.75) (size 0.35 0.35) (property pad_prop_bga) (layers "F.Cu" "F.Paste" "F.Mask") (tstamp 9450f2dd-6358-4b12-9640-4881738fe660))
  (pad "B1" smd circle (at -1.75 -1.25) (size 0.35 0.35) (property pad_prop_bga) (layers "F.Cu" "F.Paste" "F.Mask") (tstamp dab9a12b-4bfb-4335-a41e-43447705d2ff))
  (pad "B2" smd circle (at -1.25 -1.25) (size 0.35 0.35) (property pad_prop_bga) (layers "F.Cu" "F.Paste" "F.Mask") (tstamp 55f56f91-98e3-4fdb-b830-02a7668549fe))
  (pad "B3" smd circle (at -0.75 -1.25) (size 0.35 0.35) (property pad_prop_bga) (layers "F.Cu" "F.Paste" "F.Mask") (tstamp 88c630e0-df9f-43f1-9208-21c67268ead2))
  (pad "B4" smd circle (at -0.25 -1.25) (size 0.35 0.35) (property pad_prop_bga) (layers "F.Cu" "F.Paste" "F.Mask") (tstamp 5e672cc9-690f-4223-8649-1ac649cc8a5c))
  (pad "B5" smd circle (at 0.25 -1.25) (size 0.35 0.35) (property pad_prop_bga) (layers "F.Cu" "F.Paste" "F.Mask") (tstamp 62b216c0-b0d4-4af8-a96d-2143df999b8b))
  (pad "B6" smd circle (at 0.75 -1.25) (size 0.35 0.35) (property pad_prop_bga) (layers "F.Cu" "F.Paste" "F.Mask") (tstamp 49c19edf-66d2-4b9e-8ee0-13d87027f7c7))
  (pad "B7" smd circle (at 1.25 -1.25) (size 0.35 0.35) (property pad_prop_bga) (layers "F.Cu" "F.Paste" "F.Mask") (tstamp 473dfada-8694-4fda-9a94-15a00e076786))
  (pad "B8" smd circle (at 1.75 -1.25) (size 0.35 0.35) (property pad_prop_bga) (layers "F.Cu" "F.Paste" "F.Mask") (tstamp f7a01e6e-d783-42fc-8345-c09be1a4407d))
  (pad "C1" smd circle (at -1.75 -0.75) (size 0.35 0.35) (property pad_prop_bga) (layers "F.Cu" "F.Paste" "F.Mask") (tstamp 80d76891-99e8-46de-923c-bbc79b60c63b))
  (pad "C2" smd circle (at -1.25 -0.75) (size 0.35 0.35) (property pad_prop_bga) (layers "F.Cu" "F.Paste" "F.Mask") (tstamp 796f877e-ba10-4479-beac-2c57185e3b91))
  (pad "C3" smd circle (at -0.75 -0.75) (size 0.35 0.35) (property pad_prop_bga) (layers "F.Cu" "F.Paste" "F.Mask") (tstamp bf0863d1-66e9-4563-b197-5364eb1577ae))
  (pad "C4" smd circle (at -0.25 -0.75) (size 0.35 0.35) (property pad_prop_bga) (layers "F.Cu" "F.Paste" "F.Mask") (tstamp 3212b622-a648-4af6-bcc6-35e2edfa3c4c))
  (pad "C5" smd circle (at 0.25 -0.75) (size 0.35 0.35) (property pad_prop_bga) (layers "F.Cu" "F.Paste" "F.Mask") (tstamp bf94db58-7df0-4dbc-93b2-874843d4b09a))
  (pad "C6" smd circle (at 0.75 -0.75) (size 0.35 0.35) (property pad_prop_bga) (layers "F.Cu" "F.Paste" "F.Mask") (tstamp f5f10c82-9fdc-41f3-a249-6a948c6ae267))
  (pad "C7" smd circle (at 1.25 -0.75) (size 0.35 0.35) (property pad_prop_bga) (layers "F.Cu" "F.Paste" "F.Mask") (tstamp 4c198890-3bfa-4500-a84e-f07c5492b055))
  (pad "C8" smd circle (at 1.75 -0.75) (size 0.35 0.35) (property pad_prop_bga) (layers "F.Cu" "F.Paste" "F.Mask") (tstamp 1ebb723e-ca77-4d12-9284-fa0be64708bd))
  (pad "D1" smd circle (at -1.75 -0.25) (size 0.35 0.35) (property pad_prop_bga) (layers "F.Cu" "F.Paste" "F.Mask") (tstamp 69cda79f-d5bc-4c85-a443-bb06637e7b85))
  (pad "D2" smd circle (at -1.25 -0.25) (size 0.35 0.35) (property pad_prop_bga) (layers "F.Cu" "F.Paste" "F.Mask") (tstamp cd21158e-0258-474e-906a-c2cfe7227d7a))
  (pad "D3" smd circle (at -0.75 -0.25) (size 0.35 0.35) (property pad_prop_bga) (layers "F.Cu" "F.Paste" "F.Mask") (tstamp f864ee1a-e5bb-4f7b-8828-f9d798544523))
  (pad "D4" smd circle (at -0.25 -0.25) (size 0.35 0.35) (property pad_prop_bga) (layers "F.Cu" "F.Paste" "F.Mask") (tstamp 08a72a5c-2d7e-4fa6-b87d-4e98f25399e6))
  (pad "D5" smd circle (at 0.25 -0.25) (size 0.35 0.35) (property pad_prop_bga) (layers "F.Cu" "F.Paste" "F.Mask") (tstamp ee191aeb-415b-4c63-993d-c52454000683))
  (pad "D6" smd circle (at 0.75 -0.25) (size 0.35 0.35) (property pad_prop_bga) (layers "F.Cu" "F.Paste" "F.Mask") (tstamp 5625253f-0558-4acd-9747-c06cbad32dc6))
  (pad "D7" smd circle (at 1.25 -0.25) (size 0.35 0.35) (property pad_prop_bga) (layers "F.Cu" "F.Paste" "F.Mask") (tstamp 51c5e98b-4adb-4848-a06c-8906119afc0b))
  (pad "D8" smd circle (at 1.75 -0.25) (size 0.35 0.35) (property pad_prop_bga) (layers "F.Cu" "F.Paste" "F.Mask") (tstamp 2c1f1232-2778-428f-a215-cc10e520ede1))
  (pad "E1" smd circle (at -1.75 0.25) (size 0.35 0.35) (property pad_prop_bga) (layers "F.Cu" "F.Paste" "F.Mask") (tstamp f47e1500-7941-4a20-8e45-6c67e014fefa))
  (pad "E2" smd circle (at -1.25 0.25) (size 0.35 0.35) (property pad_prop_bga) (layers "F.Cu" "F.Paste" "F.Mask") (tstamp 963a773f-7dbd-4623-86d3-5f15f0395e21))
  (pad "E3" smd circle (at -0.75 0.25) (size 0.35 0.35) (property pad_prop_bga) (layers "F.Cu" "F.Paste" "F.Mask") (tstamp ddc63184-3866-4aa0-836f-4d8575577691))
  (pad "E4" smd circle (at -0.25 0.25) (size 0.35 0.35) (property pad_prop_bga) (layers "F.Cu" "F.Paste" "F.Mask") (tstamp c36175ba-7286-4775-8d4a-77259a424ae7))
  (pad "E5" smd circle (at 0.25 0.25) (size 0.35 0.35) (property pad_prop_bga) (layers "F.Cu" "F.Paste" "F.Mask") (tstamp 6be537bb-80b6-4d74-9a7c-7a30e293445d))
  (pad "E6" smd circle (at 0.75 0.25) (size 0.35 0.35) (property pad_prop_bga) (layers "F.Cu" "F.Paste" "F.Mask") (tstamp 64f2dac3-a87c-41d9-8f21-022d47355582))
  (pad "E7" smd circle (at 1.25 0.25) (size 0.35 0.35) (property pad_prop_bga) (layers "F.Cu" "F.Paste" "F.Mask") (tstamp 3518a43a-8011-472f-8d2a-612c56d346ea))
  (pad "E8" smd circle (at 1.75 0.25) (size 0.35 0.35) (property pad_prop_bga) (layers "F.Cu" "F.Paste" "F.Mask") (tstamp f8014552-ef5c-4595-b541-9920f611127d))
  (pad "F1" smd circle (at -1.75 0.75) (size 0.35 0.35) (property pad_prop_bga) (layers "F.Cu" "F.Paste" "F.Mask") (tstamp 57b881b5-1941-4134-8360-c0545000bbbd))
  (pad "F2" smd circle (at -1.25 0.75) (size 0.35 0.35) (property pad_prop_bga) (layers "F.Cu" "F.Paste" "F.Mask") (tstamp 6c802b44-0100-48e6-8fd1-97a9f3b880dd))
  (pad "F3" smd circle (at -0.75 0.75) (size 0.35 0.35) (property pad_prop_bga) (layers "F.Cu" "F.Paste" "F.Mask") (tstamp 3461e3f1-b232-4472-87ca-f6a7024ed95a))
  (pad "F4" smd circle (at -0.25 0.75) (size 0.35 0.35) (property pad_prop_bga) (layers "F.Cu" "F.Paste" "F.Mask") (tstamp a446a9b1-ff96-4a5c-8156-701dec7e6d14))
  (pad "F5" smd circle (at 0.25 0.75) (size 0.35 0.35) (property pad_prop_bga) (layers "F.Cu" "F.Paste" "F.Mask") (tstamp 5f2f35ad-3cbe-47e7-b84e-72318c16f160))
  (pad "F6" smd circle (at 0.75 0.75) (size 0.35 0.35) (property pad_prop_bga) (layers "F.Cu" "F.Paste" "F.Mask") (tstamp cd31584d-95f2-41b8-a584-5c7c3a693e10))
  (pad "F7" smd circle (at 1.25 0.75) (size 0.35 0.35) (property pad_prop_bga) (layers "F.Cu" "F.Paste" "F.Mask") (tstamp d8d53477-c4d9-400b-9551-b708e922de2d))
  (pad "F8" smd circle (at 1.75 0.75) (size 0.35 0.35) (property pad_prop_bga) (layers "F.Cu" "F.Paste" "F.Mask") (tstamp 5da98174-1d49-4591-900a-64270d29410f))
  (pad "G1" smd circle (at -1.75 1.25) (size 0.35 0.35) (property pad_prop_bga) (layers "F.Cu" "F.Paste" "F.Mask") (tstamp 6d35efa8-546e-44d6-9532-661c423221fd))
  (pad "G2" smd circle (at -1.25 1.25) (size 0.35 0.35) (property pad_prop_bga) (layers "F.Cu" "F.Paste" "F.Mask") (tstamp d90a963a-59aa-46bd-9036-37359b9396a6))
  (pad "G3" smd circle (at -0.75 1.25) (size 0.35 0.35) (property pad_prop_bga) (layers "F.Cu" "F.Paste" "F.Mask") (tstamp 6c4ce11b-5c3d-4d10-95aa-d8725f698bd9))
  (pad "G4" smd circle (at -0.25 1.25) (size 0.35 0.35) (property pad_prop_bga) (layers "F.Cu" "F.Paste" "F.Mask") (tstamp 39303007-1c6e-4e86-8801-1a4b3e66395a))
  (pad "G5" smd circle (at 0.25 1.25) (size 0.35 0.35) (property pad_prop_bga) (layers "F.Cu" "F.Paste" "F.Mask") (tstamp 307babfa-4bde-4059-b962-b3b10ee6ce84))
  (pad "G6" smd circle (at 0.75 1.25) (size 0.35 0.35) (property pad_prop_bga) (layers "F.Cu" "F.Paste" "F.Mask") (tstamp 9b79b85a-a28f-4fd0-88da-a4e7d1b9c095))
  (pad "G7" smd circle (at 1.25 1.25) (size 0.35 0.35) (property pad_prop_bga) (layers "F.Cu" "F.Paste" "F.Mask") (tstamp 44df1094-a579-4627-8516-77080b256a6c))
  (pad "G8" smd circle (at 1.75 1.25) (size 0.35 0.35) (property pad_prop_bga) (layers "F.Cu" "F.Paste" "F.Mask") (tstamp b86c154e-d485-44c0-90b3-84775a1f7a76))
  (pad "H1" smd circle (at -1.75 1.75) (size 0.35 0.35) (property pad_prop_bga) (layers "F.Cu" "F.Paste" "F.Mask") (tstamp 94c58513-c033-4b11-a634-b037083e8520))
  (pad "H2" smd circle (at -1.25 1.75) (size 0.35 0.35) (property pad_prop_bga) (layers "F.Cu" "F.Paste" "F.Mask") (tstamp 41f6ec6e-d9c0-4ffb-b9dc-844da6aacc52))
  (pad "H3" smd circle (at -0.75 1.75) (size 0.35 0.35) (property pad_prop_bga) (layers "F.Cu" "F.Paste" "F.Mask") (tstamp 21763ac8-f06d-4422-a978-5aaaccf743b1))
  (pad "H4" smd circle (at -0.25 1.75) (size 0.35 0.35) (property pad_prop_bga) (layers "F.Cu" "F.Paste" "F.Mask") (tstamp 4c251e20-736f-4dcb-b5af-c61571356ee3))
  (pad "H5" smd circle (at 0.25 1.75) (size 0.35 0.35) (property pad_prop_bga) (layers "F.Cu" "F.Paste" "F.Mask") (tstamp 5333fa17-c73a-4428-8d7d-e901a1f20d90))
  (pad "H6" smd circle (at 0.75 1.75) (size 0.35 0.35) (property pad_prop_bga) (layers "F.Cu" "F.Paste" "F.Mask") (tstamp 076c4b78-c4c4-4a61-9948-3918cd1714d8))
  (pad "H7" smd circle (at 1.25 1.75) (size 0.35 0.35) (property pad_prop_bga) (layers "F.Cu" "F.Paste" "F.Mask") (tstamp f137cc3a-3e2c-4d11-8cd4-ec152e5b422f))
  (pad "H8" smd circle (at 1.75 1.75) (size 0.35 0.35) (property pad_prop_bga) (layers "F.Cu" "F.Paste" "F.Mask") (tstamp 76d020cf-b597-4298-9c8c-dcbf027a17a5))
  (model "${KICAD6_3DMODEL_DIR}/Package_BGA.3dshapes/XFBGA-64_5.0x5.0mm_Layout8x8_P0.5mm.wrl"
    (offset (xyz 0 0 0))
    (scale (xyz 1 1 1))
    (rotate (xyz 0 0 0))
  )
)
