(footprint "Xilinx_RB484" (version 20211014) (generator pcbnew)
  (layer "F.Cu")
  (tedit 5CDADFAA)
  (descr "Artix-7 and Zynq-7000 BGA, 22x22 grid, 23x23mm package, 1mm pitch; https://www.xilinx.com/support/documentation/user_guides/ug475_7Series_Pkg_Pinout.pdf#page=278, https://www.xilinx.com/support/documentation/user_guides/ug865-Zynq-7000-Pkg-Pinout.pdf#page=92, NSMD pad definition Appendix A")
  (tags "BGA 484 1 RB484")
  (solder_mask_margin 0.05)
  (attr smd)
  (fp_text reference "REF**" (at 0 -12.5) (layer "F.SilkS")
    (effects (font (size 1 1) (thickness 0.15)))
    (tstamp b46ce9e2-5613-4937-b3ae-b7870a020095)
  )
  (fp_text value "Xilinx_RB484" (at 0 12.5) (layer "F.Fab")
    (effects (font (size 1 1) (thickness 0.15)))
    (tstamp 4ce41f53-6e88-4786-ad35-f8555d2a4ef0)
  )
  (fp_text user "${REFERENCE}" (at 0 0) (layer "F.Fab")
    (effects (font (size 1 1) (thickness 0.15)))
    (tstamp ffbddae8-d234-482a-adba-f793450882ec)
  )
  (fp_line (start -10.61 -11.61) (end 11.61 -11.61) (layer "F.SilkS") (width 0.12) (tstamp 38fa3229-9c10-44bb-948e-387b53db8351))
  (fp_line (start 11.61 -11.61) (end 11.61 11.61) (layer "F.SilkS") (width 0.12) (tstamp 53ca0a8c-b2ed-4a85-ad5f-adcf6bb14756))
  (fp_line (start -11.61 11.61) (end -11.61 -10.61) (layer "F.SilkS") (width 0.12) (tstamp 8c0ca552-99a5-422b-81e4-8f65b84a95ee))
  (fp_line (start 11.61 11.61) (end -11.61 11.61) (layer "F.SilkS") (width 0.12) (tstamp eaf932b7-865a-48dd-8cb7-873612ff56cb))
  (fp_line (start 12.5 -12.5) (end -12.5 -12.5) (layer "F.CrtYd") (width 0.05) (tstamp 52747082-cfa8-49c6-a6ce-8b8308faa7dc))
  (fp_line (start 12.5 12.5) (end 12.5 -12.5) (layer "F.CrtYd") (width 0.05) (tstamp 9b452eeb-9956-4279-8d66-41b87287a471))
  (fp_line (start -12.5 12.5) (end 12.5 12.5) (layer "F.CrtYd") (width 0.05) (tstamp b254c3ac-4566-4c5a-8834-7697bc3b64c3))
  (fp_line (start -12.5 -12.5) (end -12.5 12.5) (layer "F.CrtYd") (width 0.05) (tstamp d22cf1c4-c8dd-451f-9b38-ab0e4554bd69))
  (fp_line (start 11.5 -11.5) (end 11.5 11.5) (layer "F.Fab") (width 0.1) (tstamp 33a58606-a537-4ab1-9de3-eba42235c45e))
  (fp_line (start -10.5 -11.5) (end 11.5 -11.5) (layer "F.Fab") (width 0.1) (tstamp 3bce39d7-ce29-4060-92d6-eeece8b36f29))
  (fp_line (start 11.5 11.5) (end -11.5 11.5) (layer "F.Fab") (width 0.1) (tstamp 5b2f45d5-50a0-4656-96e5-319fce2886c7))
  (fp_line (start -11.5 11.5) (end -11.5 -10.5) (layer "F.Fab") (width 0.1) (tstamp 9ec77253-6b7f-4340-985a-1044830571b1))
  (fp_line (start -11.5 -10.5) (end -10.5 -11.5) (layer "F.Fab") (width 0.1) (tstamp a59d0f1f-6fa4-420f-8bb1-458475a5b264))
  (pad "A1" smd circle (at -10.5 -10.5) (size 0.53 0.53) (property pad_prop_bga) (layers "F.Cu" "F.Paste" "F.Mask") (tstamp 82a63628-23b9-460d-8b5e-377364fee21a))
  (pad "A2" smd circle (at -9.5 -10.5) (size 0.53 0.53) (property pad_prop_bga) (layers "F.Cu" "F.Paste" "F.Mask") (tstamp ed00d58c-df78-4626-9109-a1f96bdf9a9f))
  (pad "A3" smd circle (at -8.5 -10.5) (size 0.53 0.53) (property pad_prop_bga) (layers "F.Cu" "F.Paste" "F.Mask") (tstamp 8726ca57-991b-42c7-b3f1-d56e7b011b48))
  (pad "A4" smd circle (at -7.5 -10.5) (size 0.53 0.53) (property pad_prop_bga) (layers "F.Cu" "F.Paste" "F.Mask") (tstamp 5afd2861-4536-4aab-ab3f-31e0d544e711))
  (pad "A5" smd circle (at -6.5 -10.5) (size 0.53 0.53) (property pad_prop_bga) (layers "F.Cu" "F.Paste" "F.Mask") (tstamp 8a6cc51b-43dc-44eb-9861-121a9bf762df))
  (pad "A6" smd circle (at -5.5 -10.5) (size 0.53 0.53) (property pad_prop_bga) (layers "F.Cu" "F.Paste" "F.Mask") (tstamp b19929cd-a38f-451b-bf1c-73ec52be105d))
  (pad "A7" smd circle (at -4.5 -10.5) (size 0.53 0.53) (property pad_prop_bga) (layers "F.Cu" "F.Paste" "F.Mask") (tstamp 16c862bd-c7a5-4a34-ad91-20779a0f46a7))
  (pad "A8" smd circle (at -3.5 -10.5) (size 0.53 0.53) (property pad_prop_bga) (layers "F.Cu" "F.Paste" "F.Mask") (tstamp 553d4af0-ea84-4446-8f09-fca509586951))
  (pad "A9" smd circle (at -2.5 -10.5) (size 0.53 0.53) (property pad_prop_bga) (layers "F.Cu" "F.Paste" "F.Mask") (tstamp 8e32efa4-5b6f-49f4-a23f-daf0459eeb0a))
  (pad "A10" smd circle (at -1.5 -10.5) (size 0.53 0.53) (property pad_prop_bga) (layers "F.Cu" "F.Paste" "F.Mask") (tstamp bac246bd-0e00-4870-aed1-11ea6f8c4a0a))
  (pad "A11" smd circle (at -0.5 -10.5) (size 0.53 0.53) (property pad_prop_bga) (layers "F.Cu" "F.Paste" "F.Mask") (tstamp 32592bb5-03ca-4fb4-b01c-2e3edd2b7ea4))
  (pad "A12" smd circle (at 0.5 -10.5) (size 0.53 0.53) (property pad_prop_bga) (layers "F.Cu" "F.Paste" "F.Mask") (tstamp e92518ae-23e5-4f35-b5ff-e981d8b6a882))
  (pad "A13" smd circle (at 1.5 -10.5) (size 0.53 0.53) (property pad_prop_bga) (layers "F.Cu" "F.Paste" "F.Mask") (tstamp 319896af-5c42-464c-9af8-deba7ab87a3b))
  (pad "A14" smd circle (at 2.5 -10.5) (size 0.53 0.53) (property pad_prop_bga) (layers "F.Cu" "F.Paste" "F.Mask") (tstamp 0ecd132b-b7c2-48f0-9f80-48ee856c9423))
  (pad "A15" smd circle (at 3.5 -10.5) (size 0.53 0.53) (property pad_prop_bga) (layers "F.Cu" "F.Paste" "F.Mask") (tstamp b5b85a84-f0c3-41b9-9936-281b24c83176))
  (pad "A16" smd circle (at 4.5 -10.5) (size 0.53 0.53) (property pad_prop_bga) (layers "F.Cu" "F.Paste" "F.Mask") (tstamp 2d1c6582-6696-4c3a-9525-2a6063bd7e7c))
  (pad "A17" smd circle (at 5.5 -10.5) (size 0.53 0.53) (property pad_prop_bga) (layers "F.Cu" "F.Paste" "F.Mask") (tstamp b28b365f-73e1-44a3-8c38-d51a51b6adc1))
  (pad "A18" smd circle (at 6.5 -10.5) (size 0.53 0.53) (property pad_prop_bga) (layers "F.Cu" "F.Paste" "F.Mask") (tstamp cd19e6fd-bf5b-412a-bf61-b418765f5b38))
  (pad "A19" smd circle (at 7.5 -10.5) (size 0.53 0.53) (property pad_prop_bga) (layers "F.Cu" "F.Paste" "F.Mask") (tstamp aaea78ca-57e1-4179-afcf-5b131b482cee))
  (pad "A20" smd circle (at 8.5 -10.5) (size 0.53 0.53) (property pad_prop_bga) (layers "F.Cu" "F.Paste" "F.Mask") (tstamp 21b30f1b-3350-4550-9272-315b12e2cbfb))
  (pad "A21" smd circle (at 9.5 -10.5) (size 0.53 0.53) (property pad_prop_bga) (layers "F.Cu" "F.Paste" "F.Mask") (tstamp b5292716-0ab1-4ced-b5a5-1a78bdab34a9))
  (pad "A22" smd circle (at 10.5 -10.5) (size 0.53 0.53) (property pad_prop_bga) (layers "F.Cu" "F.Paste" "F.Mask") (tstamp 6cd96536-72aa-4013-a543-bfc197052278))
  (pad "AA1" smd circle (at -10.5 9.5) (size 0.53 0.53) (property pad_prop_bga) (layers "F.Cu" "F.Paste" "F.Mask") (tstamp 8c46e8b7-98a7-47bc-9bf0-f1377d193430))
  (pad "AA2" smd circle (at -9.5 9.5) (size 0.53 0.53) (property pad_prop_bga) (layers "F.Cu" "F.Paste" "F.Mask") (tstamp 216b27cb-e287-412b-accf-cbe9614a5fa5))
  (pad "AA3" smd circle (at -8.5 9.5) (size 0.53 0.53) (property pad_prop_bga) (layers "F.Cu" "F.Paste" "F.Mask") (tstamp 0a23ec10-5475-4c73-a34a-681e98287c7c))
  (pad "AA4" smd circle (at -7.5 9.5) (size 0.53 0.53) (property pad_prop_bga) (layers "F.Cu" "F.Paste" "F.Mask") (tstamp 605e95f9-e7cc-4fd9-a11f-de5dc32fc5be))
  (pad "AA5" smd circle (at -6.5 9.5) (size 0.53 0.53) (property pad_prop_bga) (layers "F.Cu" "F.Paste" "F.Mask") (tstamp 8bc31cb7-673b-4752-90cb-0744983ed4e5))
  (pad "AA6" smd circle (at -5.5 9.5) (size 0.53 0.53) (property pad_prop_bga) (layers "F.Cu" "F.Paste" "F.Mask") (tstamp 8f55a1e4-3ce6-4044-bfbf-d2a7085532f8))
  (pad "AA7" smd circle (at -4.5 9.5) (size 0.53 0.53) (property pad_prop_bga) (layers "F.Cu" "F.Paste" "F.Mask") (tstamp 1448c65b-4927-48c1-ba1a-8d6f4700bdfb))
  (pad "AA8" smd circle (at -3.5 9.5) (size 0.53 0.53) (property pad_prop_bga) (layers "F.Cu" "F.Paste" "F.Mask") (tstamp a320688c-eed7-4273-a0bd-addb7536ed62))
  (pad "AA9" smd circle (at -2.5 9.5) (size 0.53 0.53) (property pad_prop_bga) (layers "F.Cu" "F.Paste" "F.Mask") (tstamp 2fe70810-e1b2-4599-b364-4ac47ff70624))
  (pad "AA10" smd circle (at -1.5 9.5) (size 0.53 0.53) (property pad_prop_bga) (layers "F.Cu" "F.Paste" "F.Mask") (tstamp 217dca0b-9520-41a3-8f8b-6f099910ab4e))
  (pad "AA11" smd circle (at -0.5 9.5) (size 0.53 0.53) (property pad_prop_bga) (layers "F.Cu" "F.Paste" "F.Mask") (tstamp 83e8091d-a5c5-42b9-9e9a-76f9486e1788))
  (pad "AA12" smd circle (at 0.5 9.5) (size 0.53 0.53) (property pad_prop_bga) (layers "F.Cu" "F.Paste" "F.Mask") (tstamp 30d47791-16ee-4d3c-9a72-5cf19c65972e))
  (pad "AA13" smd circle (at 1.5 9.5) (size 0.53 0.53) (property pad_prop_bga) (layers "F.Cu" "F.Paste" "F.Mask") (tstamp 9d472e12-0ab7-4295-8f71-f1cd6a46054b))
  (pad "AA14" smd circle (at 2.5 9.5) (size 0.53 0.53) (property pad_prop_bga) (layers "F.Cu" "F.Paste" "F.Mask") (tstamp 729b4478-f435-44d5-8d5e-427027277137))
  (pad "AA15" smd circle (at 3.5 9.5) (size 0.53 0.53) (property pad_prop_bga) (layers "F.Cu" "F.Paste" "F.Mask") (tstamp f00235b8-1587-4976-9ab1-c711e6e93363))
  (pad "AA16" smd circle (at 4.5 9.5) (size 0.53 0.53) (property pad_prop_bga) (layers "F.Cu" "F.Paste" "F.Mask") (tstamp 684150c4-8676-4e9b-a560-f7690a5c7d90))
  (pad "AA17" smd circle (at 5.5 9.5) (size 0.53 0.53) (property pad_prop_bga) (layers "F.Cu" "F.Paste" "F.Mask") (tstamp a7826fb6-a183-431b-97a4-8a37506f3bde))
  (pad "AA18" smd circle (at 6.5 9.5) (size 0.53 0.53) (property pad_prop_bga) (layers "F.Cu" "F.Paste" "F.Mask") (tstamp a1efc8ef-cda8-46f8-a911-0e24ce6365c0))
  (pad "AA19" smd circle (at 7.5 9.5) (size 0.53 0.53) (property pad_prop_bga) (layers "F.Cu" "F.Paste" "F.Mask") (tstamp 80fdad3c-3a6a-40ce-bd0d-67e32f53175a))
  (pad "AA20" smd circle (at 8.5 9.5) (size 0.53 0.53) (property pad_prop_bga) (layers "F.Cu" "F.Paste" "F.Mask") (tstamp b8b5ebb9-1bbf-4617-9a4d-70621b65e14f))
  (pad "AA21" smd circle (at 9.5 9.5) (size 0.53 0.53) (property pad_prop_bga) (layers "F.Cu" "F.Paste" "F.Mask") (tstamp 9764d5b2-ce09-49cd-bd3c-d106d6d94f08))
  (pad "AA22" smd circle (at 10.5 9.5) (size 0.53 0.53) (property pad_prop_bga) (layers "F.Cu" "F.Paste" "F.Mask") (tstamp 8b8ce320-1487-483f-9703-a9dc314bb9b8))
  (pad "AB1" smd circle (at -10.5 10.5) (size 0.53 0.53) (property pad_prop_bga) (layers "F.Cu" "F.Paste" "F.Mask") (tstamp 89b893a3-037a-44aa-85ac-86dbcbe0cd7f))
  (pad "AB2" smd circle (at -9.5 10.5) (size 0.53 0.53) (property pad_prop_bga) (layers "F.Cu" "F.Paste" "F.Mask") (tstamp c17a3491-d793-4c17-9d8f-eb715baa69a7))
  (pad "AB3" smd circle (at -8.5 10.5) (size 0.53 0.53) (property pad_prop_bga) (layers "F.Cu" "F.Paste" "F.Mask") (tstamp af266687-acab-4d18-b1a1-c9a6701c7f33))
  (pad "AB4" smd circle (at -7.5 10.5) (size 0.53 0.53) (property pad_prop_bga) (layers "F.Cu" "F.Paste" "F.Mask") (tstamp 11bd5daf-dbab-4375-9407-20dae2edc12c))
  (pad "AB5" smd circle (at -6.5 10.5) (size 0.53 0.53) (property pad_prop_bga) (layers "F.Cu" "F.Paste" "F.Mask") (tstamp cb07df18-87ec-45a1-9765-9335b3af4cd4))
  (pad "AB6" smd circle (at -5.5 10.5) (size 0.53 0.53) (property pad_prop_bga) (layers "F.Cu" "F.Paste" "F.Mask") (tstamp 873cc014-cce3-484c-bad2-d041db5fc81e))
  (pad "AB7" smd circle (at -4.5 10.5) (size 0.53 0.53) (property pad_prop_bga) (layers "F.Cu" "F.Paste" "F.Mask") (tstamp 53f92255-c8cf-4e34-bd2e-967d6b48a30e))
  (pad "AB8" smd circle (at -3.5 10.5) (size 0.53 0.53) (property pad_prop_bga) (layers "F.Cu" "F.Paste" "F.Mask") (tstamp 0d2e8da0-733f-44ae-a6dd-b09916fa82eb))
  (pad "AB9" smd circle (at -2.5 10.5) (size 0.53 0.53) (property pad_prop_bga) (layers "F.Cu" "F.Paste" "F.Mask") (tstamp d46befb4-4c2f-45f3-b36f-084862ee261d))
  (pad "AB10" smd circle (at -1.5 10.5) (size 0.53 0.53) (property pad_prop_bga) (layers "F.Cu" "F.Paste" "F.Mask") (tstamp 7dc5a5fb-0831-4ab5-9577-4c4de9616e02))
  (pad "AB11" smd circle (at -0.5 10.5) (size 0.53 0.53) (property pad_prop_bga) (layers "F.Cu" "F.Paste" "F.Mask") (tstamp 815ccd00-bb11-45b7-a0a5-1c460f82ca0a))
  (pad "AB12" smd circle (at 0.5 10.5) (size 0.53 0.53) (property pad_prop_bga) (layers "F.Cu" "F.Paste" "F.Mask") (tstamp 573db1c2-1140-4ce2-97e9-2d1c40ed9f30))
  (pad "AB13" smd circle (at 1.5 10.5) (size 0.53 0.53) (property pad_prop_bga) (layers "F.Cu" "F.Paste" "F.Mask") (tstamp 6d50f3dd-211f-46a0-9e33-6be2b383e059))
  (pad "AB14" smd circle (at 2.5 10.5) (size 0.53 0.53) (property pad_prop_bga) (layers "F.Cu" "F.Paste" "F.Mask") (tstamp 38de86e3-0c2c-4438-abdf-23f8965f3934))
  (pad "AB15" smd circle (at 3.5 10.5) (size 0.53 0.53) (property pad_prop_bga) (layers "F.Cu" "F.Paste" "F.Mask") (tstamp c4a67fcb-1e4d-4003-ac4b-e25b46fe49c1))
  (pad "AB16" smd circle (at 4.5 10.5) (size 0.53 0.53) (property pad_prop_bga) (layers "F.Cu" "F.Paste" "F.Mask") (tstamp bf73b149-8808-4cdb-8e09-c7eb3c921b06))
  (pad "AB17" smd circle (at 5.5 10.5) (size 0.53 0.53) (property pad_prop_bga) (layers "F.Cu" "F.Paste" "F.Mask") (tstamp 3da01aff-f4a5-49fb-b595-07457b1e7366))
  (pad "AB18" smd circle (at 6.5 10.5) (size 0.53 0.53) (property pad_prop_bga) (layers "F.Cu" "F.Paste" "F.Mask") (tstamp b31d5756-edae-4346-af61-308824b15122))
  (pad "AB19" smd circle (at 7.5 10.5) (size 0.53 0.53) (property pad_prop_bga) (layers "F.Cu" "F.Paste" "F.Mask") (tstamp 1188052c-c799-4fdc-a577-c442cf70a1a7))
  (pad "AB20" smd circle (at 8.5 10.5) (size 0.53 0.53) (property pad_prop_bga) (layers "F.Cu" "F.Paste" "F.Mask") (tstamp d697e5fd-c710-4558-b5ec-e677cb9df973))
  (pad "AB21" smd circle (at 9.5 10.5) (size 0.53 0.53) (property pad_prop_bga) (layers "F.Cu" "F.Paste" "F.Mask") (tstamp e7f2e60e-7624-4846-aa04-77b91de95d76))
  (pad "AB22" smd circle (at 10.5 10.5) (size 0.53 0.53) (property pad_prop_bga) (layers "F.Cu" "F.Paste" "F.Mask") (tstamp fbef77d1-98c6-4e29-b2c9-bc77578ee783))
  (pad "B1" smd circle (at -10.5 -9.5) (size 0.53 0.53) (property pad_prop_bga) (layers "F.Cu" "F.Paste" "F.Mask") (tstamp b78102f2-2967-41b1-b9b8-d5f82a64a662))
  (pad "B2" smd circle (at -9.5 -9.5) (size 0.53 0.53) (property pad_prop_bga) (layers "F.Cu" "F.Paste" "F.Mask") (tstamp b0e725e5-3add-471d-8cc5-22c021b8e0f7))
  (pad "B3" smd circle (at -8.5 -9.5) (size 0.53 0.53) (property pad_prop_bga) (layers "F.Cu" "F.Paste" "F.Mask") (tstamp 812608b0-0786-4665-87d4-0a4d485852f4))
  (pad "B4" smd circle (at -7.5 -9.5) (size 0.53 0.53) (property pad_prop_bga) (layers "F.Cu" "F.Paste" "F.Mask") (tstamp 6c68cdfe-7f6d-477f-947b-3fac9ebf5a06))
  (pad "B5" smd circle (at -6.5 -9.5) (size 0.53 0.53) (property pad_prop_bga) (layers "F.Cu" "F.Paste" "F.Mask") (tstamp e5b0d6fc-962f-4a96-8b83-4aa67bd20cc7))
  (pad "B6" smd circle (at -5.5 -9.5) (size 0.53 0.53) (property pad_prop_bga) (layers "F.Cu" "F.Paste" "F.Mask") (tstamp 50b5eadb-ea85-4e31-8e0d-8ac81f4c3f87))
  (pad "B7" smd circle (at -4.5 -9.5) (size 0.53 0.53) (property pad_prop_bga) (layers "F.Cu" "F.Paste" "F.Mask") (tstamp 07a856e2-0971-46f1-a802-20ad95d8218d))
  (pad "B8" smd circle (at -3.5 -9.5) (size 0.53 0.53) (property pad_prop_bga) (layers "F.Cu" "F.Paste" "F.Mask") (tstamp fb0c7ac4-af11-46fc-a2fe-b286f0000263))
  (pad "B9" smd circle (at -2.5 -9.5) (size 0.53 0.53) (property pad_prop_bga) (layers "F.Cu" "F.Paste" "F.Mask") (tstamp 604432bb-61b4-4f11-963f-3e0e56cb0b14))
  (pad "B10" smd circle (at -1.5 -9.5) (size 0.53 0.53) (property pad_prop_bga) (layers "F.Cu" "F.Paste" "F.Mask") (tstamp 09829498-61a1-4e32-9d22-0334ebe6b15a))
  (pad "B11" smd circle (at -0.5 -9.5) (size 0.53 0.53) (property pad_prop_bga) (layers "F.Cu" "F.Paste" "F.Mask") (tstamp bdec5b6d-3b8e-4886-99e4-6051ea2a25f1))
  (pad "B12" smd circle (at 0.5 -9.5) (size 0.53 0.53) (property pad_prop_bga) (layers "F.Cu" "F.Paste" "F.Mask") (tstamp f62d5900-c1fa-47f3-b012-9b91f8bcab8d))
  (pad "B13" smd circle (at 1.5 -9.5) (size 0.53 0.53) (property pad_prop_bga) (layers "F.Cu" "F.Paste" "F.Mask") (tstamp 3093567d-4460-49ee-823d-dcf2b1bc3356))
  (pad "B14" smd circle (at 2.5 -9.5) (size 0.53 0.53) (property pad_prop_bga) (layers "F.Cu" "F.Paste" "F.Mask") (tstamp af2c6022-da00-49bd-9eb4-0b01069379a5))
  (pad "B15" smd circle (at 3.5 -9.5) (size 0.53 0.53) (property pad_prop_bga) (layers "F.Cu" "F.Paste" "F.Mask") (tstamp 588a818a-0fc6-403c-bdeb-8eaa39df92f4))
  (pad "B16" smd circle (at 4.5 -9.5) (size 0.53 0.53) (property pad_prop_bga) (layers "F.Cu" "F.Paste" "F.Mask") (tstamp 70a35df7-9ee4-4c3c-9b44-8e26c317c67d))
  (pad "B17" smd circle (at 5.5 -9.5) (size 0.53 0.53) (property pad_prop_bga) (layers "F.Cu" "F.Paste" "F.Mask") (tstamp f46f42e7-8e8f-42a5-9cda-dca37e2ca10d))
  (pad "B18" smd circle (at 6.5 -9.5) (size 0.53 0.53) (property pad_prop_bga) (layers "F.Cu" "F.Paste" "F.Mask") (tstamp 04523efe-0061-4d28-b03e-a1e206c37dcf))
  (pad "B19" smd circle (at 7.5 -9.5) (size 0.53 0.53) (property pad_prop_bga) (layers "F.Cu" "F.Paste" "F.Mask") (tstamp 31a35e13-751e-43d9-b881-d7f743a4b79d))
  (pad "B20" smd circle (at 8.5 -9.5) (size 0.53 0.53) (property pad_prop_bga) (layers "F.Cu" "F.Paste" "F.Mask") (tstamp 8c8cd5a2-bd0a-4941-8cf2-024706566a34))
  (pad "B21" smd circle (at 9.5 -9.5) (size 0.53 0.53) (property pad_prop_bga) (layers "F.Cu" "F.Paste" "F.Mask") (tstamp 92c5ae08-1cdb-42ad-8d2c-f1603700b3d9))
  (pad "B22" smd circle (at 10.5 -9.5) (size 0.53 0.53) (property pad_prop_bga) (layers "F.Cu" "F.Paste" "F.Mask") (tstamp a4079693-f79c-43b6-9366-095f7e404316))
  (pad "C1" smd circle (at -10.5 -8.5) (size 0.53 0.53) (property pad_prop_bga) (layers "F.Cu" "F.Paste" "F.Mask") (tstamp 007f0757-6e1c-42d7-bf48-51439d9a4af0))
  (pad "C2" smd circle (at -9.5 -8.5) (size 0.53 0.53) (property pad_prop_bga) (layers "F.Cu" "F.Paste" "F.Mask") (tstamp 6168250d-a4c5-4ff6-9ee7-0b829bc9c773))
  (pad "C3" smd circle (at -8.5 -8.5) (size 0.53 0.53) (property pad_prop_bga) (layers "F.Cu" "F.Paste" "F.Mask") (tstamp 5a802c7d-92bc-404a-9515-924e6ada46ac))
  (pad "C4" smd circle (at -7.5 -8.5) (size 0.53 0.53) (property pad_prop_bga) (layers "F.Cu" "F.Paste" "F.Mask") (tstamp 75fc5525-2ef8-4a7b-a644-0eb4e34acf3c))
  (pad "C5" smd circle (at -6.5 -8.5) (size 0.53 0.53) (property pad_prop_bga) (layers "F.Cu" "F.Paste" "F.Mask") (tstamp 15040d74-d4bb-4706-8e1c-1aa0b1727382))
  (pad "C6" smd circle (at -5.5 -8.5) (size 0.53 0.53) (property pad_prop_bga) (layers "F.Cu" "F.Paste" "F.Mask") (tstamp fc3a95ac-4699-454f-9f62-fb610f1b6c72))
  (pad "C7" smd circle (at -4.5 -8.5) (size 0.53 0.53) (property pad_prop_bga) (layers "F.Cu" "F.Paste" "F.Mask") (tstamp bd0a2d27-2e1c-4a66-a8f0-9da6507ebb32))
  (pad "C8" smd circle (at -3.5 -8.5) (size 0.53 0.53) (property pad_prop_bga) (layers "F.Cu" "F.Paste" "F.Mask") (tstamp e453acc5-2a7a-4102-af30-369b2c00a11a))
  (pad "C9" smd circle (at -2.5 -8.5) (size 0.53 0.53) (property pad_prop_bga) (layers "F.Cu" "F.Paste" "F.Mask") (tstamp be082156-a335-43ce-990b-40af73c7bf72))
  (pad "C10" smd circle (at -1.5 -8.5) (size 0.53 0.53) (property pad_prop_bga) (layers "F.Cu" "F.Paste" "F.Mask") (tstamp 43dfc0fc-ab39-41c2-8d25-96cc6a084acb))
  (pad "C11" smd circle (at -0.5 -8.5) (size 0.53 0.53) (property pad_prop_bga) (layers "F.Cu" "F.Paste" "F.Mask") (tstamp eaad9172-e686-482b-bb2a-56a4a974843c))
  (pad "C12" smd circle (at 0.5 -8.5) (size 0.53 0.53) (property pad_prop_bga) (layers "F.Cu" "F.Paste" "F.Mask") (tstamp f1eea52d-90d5-44a7-9c12-4bb64db413ce))
  (pad "C13" smd circle (at 1.5 -8.5) (size 0.53 0.53) (property pad_prop_bga) (layers "F.Cu" "F.Paste" "F.Mask") (tstamp 3232e518-5578-4c88-927e-90c505a69926))
  (pad "C14" smd circle (at 2.5 -8.5) (size 0.53 0.53) (property pad_prop_bga) (layers "F.Cu" "F.Paste" "F.Mask") (tstamp f982f110-ed80-411c-8413-6e8609fb7b85))
  (pad "C15" smd circle (at 3.5 -8.5) (size 0.53 0.53) (property pad_prop_bga) (layers "F.Cu" "F.Paste" "F.Mask") (tstamp 4aadae5a-aa3d-4fe1-a0ff-95b94f5aac70))
  (pad "C16" smd circle (at 4.5 -8.5) (size 0.53 0.53) (property pad_prop_bga) (layers "F.Cu" "F.Paste" "F.Mask") (tstamp 8699bd68-a8c0-4a37-8db0-95ee4a1f17d4))
  (pad "C17" smd circle (at 5.5 -8.5) (size 0.53 0.53) (property pad_prop_bga) (layers "F.Cu" "F.Paste" "F.Mask") (tstamp de477e71-6f12-42e7-9698-7095f9de40fa))
  (pad "C18" smd circle (at 6.5 -8.5) (size 0.53 0.53) (property pad_prop_bga) (layers "F.Cu" "F.Paste" "F.Mask") (tstamp 6521b551-aa7f-4084-b051-255b9c6eb918))
  (pad "C19" smd circle (at 7.5 -8.5) (size 0.53 0.53) (property pad_prop_bga) (layers "F.Cu" "F.Paste" "F.Mask") (tstamp 696feb86-2159-49a8-92a1-887896616c88))
  (pad "C20" smd circle (at 8.5 -8.5) (size 0.53 0.53) (property pad_prop_bga) (layers "F.Cu" "F.Paste" "F.Mask") (tstamp ebbdaa78-3d9f-427a-90e5-1c50b1299611))
  (pad "C21" smd circle (at 9.5 -8.5) (size 0.53 0.53) (property pad_prop_bga) (layers "F.Cu" "F.Paste" "F.Mask") (tstamp 0ff8e4bc-e3e8-4dbe-94d4-011823f8e7c5))
  (pad "C22" smd circle (at 10.5 -8.5) (size 0.53 0.53) (property pad_prop_bga) (layers "F.Cu" "F.Paste" "F.Mask") (tstamp 76731514-d45e-4354-9f8e-4fa132a56c20))
  (pad "D1" smd circle (at -10.5 -7.5) (size 0.53 0.53) (property pad_prop_bga) (layers "F.Cu" "F.Paste" "F.Mask") (tstamp c3363b62-0667-486d-bebd-dc4b2ec524f8))
  (pad "D2" smd circle (at -9.5 -7.5) (size 0.53 0.53) (property pad_prop_bga) (layers "F.Cu" "F.Paste" "F.Mask") (tstamp eb84be80-3660-467c-b29b-d5741d27b531))
  (pad "D3" smd circle (at -8.5 -7.5) (size 0.53 0.53) (property pad_prop_bga) (layers "F.Cu" "F.Paste" "F.Mask") (tstamp 9828704d-9ec4-4487-a376-4c7923deeeaa))
  (pad "D4" smd circle (at -7.5 -7.5) (size 0.53 0.53) (property pad_prop_bga) (layers "F.Cu" "F.Paste" "F.Mask") (tstamp 1a61d758-d58e-4865-a46a-f1f5d1a2767d))
  (pad "D5" smd circle (at -6.5 -7.5) (size 0.53 0.53) (property pad_prop_bga) (layers "F.Cu" "F.Paste" "F.Mask") (tstamp d3090100-f977-4979-9f06-f5972843f4c4))
  (pad "D6" smd circle (at -5.5 -7.5) (size 0.53 0.53) (property pad_prop_bga) (layers "F.Cu" "F.Paste" "F.Mask") (tstamp 79e4910b-bbd1-41f8-a52d-4338cb943387))
  (pad "D7" smd circle (at -4.5 -7.5) (size 0.53 0.53) (property pad_prop_bga) (layers "F.Cu" "F.Paste" "F.Mask") (tstamp 812d7bd8-de22-4b9d-af21-b89ed29eb13b))
  (pad "D8" smd circle (at -3.5 -7.5) (size 0.53 0.53) (property pad_prop_bga) (layers "F.Cu" "F.Paste" "F.Mask") (tstamp ed6f34a2-de5a-49c7-b5c3-e07e146a42d6))
  (pad "D9" smd circle (at -2.5 -7.5) (size 0.53 0.53) (property pad_prop_bga) (layers "F.Cu" "F.Paste" "F.Mask") (tstamp ec2b6eb0-9d16-4004-a8ea-ba1f0ef04128))
  (pad "D10" smd circle (at -1.5 -7.5) (size 0.53 0.53) (property pad_prop_bga) (layers "F.Cu" "F.Paste" "F.Mask") (tstamp 8d30843f-0249-4922-9e69-967bbd1ca21a))
  (pad "D11" smd circle (at -0.5 -7.5) (size 0.53 0.53) (property pad_prop_bga) (layers "F.Cu" "F.Paste" "F.Mask") (tstamp b65d0ddb-e3e8-4ebd-910c-fd2bef70d50b))
  (pad "D12" smd circle (at 0.5 -7.5) (size 0.53 0.53) (property pad_prop_bga) (layers "F.Cu" "F.Paste" "F.Mask") (tstamp 5272b0f5-6a6e-432f-924e-0e2dfce74070))
  (pad "D13" smd circle (at 1.5 -7.5) (size 0.53 0.53) (property pad_prop_bga) (layers "F.Cu" "F.Paste" "F.Mask") (tstamp 5c655f05-faea-487d-ba1e-3a5cd407357d))
  (pad "D14" smd circle (at 2.5 -7.5) (size 0.53 0.53) (property pad_prop_bga) (layers "F.Cu" "F.Paste" "F.Mask") (tstamp 7a9494bc-1fc1-45fa-890e-9871896356f1))
  (pad "D15" smd circle (at 3.5 -7.5) (size 0.53 0.53) (property pad_prop_bga) (layers "F.Cu" "F.Paste" "F.Mask") (tstamp b381812a-4ede-4485-b03e-6485c9727a74))
  (pad "D16" smd circle (at 4.5 -7.5) (size 0.53 0.53) (property pad_prop_bga) (layers "F.Cu" "F.Paste" "F.Mask") (tstamp 6a359fd0-e7c2-4a93-90b9-6e84230b9b7d))
  (pad "D17" smd circle (at 5.5 -7.5) (size 0.53 0.53) (property pad_prop_bga) (layers "F.Cu" "F.Paste" "F.Mask") (tstamp c3336651-ac92-40c6-812c-96cda0c6ec97))
  (pad "D18" smd circle (at 6.5 -7.5) (size 0.53 0.53) (property pad_prop_bga) (layers "F.Cu" "F.Paste" "F.Mask") (tstamp 64e009a7-98ca-4f2d-8adf-92fc8bb6a570))
  (pad "D19" smd circle (at 7.5 -7.5) (size 0.53 0.53) (property pad_prop_bga) (layers "F.Cu" "F.Paste" "F.Mask") (tstamp e86d2ef2-141f-4c6e-85a3-d76a7e4be070))
  (pad "D20" smd circle (at 8.5 -7.5) (size 0.53 0.53) (property pad_prop_bga) (layers "F.Cu" "F.Paste" "F.Mask") (tstamp cdc36287-5f8e-45d2-8ea2-5519a4ca012b))
  (pad "D21" smd circle (at 9.5 -7.5) (size 0.53 0.53) (property pad_prop_bga) (layers "F.Cu" "F.Paste" "F.Mask") (tstamp d206eee8-6a1c-41e8-9465-c5f339bc898c))
  (pad "D22" smd circle (at 10.5 -7.5) (size 0.53 0.53) (property pad_prop_bga) (layers "F.Cu" "F.Paste" "F.Mask") (tstamp 504667a6-4ce1-45d4-8013-14b97a97f8d4))
  (pad "E1" smd circle (at -10.5 -6.5) (size 0.53 0.53) (property pad_prop_bga) (layers "F.Cu" "F.Paste" "F.Mask") (tstamp 92ab4727-613e-46c4-a0b1-868393843c1a))
  (pad "E2" smd circle (at -9.5 -6.5) (size 0.53 0.53) (property pad_prop_bga) (layers "F.Cu" "F.Paste" "F.Mask") (tstamp 662bdf0a-06fe-467b-82df-d3a0a4967aa0))
  (pad "E3" smd circle (at -8.5 -6.5) (size 0.53 0.53) (property pad_prop_bga) (layers "F.Cu" "F.Paste" "F.Mask") (tstamp 4dab7cd5-6a1f-4353-98d5-a44783b28510))
  (pad "E4" smd circle (at -7.5 -6.5) (size 0.53 0.53) (property pad_prop_bga) (layers "F.Cu" "F.Paste" "F.Mask") (tstamp 9fae00f0-fe79-4d9a-8c6a-552d74edfcfc))
  (pad "E5" smd circle (at -6.5 -6.5) (size 0.53 0.53) (property pad_prop_bga) (layers "F.Cu" "F.Paste" "F.Mask") (tstamp c001e6c6-9434-46d5-addc-fb1cde4fc061))
  (pad "E6" smd circle (at -5.5 -6.5) (size 0.53 0.53) (property pad_prop_bga) (layers "F.Cu" "F.Paste" "F.Mask") (tstamp 8b33fb24-8939-401e-80e3-a2bdbcf684d0))
  (pad "E7" smd circle (at -4.5 -6.5) (size 0.53 0.53) (property pad_prop_bga) (layers "F.Cu" "F.Paste" "F.Mask") (tstamp 92b94370-a68e-41a2-91fd-263988452677))
  (pad "E8" smd circle (at -3.5 -6.5) (size 0.53 0.53) (property pad_prop_bga) (layers "F.Cu" "F.Paste" "F.Mask") (tstamp 169aaadb-7477-4dca-81b2-870dee2db51c))
  (pad "E9" smd circle (at -2.5 -6.5) (size 0.53 0.53) (property pad_prop_bga) (layers "F.Cu" "F.Paste" "F.Mask") (tstamp ca6ddfd3-9bcb-41eb-96a8-986ae8867c7c))
  (pad "E10" smd circle (at -1.5 -6.5) (size 0.53 0.53) (property pad_prop_bga) (layers "F.Cu" "F.Paste" "F.Mask") (tstamp 99680ebf-c07e-44df-8b24-7f11b330a33e))
  (pad "E11" smd circle (at -0.5 -6.5) (size 0.53 0.53) (property pad_prop_bga) (layers "F.Cu" "F.Paste" "F.Mask") (tstamp e559d7a7-2fdb-4d0e-ba43-688c0022ec72))
  (pad "E12" smd circle (at 0.5 -6.5) (size 0.53 0.53) (property pad_prop_bga) (layers "F.Cu" "F.Paste" "F.Mask") (tstamp 7f9efb89-0af3-44ac-b1a5-a2465f1c6356))
  (pad "E13" smd circle (at 1.5 -6.5) (size 0.53 0.53) (property pad_prop_bga) (layers "F.Cu" "F.Paste" "F.Mask") (tstamp 31cc13e6-be07-4d77-a527-724de2ba89d8))
  (pad "E14" smd circle (at 2.5 -6.5) (size 0.53 0.53) (property pad_prop_bga) (layers "F.Cu" "F.Paste" "F.Mask") (tstamp 30c2caaf-7ce8-449f-bfe9-3872b268c4b4))
  (pad "E15" smd circle (at 3.5 -6.5) (size 0.53 0.53) (property pad_prop_bga) (layers "F.Cu" "F.Paste" "F.Mask") (tstamp aef6315b-ad6c-43aa-b990-24d97abf1c5c))
  (pad "E16" smd circle (at 4.5 -6.5) (size 0.53 0.53) (property pad_prop_bga) (layers "F.Cu" "F.Paste" "F.Mask") (tstamp 901e45e6-fb1e-4234-8ec0-64cb7b15ac6b))
  (pad "E17" smd circle (at 5.5 -6.5) (size 0.53 0.53) (property pad_prop_bga) (layers "F.Cu" "F.Paste" "F.Mask") (tstamp 4a57795c-47a5-4e19-ac1e-d324a670b3ee))
  (pad "E18" smd circle (at 6.5 -6.5) (size 0.53 0.53) (property pad_prop_bga) (layers "F.Cu" "F.Paste" "F.Mask") (tstamp 21e03abb-31e7-45ed-b244-28c323c0dac2))
  (pad "E19" smd circle (at 7.5 -6.5) (size 0.53 0.53) (property pad_prop_bga) (layers "F.Cu" "F.Paste" "F.Mask") (tstamp a5d08bf4-ab71-45d2-a96f-2b0dc5a4bab5))
  (pad "E20" smd circle (at 8.5 -6.5) (size 0.53 0.53) (property pad_prop_bga) (layers "F.Cu" "F.Paste" "F.Mask") (tstamp 7d5a34ea-ad23-4603-90fb-f8995e5b1397))
  (pad "E21" smd circle (at 9.5 -6.5) (size 0.53 0.53) (property pad_prop_bga) (layers "F.Cu" "F.Paste" "F.Mask") (tstamp 619169a6-30af-4248-8a90-cc9e46a7bdc5))
  (pad "E22" smd circle (at 10.5 -6.5) (size 0.53 0.53) (property pad_prop_bga) (layers "F.Cu" "F.Paste" "F.Mask") (tstamp 1e9cdfc9-2941-4a7c-99ca-ee084e09c2f4))
  (pad "F1" smd circle (at -10.5 -5.5) (size 0.53 0.53) (property pad_prop_bga) (layers "F.Cu" "F.Paste" "F.Mask") (tstamp a6d9bab8-c26a-4c43-ade9-dde7360bdf9a))
  (pad "F2" smd circle (at -9.5 -5.5) (size 0.53 0.53) (property pad_prop_bga) (layers "F.Cu" "F.Paste" "F.Mask") (tstamp 97feb1fc-5a1b-45f1-b7ca-2b497f6ecfc3))
  (pad "F3" smd circle (at -8.5 -5.5) (size 0.53 0.53) (property pad_prop_bga) (layers "F.Cu" "F.Paste" "F.Mask") (tstamp e3acf246-41ef-46da-be84-ecb5121aa4d6))
  (pad "F4" smd circle (at -7.5 -5.5) (size 0.53 0.53) (property pad_prop_bga) (layers "F.Cu" "F.Paste" "F.Mask") (tstamp f04538d5-85ce-4bfd-b82e-d0bf3d7a7731))
  (pad "F5" smd circle (at -6.5 -5.5) (size 0.53 0.53) (property pad_prop_bga) (layers "F.Cu" "F.Paste" "F.Mask") (tstamp 61229939-574c-43c8-9488-7e3e984b3fd7))
  (pad "F6" smd circle (at -5.5 -5.5) (size 0.53 0.53) (property pad_prop_bga) (layers "F.Cu" "F.Paste" "F.Mask") (tstamp a14620e8-d8a8-4aa3-890e-8907f17f9ecc))
  (pad "F7" smd circle (at -4.5 -5.5) (size 0.53 0.53) (property pad_prop_bga) (layers "F.Cu" "F.Paste" "F.Mask") (tstamp bcdc5211-f281-4724-a1d1-0068767ea6ed))
  (pad "F8" smd circle (at -3.5 -5.5) (size 0.53 0.53) (property pad_prop_bga) (layers "F.Cu" "F.Paste" "F.Mask") (tstamp a89464f4-f291-4e6b-977f-ebc7c9411bd3))
  (pad "F9" smd circle (at -2.5 -5.5) (size 0.53 0.53) (property pad_prop_bga) (layers "F.Cu" "F.Paste" "F.Mask") (tstamp a1ec0111-178e-4953-904f-fd13997e09bb))
  (pad "F10" smd circle (at -1.5 -5.5) (size 0.53 0.53) (property pad_prop_bga) (layers "F.Cu" "F.Paste" "F.Mask") (tstamp 65a912c4-8a3f-4228-b066-79c90fc80849))
  (pad "F11" smd circle (at -0.5 -5.5) (size 0.53 0.53) (property pad_prop_bga) (layers "F.Cu" "F.Paste" "F.Mask") (tstamp 86b0d49d-8fa1-403e-9da5-ea64899b8c30))
  (pad "F12" smd circle (at 0.5 -5.5) (size 0.53 0.53) (property pad_prop_bga) (layers "F.Cu" "F.Paste" "F.Mask") (tstamp 2fe0e115-ed73-4920-a987-cc82143b9fd3))
  (pad "F13" smd circle (at 1.5 -5.5) (size 0.53 0.53) (property pad_prop_bga) (layers "F.Cu" "F.Paste" "F.Mask") (tstamp 89773390-b53a-4049-ac25-dc03bb5c4258))
  (pad "F14" smd circle (at 2.5 -5.5) (size 0.53 0.53) (property pad_prop_bga) (layers "F.Cu" "F.Paste" "F.Mask") (tstamp 87c39011-7dc5-44f0-8d4e-a544e7317554))
  (pad "F15" smd circle (at 3.5 -5.5) (size 0.53 0.53) (property pad_prop_bga) (layers "F.Cu" "F.Paste" "F.Mask") (tstamp de1308d1-015e-482e-bcaf-70642bd19b20))
  (pad "F16" smd circle (at 4.5 -5.5) (size 0.53 0.53) (property pad_prop_bga) (layers "F.Cu" "F.Paste" "F.Mask") (tstamp 232b1004-fd91-48a0-9ba6-c7c613a1ea6b))
  (pad "F17" smd circle (at 5.5 -5.5) (size 0.53 0.53) (property pad_prop_bga) (layers "F.Cu" "F.Paste" "F.Mask") (tstamp c47239ce-d940-47fc-a6fa-006f29af7228))
  (pad "F18" smd circle (at 6.5 -5.5) (size 0.53 0.53) (property pad_prop_bga) (layers "F.Cu" "F.Paste" "F.Mask") (tstamp 15e2a844-be12-4647-963b-08cab9f89239))
  (pad "F19" smd circle (at 7.5 -5.5) (size 0.53 0.53) (property pad_prop_bga) (layers "F.Cu" "F.Paste" "F.Mask") (tstamp eedec64c-cf56-4625-9535-f6120b90aad6))
  (pad "F20" smd circle (at 8.5 -5.5) (size 0.53 0.53) (property pad_prop_bga) (layers "F.Cu" "F.Paste" "F.Mask") (tstamp 1da4c84c-e207-4104-b56c-d9eb91b9dc29))
  (pad "F21" smd circle (at 9.5 -5.5) (size 0.53 0.53) (property pad_prop_bga) (layers "F.Cu" "F.Paste" "F.Mask") (tstamp ed5d520c-dee4-4aaa-8d5e-1a029b79831e))
  (pad "F22" smd circle (at 10.5 -5.5) (size 0.53 0.53) (property pad_prop_bga) (layers "F.Cu" "F.Paste" "F.Mask") (tstamp eac0e6ce-e943-4abd-bcec-e805e893e7ac))
  (pad "G1" smd circle (at -10.5 -4.5) (size 0.53 0.53) (property pad_prop_bga) (layers "F.Cu" "F.Paste" "F.Mask") (tstamp 1a7e6908-5435-4cee-af20-798a176483ec))
  (pad "G2" smd circle (at -9.5 -4.5) (size 0.53 0.53) (property pad_prop_bga) (layers "F.Cu" "F.Paste" "F.Mask") (tstamp 074da7c5-9e93-4d45-a669-993350bcfb9a))
  (pad "G3" smd circle (at -8.5 -4.5) (size 0.53 0.53) (property pad_prop_bga) (layers "F.Cu" "F.Paste" "F.Mask") (tstamp 16d116f3-c31f-41da-a564-58ef08e9fb8c))
  (pad "G4" smd circle (at -7.5 -4.5) (size 0.53 0.53) (property pad_prop_bga) (layers "F.Cu" "F.Paste" "F.Mask") (tstamp 14860300-1ce8-4287-b5b3-b5f8e824c96c))
  (pad "G5" smd circle (at -6.5 -4.5) (size 0.53 0.53) (property pad_prop_bga) (layers "F.Cu" "F.Paste" "F.Mask") (tstamp e1a4ea47-641d-4505-b01b-4635d892b903))
  (pad "G6" smd circle (at -5.5 -4.5) (size 0.53 0.53) (property pad_prop_bga) (layers "F.Cu" "F.Paste" "F.Mask") (tstamp 5e1bdf72-c57d-447d-beaf-31aacb6880a3))
  (pad "G7" smd circle (at -4.5 -4.5) (size 0.53 0.53) (property pad_prop_bga) (layers "F.Cu" "F.Paste" "F.Mask") (tstamp 3ebe1e70-c145-4275-901c-c24b3e71da4a))
  (pad "G8" smd circle (at -3.5 -4.5) (size 0.53 0.53) (property pad_prop_bga) (layers "F.Cu" "F.Paste" "F.Mask") (tstamp 2b86c3ba-0d3b-4ae2-8181-357e7ad21751))
  (pad "G9" smd circle (at -2.5 -4.5) (size 0.53 0.53) (property pad_prop_bga) (layers "F.Cu" "F.Paste" "F.Mask") (tstamp 49454066-58d2-495c-a8e4-f32d881194f8))
  (pad "G10" smd circle (at -1.5 -4.5) (size 0.53 0.53) (property pad_prop_bga) (layers "F.Cu" "F.Paste" "F.Mask") (tstamp 5d7c340f-c9c1-4cfc-ab23-20df1d3335a6))
  (pad "G11" smd circle (at -0.5 -4.5) (size 0.53 0.53) (property pad_prop_bga) (layers "F.Cu" "F.Paste" "F.Mask") (tstamp b6e59318-8f44-4285-9403-78312f950e91))
  (pad "G12" smd circle (at 0.5 -4.5) (size 0.53 0.53) (property pad_prop_bga) (layers "F.Cu" "F.Paste" "F.Mask") (tstamp ccf61419-a26b-4ec9-aaf8-990a4d94b15f))
  (pad "G13" smd circle (at 1.5 -4.5) (size 0.53 0.53) (property pad_prop_bga) (layers "F.Cu" "F.Paste" "F.Mask") (tstamp e4e13caa-e5bd-4cd7-a068-2f2e96a4bc1c))
  (pad "G14" smd circle (at 2.5 -4.5) (size 0.53 0.53) (property pad_prop_bga) (layers "F.Cu" "F.Paste" "F.Mask") (tstamp 241b673d-9292-4f6b-84e3-d32c9062cbfa))
  (pad "G15" smd circle (at 3.5 -4.5) (size 0.53 0.53) (property pad_prop_bga) (layers "F.Cu" "F.Paste" "F.Mask") (tstamp 134da847-8f3c-4101-a139-0b5c4f0174f3))
  (pad "G16" smd circle (at 4.5 -4.5) (size 0.53 0.53) (property pad_prop_bga) (layers "F.Cu" "F.Paste" "F.Mask") (tstamp c37b60a5-2029-4a04-a574-1c0a86b09c00))
  (pad "G17" smd circle (at 5.5 -4.5) (size 0.53 0.53) (property pad_prop_bga) (layers "F.Cu" "F.Paste" "F.Mask") (tstamp d0b30c83-4492-464b-ae80-e7a30d3ef211))
  (pad "G18" smd circle (at 6.5 -4.5) (size 0.53 0.53) (property pad_prop_bga) (layers "F.Cu" "F.Paste" "F.Mask") (tstamp 82dd1603-4e9c-4dea-a8de-f6800d93655d))
  (pad "G19" smd circle (at 7.5 -4.5) (size 0.53 0.53) (property pad_prop_bga) (layers "F.Cu" "F.Paste" "F.Mask") (tstamp 292d43bc-0970-4d77-9ac8-288de3841aea))
  (pad "G20" smd circle (at 8.5 -4.5) (size 0.53 0.53) (property pad_prop_bga) (layers "F.Cu" "F.Paste" "F.Mask") (tstamp a2ca5d00-a2e6-47d9-a6dc-df2ba5ef8e99))
  (pad "G21" smd circle (at 9.5 -4.5) (size 0.53 0.53) (property pad_prop_bga) (layers "F.Cu" "F.Paste" "F.Mask") (tstamp ff622815-300c-4051-bca0-9a05c8407464))
  (pad "G22" smd circle (at 10.5 -4.5) (size 0.53 0.53) (property pad_prop_bga) (layers "F.Cu" "F.Paste" "F.Mask") (tstamp e193cae3-7815-4dc3-aa53-8393d00866b0))
  (pad "H1" smd circle (at -10.5 -3.5) (size 0.53 0.53) (property pad_prop_bga) (layers "F.Cu" "F.Paste" "F.Mask") (tstamp c912f254-23e5-47c7-8e00-db23e7e796ca))
  (pad "H2" smd circle (at -9.5 -3.5) (size 0.53 0.53) (property pad_prop_bga) (layers "F.Cu" "F.Paste" "F.Mask") (tstamp 611eb8d5-8ad1-4ddc-b316-3c836211b4be))
  (pad "H3" smd circle (at -8.5 -3.5) (size 0.53 0.53) (property pad_prop_bga) (layers "F.Cu" "F.Paste" "F.Mask") (tstamp e0b720bd-a2e2-474c-a089-0271ca314d86))
  (pad "H4" smd circle (at -7.5 -3.5) (size 0.53 0.53) (property pad_prop_bga) (layers "F.Cu" "F.Paste" "F.Mask") (tstamp 6673aa14-64c3-46c2-9d0c-48a11481b230))
  (pad "H5" smd circle (at -6.5 -3.5) (size 0.53 0.53) (property pad_prop_bga) (layers "F.Cu" "F.Paste" "F.Mask") (tstamp 57c18bbe-1a11-4101-8475-c3470ee391d7))
  (pad "H6" smd circle (at -5.5 -3.5) (size 0.53 0.53) (property pad_prop_bga) (layers "F.Cu" "F.Paste" "F.Mask") (tstamp f653287d-1648-45d3-b821-4e02a84e76d4))
  (pad "H7" smd circle (at -4.5 -3.5) (size 0.53 0.53) (property pad_prop_bga) (layers "F.Cu" "F.Paste" "F.Mask") (tstamp 66912e34-c7a8-48f1-8e5c-fd0c2f793c96))
  (pad "H8" smd circle (at -3.5 -3.5) (size 0.53 0.53) (property pad_prop_bga) (layers "F.Cu" "F.Paste" "F.Mask") (tstamp 0f010ae8-85f7-426c-b8aa-c3953a06edfe))
  (pad "H9" smd circle (at -2.5 -3.5) (size 0.53 0.53) (property pad_prop_bga) (layers "F.Cu" "F.Paste" "F.Mask") (tstamp 9c7b45da-4ac9-44dd-98c3-a14179a077f2))
  (pad "H10" smd circle (at -1.5 -3.5) (size 0.53 0.53) (property pad_prop_bga) (layers "F.Cu" "F.Paste" "F.Mask") (tstamp 43781a08-8399-46b2-bce4-dfaa5186ec98))
  (pad "H11" smd circle (at -0.5 -3.5) (size 0.53 0.53) (property pad_prop_bga) (layers "F.Cu" "F.Paste" "F.Mask") (tstamp c29f63b3-ec45-4767-8f9b-a9da0aa510cf))
  (pad "H12" smd circle (at 0.5 -3.5) (size 0.53 0.53) (property pad_prop_bga) (layers "F.Cu" "F.Paste" "F.Mask") (tstamp 597d534c-ed28-4649-90ef-1f8ee238dec2))
  (pad "H13" smd circle (at 1.5 -3.5) (size 0.53 0.53) (property pad_prop_bga) (layers "F.Cu" "F.Paste" "F.Mask") (tstamp 6b0916f6-d84b-4acd-9e1f-056986d1e563))
  (pad "H14" smd circle (at 2.5 -3.5) (size 0.53 0.53) (property pad_prop_bga) (layers "F.Cu" "F.Paste" "F.Mask") (tstamp d14f7632-6359-4adf-814e-e7d3061078a0))
  (pad "H15" smd circle (at 3.5 -3.5) (size 0.53 0.53) (property pad_prop_bga) (layers "F.Cu" "F.Paste" "F.Mask") (tstamp 16593fbf-128e-4552-a418-ebd078ea2c44))
  (pad "H16" smd circle (at 4.5 -3.5) (size 0.53 0.53) (property pad_prop_bga) (layers "F.Cu" "F.Paste" "F.Mask") (tstamp 9e91c1f9-9341-4404-9621-76909879df34))
  (pad "H17" smd circle (at 5.5 -3.5) (size 0.53 0.53) (property pad_prop_bga) (layers "F.Cu" "F.Paste" "F.Mask") (tstamp 13a39f61-ad04-4024-8315-f8d114580348))
  (pad "H18" smd circle (at 6.5 -3.5) (size 0.53 0.53) (property pad_prop_bga) (layers "F.Cu" "F.Paste" "F.Mask") (tstamp 08e3e174-4bd6-4ce8-ace6-3205452d4c88))
  (pad "H19" smd circle (at 7.5 -3.5) (size 0.53 0.53) (property pad_prop_bga) (layers "F.Cu" "F.Paste" "F.Mask") (tstamp 5d5fb43d-2652-42ef-8089-2c2a37cf14a6))
  (pad "H20" smd circle (at 8.5 -3.5) (size 0.53 0.53) (property pad_prop_bga) (layers "F.Cu" "F.Paste" "F.Mask") (tstamp 92a7ddfd-8b44-4935-8749-84a5b0fd6fd4))
  (pad "H21" smd circle (at 9.5 -3.5) (size 0.53 0.53) (property pad_prop_bga) (layers "F.Cu" "F.Paste" "F.Mask") (tstamp 821a712f-a5db-40b0-a3d1-b6b1a99bc111))
  (pad "H22" smd circle (at 10.5 -3.5) (size 0.53 0.53) (property pad_prop_bga) (layers "F.Cu" "F.Paste" "F.Mask") (tstamp 76ec9c05-4ec7-48ad-9e6b-f1e332c81178))
  (pad "J1" smd circle (at -10.5 -2.5) (size 0.53 0.53) (property pad_prop_bga) (layers "F.Cu" "F.Paste" "F.Mask") (tstamp 83554655-7770-4214-b814-119e599c64a7))
  (pad "J2" smd circle (at -9.5 -2.5) (size 0.53 0.53) (property pad_prop_bga) (layers "F.Cu" "F.Paste" "F.Mask") (tstamp 63ff3fae-3968-4df4-972a-ed82cbc61f43))
  (pad "J3" smd circle (at -8.5 -2.5) (size 0.53 0.53) (property pad_prop_bga) (layers "F.Cu" "F.Paste" "F.Mask") (tstamp 964c70ef-b17a-47fe-91c0-a9923a4028d7))
  (pad "J4" smd circle (at -7.5 -2.5) (size 0.53 0.53) (property pad_prop_bga) (layers "F.Cu" "F.Paste" "F.Mask") (tstamp 7c35d674-26f7-4b73-84b5-29f2332e61e4))
  (pad "J5" smd circle (at -6.5 -2.5) (size 0.53 0.53) (property pad_prop_bga) (layers "F.Cu" "F.Paste" "F.Mask") (tstamp aa17d396-2a5f-41c8-8a9b-5e375b2784ae))
  (pad "J6" smd circle (at -5.5 -2.5) (size 0.53 0.53) (property pad_prop_bga) (layers "F.Cu" "F.Paste" "F.Mask") (tstamp eb14f923-abe8-4c1e-8cb9-14ff1af672ea))
  (pad "J7" smd circle (at -4.5 -2.5) (size 0.53 0.53) (property pad_prop_bga) (layers "F.Cu" "F.Paste" "F.Mask") (tstamp 7b619413-fde1-4c9d-8165-f7589a481482))
  (pad "J8" smd circle (at -3.5 -2.5) (size 0.53 0.53) (property pad_prop_bga) (layers "F.Cu" "F.Paste" "F.Mask") (tstamp 0f4ee7c1-4dbb-46b1-8d55-43cbe3825774))
  (pad "J9" smd circle (at -2.5 -2.5) (size 0.53 0.53) (property pad_prop_bga) (layers "F.Cu" "F.Paste" "F.Mask") (tstamp 32a6893e-8c5f-42eb-9a82-822539a85089))
  (pad "J10" smd circle (at -1.5 -2.5) (size 0.53 0.53) (property pad_prop_bga) (layers "F.Cu" "F.Paste" "F.Mask") (tstamp 6451e6c0-74ef-4bd5-be77-3a1e859df2db))
  (pad "J11" smd circle (at -0.5 -2.5) (size 0.53 0.53) (property pad_prop_bga) (layers "F.Cu" "F.Paste" "F.Mask") (tstamp c73cbceb-3bba-478d-b984-f1406306310e))
  (pad "J12" smd circle (at 0.5 -2.5) (size 0.53 0.53) (property pad_prop_bga) (layers "F.Cu" "F.Paste" "F.Mask") (tstamp 77034ce8-a65d-4b50-9845-259f6e990471))
  (pad "J13" smd circle (at 1.5 -2.5) (size 0.53 0.53) (property pad_prop_bga) (layers "F.Cu" "F.Paste" "F.Mask") (tstamp 9bbd577f-d861-4fc5-873a-1d054142e017))
  (pad "J14" smd circle (at 2.5 -2.5) (size 0.53 0.53) (property pad_prop_bga) (layers "F.Cu" "F.Paste" "F.Mask") (tstamp 58fcdf46-868d-4104-9cd3-889d9fe028db))
  (pad "J15" smd circle (at 3.5 -2.5) (size 0.53 0.53) (property pad_prop_bga) (layers "F.Cu" "F.Paste" "F.Mask") (tstamp cbaaa1b4-4215-4235-a535-555996dd7b3e))
  (pad "J16" smd circle (at 4.5 -2.5) (size 0.53 0.53) (property pad_prop_bga) (layers "F.Cu" "F.Paste" "F.Mask") (tstamp 63cd637f-a189-4024-8030-69cc3f5a5dd1))
  (pad "J17" smd circle (at 5.5 -2.5) (size 0.53 0.53) (property pad_prop_bga) (layers "F.Cu" "F.Paste" "F.Mask") (tstamp 01cec92a-1673-40fb-b183-b2f70b5c0fbe))
  (pad "J18" smd circle (at 6.5 -2.5) (size 0.53 0.53) (property pad_prop_bga) (layers "F.Cu" "F.Paste" "F.Mask") (tstamp af1170e4-f66f-4f8d-aa6f-33036edf70bf))
  (pad "J19" smd circle (at 7.5 -2.5) (size 0.53 0.53) (property pad_prop_bga) (layers "F.Cu" "F.Paste" "F.Mask") (tstamp 752f88ac-cac9-4775-895a-8074ee076c1a))
  (pad "J20" smd circle (at 8.5 -2.5) (size 0.53 0.53) (property pad_prop_bga) (layers "F.Cu" "F.Paste" "F.Mask") (tstamp 3e612df6-0b5a-49db-965a-ef0147b6bdd2))
  (pad "J21" smd circle (at 9.5 -2.5) (size 0.53 0.53) (property pad_prop_bga) (layers "F.Cu" "F.Paste" "F.Mask") (tstamp bf780f6c-bf9c-42a0-a151-257d40a8162b))
  (pad "J22" smd circle (at 10.5 -2.5) (size 0.53 0.53) (property pad_prop_bga) (layers "F.Cu" "F.Paste" "F.Mask") (tstamp 71b79cdb-223f-4415-ac76-3ec4734aff69))
  (pad "K1" smd circle (at -10.5 -1.5) (size 0.53 0.53) (property pad_prop_bga) (layers "F.Cu" "F.Paste" "F.Mask") (tstamp 0547e316-e873-4bd3-9d7d-a775ac755f8a))
  (pad "K2" smd circle (at -9.5 -1.5) (size 0.53 0.53) (property pad_prop_bga) (layers "F.Cu" "F.Paste" "F.Mask") (tstamp cad7da6d-12dc-40fc-aa52-c6e1ccb2b2c8))
  (pad "K3" smd circle (at -8.5 -1.5) (size 0.53 0.53) (property pad_prop_bga) (layers "F.Cu" "F.Paste" "F.Mask") (tstamp 291ab5de-abbe-4c55-9d00-ca12fce92b29))
  (pad "K4" smd circle (at -7.5 -1.5) (size 0.53 0.53) (property pad_prop_bga) (layers "F.Cu" "F.Paste" "F.Mask") (tstamp 208aca1e-c21e-48f8-8bd9-3877c606cfe5))
  (pad "K5" smd circle (at -6.5 -1.5) (size 0.53 0.53) (property pad_prop_bga) (layers "F.Cu" "F.Paste" "F.Mask") (tstamp c3c24d54-85c3-46d3-9e4a-044a8b2aad46))
  (pad "K6" smd circle (at -5.5 -1.5) (size 0.53 0.53) (property pad_prop_bga) (layers "F.Cu" "F.Paste" "F.Mask") (tstamp d4bb5b44-d07d-473a-95df-bfd0346eb683))
  (pad "K7" smd circle (at -4.5 -1.5) (size 0.53 0.53) (property pad_prop_bga) (layers "F.Cu" "F.Paste" "F.Mask") (tstamp 27d8f745-02a5-46b1-bc00-2cc0e5656aa9))
  (pad "K8" smd circle (at -3.5 -1.5) (size 0.53 0.53) (property pad_prop_bga) (layers "F.Cu" "F.Paste" "F.Mask") (tstamp 59888140-8d0d-4800-877e-f1898d1ec57f))
  (pad "K9" smd circle (at -2.5 -1.5) (size 0.53 0.53) (property pad_prop_bga) (layers "F.Cu" "F.Paste" "F.Mask") (tstamp 1b35af91-6487-4c44-b0db-4a3b8537ec14))
  (pad "K10" smd circle (at -1.5 -1.5) (size 0.53 0.53) (property pad_prop_bga) (layers "F.Cu" "F.Paste" "F.Mask") (tstamp 291535d5-bf36-4caf-97fa-e4cd42c19576))
  (pad "K11" smd circle (at -0.5 -1.5) (size 0.53 0.53) (property pad_prop_bga) (layers "F.Cu" "F.Paste" "F.Mask") (tstamp 845533ae-aecc-4fe9-bd43-564b87212c2b))
  (pad "K12" smd circle (at 0.5 -1.5) (size 0.53 0.53) (property pad_prop_bga) (layers "F.Cu" "F.Paste" "F.Mask") (tstamp f1e09b57-da67-4681-bc80-f0f74e0cebb9))
  (pad "K13" smd circle (at 1.5 -1.5) (size 0.53 0.53) (property pad_prop_bga) (layers "F.Cu" "F.Paste" "F.Mask") (tstamp 6f9d4daa-2bf8-4e49-8c59-0681dc40b312))
  (pad "K14" smd circle (at 2.5 -1.5) (size 0.53 0.53) (property pad_prop_bga) (layers "F.Cu" "F.Paste" "F.Mask") (tstamp 62867a47-32d6-4500-a352-17502c909a07))
  (pad "K15" smd circle (at 3.5 -1.5) (size 0.53 0.53) (property pad_prop_bga) (layers "F.Cu" "F.Paste" "F.Mask") (tstamp 9b1dfa7f-435d-4384-9e7f-252e329ec607))
  (pad "K16" smd circle (at 4.5 -1.5) (size 0.53 0.53) (property pad_prop_bga) (layers "F.Cu" "F.Paste" "F.Mask") (tstamp 1474567c-b74c-4742-9b11-8031cd9ae0f1))
  (pad "K17" smd circle (at 5.5 -1.5) (size 0.53 0.53) (property pad_prop_bga) (layers "F.Cu" "F.Paste" "F.Mask") (tstamp 9b2ab00b-8b99-4b12-b7b2-f515d458d5fe))
  (pad "K18" smd circle (at 6.5 -1.5) (size 0.53 0.53) (property pad_prop_bga) (layers "F.Cu" "F.Paste" "F.Mask") (tstamp 1eecc158-8435-4465-9d4d-41fc750c25b5))
  (pad "K19" smd circle (at 7.5 -1.5) (size 0.53 0.53) (property pad_prop_bga) (layers "F.Cu" "F.Paste" "F.Mask") (tstamp b7cda8e0-8b02-44f6-9c29-766a546af4b2))
  (pad "K20" smd circle (at 8.5 -1.5) (size 0.53 0.53) (property pad_prop_bga) (layers "F.Cu" "F.Paste" "F.Mask") (tstamp 0a87da71-b9a0-4341-bae1-0e9504958176))
  (pad "K21" smd circle (at 9.5 -1.5) (size 0.53 0.53) (property pad_prop_bga) (layers "F.Cu" "F.Paste" "F.Mask") (tstamp a9d7e1fc-b6a9-4954-91b1-7df689489010))
  (pad "K22" smd circle (at 10.5 -1.5) (size 0.53 0.53) (property pad_prop_bga) (layers "F.Cu" "F.Paste" "F.Mask") (tstamp b5e6b054-6511-4d28-8efd-0308f5aa8a8f))
  (pad "L1" smd circle (at -10.5 -0.5) (size 0.53 0.53) (property pad_prop_bga) (layers "F.Cu" "F.Paste" "F.Mask") (tstamp be2a7090-1be1-4dd8-bf15-e11586c5b290))
  (pad "L2" smd circle (at -9.5 -0.5) (size 0.53 0.53) (property pad_prop_bga) (layers "F.Cu" "F.Paste" "F.Mask") (tstamp 026f92ca-465f-4700-b15a-8b9cdec7d53f))
  (pad "L3" smd circle (at -8.5 -0.5) (size 0.53 0.53) (property pad_prop_bga) (layers "F.Cu" "F.Paste" "F.Mask") (tstamp e90e2d7d-2d27-4c66-ad0d-af4614b447db))
  (pad "L4" smd circle (at -7.5 -0.5) (size 0.53 0.53) (property pad_prop_bga) (layers "F.Cu" "F.Paste" "F.Mask") (tstamp dfe3c465-f9f4-460e-a7fd-a6a1bff86209))
  (pad "L5" smd circle (at -6.5 -0.5) (size 0.53 0.53) (property pad_prop_bga) (layers "F.Cu" "F.Paste" "F.Mask") (tstamp b662a13d-5778-4fa9-b67c-8b6b69bb9d7f))
  (pad "L6" smd circle (at -5.5 -0.5) (size 0.53 0.53) (property pad_prop_bga) (layers "F.Cu" "F.Paste" "F.Mask") (tstamp 6b813c57-ddf4-4f5f-981b-932b82a5303c))
  (pad "L7" smd circle (at -4.5 -0.5) (size 0.53 0.53) (property pad_prop_bga) (layers "F.Cu" "F.Paste" "F.Mask") (tstamp f3bca201-673d-4392-8d4e-a09baa7742eb))
  (pad "L8" smd circle (at -3.5 -0.5) (size 0.53 0.53) (property pad_prop_bga) (layers "F.Cu" "F.Paste" "F.Mask") (tstamp a6a31360-d63f-435f-a112-fcdbb1283b7a))
  (pad "L9" smd circle (at -2.5 -0.5) (size 0.53 0.53) (property pad_prop_bga) (layers "F.Cu" "F.Paste" "F.Mask") (tstamp ca3ea9c1-932c-49f6-b7ff-f9d66d3eb657))
  (pad "L10" smd circle (at -1.5 -0.5) (size 0.53 0.53) (property pad_prop_bga) (layers "F.Cu" "F.Paste" "F.Mask") (tstamp 20562648-1e01-4821-bb7c-0904b13e98b4))
  (pad "L11" smd circle (at -0.5 -0.5) (size 0.53 0.53) (property pad_prop_bga) (layers "F.Cu" "F.Paste" "F.Mask") (tstamp 63c56e69-e155-42c9-a822-30486a882f2b))
  (pad "L12" smd circle (at 0.5 -0.5) (size 0.53 0.53) (property pad_prop_bga) (layers "F.Cu" "F.Paste" "F.Mask") (tstamp 2f17d195-914d-4ec8-9280-07dd6e22151e))
  (pad "L13" smd circle (at 1.5 -0.5) (size 0.53 0.53) (property pad_prop_bga) (layers "F.Cu" "F.Paste" "F.Mask") (tstamp 1efa4243-882a-4198-bcad-384fd1c756e1))
  (pad "L14" smd circle (at 2.5 -0.5) (size 0.53 0.53) (property pad_prop_bga) (layers "F.Cu" "F.Paste" "F.Mask") (tstamp bb95c7fa-beb2-4d0b-8951-d8d5bd7e50e2))
  (pad "L15" smd circle (at 3.5 -0.5) (size 0.53 0.53) (property pad_prop_bga) (layers "F.Cu" "F.Paste" "F.Mask") (tstamp 6989b35b-478b-4075-84bf-34d2364a4d54))
  (pad "L16" smd circle (at 4.5 -0.5) (size 0.53 0.53) (property pad_prop_bga) (layers "F.Cu" "F.Paste" "F.Mask") (tstamp 800e4006-4d35-4393-bbc0-b3e8bab8e8c6))
  (pad "L17" smd circle (at 5.5 -0.5) (size 0.53 0.53) (property pad_prop_bga) (layers "F.Cu" "F.Paste" "F.Mask") (tstamp d9ce63c9-b4cb-4915-a87e-a32f150d926e))
  (pad "L18" smd circle (at 6.5 -0.5) (size 0.53 0.53) (property pad_prop_bga) (layers "F.Cu" "F.Paste" "F.Mask") (tstamp 9fcb13a2-1239-4c5a-824b-4fa63762be25))
  (pad "L19" smd circle (at 7.5 -0.5) (size 0.53 0.53) (property pad_prop_bga) (layers "F.Cu" "F.Paste" "F.Mask") (tstamp 75c304d7-82fa-4469-91c9-e8019be05b21))
  (pad "L20" smd circle (at 8.5 -0.5) (size 0.53 0.53) (property pad_prop_bga) (layers "F.Cu" "F.Paste" "F.Mask") (tstamp e9a8d508-38c9-489b-8bbd-14a027f5a739))
  (pad "L21" smd circle (at 9.5 -0.5) (size 0.53 0.53) (property pad_prop_bga) (layers "F.Cu" "F.Paste" "F.Mask") (tstamp 1c948d12-c608-492a-a416-e1983dd19db3))
  (pad "L22" smd circle (at 10.5 -0.5) (size 0.53 0.53) (property pad_prop_bga) (layers "F.Cu" "F.Paste" "F.Mask") (tstamp 9b5b043d-2241-44f3-a542-e9c6a54a33b7))
  (pad "M1" smd circle (at -10.5 0.5) (size 0.53 0.53) (property pad_prop_bga) (layers "F.Cu" "F.Paste" "F.Mask") (tstamp 3e93294b-185d-4cb5-860e-c83bc3f23d4d))
  (pad "M2" smd circle (at -9.5 0.5) (size 0.53 0.53) (property pad_prop_bga) (layers "F.Cu" "F.Paste" "F.Mask") (tstamp d67cf8eb-5f3a-47d0-b892-f30802e31fee))
  (pad "M3" smd circle (at -8.5 0.5) (size 0.53 0.53) (property pad_prop_bga) (layers "F.Cu" "F.Paste" "F.Mask") (tstamp 9aca2423-4a40-4ea9-accf-37384364961a))
  (pad "M4" smd circle (at -7.5 0.5) (size 0.53 0.53) (property pad_prop_bga) (layers "F.Cu" "F.Paste" "F.Mask") (tstamp 00e43f15-774a-4609-88cc-94b5e78907be))
  (pad "M5" smd circle (at -6.5 0.5) (size 0.53 0.53) (property pad_prop_bga) (layers "F.Cu" "F.Paste" "F.Mask") (tstamp 22aca876-b5a4-4efb-a6dd-adb417cdec19))
  (pad "M6" smd circle (at -5.5 0.5) (size 0.53 0.53) (property pad_prop_bga) (layers "F.Cu" "F.Paste" "F.Mask") (tstamp 7cc3ba02-a2fd-4b69-b489-650864e48c4a))
  (pad "M7" smd circle (at -4.5 0.5) (size 0.53 0.53) (property pad_prop_bga) (layers "F.Cu" "F.Paste" "F.Mask") (tstamp ef3bb5de-c169-4ddb-8809-dc94ed581331))
  (pad "M8" smd circle (at -3.5 0.5) (size 0.53 0.53) (property pad_prop_bga) (layers "F.Cu" "F.Paste" "F.Mask") (tstamp 146cb37e-53d8-49e3-9002-5854d2a681f0))
  (pad "M9" smd circle (at -2.5 0.5) (size 0.53 0.53) (property pad_prop_bga) (layers "F.Cu" "F.Paste" "F.Mask") (tstamp 526135b8-4fb4-434d-88da-69dad94ac297))
  (pad "M10" smd circle (at -1.5 0.5) (size 0.53 0.53) (property pad_prop_bga) (layers "F.Cu" "F.Paste" "F.Mask") (tstamp c2e62f50-833c-4c39-ad6e-c3fe1478dac0))
  (pad "M11" smd circle (at -0.5 0.5) (size 0.53 0.53) (property pad_prop_bga) (layers "F.Cu" "F.Paste" "F.Mask") (tstamp 5edeb0cf-f432-47b4-a293-c4004437548f))
  (pad "M12" smd circle (at 0.5 0.5) (size 0.53 0.53) (property pad_prop_bga) (layers "F.Cu" "F.Paste" "F.Mask") (tstamp 9ddf73bb-69e5-4f78-ac6f-91d80ae6743b))
  (pad "M13" smd circle (at 1.5 0.5) (size 0.53 0.53) (property pad_prop_bga) (layers "F.Cu" "F.Paste" "F.Mask") (tstamp 37ca70d0-db6a-4296-a844-e71dfa553bf1))
  (pad "M14" smd circle (at 2.5 0.5) (size 0.53 0.53) (property pad_prop_bga) (layers "F.Cu" "F.Paste" "F.Mask") (tstamp 58f521bb-44c2-4525-bb80-8d0837664674))
  (pad "M15" smd circle (at 3.5 0.5) (size 0.53 0.53) (property pad_prop_bga) (layers "F.Cu" "F.Paste" "F.Mask") (tstamp e7bbf3e3-5d69-4b94-b979-e43fadfc0500))
  (pad "M16" smd circle (at 4.5 0.5) (size 0.53 0.53) (property pad_prop_bga) (layers "F.Cu" "F.Paste" "F.Mask") (tstamp fc6ca7c7-2730-424b-974a-a6786b4d22a1))
  (pad "M17" smd circle (at 5.5 0.5) (size 0.53 0.53) (property pad_prop_bga) (layers "F.Cu" "F.Paste" "F.Mask") (tstamp f5a58529-fe73-4934-b455-fe0c8d33775e))
  (pad "M18" smd circle (at 6.5 0.5) (size 0.53 0.53) (property pad_prop_bga) (layers "F.Cu" "F.Paste" "F.Mask") (tstamp 818ecab7-200c-4322-bb48-4d4398dde55c))
  (pad "M19" smd circle (at 7.5 0.5) (size 0.53 0.53) (property pad_prop_bga) (layers "F.Cu" "F.Paste" "F.Mask") (tstamp 74875af7-4c3f-4aaf-bd61-a27e2d4926ae))
  (pad "M20" smd circle (at 8.5 0.5) (size 0.53 0.53) (property pad_prop_bga) (layers "F.Cu" "F.Paste" "F.Mask") (tstamp 945da78f-e22b-44f4-bddd-05e8d3f0802b))
  (pad "M21" smd circle (at 9.5 0.5) (size 0.53 0.53) (property pad_prop_bga) (layers "F.Cu" "F.Paste" "F.Mask") (tstamp 4ed0fbdb-e1f4-4e9a-b3c3-4d6f82ef0e9f))
  (pad "M22" smd circle (at 10.5 0.5) (size 0.53 0.53) (property pad_prop_bga) (layers "F.Cu" "F.Paste" "F.Mask") (tstamp 10d77f23-043a-42b7-918c-8b9748f14746))
  (pad "N1" smd circle (at -10.5 1.5) (size 0.53 0.53) (property pad_prop_bga) (layers "F.Cu" "F.Paste" "F.Mask") (tstamp a2c4ac58-9f0c-415c-81f1-ec6c4b4df925))
  (pad "N2" smd circle (at -9.5 1.5) (size 0.53 0.53) (property pad_prop_bga) (layers "F.Cu" "F.Paste" "F.Mask") (tstamp 253a1369-efc0-4c21-bff7-1738ac0cd9dc))
  (pad "N3" smd circle (at -8.5 1.5) (size 0.53 0.53) (property pad_prop_bga) (layers "F.Cu" "F.Paste" "F.Mask") (tstamp 16a68196-9975-4212-bff3-2e1eb33649b5))
  (pad "N4" smd circle (at -7.5 1.5) (size 0.53 0.53) (property pad_prop_bga) (layers "F.Cu" "F.Paste" "F.Mask") (tstamp d212450b-9c49-4b53-a738-609c00436baa))
  (pad "N5" smd circle (at -6.5 1.5) (size 0.53 0.53) (property pad_prop_bga) (layers "F.Cu" "F.Paste" "F.Mask") (tstamp 9d085668-feb5-4d4e-9035-39ab56ca9422))
  (pad "N6" smd circle (at -5.5 1.5) (size 0.53 0.53) (property pad_prop_bga) (layers "F.Cu" "F.Paste" "F.Mask") (tstamp 35da9e19-ccde-43fa-a4d1-7ae030d7c92f))
  (pad "N7" smd circle (at -4.5 1.5) (size 0.53 0.53) (property pad_prop_bga) (layers "F.Cu" "F.Paste" "F.Mask") (tstamp 02012a1a-af08-47d8-b20e-b0886bd90549))
  (pad "N8" smd circle (at -3.5 1.5) (size 0.53 0.53) (property pad_prop_bga) (layers "F.Cu" "F.Paste" "F.Mask") (tstamp 9ce0bbc0-4599-4c90-9570-7d108e667576))
  (pad "N9" smd circle (at -2.5 1.5) (size 0.53 0.53) (property pad_prop_bga) (layers "F.Cu" "F.Paste" "F.Mask") (tstamp 621467d1-858c-4459-9191-ac8ba2d19cf2))
  (pad "N10" smd circle (at -1.5 1.5) (size 0.53 0.53) (property pad_prop_bga) (layers "F.Cu" "F.Paste" "F.Mask") (tstamp 1f36e5a3-3945-4fb7-ac4e-2f183283df84))
  (pad "N11" smd circle (at -0.5 1.5) (size 0.53 0.53) (property pad_prop_bga) (layers "F.Cu" "F.Paste" "F.Mask") (tstamp 9f8e57cc-0e12-43e9-b7d3-de4a35995217))
  (pad "N12" smd circle (at 0.5 1.5) (size 0.53 0.53) (property pad_prop_bga) (layers "F.Cu" "F.Paste" "F.Mask") (tstamp 4cf01dee-51e0-476b-843a-3fa80b23894b))
  (pad "N13" smd circle (at 1.5 1.5) (size 0.53 0.53) (property pad_prop_bga) (layers "F.Cu" "F.Paste" "F.Mask") (tstamp d3b0cd10-524b-4a5b-8b49-03dbf2a7edb8))
  (pad "N14" smd circle (at 2.5 1.5) (size 0.53 0.53) (property pad_prop_bga) (layers "F.Cu" "F.Paste" "F.Mask") (tstamp 300817f8-bcf4-4cda-9bc0-04bd2a8d3ae0))
  (pad "N15" smd circle (at 3.5 1.5) (size 0.53 0.53) (property pad_prop_bga) (layers "F.Cu" "F.Paste" "F.Mask") (tstamp f981a70b-7231-41a9-bdd5-0ec17e1cb5db))
  (pad "N16" smd circle (at 4.5 1.5) (size 0.53 0.53) (property pad_prop_bga) (layers "F.Cu" "F.Paste" "F.Mask") (tstamp f0cfe616-e1db-4604-b831-0175916ae2ce))
  (pad "N17" smd circle (at 5.5 1.5) (size 0.53 0.53) (property pad_prop_bga) (layers "F.Cu" "F.Paste" "F.Mask") (tstamp 4879d1d5-3da0-4e1b-827d-8c29336cfaf4))
  (pad "N18" smd circle (at 6.5 1.5) (size 0.53 0.53) (property pad_prop_bga) (layers "F.Cu" "F.Paste" "F.Mask") (tstamp 7979719d-0dff-40e8-80bb-ea685f5778cf))
  (pad "N19" smd circle (at 7.5 1.5) (size 0.53 0.53) (property pad_prop_bga) (layers "F.Cu" "F.Paste" "F.Mask") (tstamp 5a21d206-f5fc-4dc4-b9b0-b4948e650c60))
  (pad "N20" smd circle (at 8.5 1.5) (size 0.53 0.53) (property pad_prop_bga) (layers "F.Cu" "F.Paste" "F.Mask") (tstamp 4c62210f-cb2a-438f-913e-1676e4b7a7fd))
  (pad "N21" smd circle (at 9.5 1.5) (size 0.53 0.53) (property pad_prop_bga) (layers "F.Cu" "F.Paste" "F.Mask") (tstamp cb7d826a-c5a7-4858-9406-eea9da0ab4d8))
  (pad "N22" smd circle (at 10.5 1.5) (size 0.53 0.53) (property pad_prop_bga) (layers "F.Cu" "F.Paste" "F.Mask") (tstamp bfa0ad39-dd69-45a3-b133-09e03972b114))
  (pad "P1" smd circle (at -10.5 2.5) (size 0.53 0.53) (property pad_prop_bga) (layers "F.Cu" "F.Paste" "F.Mask") (tstamp 9f506fbb-af54-4ed9-8d98-1f61add9f12f))
  (pad "P2" smd circle (at -9.5 2.5) (size 0.53 0.53) (property pad_prop_bga) (layers "F.Cu" "F.Paste" "F.Mask") (tstamp e856880b-c8c3-4887-bf74-daf9648aff18))
  (pad "P3" smd circle (at -8.5 2.5) (size 0.53 0.53) (property pad_prop_bga) (layers "F.Cu" "F.Paste" "F.Mask") (tstamp a36d3b32-4009-4f4e-94c0-939f879add0a))
  (pad "P4" smd circle (at -7.5 2.5) (size 0.53 0.53) (property pad_prop_bga) (layers "F.Cu" "F.Paste" "F.Mask") (tstamp 44d14a27-c99b-4bca-a3e8-67d8ab6b05df))
  (pad "P5" smd circle (at -6.5 2.5) (size 0.53 0.53) (property pad_prop_bga) (layers "F.Cu" "F.Paste" "F.Mask") (tstamp 4b7d9f85-e433-4ad3-8496-dae3c86e1fdd))
  (pad "P6" smd circle (at -5.5 2.5) (size 0.53 0.53) (property pad_prop_bga) (layers "F.Cu" "F.Paste" "F.Mask") (tstamp 477304b3-f92d-4051-b17e-c07ecf16499e))
  (pad "P7" smd circle (at -4.5 2.5) (size 0.53 0.53) (property pad_prop_bga) (layers "F.Cu" "F.Paste" "F.Mask") (tstamp d468893d-c7e2-40af-8d7c-59c7f0cb33e6))
  (pad "P8" smd circle (at -3.5 2.5) (size 0.53 0.53) (property pad_prop_bga) (layers "F.Cu" "F.Paste" "F.Mask") (tstamp 5fcf6773-8efe-4f56-8cce-8516837137ea))
  (pad "P9" smd circle (at -2.5 2.5) (size 0.53 0.53) (property pad_prop_bga) (layers "F.Cu" "F.Paste" "F.Mask") (tstamp 5f325bf7-48b5-43f6-8025-737f1107a384))
  (pad "P10" smd circle (at -1.5 2.5) (size 0.53 0.53) (property pad_prop_bga) (layers "F.Cu" "F.Paste" "F.Mask") (tstamp 91486ac0-d50c-41ad-b3eb-a2630289cb67))
  (pad "P11" smd circle (at -0.5 2.5) (size 0.53 0.53) (property pad_prop_bga) (layers "F.Cu" "F.Paste" "F.Mask") (tstamp 64887227-92ed-4dbf-8551-51843bd53179))
  (pad "P12" smd circle (at 0.5 2.5) (size 0.53 0.53) (property pad_prop_bga) (layers "F.Cu" "F.Paste" "F.Mask") (tstamp dfa2c7fc-4bd7-4e01-bc49-b9749f0d1665))
  (pad "P13" smd circle (at 1.5 2.5) (size 0.53 0.53) (property pad_prop_bga) (layers "F.Cu" "F.Paste" "F.Mask") (tstamp b6d1967c-fdf0-48c6-9840-1d999cebb349))
  (pad "P14" smd circle (at 2.5 2.5) (size 0.53 0.53) (property pad_prop_bga) (layers "F.Cu" "F.Paste" "F.Mask") (tstamp 49f8ae87-510d-48d0-a55d-e5d4be5a8c07))
  (pad "P15" smd circle (at 3.5 2.5) (size 0.53 0.53) (property pad_prop_bga) (layers "F.Cu" "F.Paste" "F.Mask") (tstamp 59befc87-d4a8-4391-8ae2-4d9eef5c0aa7))
  (pad "P16" smd circle (at 4.5 2.5) (size 0.53 0.53) (property pad_prop_bga) (layers "F.Cu" "F.Paste" "F.Mask") (tstamp 0364e5b8-e113-40eb-bdfd-29e428274a84))
  (pad "P17" smd circle (at 5.5 2.5) (size 0.53 0.53) (property pad_prop_bga) (layers "F.Cu" "F.Paste" "F.Mask") (tstamp 04022b67-cca4-443c-b10c-5c15b06af38f))
  (pad "P18" smd circle (at 6.5 2.5) (size 0.53 0.53) (property pad_prop_bga) (layers "F.Cu" "F.Paste" "F.Mask") (tstamp 3b6116ca-c2ea-4be6-948b-a242672dd75a))
  (pad "P19" smd circle (at 7.5 2.5) (size 0.53 0.53) (property pad_prop_bga) (layers "F.Cu" "F.Paste" "F.Mask") (tstamp 22a8b81f-b26f-41d7-a918-7c6b563adda5))
  (pad "P20" smd circle (at 8.5 2.5) (size 0.53 0.53) (property pad_prop_bga) (layers "F.Cu" "F.Paste" "F.Mask") (tstamp c9409816-998a-47a6-8c79-1bbea7e20ef1))
  (pad "P21" smd circle (at 9.5 2.5) (size 0.53 0.53) (property pad_prop_bga) (layers "F.Cu" "F.Paste" "F.Mask") (tstamp cf215438-9e1a-4233-8fdd-3f86c4bd046a))
  (pad "P22" smd circle (at 10.5 2.5) (size 0.53 0.53) (property pad_prop_bga) (layers "F.Cu" "F.Paste" "F.Mask") (tstamp 458e1b02-32ee-45e2-bb56-c6b170908e70))
  (pad "R1" smd circle (at -10.5 3.5) (size 0.53 0.53) (property pad_prop_bga) (layers "F.Cu" "F.Paste" "F.Mask") (tstamp 591cafce-489e-45bb-bf22-df4eff16347d))
  (pad "R2" smd circle (at -9.5 3.5) (size 0.53 0.53) (property pad_prop_bga) (layers "F.Cu" "F.Paste" "F.Mask") (tstamp 51fa75ee-6144-4db2-a8c8-502d7e4b30c7))
  (pad "R3" smd circle (at -8.5 3.5) (size 0.53 0.53) (property pad_prop_bga) (layers "F.Cu" "F.Paste" "F.Mask") (tstamp 66feb32a-28f7-429b-87ea-c7e1519ef750))
  (pad "R4" smd circle (at -7.5 3.5) (size 0.53 0.53) (property pad_prop_bga) (layers "F.Cu" "F.Paste" "F.Mask") (tstamp f74b979b-9060-4cd4-bf93-9587ae82abf5))
  (pad "R5" smd circle (at -6.5 3.5) (size 0.53 0.53) (property pad_prop_bga) (layers "F.Cu" "F.Paste" "F.Mask") (tstamp ceaabd02-2359-4bf2-97ec-74ad30b6377c))
  (pad "R6" smd circle (at -5.5 3.5) (size 0.53 0.53) (property pad_prop_bga) (layers "F.Cu" "F.Paste" "F.Mask") (tstamp 4b703952-e387-46de-a203-6d821c6aea21))
  (pad "R7" smd circle (at -4.5 3.5) (size 0.53 0.53) (property pad_prop_bga) (layers "F.Cu" "F.Paste" "F.Mask") (tstamp 39e71e67-fe04-4de9-906d-3d3987a03611))
  (pad "R8" smd circle (at -3.5 3.5) (size 0.53 0.53) (property pad_prop_bga) (layers "F.Cu" "F.Paste" "F.Mask") (tstamp a9c2f14b-de32-4171-b457-fb0e9edc6e22))
  (pad "R9" smd circle (at -2.5 3.5) (size 0.53 0.53) (property pad_prop_bga) (layers "F.Cu" "F.Paste" "F.Mask") (tstamp ae8fbc61-b14b-4257-85d9-d15597edccaf))
  (pad "R10" smd circle (at -1.5 3.5) (size 0.53 0.53) (property pad_prop_bga) (layers "F.Cu" "F.Paste" "F.Mask") (tstamp 06ad766b-09fa-414c-b8b1-723db44219b9))
  (pad "R11" smd circle (at -0.5 3.5) (size 0.53 0.53) (property pad_prop_bga) (layers "F.Cu" "F.Paste" "F.Mask") (tstamp 1d495c00-fc6f-41f6-a5e1-b7e44fd875ca))
  (pad "R12" smd circle (at 0.5 3.5) (size 0.53 0.53) (property pad_prop_bga) (layers "F.Cu" "F.Paste" "F.Mask") (tstamp 3539fe80-79db-4747-9e4a-8f7de6a8b5fd))
  (pad "R13" smd circle (at 1.5 3.5) (size 0.53 0.53) (property pad_prop_bga) (layers "F.Cu" "F.Paste" "F.Mask") (tstamp 50bc2a93-5a02-4c53-b75f-014080919940))
  (pad "R14" smd circle (at 2.5 3.5) (size 0.53 0.53) (property pad_prop_bga) (layers "F.Cu" "F.Paste" "F.Mask") (tstamp 073f6963-f027-443b-b1b9-9e66c2e876f8))
  (pad "R15" smd circle (at 3.5 3.5) (size 0.53 0.53) (property pad_prop_bga) (layers "F.Cu" "F.Paste" "F.Mask") (tstamp faca464e-0b20-487a-9a78-db3e3600bc99))
  (pad "R16" smd circle (at 4.5 3.5) (size 0.53 0.53) (property pad_prop_bga) (layers "F.Cu" "F.Paste" "F.Mask") (tstamp c7535063-b84b-4338-b33c-7bffb69a6696))
  (pad "R17" smd circle (at 5.5 3.5) (size 0.53 0.53) (property pad_prop_bga) (layers "F.Cu" "F.Paste" "F.Mask") (tstamp 07a6a3fb-464b-4d8a-a546-1bb8a84a7a8c))
  (pad "R18" smd circle (at 6.5 3.5) (size 0.53 0.53) (property pad_prop_bga) (layers "F.Cu" "F.Paste" "F.Mask") (tstamp ada01718-8f97-457d-8aa3-9d1c7bb569f3))
  (pad "R19" smd circle (at 7.5 3.5) (size 0.53 0.53) (property pad_prop_bga) (layers "F.Cu" "F.Paste" "F.Mask") (tstamp fe62f761-0245-4cd1-b191-c0e249cf64ef))
  (pad "R20" smd circle (at 8.5 3.5) (size 0.53 0.53) (property pad_prop_bga) (layers "F.Cu" "F.Paste" "F.Mask") (tstamp 6885b506-e83b-49b0-9894-6435f7d67589))
  (pad "R21" smd circle (at 9.5 3.5) (size 0.53 0.53) (property pad_prop_bga) (layers "F.Cu" "F.Paste" "F.Mask") (tstamp 030b0da9-c785-4455-a8c5-acd26bfd8a21))
  (pad "R22" smd circle (at 10.5 3.5) (size 0.53 0.53) (property pad_prop_bga) (layers "F.Cu" "F.Paste" "F.Mask") (tstamp 2087b5d0-a656-48e4-8e12-794d630a8f73))
  (pad "T1" smd circle (at -10.5 4.5) (size 0.53 0.53) (property pad_prop_bga) (layers "F.Cu" "F.Paste" "F.Mask") (tstamp 42a974ad-6f7d-4fab-a521-3160efa2b736))
  (pad "T2" smd circle (at -9.5 4.5) (size 0.53 0.53) (property pad_prop_bga) (layers "F.Cu" "F.Paste" "F.Mask") (tstamp 89bcbade-00ff-4169-b364-2779f6d9521b))
  (pad "T3" smd circle (at -8.5 4.5) (size 0.53 0.53) (property pad_prop_bga) (layers "F.Cu" "F.Paste" "F.Mask") (tstamp 756b1c2f-db2a-4d2e-a117-23732e9fc4b7))
  (pad "T4" smd circle (at -7.5 4.5) (size 0.53 0.53) (property pad_prop_bga) (layers "F.Cu" "F.Paste" "F.Mask") (tstamp 767dab7e-400c-4169-b950-dbcdc19c6052))
  (pad "T5" smd circle (at -6.5 4.5) (size 0.53 0.53) (property pad_prop_bga) (layers "F.Cu" "F.Paste" "F.Mask") (tstamp 4311bad3-24e1-4b15-9022-15118f64c95a))
  (pad "T6" smd circle (at -5.5 4.5) (size 0.53 0.53) (property pad_prop_bga) (layers "F.Cu" "F.Paste" "F.Mask") (tstamp 6c59cd5b-e9bf-4668-b3de-d55c3a9dd57a))
  (pad "T7" smd circle (at -4.5 4.5) (size 0.53 0.53) (property pad_prop_bga) (layers "F.Cu" "F.Paste" "F.Mask") (tstamp 4ec142e7-724c-4338-a353-dec05418ada9))
  (pad "T8" smd circle (at -3.5 4.5) (size 0.53 0.53) (property pad_prop_bga) (layers "F.Cu" "F.Paste" "F.Mask") (tstamp 88493412-06fa-49ec-a2d8-976e31fd4984))
  (pad "T9" smd circle (at -2.5 4.5) (size 0.53 0.53) (property pad_prop_bga) (layers "F.Cu" "F.Paste" "F.Mask") (tstamp 23b3c7f3-eba7-4bdc-8140-3dd56abafee0))
  (pad "T10" smd circle (at -1.5 4.5) (size 0.53 0.53) (property pad_prop_bga) (layers "F.Cu" "F.Paste" "F.Mask") (tstamp 561a0515-bca9-4f3c-a608-674a10ea73ed))
  (pad "T11" smd circle (at -0.5 4.5) (size 0.53 0.53) (property pad_prop_bga) (layers "F.Cu" "F.Paste" "F.Mask") (tstamp a950d3c8-abf1-4e3a-9a16-a3dd9839746c))
  (pad "T12" smd circle (at 0.5 4.5) (size 0.53 0.53) (property pad_prop_bga) (layers "F.Cu" "F.Paste" "F.Mask") (tstamp 81408677-aeeb-4058-99de-6c7bdea67b0c))
  (pad "T13" smd circle (at 1.5 4.5) (size 0.53 0.53) (property pad_prop_bga) (layers "F.Cu" "F.Paste" "F.Mask") (tstamp f8fb4d9f-831b-4f38-9097-c8eca6354239))
  (pad "T14" smd circle (at 2.5 4.5) (size 0.53 0.53) (property pad_prop_bga) (layers "F.Cu" "F.Paste" "F.Mask") (tstamp 568b7091-2c0d-49e1-aa1f-95cf7146551e))
  (pad "T15" smd circle (at 3.5 4.5) (size 0.53 0.53) (property pad_prop_bga) (layers "F.Cu" "F.Paste" "F.Mask") (tstamp b485914d-125b-4925-a711-a49c3bd68760))
  (pad "T16" smd circle (at 4.5 4.5) (size 0.53 0.53) (property pad_prop_bga) (layers "F.Cu" "F.Paste" "F.Mask") (tstamp 7a21d630-05b1-4ac4-af12-f307737252c7))
  (pad "T17" smd circle (at 5.5 4.5) (size 0.53 0.53) (property pad_prop_bga) (layers "F.Cu" "F.Paste" "F.Mask") (tstamp 5ba97402-3cca-4e73-a06f-1f3f21796557))
  (pad "T18" smd circle (at 6.5 4.5) (size 0.53 0.53) (property pad_prop_bga) (layers "F.Cu" "F.Paste" "F.Mask") (tstamp dbb0a8be-79bc-4d0a-93eb-a374fc66ab0a))
  (pad "T19" smd circle (at 7.5 4.5) (size 0.53 0.53) (property pad_prop_bga) (layers "F.Cu" "F.Paste" "F.Mask") (tstamp eb42c780-a6c4-41eb-8e29-79539a7ed706))
  (pad "T20" smd circle (at 8.5 4.5) (size 0.53 0.53) (property pad_prop_bga) (layers "F.Cu" "F.Paste" "F.Mask") (tstamp fd8a77d6-82a9-4be9-96ae-cf23dc15e193))
  (pad "T21" smd circle (at 9.5 4.5) (size 0.53 0.53) (property pad_prop_bga) (layers "F.Cu" "F.Paste" "F.Mask") (tstamp df22d5a9-c65f-4a69-b110-14986154edb6))
  (pad "T22" smd circle (at 10.5 4.5) (size 0.53 0.53) (property pad_prop_bga) (layers "F.Cu" "F.Paste" "F.Mask") (tstamp 2dd2bba2-a587-4f24-9a39-7acf8b795f22))
  (pad "U1" smd circle (at -10.5 5.5) (size 0.53 0.53) (property pad_prop_bga) (layers "F.Cu" "F.Paste" "F.Mask") (tstamp 14bac749-2995-4d70-82eb-c1afe74176c1))
  (pad "U2" smd circle (at -9.5 5.5) (size 0.53 0.53) (property pad_prop_bga) (layers "F.Cu" "F.Paste" "F.Mask") (tstamp fa308e18-cdf4-4169-889a-c0b79cd394dc))
  (pad "U3" smd circle (at -8.5 5.5) (size 0.53 0.53) (property pad_prop_bga) (layers "F.Cu" "F.Paste" "F.Mask") (tstamp e4e90032-77fc-4f57-b8f2-fd841c596326))
  (pad "U4" smd circle (at -7.5 5.5) (size 0.53 0.53) (property pad_prop_bga) (layers "F.Cu" "F.Paste" "F.Mask") (tstamp 04363f6c-7295-47dc-b257-ed0d513bc754))
  (pad "U5" smd circle (at -6.5 5.5) (size 0.53 0.53) (property pad_prop_bga) (layers "F.Cu" "F.Paste" "F.Mask") (tstamp edd55f60-ff63-41c0-9d33-4b87504dd897))
  (pad "U6" smd circle (at -5.5 5.5) (size 0.53 0.53) (property pad_prop_bga) (layers "F.Cu" "F.Paste" "F.Mask") (tstamp 95590984-cbbd-402f-a7b9-4279a3cfc769))
  (pad "U7" smd circle (at -4.5 5.5) (size 0.53 0.53) (property pad_prop_bga) (layers "F.Cu" "F.Paste" "F.Mask") (tstamp 8d1ec370-81ea-44dc-813a-89f37634437c))
  (pad "U8" smd circle (at -3.5 5.5) (size 0.53 0.53) (property pad_prop_bga) (layers "F.Cu" "F.Paste" "F.Mask") (tstamp 6b81bce8-0a69-4270-ab91-09fb57e21307))
  (pad "U9" smd circle (at -2.5 5.5) (size 0.53 0.53) (property pad_prop_bga) (layers "F.Cu" "F.Paste" "F.Mask") (tstamp fdc29b93-31a3-49f7-aa6e-9dfcc353ce31))
  (pad "U10" smd circle (at -1.5 5.5) (size 0.53 0.53) (property pad_prop_bga) (layers "F.Cu" "F.Paste" "F.Mask") (tstamp 00d7f15c-179e-42f9-bd0d-ad5827bcc3b7))
  (pad "U11" smd circle (at -0.5 5.5) (size 0.53 0.53) (property pad_prop_bga) (layers "F.Cu" "F.Paste" "F.Mask") (tstamp f4d3d51c-e652-4659-baf7-05779993c7d5))
  (pad "U12" smd circle (at 0.5 5.5) (size 0.53 0.53) (property pad_prop_bga) (layers "F.Cu" "F.Paste" "F.Mask") (tstamp 814f2e1d-5ac3-460b-9f8c-8227cde80f31))
  (pad "U13" smd circle (at 1.5 5.5) (size 0.53 0.53) (property pad_prop_bga) (layers "F.Cu" "F.Paste" "F.Mask") (tstamp aeda38fd-0ddc-4a4e-9f32-8cbcb46c1025))
  (pad "U14" smd circle (at 2.5 5.5) (size 0.53 0.53) (property pad_prop_bga) (layers "F.Cu" "F.Paste" "F.Mask") (tstamp 7732d0f6-09f1-42ec-9770-dbc1e1604e1f))
  (pad "U15" smd circle (at 3.5 5.5) (size 0.53 0.53) (property pad_prop_bga) (layers "F.Cu" "F.Paste" "F.Mask") (tstamp 5b2d9d96-ac9b-4816-b5c0-fd1232d99b2c))
  (pad "U16" smd circle (at 4.5 5.5) (size 0.53 0.53) (property pad_prop_bga) (layers "F.Cu" "F.Paste" "F.Mask") (tstamp 86cf1237-60b2-42bc-9f42-7d945e5bfb38))
  (pad "U17" smd circle (at 5.5 5.5) (size 0.53 0.53) (property pad_prop_bga) (layers "F.Cu" "F.Paste" "F.Mask") (tstamp 83d2fe03-af1b-4a59-85b6-82584821832e))
  (pad "U18" smd circle (at 6.5 5.5) (size 0.53 0.53) (property pad_prop_bga) (layers "F.Cu" "F.Paste" "F.Mask") (tstamp cee6f393-6f6d-45b5-bb1e-55f29159be52))
  (pad "U19" smd circle (at 7.5 5.5) (size 0.53 0.53) (property pad_prop_bga) (layers "F.Cu" "F.Paste" "F.Mask") (tstamp c83a40b5-2f5e-48cc-b4a7-8839a83b05c7))
  (pad "U20" smd circle (at 8.5 5.5) (size 0.53 0.53) (property pad_prop_bga) (layers "F.Cu" "F.Paste" "F.Mask") (tstamp dad06af4-ded9-4c88-be40-a9e7f5fbb850))
  (pad "U21" smd circle (at 9.5 5.5) (size 0.53 0.53) (property pad_prop_bga) (layers "F.Cu" "F.Paste" "F.Mask") (tstamp a7aa9f1d-dee0-47a2-940c-b3db029ef665))
  (pad "U22" smd circle (at 10.5 5.5) (size 0.53 0.53) (property pad_prop_bga) (layers "F.Cu" "F.Paste" "F.Mask") (tstamp 237915cc-1f69-4dbb-930a-97875544180e))
  (pad "V1" smd circle (at -10.5 6.5) (size 0.53 0.53) (property pad_prop_bga) (layers "F.Cu" "F.Paste" "F.Mask") (tstamp 173dbbb9-c84e-4f9d-9094-f50940641843))
  (pad "V2" smd circle (at -9.5 6.5) (size 0.53 0.53) (property pad_prop_bga) (layers "F.Cu" "F.Paste" "F.Mask") (tstamp ddb581da-708a-4ae4-88d0-476cdadf23f1))
  (pad "V3" smd circle (at -8.5 6.5) (size 0.53 0.53) (property pad_prop_bga) (layers "F.Cu" "F.Paste" "F.Mask") (tstamp 16a8de71-15d7-4eed-b962-bbe02bfa8897))
  (pad "V4" smd circle (at -7.5 6.5) (size 0.53 0.53) (property pad_prop_bga) (layers "F.Cu" "F.Paste" "F.Mask") (tstamp 09da656f-7c9a-4a7d-9990-8e22c32718d4))
  (pad "V5" smd circle (at -6.5 6.5) (size 0.53 0.53) (property pad_prop_bga) (layers "F.Cu" "F.Paste" "F.Mask") (tstamp 57f0cbff-3bd4-4dbb-86fa-cba6295e701b))
  (pad "V6" smd circle (at -5.5 6.5) (size 0.53 0.53) (property pad_prop_bga) (layers "F.Cu" "F.Paste" "F.Mask") (tstamp d81a4e0b-37a4-4636-9f60-d688858ee71b))
  (pad "V7" smd circle (at -4.5 6.5) (size 0.53 0.53) (property pad_prop_bga) (layers "F.Cu" "F.Paste" "F.Mask") (tstamp 1b2deb53-4f93-43da-b8aa-66cd9811b3fd))
  (pad "V8" smd circle (at -3.5 6.5) (size 0.53 0.53) (property pad_prop_bga) (layers "F.Cu" "F.Paste" "F.Mask") (tstamp d7eb1edc-6863-40ac-bf1f-390acb169ffe))
  (pad "V9" smd circle (at -2.5 6.5) (size 0.53 0.53) (property pad_prop_bga) (layers "F.Cu" "F.Paste" "F.Mask") (tstamp 075fb21f-6e76-41a8-9bf9-1e2adbf424ec))
  (pad "V10" smd circle (at -1.5 6.5) (size 0.53 0.53) (property pad_prop_bga) (layers "F.Cu" "F.Paste" "F.Mask") (tstamp d9f50e64-3c40-4cad-889e-3b25411753f3))
  (pad "V11" smd circle (at -0.5 6.5) (size 0.53 0.53) (property pad_prop_bga) (layers "F.Cu" "F.Paste" "F.Mask") (tstamp 25e8fd7c-255c-42c0-afb7-14da1ff70925))
  (pad "V12" smd circle (at 0.5 6.5) (size 0.53 0.53) (property pad_prop_bga) (layers "F.Cu" "F.Paste" "F.Mask") (tstamp 0ae27bbc-7429-4e28-aa8b-a3c9fcb0b481))
  (pad "V13" smd circle (at 1.5 6.5) (size 0.53 0.53) (property pad_prop_bga) (layers "F.Cu" "F.Paste" "F.Mask") (tstamp 3817e828-d839-48a5-b4c2-90774212c0f6))
  (pad "V14" smd circle (at 2.5 6.5) (size 0.53 0.53) (property pad_prop_bga) (layers "F.Cu" "F.Paste" "F.Mask") (tstamp de24cea0-7fbb-4e77-8266-d50fda2f4fd5))
  (pad "V15" smd circle (at 3.5 6.5) (size 0.53 0.53) (property pad_prop_bga) (layers "F.Cu" "F.Paste" "F.Mask") (tstamp a7ad21db-781a-4d0f-920e-ed6b50fe9d2f))
  (pad "V16" smd circle (at 4.5 6.5) (size 0.53 0.53) (property pad_prop_bga) (layers "F.Cu" "F.Paste" "F.Mask") (tstamp a53df993-5611-4216-b288-e4c58c0f6eda))
  (pad "V17" smd circle (at 5.5 6.5) (size 0.53 0.53) (property pad_prop_bga) (layers "F.Cu" "F.Paste" "F.Mask") (tstamp fe715404-5554-4b09-b4a2-dae4c24e9ca3))
  (pad "V18" smd circle (at 6.5 6.5) (size 0.53 0.53) (property pad_prop_bga) (layers "F.Cu" "F.Paste" "F.Mask") (tstamp ea0fdba8-56e3-4334-9a54-9f8aa4a9ee60))
  (pad "V19" smd circle (at 7.5 6.5) (size 0.53 0.53) (property pad_prop_bga) (layers "F.Cu" "F.Paste" "F.Mask") (tstamp a05d74ae-210f-4cf1-9ba3-309f56a43073))
  (pad "V20" smd circle (at 8.5 6.5) (size 0.53 0.53) (property pad_prop_bga) (layers "F.Cu" "F.Paste" "F.Mask") (tstamp 5ef1a4d7-831d-4a38-86ba-73f01fcd240c))
  (pad "V21" smd circle (at 9.5 6.5) (size 0.53 0.53) (property pad_prop_bga) (layers "F.Cu" "F.Paste" "F.Mask") (tstamp fe7cd830-3efb-4112-9819-77827e892dce))
  (pad "V22" smd circle (at 10.5 6.5) (size 0.53 0.53) (property pad_prop_bga) (layers "F.Cu" "F.Paste" "F.Mask") (tstamp c955b25c-1e8a-4945-a9e6-49758bd90e0c))
  (pad "W1" smd circle (at -10.5 7.5) (size 0.53 0.53) (property pad_prop_bga) (layers "F.Cu" "F.Paste" "F.Mask") (tstamp 1d2f2266-3b94-4acf-9d6e-f3d71191a2e0))
  (pad "W2" smd circle (at -9.5 7.5) (size 0.53 0.53) (property pad_prop_bga) (layers "F.Cu" "F.Paste" "F.Mask") (tstamp 65a17bf5-b9db-42d9-8622-fa7a77119092))
  (pad "W3" smd circle (at -8.5 7.5) (size 0.53 0.53) (property pad_prop_bga) (layers "F.Cu" "F.Paste" "F.Mask") (tstamp f2f42606-973b-4a8e-93ef-733a3b263611))
  (pad "W4" smd circle (at -7.5 7.5) (size 0.53 0.53) (property pad_prop_bga) (layers "F.Cu" "F.Paste" "F.Mask") (tstamp dca84f8f-e87f-40ea-ad1e-4174ee1611e5))
  (pad "W5" smd circle (at -6.5 7.5) (size 0.53 0.53) (property pad_prop_bga) (layers "F.Cu" "F.Paste" "F.Mask") (tstamp 86d11783-7847-49da-8487-686e20e1788f))
  (pad "W6" smd circle (at -5.5 7.5) (size 0.53 0.53) (property pad_prop_bga) (layers "F.Cu" "F.Paste" "F.Mask") (tstamp 70bd034b-a7ca-48c2-b21a-6d78c3c20508))
  (pad "W7" smd circle (at -4.5 7.5) (size 0.53 0.53) (property pad_prop_bga) (layers "F.Cu" "F.Paste" "F.Mask") (tstamp 65cc6663-5add-4c9d-b476-9726ba4d7291))
  (pad "W8" smd circle (at -3.5 7.5) (size 0.53 0.53) (property pad_prop_bga) (layers "F.Cu" "F.Paste" "F.Mask") (tstamp 8c7c26b2-9ad9-4e94-872b-72b750d52727))
  (pad "W9" smd circle (at -2.5 7.5) (size 0.53 0.53) (property pad_prop_bga) (layers "F.Cu" "F.Paste" "F.Mask") (tstamp cc44dd44-ec3f-459f-a4d2-9a53e679a56e))
  (pad "W10" smd circle (at -1.5 7.5) (size 0.53 0.53) (property pad_prop_bga) (layers "F.Cu" "F.Paste" "F.Mask") (tstamp 65fd7ab9-d850-4c1d-a497-c965475022f5))
  (pad "W11" smd circle (at -0.5 7.5) (size 0.53 0.53) (property pad_prop_bga) (layers "F.Cu" "F.Paste" "F.Mask") (tstamp 37ea9d5f-4d99-42a1-be89-1dc8daf05245))
  (pad "W12" smd circle (at 0.5 7.5) (size 0.53 0.53) (property pad_prop_bga) (layers "F.Cu" "F.Paste" "F.Mask") (tstamp 4a64c832-2624-47a8-9f51-5213d1ca2da8))
  (pad "W13" smd circle (at 1.5 7.5) (size 0.53 0.53) (property pad_prop_bga) (layers "F.Cu" "F.Paste" "F.Mask") (tstamp 588e443c-56d4-4b58-8e8d-4e9e302dd636))
  (pad "W14" smd circle (at 2.5 7.5) (size 0.53 0.53) (property pad_prop_bga) (layers "F.Cu" "F.Paste" "F.Mask") (tstamp 4de9cf40-7e37-43ad-b523-93ced7a44b42))
  (pad "W15" smd circle (at 3.5 7.5) (size 0.53 0.53) (property pad_prop_bga) (layers "F.Cu" "F.Paste" "F.Mask") (tstamp 938acedd-ffbb-48f0-881e-ae8f0b4e9e8a))
  (pad "W16" smd circle (at 4.5 7.5) (size 0.53 0.53) (property pad_prop_bga) (layers "F.Cu" "F.Paste" "F.Mask") (tstamp f283acdb-ae37-4784-b329-9334ca93326e))
  (pad "W17" smd circle (at 5.5 7.5) (size 0.53 0.53) (property pad_prop_bga) (layers "F.Cu" "F.Paste" "F.Mask") (tstamp 82c08ea1-c44d-4709-85ff-ce19f00b0337))
  (pad "W18" smd circle (at 6.5 7.5) (size 0.53 0.53) (property pad_prop_bga) (layers "F.Cu" "F.Paste" "F.Mask") (tstamp 79b5c2dd-23e2-4acb-b9f7-1e43eae1dcae))
  (pad "W19" smd circle (at 7.5 7.5) (size 0.53 0.53) (property pad_prop_bga) (layers "F.Cu" "F.Paste" "F.Mask") (tstamp 7d29f374-0f7e-42dd-aa8e-e763b238da5d))
  (pad "W20" smd circle (at 8.5 7.5) (size 0.53 0.53) (property pad_prop_bga) (layers "F.Cu" "F.Paste" "F.Mask") (tstamp 3e58b08b-3a6a-42b7-bec7-23044b135c22))
  (pad "W21" smd circle (at 9.5 7.5) (size 0.53 0.53) (property pad_prop_bga) (layers "F.Cu" "F.Paste" "F.Mask") (tstamp 91432265-b44d-4837-8527-36259454c7c3))
  (pad "W22" smd circle (at 10.5 7.5) (size 0.53 0.53) (property pad_prop_bga) (layers "F.Cu" "F.Paste" "F.Mask") (tstamp 9890eb57-fb1e-4552-b120-60bb863588ab))
  (pad "Y1" smd circle (at -10.5 8.5) (size 0.53 0.53) (property pad_prop_bga) (layers "F.Cu" "F.Paste" "F.Mask") (tstamp dbf255ac-8ac4-41ed-8cec-eea6c867b934))
  (pad "Y2" smd circle (at -9.5 8.5) (size 0.53 0.53) (property pad_prop_bga) (layers "F.Cu" "F.Paste" "F.Mask") (tstamp 8930722b-8f55-465f-b681-ef5a962c6035))
  (pad "Y3" smd circle (at -8.5 8.5) (size 0.53 0.53) (property pad_prop_bga) (layers "F.Cu" "F.Paste" "F.Mask") (tstamp 22e647ef-0226-45fc-a962-f625b6b4beb1))
  (pad "Y4" smd circle (at -7.5 8.5) (size 0.53 0.53) (property pad_prop_bga) (layers "F.Cu" "F.Paste" "F.Mask") (tstamp 176f45f6-318f-410b-936f-9d9b077a5a33))
  (pad "Y5" smd circle (at -6.5 8.5) (size 0.53 0.53) (property pad_prop_bga) (layers "F.Cu" "F.Paste" "F.Mask") (tstamp 6780024e-87cd-463d-b0a8-c86a26b06f40))
  (pad "Y6" smd circle (at -5.5 8.5) (size 0.53 0.53) (property pad_prop_bga) (layers "F.Cu" "F.Paste" "F.Mask") (tstamp 39b7dc39-bf44-4d9c-a5e8-d7ff66da81c5))
  (pad "Y7" smd circle (at -4.5 8.5) (size 0.53 0.53) (property pad_prop_bga) (layers "F.Cu" "F.Paste" "F.Mask") (tstamp d365a54b-ea81-4633-a011-e5e44a5658af))
  (pad "Y8" smd circle (at -3.5 8.5) (size 0.53 0.53) (property pad_prop_bga) (layers "F.Cu" "F.Paste" "F.Mask") (tstamp c80bf0dd-ca76-4e6c-ac06-b29e4f40c1d3))
  (pad "Y9" smd circle (at -2.5 8.5) (size 0.53 0.53) (property pad_prop_bga) (layers "F.Cu" "F.Paste" "F.Mask") (tstamp a90c06ac-3fe7-4d4e-960b-d1fbdb3d4eef))
  (pad "Y10" smd circle (at -1.5 8.5) (size 0.53 0.53) (property pad_prop_bga) (layers "F.Cu" "F.Paste" "F.Mask") (tstamp 144369b4-2608-46ed-922d-eeae1c510500))
  (pad "Y11" smd circle (at -0.5 8.5) (size 0.53 0.53) (property pad_prop_bga) (layers "F.Cu" "F.Paste" "F.Mask") (tstamp f76a76d0-cd6f-430e-acdd-d597dac0813a))
  (pad "Y12" smd circle (at 0.5 8.5) (size 0.53 0.53) (property pad_prop_bga) (layers "F.Cu" "F.Paste" "F.Mask") (tstamp b947d738-f25b-4025-b568-207cf62e733f))
  (pad "Y13" smd circle (at 1.5 8.5) (size 0.53 0.53) (property pad_prop_bga) (layers "F.Cu" "F.Paste" "F.Mask") (tstamp c602f077-08d1-4f3f-ad22-3bcccb54789f))
  (pad "Y14" smd circle (at 2.5 8.5) (size 0.53 0.53) (property pad_prop_bga) (layers "F.Cu" "F.Paste" "F.Mask") (tstamp c1992aa4-483e-42c1-8d81-fcd57065f711))
  (pad "Y15" smd circle (at 3.5 8.5) (size 0.53 0.53) (property pad_prop_bga) (layers "F.Cu" "F.Paste" "F.Mask") (tstamp 30d2f0aa-1f2a-4cfb-a147-5fc247c9d778))
  (pad "Y16" smd circle (at 4.5 8.5) (size 0.53 0.53) (property pad_prop_bga) (layers "F.Cu" "F.Paste" "F.Mask") (tstamp d1a57801-a54f-4f59-94de-3c491e571a4d))
  (pad "Y17" smd circle (at 5.5 8.5) (size 0.53 0.53) (property pad_prop_bga) (layers "F.Cu" "F.Paste" "F.Mask") (tstamp 3a8dca75-ba57-4b16-8b61-3bdd6b4f8d03))
  (pad "Y18" smd circle (at 6.5 8.5) (size 0.53 0.53) (property pad_prop_bga) (layers "F.Cu" "F.Paste" "F.Mask") (tstamp 0461ee5b-57a6-4aea-adf0-14e679aab165))
  (pad "Y19" smd circle (at 7.5 8.5) (size 0.53 0.53) (property pad_prop_bga) (layers "F.Cu" "F.Paste" "F.Mask") (tstamp 722fdbd5-10f3-4fdd-bec0-13044b43c7a6))
  (pad "Y20" smd circle (at 8.5 8.5) (size 0.53 0.53) (property pad_prop_bga) (layers "F.Cu" "F.Paste" "F.Mask") (tstamp 6d4a8ce0-ef6e-48f8-97d7-a87a04e38e58))
  (pad "Y21" smd circle (at 9.5 8.5) (size 0.53 0.53) (property pad_prop_bga) (layers "F.Cu" "F.Paste" "F.Mask") (tstamp ec094a0e-8819-4e6d-ac84-3d1dc76f9cce))
  (pad "Y22" smd circle (at 10.5 8.5) (size 0.53 0.53) (property pad_prop_bga) (layers "F.Cu" "F.Paste" "F.Mask") (tstamp 7fb3fb09-908b-48f2-a5d0-e33de065185c))
  (model "${KICAD6_3DMODEL_DIR}/Package_BGA.3dshapes/Xilinx_RB484.wrl"
    (offset (xyz 0 0 0))
    (scale (xyz 1 1 1))
    (rotate (xyz 0 0 0))
  )
)
