(footprint "Xilinx_CPGA196" (version 20211014) (generator pcbnew)
  (layer "F.Cu")
  (tedit 5CC89573)
  (descr "Spartan-7 BGA, 14x14 grid, 8x8mm package, 0.5mm pitch; https://www.xilinx.com/support/documentation/user_guides/ug475_7Series_Pkg_Pinout.pdf#page=260, NSMD pad definition Appendix A")
  (tags "BGA 196 0.5 CPGA196")
  (solder_mask_margin 0.05)
  (attr smd)
  (fp_text reference "REF**" (at 0 -5) (layer "F.SilkS")
    (effects (font (size 1 1) (thickness 0.15)))
    (tstamp f013e65d-babb-4061-8285-1c79f50461ff)
  )
  (fp_text value "Xilinx_CPGA196" (at 0 5) (layer "F.Fab")
    (effects (font (size 1 1) (thickness 0.15)))
    (tstamp 1d7e9f37-1b72-4f69-b5a9-545906a723b2)
  )
  (fp_text user "${REFERENCE}" (at 0 0) (layer "F.Fab")
    (effects (font (size 1 1) (thickness 0.15)))
    (tstamp 5742c46c-783b-4c61-937b-5e1490dc6163)
  )
  (fp_line (start -3.11 -4.11) (end 4.11 -4.11) (layer "F.SilkS") (width 0.12) (tstamp 1f412725-48bf-4241-ae3e-6b2324ed757d))
  (fp_line (start 4.11 -4.11) (end 4.11 4.11) (layer "F.SilkS") (width 0.12) (tstamp b2c02524-3752-47fc-b7e8-d815a0b60759))
  (fp_line (start 4.11 4.11) (end -4.11 4.11) (layer "F.SilkS") (width 0.12) (tstamp f2010f5d-eba2-4f41-b617-85e381229deb))
  (fp_line (start -4.11 4.11) (end -4.11 -3.11) (layer "F.SilkS") (width 0.12) (tstamp f52c14fc-4630-4d15-94f5-607434bc439b))
  (fp_line (start -5 -5) (end -5 5) (layer "F.CrtYd") (width 0.05) (tstamp 32bf647e-b26d-4c53-b21b-71a9091b4fa5))
  (fp_line (start 5 -5) (end -5 -5) (layer "F.CrtYd") (width 0.05) (tstamp 4364f23b-54e6-4be1-b4c6-937e36076908))
  (fp_line (start -5 5) (end 5 5) (layer "F.CrtYd") (width 0.05) (tstamp cbb8855c-fc8d-4207-b794-1f25b91b5969))
  (fp_line (start 5 5) (end 5 -5) (layer "F.CrtYd") (width 0.05) (tstamp da407ebd-557d-4fee-9565-4b86ad1dfe6c))
  (fp_line (start -4 4) (end -4 -3) (layer "F.Fab") (width 0.1) (tstamp 1bfde35a-93e6-4bcf-811c-60fbdbe53f38))
  (fp_line (start 4 -4) (end 4 4) (layer "F.Fab") (width 0.1) (tstamp 2377e325-261b-449f-b0f1-33319129ba68))
  (fp_line (start -4 -3) (end -3 -4) (layer "F.Fab") (width 0.1) (tstamp 8cc7a014-fb82-431d-b9c2-ec5532b39e6c))
  (fp_line (start 4 4) (end -4 4) (layer "F.Fab") (width 0.1) (tstamp bbac4211-bcdf-4f27-a00c-1ec9cb98ec83))
  (fp_line (start -3 -4) (end 4 -4) (layer "F.Fab") (width 0.1) (tstamp e7b7d622-2613-4f69-b488-ab0b0d408b29))
  (pad "A1" smd circle (at -3.25 -3.25) (size 0.275 0.275) (property pad_prop_bga) (layers "F.Cu" "F.Paste" "F.Mask") (tstamp 4b23b191-97e1-451f-b90f-7405efcaf2b1))
  (pad "A2" smd circle (at -2.75 -3.25) (size 0.275 0.275) (property pad_prop_bga) (layers "F.Cu" "F.Paste" "F.Mask") (tstamp 3b1945c9-df1e-4e03-a35e-53ae29f8ace1))
  (pad "A3" smd circle (at -2.25 -3.25) (size 0.275 0.275) (property pad_prop_bga) (layers "F.Cu" "F.Paste" "F.Mask") (tstamp 44a04505-7032-46a1-b6fd-1e9e35939c37))
  (pad "A4" smd circle (at -1.75 -3.25) (size 0.275 0.275) (property pad_prop_bga) (layers "F.Cu" "F.Paste" "F.Mask") (tstamp 76a7ba53-d164-460e-bb39-1e6c337d647a))
  (pad "A5" smd circle (at -1.25 -3.25) (size 0.275 0.275) (property pad_prop_bga) (layers "F.Cu" "F.Paste" "F.Mask") (tstamp 9aa68920-a4c3-4003-b226-72bd5a873ade))
  (pad "A6" smd circle (at -0.75 -3.25) (size 0.275 0.275) (property pad_prop_bga) (layers "F.Cu" "F.Paste" "F.Mask") (tstamp d27dcac6-de2b-4764-8334-e7854f8135de))
  (pad "A7" smd circle (at -0.25 -3.25) (size 0.275 0.275) (property pad_prop_bga) (layers "F.Cu" "F.Paste" "F.Mask") (tstamp 5907f76d-77ba-4f04-92f0-3eec96c7a5b7))
  (pad "A8" smd circle (at 0.25 -3.25) (size 0.275 0.275) (property pad_prop_bga) (layers "F.Cu" "F.Paste" "F.Mask") (tstamp 447c30fe-03aa-4742-8375-bb24d20d4e6c))
  (pad "A9" smd circle (at 0.75 -3.25) (size 0.275 0.275) (property pad_prop_bga) (layers "F.Cu" "F.Paste" "F.Mask") (tstamp f86aae0b-5432-4ab2-907d-9e524435c688))
  (pad "A10" smd circle (at 1.25 -3.25) (size 0.275 0.275) (property pad_prop_bga) (layers "F.Cu" "F.Paste" "F.Mask") (tstamp 97405056-a6c8-44b0-b596-439f8f126333))
  (pad "A11" smd circle (at 1.75 -3.25) (size 0.275 0.275) (property pad_prop_bga) (layers "F.Cu" "F.Paste" "F.Mask") (tstamp 5ed58bb6-2e75-4e7e-8c41-68c1b6dc13a2))
  (pad "A12" smd circle (at 2.25 -3.25) (size 0.275 0.275) (property pad_prop_bga) (layers "F.Cu" "F.Paste" "F.Mask") (tstamp 9fa3f979-334d-4ebc-82b8-c6fe407a6dc3))
  (pad "A13" smd circle (at 2.75 -3.25) (size 0.275 0.275) (property pad_prop_bga) (layers "F.Cu" "F.Paste" "F.Mask") (tstamp d1432bb9-5d0d-43d2-85dc-a6e9b0981546))
  (pad "A14" smd circle (at 3.25 -3.25) (size 0.275 0.275) (property pad_prop_bga) (layers "F.Cu" "F.Paste" "F.Mask") (tstamp d0e31637-0ad3-44a5-94d6-4eda1df16e52))
  (pad "B1" smd circle (at -3.25 -2.75) (size 0.275 0.275) (property pad_prop_bga) (layers "F.Cu" "F.Paste" "F.Mask") (tstamp ba1f6e67-f284-4813-8372-9a506f016f91))
  (pad "B2" smd circle (at -2.75 -2.75) (size 0.275 0.275) (property pad_prop_bga) (layers "F.Cu" "F.Paste" "F.Mask") (tstamp a4fb7728-b965-45ca-8c6b-7a4472ed217a))
  (pad "B3" smd circle (at -2.25 -2.75) (size 0.275 0.275) (property pad_prop_bga) (layers "F.Cu" "F.Paste" "F.Mask") (tstamp ab3ea8a3-dc99-454c-aee7-b7cc7382e4d3))
  (pad "B4" smd circle (at -1.75 -2.75) (size 0.275 0.275) (property pad_prop_bga) (layers "F.Cu" "F.Paste" "F.Mask") (tstamp 77d9805d-4893-4e9a-9884-d2a6b699ef95))
  (pad "B5" smd circle (at -1.25 -2.75) (size 0.275 0.275) (property pad_prop_bga) (layers "F.Cu" "F.Paste" "F.Mask") (tstamp 024a6fd5-84dd-44c5-9452-b4fb4e018dc4))
  (pad "B6" smd circle (at -0.75 -2.75) (size 0.275 0.275) (property pad_prop_bga) (layers "F.Cu" "F.Paste" "F.Mask") (tstamp 332c99d2-1fb9-4c8e-b098-f2685db2f7a4))
  (pad "B7" smd circle (at -0.25 -2.75) (size 0.275 0.275) (property pad_prop_bga) (layers "F.Cu" "F.Paste" "F.Mask") (tstamp 370f39fe-a15e-42f9-ae77-7399c560d750))
  (pad "B8" smd circle (at 0.25 -2.75) (size 0.275 0.275) (property pad_prop_bga) (layers "F.Cu" "F.Paste" "F.Mask") (tstamp 890b1d95-d75b-4663-8e76-77e2411c7a79))
  (pad "B9" smd circle (at 0.75 -2.75) (size 0.275 0.275) (property pad_prop_bga) (layers "F.Cu" "F.Paste" "F.Mask") (tstamp 5a638e4f-15ce-431d-b3c4-78dbb608b1c4))
  (pad "B10" smd circle (at 1.25 -2.75) (size 0.275 0.275) (property pad_prop_bga) (layers "F.Cu" "F.Paste" "F.Mask") (tstamp 1c64203f-59d5-42a4-9a14-cee6555f75de))
  (pad "B11" smd circle (at 1.75 -2.75) (size 0.275 0.275) (property pad_prop_bga) (layers "F.Cu" "F.Paste" "F.Mask") (tstamp c009b80d-36b4-4385-b078-96ad2092c60c))
  (pad "B12" smd circle (at 2.25 -2.75) (size 0.275 0.275) (property pad_prop_bga) (layers "F.Cu" "F.Paste" "F.Mask") (tstamp a0700df0-5df0-4d8b-b035-08cf31784e62))
  (pad "B13" smd circle (at 2.75 -2.75) (size 0.275 0.275) (property pad_prop_bga) (layers "F.Cu" "F.Paste" "F.Mask") (tstamp 9bda513f-3c88-4f92-adfc-53f5515ce22e))
  (pad "B14" smd circle (at 3.25 -2.75) (size 0.275 0.275) (property pad_prop_bga) (layers "F.Cu" "F.Paste" "F.Mask") (tstamp 5e21b4c7-1c96-4a22-b1d2-93d19bba2a6d))
  (pad "C1" smd circle (at -3.25 -2.25) (size 0.275 0.275) (property pad_prop_bga) (layers "F.Cu" "F.Paste" "F.Mask") (tstamp 30d00c2b-9fa1-4ec5-9338-63c2f9f66cb9))
  (pad "C2" smd circle (at -2.75 -2.25) (size 0.275 0.275) (property pad_prop_bga) (layers "F.Cu" "F.Paste" "F.Mask") (tstamp 0a6c41a8-626b-4efb-b4ac-30682279b25b))
  (pad "C3" smd circle (at -2.25 -2.25) (size 0.275 0.275) (property pad_prop_bga) (layers "F.Cu" "F.Paste" "F.Mask") (tstamp 34f325d8-fe87-4736-aa14-0055af482543))
  (pad "C4" smd circle (at -1.75 -2.25) (size 0.275 0.275) (property pad_prop_bga) (layers "F.Cu" "F.Paste" "F.Mask") (tstamp 47885b28-9cc1-483c-9dec-a5a04e75f817))
  (pad "C5" smd circle (at -1.25 -2.25) (size 0.275 0.275) (property pad_prop_bga) (layers "F.Cu" "F.Paste" "F.Mask") (tstamp bed5e2ee-b789-4cf8-9f94-304bd94080e3))
  (pad "C6" smd circle (at -0.75 -2.25) (size 0.275 0.275) (property pad_prop_bga) (layers "F.Cu" "F.Paste" "F.Mask") (tstamp 6f288f23-7026-492b-be37-736c74726f4c))
  (pad "C7" smd circle (at -0.25 -2.25) (size 0.275 0.275) (property pad_prop_bga) (layers "F.Cu" "F.Paste" "F.Mask") (tstamp ffeb42a7-e3f6-444c-9365-52a115eb1b4c))
  (pad "C8" smd circle (at 0.25 -2.25) (size 0.275 0.275) (property pad_prop_bga) (layers "F.Cu" "F.Paste" "F.Mask") (tstamp dc9ca857-b260-455f-b4c1-1f4db0ab3e4d))
  (pad "C9" smd circle (at 0.75 -2.25) (size 0.275 0.275) (property pad_prop_bga) (layers "F.Cu" "F.Paste" "F.Mask") (tstamp c9330269-51f5-4c3a-bfe6-0b23aa307156))
  (pad "C10" smd circle (at 1.25 -2.25) (size 0.275 0.275) (property pad_prop_bga) (layers "F.Cu" "F.Paste" "F.Mask") (tstamp 72b6b9f3-5f71-4396-ad92-e71ef23c91f1))
  (pad "C11" smd circle (at 1.75 -2.25) (size 0.275 0.275) (property pad_prop_bga) (layers "F.Cu" "F.Paste" "F.Mask") (tstamp 56ea889b-626d-44f4-9f72-a3c46145acc4))
  (pad "C12" smd circle (at 2.25 -2.25) (size 0.275 0.275) (property pad_prop_bga) (layers "F.Cu" "F.Paste" "F.Mask") (tstamp 64cadc5f-ae9d-432f-a7a1-ce1510c17a27))
  (pad "C13" smd circle (at 2.75 -2.25) (size 0.275 0.275) (property pad_prop_bga) (layers "F.Cu" "F.Paste" "F.Mask") (tstamp 4f12faea-3c8a-4ed2-a344-3bd180d5ddc1))
  (pad "C14" smd circle (at 3.25 -2.25) (size 0.275 0.275) (property pad_prop_bga) (layers "F.Cu" "F.Paste" "F.Mask") (tstamp 683a9bed-2afc-49f8-9924-fd44beb9f52a))
  (pad "D1" smd circle (at -3.25 -1.75) (size 0.275 0.275) (property pad_prop_bga) (layers "F.Cu" "F.Paste" "F.Mask") (tstamp 0eafbfac-0e2e-4112-abff-9b25f5b21dcc))
  (pad "D2" smd circle (at -2.75 -1.75) (size 0.275 0.275) (property pad_prop_bga) (layers "F.Cu" "F.Paste" "F.Mask") (tstamp fcd415d8-9677-43f6-a677-b1a12f82e7a0))
  (pad "D3" smd circle (at -2.25 -1.75) (size 0.275 0.275) (property pad_prop_bga) (layers "F.Cu" "F.Paste" "F.Mask") (tstamp 38a4faa7-2922-4d3a-98d1-b6852c7de96f))
  (pad "D4" smd circle (at -1.75 -1.75) (size 0.275 0.275) (property pad_prop_bga) (layers "F.Cu" "F.Paste" "F.Mask") (tstamp 1c097e64-e7fa-484f-8b7e-f8f1fcad2452))
  (pad "D5" smd circle (at -1.25 -1.75) (size 0.275 0.275) (property pad_prop_bga) (layers "F.Cu" "F.Paste" "F.Mask") (tstamp bb102bbd-2dd9-477e-ba62-de17c1806760))
  (pad "D6" smd circle (at -0.75 -1.75) (size 0.275 0.275) (property pad_prop_bga) (layers "F.Cu" "F.Paste" "F.Mask") (tstamp 2d53edc8-b7b8-4819-8345-2baa9d41def7))
  (pad "D7" smd circle (at -0.25 -1.75) (size 0.275 0.275) (property pad_prop_bga) (layers "F.Cu" "F.Paste" "F.Mask") (tstamp 0336eaad-3269-4cd7-b119-b3c3d1ea0a94))
  (pad "D8" smd circle (at 0.25 -1.75) (size 0.275 0.275) (property pad_prop_bga) (layers "F.Cu" "F.Paste" "F.Mask") (tstamp 2b0dc25f-0960-4883-9690-0555785e0684))
  (pad "D9" smd circle (at 0.75 -1.75) (size 0.275 0.275) (property pad_prop_bga) (layers "F.Cu" "F.Paste" "F.Mask") (tstamp 6724548b-485f-46af-8846-5c661112d0a0))
  (pad "D10" smd circle (at 1.25 -1.75) (size 0.275 0.275) (property pad_prop_bga) (layers "F.Cu" "F.Paste" "F.Mask") (tstamp e1bb6796-7ec3-4026-a47c-d0a77644521b))
  (pad "D11" smd circle (at 1.75 -1.75) (size 0.275 0.275) (property pad_prop_bga) (layers "F.Cu" "F.Paste" "F.Mask") (tstamp b196b83c-bfa2-4897-b793-3225ec713451))
  (pad "D12" smd circle (at 2.25 -1.75) (size 0.275 0.275) (property pad_prop_bga) (layers "F.Cu" "F.Paste" "F.Mask") (tstamp 12926906-53db-43a0-b2b0-86f8e96a8c30))
  (pad "D13" smd circle (at 2.75 -1.75) (size 0.275 0.275) (property pad_prop_bga) (layers "F.Cu" "F.Paste" "F.Mask") (tstamp b2667f7a-dbce-4489-94be-9acdb87bc221))
  (pad "D14" smd circle (at 3.25 -1.75) (size 0.275 0.275) (property pad_prop_bga) (layers "F.Cu" "F.Paste" "F.Mask") (tstamp 3e5f43ed-a374-4c79-b263-b588a14251ce))
  (pad "E1" smd circle (at -3.25 -1.25) (size 0.275 0.275) (property pad_prop_bga) (layers "F.Cu" "F.Paste" "F.Mask") (tstamp c45aabff-8d70-4e48-a060-f0a75eb77a55))
  (pad "E2" smd circle (at -2.75 -1.25) (size 0.275 0.275) (property pad_prop_bga) (layers "F.Cu" "F.Paste" "F.Mask") (tstamp cdf15a90-1d73-40f8-b3d7-b7954ab6813f))
  (pad "E3" smd circle (at -2.25 -1.25) (size 0.275 0.275) (property pad_prop_bga) (layers "F.Cu" "F.Paste" "F.Mask") (tstamp 9b433459-019a-4fff-9021-242d4a1fdaf0))
  (pad "E4" smd circle (at -1.75 -1.25) (size 0.275 0.275) (property pad_prop_bga) (layers "F.Cu" "F.Paste" "F.Mask") (tstamp ac662b20-9356-4caf-96ff-4406f488bfbe))
  (pad "E5" smd circle (at -1.25 -1.25) (size 0.275 0.275) (property pad_prop_bga) (layers "F.Cu" "F.Paste" "F.Mask") (tstamp 54b22df9-c133-42c8-a13a-8fa3f03731b0))
  (pad "E6" smd circle (at -0.75 -1.25) (size 0.275 0.275) (property pad_prop_bga) (layers "F.Cu" "F.Paste" "F.Mask") (tstamp 862df34c-888b-441c-bdbb-4ff1d4420eea))
  (pad "E7" smd circle (at -0.25 -1.25) (size 0.275 0.275) (property pad_prop_bga) (layers "F.Cu" "F.Paste" "F.Mask") (tstamp 658d6d61-e153-46f0-8744-4a001212e11c))
  (pad "E8" smd circle (at 0.25 -1.25) (size 0.275 0.275) (property pad_prop_bga) (layers "F.Cu" "F.Paste" "F.Mask") (tstamp 0ee1453b-1837-4b21-8ef4-cfbe0b35d92d))
  (pad "E9" smd circle (at 0.75 -1.25) (size 0.275 0.275) (property pad_prop_bga) (layers "F.Cu" "F.Paste" "F.Mask") (tstamp ba5ba611-8d62-4a55-8239-878357036059))
  (pad "E10" smd circle (at 1.25 -1.25) (size 0.275 0.275) (property pad_prop_bga) (layers "F.Cu" "F.Paste" "F.Mask") (tstamp ea1aba22-3e10-4928-94ed-0ddc79b868bc))
  (pad "E11" smd circle (at 1.75 -1.25) (size 0.275 0.275) (property pad_prop_bga) (layers "F.Cu" "F.Paste" "F.Mask") (tstamp fd62632c-8923-4d8b-8b34-6ee4e386e6d3))
  (pad "E12" smd circle (at 2.25 -1.25) (size 0.275 0.275) (property pad_prop_bga) (layers "F.Cu" "F.Paste" "F.Mask") (tstamp ac13e40a-0bb8-47fe-b00f-65128c1aec71))
  (pad "E13" smd circle (at 2.75 -1.25) (size 0.275 0.275) (property pad_prop_bga) (layers "F.Cu" "F.Paste" "F.Mask") (tstamp f4044988-4ae1-4997-b387-c9f370b1f414))
  (pad "E14" smd circle (at 3.25 -1.25) (size 0.275 0.275) (property pad_prop_bga) (layers "F.Cu" "F.Paste" "F.Mask") (tstamp a712778f-8cfd-418f-98ce-34d988268b9e))
  (pad "F1" smd circle (at -3.25 -0.75) (size 0.275 0.275) (property pad_prop_bga) (layers "F.Cu" "F.Paste" "F.Mask") (tstamp fa0ebda1-c2f7-4945-8f74-155dddf1a2e9))
  (pad "F2" smd circle (at -2.75 -0.75) (size 0.275 0.275) (property pad_prop_bga) (layers "F.Cu" "F.Paste" "F.Mask") (tstamp f874ea6e-bfc2-48bd-9892-a3a0de50560d))
  (pad "F3" smd circle (at -2.25 -0.75) (size 0.275 0.275) (property pad_prop_bga) (layers "F.Cu" "F.Paste" "F.Mask") (tstamp a38ffd26-cf88-45d7-b617-4178261dc7d7))
  (pad "F4" smd circle (at -1.75 -0.75) (size 0.275 0.275) (property pad_prop_bga) (layers "F.Cu" "F.Paste" "F.Mask") (tstamp 1396ab30-a94a-4b99-a2f6-ef3f15183828))
  (pad "F5" smd circle (at -1.25 -0.75) (size 0.275 0.275) (property pad_prop_bga) (layers "F.Cu" "F.Paste" "F.Mask") (tstamp 069688ff-1213-4453-b042-e3cb13521be3))
  (pad "F6" smd circle (at -0.75 -0.75) (size 0.275 0.275) (property pad_prop_bga) (layers "F.Cu" "F.Paste" "F.Mask") (tstamp 2a3d3319-1d96-4ac6-beb8-7fadceb33b10))
  (pad "F7" smd circle (at -0.25 -0.75) (size 0.275 0.275) (property pad_prop_bga) (layers "F.Cu" "F.Paste" "F.Mask") (tstamp 2e60fab4-1448-4b04-ae01-c0f741a53d7e))
  (pad "F8" smd circle (at 0.25 -0.75) (size 0.275 0.275) (property pad_prop_bga) (layers "F.Cu" "F.Paste" "F.Mask") (tstamp 36fdff57-f0c6-4fd7-b6ce-27e013074d15))
  (pad "F9" smd circle (at 0.75 -0.75) (size 0.275 0.275) (property pad_prop_bga) (layers "F.Cu" "F.Paste" "F.Mask") (tstamp d3f59ff6-2fb1-4cd8-a6fd-4fea18921e8e))
  (pad "F10" smd circle (at 1.25 -0.75) (size 0.275 0.275) (property pad_prop_bga) (layers "F.Cu" "F.Paste" "F.Mask") (tstamp ee30a8b2-6d47-4c00-b688-41a96408c983))
  (pad "F11" smd circle (at 1.75 -0.75) (size 0.275 0.275) (property pad_prop_bga) (layers "F.Cu" "F.Paste" "F.Mask") (tstamp b17739e7-6036-49f3-bbd9-f07e1ce04169))
  (pad "F12" smd circle (at 2.25 -0.75) (size 0.275 0.275) (property pad_prop_bga) (layers "F.Cu" "F.Paste" "F.Mask") (tstamp eab2b615-1768-48b9-b9cd-c8590fb1d97f))
  (pad "F13" smd circle (at 2.75 -0.75) (size 0.275 0.275) (property pad_prop_bga) (layers "F.Cu" "F.Paste" "F.Mask") (tstamp d4a59d0a-1560-4690-83cb-e815d326604b))
  (pad "F14" smd circle (at 3.25 -0.75) (size 0.275 0.275) (property pad_prop_bga) (layers "F.Cu" "F.Paste" "F.Mask") (tstamp bd38d41f-e812-4bcd-84d0-6b557ec79d4f))
  (pad "G1" smd circle (at -3.25 -0.25) (size 0.275 0.275) (property pad_prop_bga) (layers "F.Cu" "F.Paste" "F.Mask") (tstamp 306720f4-f471-4599-871e-4988bb473e83))
  (pad "G2" smd circle (at -2.75 -0.25) (size 0.275 0.275) (property pad_prop_bga) (layers "F.Cu" "F.Paste" "F.Mask") (tstamp a9e298f1-c6e8-4dff-a607-4ce0cfb0e727))
  (pad "G3" smd circle (at -2.25 -0.25) (size 0.275 0.275) (property pad_prop_bga) (layers "F.Cu" "F.Paste" "F.Mask") (tstamp 1113112a-5e38-4b9a-9350-5611bfee63eb))
  (pad "G4" smd circle (at -1.75 -0.25) (size 0.275 0.275) (property pad_prop_bga) (layers "F.Cu" "F.Paste" "F.Mask") (tstamp 78e0ad71-cfd9-49ca-a668-85572568b1ed))
  (pad "G5" smd circle (at -1.25 -0.25) (size 0.275 0.275) (property pad_prop_bga) (layers "F.Cu" "F.Paste" "F.Mask") (tstamp 5e7e29c3-feb6-4d54-9fb2-75e7623c2cd5))
  (pad "G6" smd circle (at -0.75 -0.25) (size 0.275 0.275) (property pad_prop_bga) (layers "F.Cu" "F.Paste" "F.Mask") (tstamp 3429f1a9-fc83-4b79-b0e3-56072a7936f2))
  (pad "G7" smd circle (at -0.25 -0.25) (size 0.275 0.275) (property pad_prop_bga) (layers "F.Cu" "F.Paste" "F.Mask") (tstamp aed5057d-f3bb-4b56-89f5-e7142228ae99))
  (pad "G8" smd circle (at 0.25 -0.25) (size 0.275 0.275) (property pad_prop_bga) (layers "F.Cu" "F.Paste" "F.Mask") (tstamp 0385e862-fa03-4d48-890b-c852227e1781))
  (pad "G9" smd circle (at 0.75 -0.25) (size 0.275 0.275) (property pad_prop_bga) (layers "F.Cu" "F.Paste" "F.Mask") (tstamp b15cbc8f-fda5-4fb9-a366-f0ac677adb1e))
  (pad "G10" smd circle (at 1.25 -0.25) (size 0.275 0.275) (property pad_prop_bga) (layers "F.Cu" "F.Paste" "F.Mask") (tstamp 175dc8ec-d3fd-451d-bc0c-63833b812f5d))
  (pad "G11" smd circle (at 1.75 -0.25) (size 0.275 0.275) (property pad_prop_bga) (layers "F.Cu" "F.Paste" "F.Mask") (tstamp 2759d5e1-1262-491f-9758-5d1b729a6ee8))
  (pad "G12" smd circle (at 2.25 -0.25) (size 0.275 0.275) (property pad_prop_bga) (layers "F.Cu" "F.Paste" "F.Mask") (tstamp 5aea6695-5387-465b-a5a3-4b972bbdc963))
  (pad "G13" smd circle (at 2.75 -0.25) (size 0.275 0.275) (property pad_prop_bga) (layers "F.Cu" "F.Paste" "F.Mask") (tstamp 562d8fad-10c8-4940-8490-c64a9faf7e22))
  (pad "G14" smd circle (at 3.25 -0.25) (size 0.275 0.275) (property pad_prop_bga) (layers "F.Cu" "F.Paste" "F.Mask") (tstamp 6a0c8e96-a6b1-46d9-ad9b-5d3cc52ad777))
  (pad "H1" smd circle (at -3.25 0.25) (size 0.275 0.275) (property pad_prop_bga) (layers "F.Cu" "F.Paste" "F.Mask") (tstamp 66cb3865-974c-4a99-b450-788a65e89947))
  (pad "H2" smd circle (at -2.75 0.25) (size 0.275 0.275) (property pad_prop_bga) (layers "F.Cu" "F.Paste" "F.Mask") (tstamp 6e6a8bdc-8cc0-4150-b72c-a66ef63782a5))
  (pad "H3" smd circle (at -2.25 0.25) (size 0.275 0.275) (property pad_prop_bga) (layers "F.Cu" "F.Paste" "F.Mask") (tstamp a290af4a-d6c2-46a6-9ebc-44a06b68eea6))
  (pad "H4" smd circle (at -1.75 0.25) (size 0.275 0.275) (property pad_prop_bga) (layers "F.Cu" "F.Paste" "F.Mask") (tstamp cebeee55-2fc0-403e-8ed3-66157e45a1a0))
  (pad "H5" smd circle (at -1.25 0.25) (size 0.275 0.275) (property pad_prop_bga) (layers "F.Cu" "F.Paste" "F.Mask") (tstamp 4ac0902b-cc67-400a-95d3-a23902474f66))
  (pad "H6" smd circle (at -0.75 0.25) (size 0.275 0.275) (property pad_prop_bga) (layers "F.Cu" "F.Paste" "F.Mask") (tstamp dad1d911-d223-4ed5-91ea-7a54b5b0e220))
  (pad "H7" smd circle (at -0.25 0.25) (size 0.275 0.275) (property pad_prop_bga) (layers "F.Cu" "F.Paste" "F.Mask") (tstamp 556b1392-eb8a-46e9-901f-d76cc81fa984))
  (pad "H8" smd circle (at 0.25 0.25) (size 0.275 0.275) (property pad_prop_bga) (layers "F.Cu" "F.Paste" "F.Mask") (tstamp 3dc89b22-5fa7-4e1f-8c3e-e5e2a920004b))
  (pad "H9" smd circle (at 0.75 0.25) (size 0.275 0.275) (property pad_prop_bga) (layers "F.Cu" "F.Paste" "F.Mask") (tstamp b81a1171-9015-4655-a7c5-019d3c6e22db))
  (pad "H10" smd circle (at 1.25 0.25) (size 0.275 0.275) (property pad_prop_bga) (layers "F.Cu" "F.Paste" "F.Mask") (tstamp 61235d22-da5e-49ce-8407-12e841d434c4))
  (pad "H11" smd circle (at 1.75 0.25) (size 0.275 0.275) (property pad_prop_bga) (layers "F.Cu" "F.Paste" "F.Mask") (tstamp 1fa61589-c308-4bd8-baa0-8d12f1d0d15e))
  (pad "H12" smd circle (at 2.25 0.25) (size 0.275 0.275) (property pad_prop_bga) (layers "F.Cu" "F.Paste" "F.Mask") (tstamp d451203a-f03c-46b9-ac24-8dbcbf3e0abe))
  (pad "H13" smd circle (at 2.75 0.25) (size 0.275 0.275) (property pad_prop_bga) (layers "F.Cu" "F.Paste" "F.Mask") (tstamp c6d0604e-e83d-4529-9735-968ff51a6eb4))
  (pad "H14" smd circle (at 3.25 0.25) (size 0.275 0.275) (property pad_prop_bga) (layers "F.Cu" "F.Paste" "F.Mask") (tstamp 200d1f8b-31e4-4ed2-8e3b-f71908244cb4))
  (pad "J1" smd circle (at -3.25 0.75) (size 0.275 0.275) (property pad_prop_bga) (layers "F.Cu" "F.Paste" "F.Mask") (tstamp a30e930a-6d30-46ed-b086-37350702b702))
  (pad "J2" smd circle (at -2.75 0.75) (size 0.275 0.275) (property pad_prop_bga) (layers "F.Cu" "F.Paste" "F.Mask") (tstamp a7e3c429-ca09-4edc-a9c3-5423e29bc93f))
  (pad "J3" smd circle (at -2.25 0.75) (size 0.275 0.275) (property pad_prop_bga) (layers "F.Cu" "F.Paste" "F.Mask") (tstamp eadde5be-8f76-4c34-bca8-e1978034c01f))
  (pad "J4" smd circle (at -1.75 0.75) (size 0.275 0.275) (property pad_prop_bga) (layers "F.Cu" "F.Paste" "F.Mask") (tstamp 083cf8e6-94c0-4430-88a4-1fd7a558b456))
  (pad "J5" smd circle (at -1.25 0.75) (size 0.275 0.275) (property pad_prop_bga) (layers "F.Cu" "F.Paste" "F.Mask") (tstamp c2c60af4-15e0-40cf-b494-10fb45a25ef6))
  (pad "J6" smd circle (at -0.75 0.75) (size 0.275 0.275) (property pad_prop_bga) (layers "F.Cu" "F.Paste" "F.Mask") (tstamp 0bf0cab4-2f13-4a84-a799-6daf42a56d56))
  (pad "J7" smd circle (at -0.25 0.75) (size 0.275 0.275) (property pad_prop_bga) (layers "F.Cu" "F.Paste" "F.Mask") (tstamp cc216bce-93ca-4c00-a8c2-3e200ec7bfc9))
  (pad "J8" smd circle (at 0.25 0.75) (size 0.275 0.275) (property pad_prop_bga) (layers "F.Cu" "F.Paste" "F.Mask") (tstamp d6672834-a4e2-4a72-af21-859197d822ec))
  (pad "J9" smd circle (at 0.75 0.75) (size 0.275 0.275) (property pad_prop_bga) (layers "F.Cu" "F.Paste" "F.Mask") (tstamp 2aa8bcad-cf57-40c6-871f-b6d06213fea8))
  (pad "J10" smd circle (at 1.25 0.75) (size 0.275 0.275) (property pad_prop_bga) (layers "F.Cu" "F.Paste" "F.Mask") (tstamp 10276def-0e1f-46d8-a2d9-c1c01887433d))
  (pad "J11" smd circle (at 1.75 0.75) (size 0.275 0.275) (property pad_prop_bga) (layers "F.Cu" "F.Paste" "F.Mask") (tstamp dc092003-9280-4b94-bbde-9eab6b0847d5))
  (pad "J12" smd circle (at 2.25 0.75) (size 0.275 0.275) (property pad_prop_bga) (layers "F.Cu" "F.Paste" "F.Mask") (tstamp 48e3b560-e888-4a3f-85d7-bd8362a55e9b))
  (pad "J13" smd circle (at 2.75 0.75) (size 0.275 0.275) (property pad_prop_bga) (layers "F.Cu" "F.Paste" "F.Mask") (tstamp 320fc319-5eba-4781-851a-90ced57e39ba))
  (pad "J14" smd circle (at 3.25 0.75) (size 0.275 0.275) (property pad_prop_bga) (layers "F.Cu" "F.Paste" "F.Mask") (tstamp 483f8606-d570-40bc-bee1-5e28c219b9bb))
  (pad "K1" smd circle (at -3.25 1.25) (size 0.275 0.275) (property pad_prop_bga) (layers "F.Cu" "F.Paste" "F.Mask") (tstamp 2a780759-ae51-4bc1-ac8f-bea5260a0644))
  (pad "K2" smd circle (at -2.75 1.25) (size 0.275 0.275) (property pad_prop_bga) (layers "F.Cu" "F.Paste" "F.Mask") (tstamp df3f7489-e052-45c7-814a-aa6fa5de7c08))
  (pad "K3" smd circle (at -2.25 1.25) (size 0.275 0.275) (property pad_prop_bga) (layers "F.Cu" "F.Paste" "F.Mask") (tstamp b079d307-f534-4688-95ae-b3158d2ef1b1))
  (pad "K4" smd circle (at -1.75 1.25) (size 0.275 0.275) (property pad_prop_bga) (layers "F.Cu" "F.Paste" "F.Mask") (tstamp 8bb30cbb-8817-43d3-8077-a63a80ea2d62))
  (pad "K5" smd circle (at -1.25 1.25) (size 0.275 0.275) (property pad_prop_bga) (layers "F.Cu" "F.Paste" "F.Mask") (tstamp a59b6538-bf98-493c-a90f-1a377bb646de))
  (pad "K6" smd circle (at -0.75 1.25) (size 0.275 0.275) (property pad_prop_bga) (layers "F.Cu" "F.Paste" "F.Mask") (tstamp 8b5a3ca7-a07d-4d83-a88f-51f0a8c4d41f))
  (pad "K7" smd circle (at -0.25 1.25) (size 0.275 0.275) (property pad_prop_bga) (layers "F.Cu" "F.Paste" "F.Mask") (tstamp 4f4f3ebf-d948-4ff4-b500-096df07a88a6))
  (pad "K8" smd circle (at 0.25 1.25) (size 0.275 0.275) (property pad_prop_bga) (layers "F.Cu" "F.Paste" "F.Mask") (tstamp 4d9b0594-b365-4793-ad6c-815575da9c7a))
  (pad "K9" smd circle (at 0.75 1.25) (size 0.275 0.275) (property pad_prop_bga) (layers "F.Cu" "F.Paste" "F.Mask") (tstamp 06d5dd59-9d24-4ac3-84f7-4324777ba604))
  (pad "K10" smd circle (at 1.25 1.25) (size 0.275 0.275) (property pad_prop_bga) (layers "F.Cu" "F.Paste" "F.Mask") (tstamp 7b1a737a-c81a-460d-a42e-dc2ed369f1e3))
  (pad "K11" smd circle (at 1.75 1.25) (size 0.275 0.275) (property pad_prop_bga) (layers "F.Cu" "F.Paste" "F.Mask") (tstamp e46588b4-c7f6-4186-b1b6-ea0c675b4ade))
  (pad "K12" smd circle (at 2.25 1.25) (size 0.275 0.275) (property pad_prop_bga) (layers "F.Cu" "F.Paste" "F.Mask") (tstamp 48c70d38-4cfa-40ce-a9f0-451cc1727ce6))
  (pad "K13" smd circle (at 2.75 1.25) (size 0.275 0.275) (property pad_prop_bga) (layers "F.Cu" "F.Paste" "F.Mask") (tstamp f1c668b4-98f0-4457-b4b6-ef86d75ad103))
  (pad "K14" smd circle (at 3.25 1.25) (size 0.275 0.275) (property pad_prop_bga) (layers "F.Cu" "F.Paste" "F.Mask") (tstamp 38dbebd7-94de-4a24-a783-48466a3a72f9))
  (pad "L1" smd circle (at -3.25 1.75) (size 0.275 0.275) (property pad_prop_bga) (layers "F.Cu" "F.Paste" "F.Mask") (tstamp d6096532-7b06-4ca5-8e94-89a74c84e424))
  (pad "L2" smd circle (at -2.75 1.75) (size 0.275 0.275) (property pad_prop_bga) (layers "F.Cu" "F.Paste" "F.Mask") (tstamp 3d7ddc0b-cacb-43ba-ab59-027ef2c32434))
  (pad "L3" smd circle (at -2.25 1.75) (size 0.275 0.275) (property pad_prop_bga) (layers "F.Cu" "F.Paste" "F.Mask") (tstamp ef79980b-54f9-43d2-ba2f-2dca3c6d72e0))
  (pad "L4" smd circle (at -1.75 1.75) (size 0.275 0.275) (property pad_prop_bga) (layers "F.Cu" "F.Paste" "F.Mask") (tstamp d53657aa-375f-4ab7-9388-b332c1480e27))
  (pad "L5" smd circle (at -1.25 1.75) (size 0.275 0.275) (property pad_prop_bga) (layers "F.Cu" "F.Paste" "F.Mask") (tstamp 6e48b5c3-a1aa-4e5f-a9e6-29d5f4ffefb1))
  (pad "L6" smd circle (at -0.75 1.75) (size 0.275 0.275) (property pad_prop_bga) (layers "F.Cu" "F.Paste" "F.Mask") (tstamp 3027902b-7152-4cde-9442-dceb7c0a7408))
  (pad "L7" smd circle (at -0.25 1.75) (size 0.275 0.275) (property pad_prop_bga) (layers "F.Cu" "F.Paste" "F.Mask") (tstamp c941bea2-7f26-4492-9ce7-30fa22b1a595))
  (pad "L8" smd circle (at 0.25 1.75) (size 0.275 0.275) (property pad_prop_bga) (layers "F.Cu" "F.Paste" "F.Mask") (tstamp 7bbbcf5e-7295-460c-937f-1694260a0d69))
  (pad "L9" smd circle (at 0.75 1.75) (size 0.275 0.275) (property pad_prop_bga) (layers "F.Cu" "F.Paste" "F.Mask") (tstamp a26c4dd6-ac09-4609-bb28-e3bb80d4ac12))
  (pad "L10" smd circle (at 1.25 1.75) (size 0.275 0.275) (property pad_prop_bga) (layers "F.Cu" "F.Paste" "F.Mask") (tstamp 84047645-5ddf-4982-8f6f-81799412cc08))
  (pad "L11" smd circle (at 1.75 1.75) (size 0.275 0.275) (property pad_prop_bga) (layers "F.Cu" "F.Paste" "F.Mask") (tstamp 2c8ea0dc-848e-4f86-90ab-a46af941d360))
  (pad "L12" smd circle (at 2.25 1.75) (size 0.275 0.275) (property pad_prop_bga) (layers "F.Cu" "F.Paste" "F.Mask") (tstamp a95aec02-8c09-45ab-85a7-cc670ca3b523))
  (pad "L13" smd circle (at 2.75 1.75) (size 0.275 0.275) (property pad_prop_bga) (layers "F.Cu" "F.Paste" "F.Mask") (tstamp 5cb3c0c1-dfcd-4c20-b276-5f5b76625c64))
  (pad "L14" smd circle (at 3.25 1.75) (size 0.275 0.275) (property pad_prop_bga) (layers "F.Cu" "F.Paste" "F.Mask") (tstamp d0d10bba-b946-475d-ad49-7599b884a5a9))
  (pad "M1" smd circle (at -3.25 2.25) (size 0.275 0.275) (property pad_prop_bga) (layers "F.Cu" "F.Paste" "F.Mask") (tstamp 99958ed9-e34c-48eb-bb5a-c5b63d54919a))
  (pad "M2" smd circle (at -2.75 2.25) (size 0.275 0.275) (property pad_prop_bga) (layers "F.Cu" "F.Paste" "F.Mask") (tstamp 1e649b85-f208-4b3c-b5d7-343d71709d48))
  (pad "M3" smd circle (at -2.25 2.25) (size 0.275 0.275) (property pad_prop_bga) (layers "F.Cu" "F.Paste" "F.Mask") (tstamp 35ca34a1-cbeb-48dc-98bb-381d6d494719))
  (pad "M4" smd circle (at -1.75 2.25) (size 0.275 0.275) (property pad_prop_bga) (layers "F.Cu" "F.Paste" "F.Mask") (tstamp b60290de-deaa-4f73-a312-488d613479a8))
  (pad "M5" smd circle (at -1.25 2.25) (size 0.275 0.275) (property pad_prop_bga) (layers "F.Cu" "F.Paste" "F.Mask") (tstamp 5f162f83-7c58-48a8-b32f-31e5f8124ec3))
  (pad "M6" smd circle (at -0.75 2.25) (size 0.275 0.275) (property pad_prop_bga) (layers "F.Cu" "F.Paste" "F.Mask") (tstamp ecdf5411-490e-4feb-812e-15a512088b9b))
  (pad "M7" smd circle (at -0.25 2.25) (size 0.275 0.275) (property pad_prop_bga) (layers "F.Cu" "F.Paste" "F.Mask") (tstamp 8e1567ee-baae-4830-9119-fd67da6fec78))
  (pad "M8" smd circle (at 0.25 2.25) (size 0.275 0.275) (property pad_prop_bga) (layers "F.Cu" "F.Paste" "F.Mask") (tstamp d2f4bb66-2c2e-47e6-9700-7402b366eb84))
  (pad "M9" smd circle (at 0.75 2.25) (size 0.275 0.275) (property pad_prop_bga) (layers "F.Cu" "F.Paste" "F.Mask") (tstamp 8e3e126a-ccf1-4a0b-bbfa-b5013c95b65d))
  (pad "M10" smd circle (at 1.25 2.25) (size 0.275 0.275) (property pad_prop_bga) (layers "F.Cu" "F.Paste" "F.Mask") (tstamp 4814c4c0-e463-4719-9381-3a5eee34443f))
  (pad "M11" smd circle (at 1.75 2.25) (size 0.275 0.275) (property pad_prop_bga) (layers "F.Cu" "F.Paste" "F.Mask") (tstamp 0f4dea4e-1da4-4dd5-868c-c27f04ee7d80))
  (pad "M12" smd circle (at 2.25 2.25) (size 0.275 0.275) (property pad_prop_bga) (layers "F.Cu" "F.Paste" "F.Mask") (tstamp a9bcc2a6-0ef3-424f-af80-20a05ab6e2a1))
  (pad "M13" smd circle (at 2.75 2.25) (size 0.275 0.275) (property pad_prop_bga) (layers "F.Cu" "F.Paste" "F.Mask") (tstamp e7c725f0-3181-4388-9beb-ff3189719ed1))
  (pad "M14" smd circle (at 3.25 2.25) (size 0.275 0.275) (property pad_prop_bga) (layers "F.Cu" "F.Paste" "F.Mask") (tstamp d601b729-6939-4901-8a96-a600db08e301))
  (pad "N1" smd circle (at -3.25 2.75) (size 0.275 0.275) (property pad_prop_bga) (layers "F.Cu" "F.Paste" "F.Mask") (tstamp 98f8d7f3-6078-45bf-9f8d-79b7a05cb70b))
  (pad "N2" smd circle (at -2.75 2.75) (size 0.275 0.275) (property pad_prop_bga) (layers "F.Cu" "F.Paste" "F.Mask") (tstamp 7255b76a-0223-4671-b904-41545cf2eb83))
  (pad "N3" smd circle (at -2.25 2.75) (size 0.275 0.275) (property pad_prop_bga) (layers "F.Cu" "F.Paste" "F.Mask") (tstamp 97952df8-06c0-40c7-9a83-647631a8ddee))
  (pad "N4" smd circle (at -1.75 2.75) (size 0.275 0.275) (property pad_prop_bga) (layers "F.Cu" "F.Paste" "F.Mask") (tstamp 79674188-2fb8-4a72-866d-0b3bf7eaa305))
  (pad "N5" smd circle (at -1.25 2.75) (size 0.275 0.275) (property pad_prop_bga) (layers "F.Cu" "F.Paste" "F.Mask") (tstamp 7a3fb59f-cb55-44fa-8a3b-1e35609bad89))
  (pad "N6" smd circle (at -0.75 2.75) (size 0.275 0.275) (property pad_prop_bga) (layers "F.Cu" "F.Paste" "F.Mask") (tstamp 01d45737-d05d-4d34-bc4f-227d45d36443))
  (pad "N7" smd circle (at -0.25 2.75) (size 0.275 0.275) (property pad_prop_bga) (layers "F.Cu" "F.Paste" "F.Mask") (tstamp 05a6e59d-0e57-4e69-8dd6-ad48b04c970a))
  (pad "N8" smd circle (at 0.25 2.75) (size 0.275 0.275) (property pad_prop_bga) (layers "F.Cu" "F.Paste" "F.Mask") (tstamp f45d2eb9-d463-41b3-8a78-6e6346cb18d6))
  (pad "N9" smd circle (at 0.75 2.75) (size 0.275 0.275) (property pad_prop_bga) (layers "F.Cu" "F.Paste" "F.Mask") (tstamp f726f9a2-a1db-486b-9e41-e593b21941f0))
  (pad "N10" smd circle (at 1.25 2.75) (size 0.275 0.275) (property pad_prop_bga) (layers "F.Cu" "F.Paste" "F.Mask") (tstamp bcc1cc6e-9f87-437f-b73c-9685d21916c4))
  (pad "N11" smd circle (at 1.75 2.75) (size 0.275 0.275) (property pad_prop_bga) (layers "F.Cu" "F.Paste" "F.Mask") (tstamp 2fba812f-f35e-4b48-9c69-65671b47973b))
  (pad "N12" smd circle (at 2.25 2.75) (size 0.275 0.275) (property pad_prop_bga) (layers "F.Cu" "F.Paste" "F.Mask") (tstamp 7811febb-de6a-4c97-a759-c0d536ea12f6))
  (pad "N13" smd circle (at 2.75 2.75) (size 0.275 0.275) (property pad_prop_bga) (layers "F.Cu" "F.Paste" "F.Mask") (tstamp 67d7ad78-f068-441a-9fb4-896c5065285f))
  (pad "N14" smd circle (at 3.25 2.75) (size 0.275 0.275) (property pad_prop_bga) (layers "F.Cu" "F.Paste" "F.Mask") (tstamp cdac2ab9-8ed2-4f05-b77d-f6d61d894fb2))
  (pad "P1" smd circle (at -3.25 3.25) (size 0.275 0.275) (property pad_prop_bga) (layers "F.Cu" "F.Paste" "F.Mask") (tstamp 1645e750-4148-43ff-aaaa-efef9c51b9ed))
  (pad "P2" smd circle (at -2.75 3.25) (size 0.275 0.275) (property pad_prop_bga) (layers "F.Cu" "F.Paste" "F.Mask") (tstamp d73a11c7-f18c-45e5-882f-1fc2fe8233ee))
  (pad "P3" smd circle (at -2.25 3.25) (size 0.275 0.275) (property pad_prop_bga) (layers "F.Cu" "F.Paste" "F.Mask") (tstamp 4b21e3ec-720b-46ec-a763-17b80e00382a))
  (pad "P4" smd circle (at -1.75 3.25) (size 0.275 0.275) (property pad_prop_bga) (layers "F.Cu" "F.Paste" "F.Mask") (tstamp 0583d2b8-84c7-47ee-a47a-cbf8b6c1a419))
  (pad "P5" smd circle (at -1.25 3.25) (size 0.275 0.275) (property pad_prop_bga) (layers "F.Cu" "F.Paste" "F.Mask") (tstamp 4ae20ec3-a52c-4677-afba-7ba1eb4dfcb4))
  (pad "P6" smd circle (at -0.75 3.25) (size 0.275 0.275) (property pad_prop_bga) (layers "F.Cu" "F.Paste" "F.Mask") (tstamp 8f26d18a-083e-4298-9797-9609a832bedd))
  (pad "P7" smd circle (at -0.25 3.25) (size 0.275 0.275) (property pad_prop_bga) (layers "F.Cu" "F.Paste" "F.Mask") (tstamp 508998fa-d619-4a21-87ff-1ab03a26d78a))
  (pad "P8" smd circle (at 0.25 3.25) (size 0.275 0.275) (property pad_prop_bga) (layers "F.Cu" "F.Paste" "F.Mask") (tstamp fcc0c43b-7a87-4248-baa2-7ee08ae64540))
  (pad "P9" smd circle (at 0.75 3.25) (size 0.275 0.275) (property pad_prop_bga) (layers "F.Cu" "F.Paste" "F.Mask") (tstamp 535e3145-9831-4bfc-843d-7f87dd35f9ab))
  (pad "P10" smd circle (at 1.25 3.25) (size 0.275 0.275) (property pad_prop_bga) (layers "F.Cu" "F.Paste" "F.Mask") (tstamp 14f4288c-29f5-476d-b2dd-69cd1b96c74c))
  (pad "P11" smd circle (at 1.75 3.25) (size 0.275 0.275) (property pad_prop_bga) (layers "F.Cu" "F.Paste" "F.Mask") (tstamp 331db733-323a-4983-bb78-1b8eda9e4bd9))
  (pad "P12" smd circle (at 2.25 3.25) (size 0.275 0.275) (property pad_prop_bga) (layers "F.Cu" "F.Paste" "F.Mask") (tstamp baa2ae6c-a0cd-4388-ad3f-688ea0afc6b6))
  (pad "P13" smd circle (at 2.75 3.25) (size 0.275 0.275) (property pad_prop_bga) (layers "F.Cu" "F.Paste" "F.Mask") (tstamp aed3873e-d9d0-4eb8-a764-721496fbd0e9))
  (pad "P14" smd circle (at 3.25 3.25) (size 0.275 0.275) (property pad_prop_bga) (layers "F.Cu" "F.Paste" "F.Mask") (tstamp f504c5c8-22e0-4d01-83d7-3834b6ce30a1))
  (model "${KICAD6_3DMODEL_DIR}/Package_BGA.3dshapes/Xilinx_CPGA196.wrl"
    (offset (xyz 0 0 0))
    (scale (xyz 1 1 1))
    (rotate (xyz 0 0 0))
  )
)
