(footprint "Xilinx_CLG400" (version 20211014) (generator pcbnew)
  (layer "F.Cu")
  (tedit 5CDADFA9)
  (descr "Zynq-7000 BGA, 20x20 grid, 17x17mm package, 0.8mm pitch; https://www.xilinx.com/support/documentation/user_guides/ug865-Zynq-7000-Pkg-Pinout.pdf#page=78, NSMD pad definition Appendix A")
  (tags "BGA 400 0.8 CLG400 CL400")
  (solder_mask_margin 0.05)
  (attr smd)
  (fp_text reference "REF**" (at 0 -9.5) (layer "F.SilkS")
    (effects (font (size 1 1) (thickness 0.15)))
    (tstamp c235fa06-8ab2-47b3-a7c0-bd1d3a8f80f3)
  )
  (fp_text value "Xilinx_CLG400" (at 0 9.5) (layer "F.Fab")
    (effects (font (size 1 1) (thickness 0.15)))
    (tstamp c238381e-ce48-4ccc-8a97-472db3988938)
  )
  (fp_text user "${REFERENCE}" (at 0 0) (layer "F.Fab")
    (effects (font (size 1 1) (thickness 0.15)))
    (tstamp 2ef3dac8-39e9-40e4-915b-32937c43fd67)
  )
  (fp_line (start 8.61 8.61) (end -8.61 8.61) (layer "F.SilkS") (width 0.12) (tstamp 21c48348-13f7-4e3a-ab0a-4ee3c14fdfd4))
  (fp_line (start 8.61 -8.61) (end 8.61 8.61) (layer "F.SilkS") (width 0.12) (tstamp 288f4ee7-8463-41f7-8cec-76fb52b21783))
  (fp_line (start -8.61 8.61) (end -8.61 -7.61) (layer "F.SilkS") (width 0.12) (tstamp 6f4e3fff-e15f-4678-9153-e692d22cb689))
  (fp_line (start -7.61 -8.61) (end 8.61 -8.61) (layer "F.SilkS") (width 0.12) (tstamp c90868ea-a5bf-4851-ad99-b2f5e391ac59))
  (fp_line (start -9.5 -9.5) (end -9.5 9.5) (layer "F.CrtYd") (width 0.05) (tstamp 0bb85dbb-840d-4c15-8606-ba1cf501a5a3))
  (fp_line (start -9.5 9.5) (end 9.5 9.5) (layer "F.CrtYd") (width 0.05) (tstamp 6a560a78-5c82-45dd-8cc8-e2e7d1bc3e49))
  (fp_line (start 9.5 9.5) (end 9.5 -9.5) (layer "F.CrtYd") (width 0.05) (tstamp d1ce4c04-d9d7-49aa-83d5-c5a0738cd7ec))
  (fp_line (start 9.5 -9.5) (end -9.5 -9.5) (layer "F.CrtYd") (width 0.05) (tstamp f317bc4f-b6ab-4327-82ce-8b6a1b45db09))
  (fp_line (start 8.5 8.5) (end -8.5 8.5) (layer "F.Fab") (width 0.1) (tstamp 129996e9-5c1e-4f2d-9667-20ea865b1df6))
  (fp_line (start -8.5 8.5) (end -8.5 -7.5) (layer "F.Fab") (width 0.1) (tstamp 29056cc4-e8c9-4f02-89aa-9c86cda4485c))
  (fp_line (start -7.5 -8.5) (end 8.5 -8.5) (layer "F.Fab") (width 0.1) (tstamp 98ae3bf7-2c0a-47f3-9f71-6f94a6393901))
  (fp_line (start -8.5 -7.5) (end -7.5 -8.5) (layer "F.Fab") (width 0.1) (tstamp a1d2caea-db15-47d5-bf31-bc9c8d27d3fb))
  (fp_line (start 8.5 -8.5) (end 8.5 8.5) (layer "F.Fab") (width 0.1) (tstamp f31377b2-390f-456c-a477-660753c63c28))
  (pad "A1" smd circle (at -7.6 -7.6) (size 0.4 0.4) (property pad_prop_bga) (layers "F.Cu" "F.Paste" "F.Mask") (tstamp 335b4da5-3427-48e9-a424-58ac0cca16ab))
  (pad "A2" smd circle (at -6.8 -7.6) (size 0.4 0.4) (property pad_prop_bga) (layers "F.Cu" "F.Paste" "F.Mask") (tstamp 3e91a46e-437d-4f57-94d2-bc3b6df26481))
  (pad "A3" smd circle (at -6 -7.6) (size 0.4 0.4) (property pad_prop_bga) (layers "F.Cu" "F.Paste" "F.Mask") (tstamp 659b1fd0-c105-4d73-aec7-5a7b1e0ca497))
  (pad "A4" smd circle (at -5.2 -7.6) (size 0.4 0.4) (property pad_prop_bga) (layers "F.Cu" "F.Paste" "F.Mask") (tstamp fa1687da-7758-4eb7-8ae8-da4cfb5b6e86))
  (pad "A5" smd circle (at -4.4 -7.6) (size 0.4 0.4) (property pad_prop_bga) (layers "F.Cu" "F.Paste" "F.Mask") (tstamp af8d7d19-b55a-4f11-ac20-bb5b8137867e))
  (pad "A6" smd circle (at -3.6 -7.6) (size 0.4 0.4) (property pad_prop_bga) (layers "F.Cu" "F.Paste" "F.Mask") (tstamp c4639187-cd50-4989-8c3d-f1b71d518ebc))
  (pad "A7" smd circle (at -2.8 -7.6) (size 0.4 0.4) (property pad_prop_bga) (layers "F.Cu" "F.Paste" "F.Mask") (tstamp 49b5f23f-80c7-404a-b5cc-c50fe4ae358c))
  (pad "A8" smd circle (at -2 -7.6) (size 0.4 0.4) (property pad_prop_bga) (layers "F.Cu" "F.Paste" "F.Mask") (tstamp 5644413e-998b-4a61-858c-23386cdd9a5d))
  (pad "A9" smd circle (at -1.2 -7.6) (size 0.4 0.4) (property pad_prop_bga) (layers "F.Cu" "F.Paste" "F.Mask") (tstamp 8b867635-31a9-4c42-a790-02e4f002a2d8))
  (pad "A10" smd circle (at -0.4 -7.6) (size 0.4 0.4) (property pad_prop_bga) (layers "F.Cu" "F.Paste" "F.Mask") (tstamp f9914393-5160-43f6-a19c-708d4d51a76f))
  (pad "A11" smd circle (at 0.4 -7.6) (size 0.4 0.4) (property pad_prop_bga) (layers "F.Cu" "F.Paste" "F.Mask") (tstamp 8eae3f23-0926-4b47-8aad-45d1b11953b5))
  (pad "A12" smd circle (at 1.2 -7.6) (size 0.4 0.4) (property pad_prop_bga) (layers "F.Cu" "F.Paste" "F.Mask") (tstamp 99ba8a23-305e-4f08-bc2a-3d089cde4522))
  (pad "A13" smd circle (at 2 -7.6) (size 0.4 0.4) (property pad_prop_bga) (layers "F.Cu" "F.Paste" "F.Mask") (tstamp d1a0d03f-f731-44e9-83f8-aed8567a8660))
  (pad "A14" smd circle (at 2.8 -7.6) (size 0.4 0.4) (property pad_prop_bga) (layers "F.Cu" "F.Paste" "F.Mask") (tstamp 6c527506-06c3-445a-9b79-b6492cc9b016))
  (pad "A15" smd circle (at 3.6 -7.6) (size 0.4 0.4) (property pad_prop_bga) (layers "F.Cu" "F.Paste" "F.Mask") (tstamp 8288e831-dfc2-4687-9dfb-eed3bc9af2f7))
  (pad "A16" smd circle (at 4.4 -7.6) (size 0.4 0.4) (property pad_prop_bga) (layers "F.Cu" "F.Paste" "F.Mask") (tstamp 89123b8d-2cef-4261-bf1b-31b46c95cc22))
  (pad "A17" smd circle (at 5.2 -7.6) (size 0.4 0.4) (property pad_prop_bga) (layers "F.Cu" "F.Paste" "F.Mask") (tstamp de1f0765-6fae-405c-ba1a-f15353460552))
  (pad "A18" smd circle (at 6 -7.6) (size 0.4 0.4) (property pad_prop_bga) (layers "F.Cu" "F.Paste" "F.Mask") (tstamp 6f5512df-e8b0-4e45-8a6a-af9063c99c7c))
  (pad "A19" smd circle (at 6.8 -7.6) (size 0.4 0.4) (property pad_prop_bga) (layers "F.Cu" "F.Paste" "F.Mask") (tstamp 99331443-9339-416e-ae66-9e31c7a1bc55))
  (pad "A20" smd circle (at 7.6 -7.6) (size 0.4 0.4) (property pad_prop_bga) (layers "F.Cu" "F.Paste" "F.Mask") (tstamp 45c20f0e-3047-45ee-8928-75d888ef1121))
  (pad "B1" smd circle (at -7.6 -6.8) (size 0.4 0.4) (property pad_prop_bga) (layers "F.Cu" "F.Paste" "F.Mask") (tstamp 7c9804f0-e69a-44a8-930c-170867a96f59))
  (pad "B2" smd circle (at -6.8 -6.8) (size 0.4 0.4) (property pad_prop_bga) (layers "F.Cu" "F.Paste" "F.Mask") (tstamp cefd7b93-ea77-4f14-a146-2032b103cbf3))
  (pad "B3" smd circle (at -6 -6.8) (size 0.4 0.4) (property pad_prop_bga) (layers "F.Cu" "F.Paste" "F.Mask") (tstamp 33ea37dc-bec6-424c-907f-2d9f9966f848))
  (pad "B4" smd circle (at -5.2 -6.8) (size 0.4 0.4) (property pad_prop_bga) (layers "F.Cu" "F.Paste" "F.Mask") (tstamp 8de81eed-6a04-4de9-90a0-1bed6265e278))
  (pad "B5" smd circle (at -4.4 -6.8) (size 0.4 0.4) (property pad_prop_bga) (layers "F.Cu" "F.Paste" "F.Mask") (tstamp 5c2a3763-ffcd-4a53-a056-dfa112143b6e))
  (pad "B6" smd circle (at -3.6 -6.8) (size 0.4 0.4) (property pad_prop_bga) (layers "F.Cu" "F.Paste" "F.Mask") (tstamp c9af4c32-663e-4ebd-b403-8f34c40435d2))
  (pad "B7" smd circle (at -2.8 -6.8) (size 0.4 0.4) (property pad_prop_bga) (layers "F.Cu" "F.Paste" "F.Mask") (tstamp 3cddfb22-d00b-4998-84e4-c449df7eedb4))
  (pad "B8" smd circle (at -2 -6.8) (size 0.4 0.4) (property pad_prop_bga) (layers "F.Cu" "F.Paste" "F.Mask") (tstamp 695cfdec-1c1a-44be-b10f-af347d1ef8c6))
  (pad "B9" smd circle (at -1.2 -6.8) (size 0.4 0.4) (property pad_prop_bga) (layers "F.Cu" "F.Paste" "F.Mask") (tstamp cc2b6da6-d15a-40c6-9241-276436e737ac))
  (pad "B10" smd circle (at -0.4 -6.8) (size 0.4 0.4) (property pad_prop_bga) (layers "F.Cu" "F.Paste" "F.Mask") (tstamp b9436325-6a0d-44ea-a71a-abcda3da6ab5))
  (pad "B11" smd circle (at 0.4 -6.8) (size 0.4 0.4) (property pad_prop_bga) (layers "F.Cu" "F.Paste" "F.Mask") (tstamp eceb41bc-dff1-440d-a71f-44ade7aeed19))
  (pad "B12" smd circle (at 1.2 -6.8) (size 0.4 0.4) (property pad_prop_bga) (layers "F.Cu" "F.Paste" "F.Mask") (tstamp 6cca7a11-21fc-4624-9f23-3b0f50b255fe))
  (pad "B13" smd circle (at 2 -6.8) (size 0.4 0.4) (property pad_prop_bga) (layers "F.Cu" "F.Paste" "F.Mask") (tstamp a48ee81b-38e4-45c2-9d8e-537fdd1bd9d4))
  (pad "B14" smd circle (at 2.8 -6.8) (size 0.4 0.4) (property pad_prop_bga) (layers "F.Cu" "F.Paste" "F.Mask") (tstamp af17cdae-cc14-4e30-b3f9-ff2c7c74d6fb))
  (pad "B15" smd circle (at 3.6 -6.8) (size 0.4 0.4) (property pad_prop_bga) (layers "F.Cu" "F.Paste" "F.Mask") (tstamp 0671196b-df52-4525-8851-2555517cf36b))
  (pad "B16" smd circle (at 4.4 -6.8) (size 0.4 0.4) (property pad_prop_bga) (layers "F.Cu" "F.Paste" "F.Mask") (tstamp f1453fa0-589e-4d76-a711-fcaf6fdce6e8))
  (pad "B17" smd circle (at 5.2 -6.8) (size 0.4 0.4) (property pad_prop_bga) (layers "F.Cu" "F.Paste" "F.Mask") (tstamp 6d13ef47-41a8-4aa4-836a-57b318c590b9))
  (pad "B18" smd circle (at 6 -6.8) (size 0.4 0.4) (property pad_prop_bga) (layers "F.Cu" "F.Paste" "F.Mask") (tstamp ec34fa04-e5d9-458e-a4e3-39d80ddb5a49))
  (pad "B19" smd circle (at 6.8 -6.8) (size 0.4 0.4) (property pad_prop_bga) (layers "F.Cu" "F.Paste" "F.Mask") (tstamp 2f40018e-574d-48fb-8df4-e3f6ab458d5b))
  (pad "B20" smd circle (at 7.6 -6.8) (size 0.4 0.4) (property pad_prop_bga) (layers "F.Cu" "F.Paste" "F.Mask") (tstamp 45a18ee0-ffbe-44e1-8dfa-4dfd8fa2ffd6))
  (pad "C1" smd circle (at -7.6 -6) (size 0.4 0.4) (property pad_prop_bga) (layers "F.Cu" "F.Paste" "F.Mask") (tstamp ac0dab3d-afcd-4044-b384-3bb8563c64ab))
  (pad "C2" smd circle (at -6.8 -6) (size 0.4 0.4) (property pad_prop_bga) (layers "F.Cu" "F.Paste" "F.Mask") (tstamp d175d08a-8284-46ae-9069-bb5e07d83f61))
  (pad "C3" smd circle (at -6 -6) (size 0.4 0.4) (property pad_prop_bga) (layers "F.Cu" "F.Paste" "F.Mask") (tstamp f04940ea-09a0-48b7-8538-4c0af7541d0b))
  (pad "C4" smd circle (at -5.2 -6) (size 0.4 0.4) (property pad_prop_bga) (layers "F.Cu" "F.Paste" "F.Mask") (tstamp 48833e6a-6ef4-4261-b7b7-8558e8eda3fc))
  (pad "C5" smd circle (at -4.4 -6) (size 0.4 0.4) (property pad_prop_bga) (layers "F.Cu" "F.Paste" "F.Mask") (tstamp 1e0dc0f2-e797-4b1e-9d4b-0f1dbfac3d82))
  (pad "C6" smd circle (at -3.6 -6) (size 0.4 0.4) (property pad_prop_bga) (layers "F.Cu" "F.Paste" "F.Mask") (tstamp 3a30db62-0940-47d0-b523-2926f46342a3))
  (pad "C7" smd circle (at -2.8 -6) (size 0.4 0.4) (property pad_prop_bga) (layers "F.Cu" "F.Paste" "F.Mask") (tstamp c9c84800-bb38-42e2-bbf4-856527550509))
  (pad "C8" smd circle (at -2 -6) (size 0.4 0.4) (property pad_prop_bga) (layers "F.Cu" "F.Paste" "F.Mask") (tstamp 1ed3afa4-932d-417c-8b4e-9ccc6f845f59))
  (pad "C9" smd circle (at -1.2 -6) (size 0.4 0.4) (property pad_prop_bga) (layers "F.Cu" "F.Paste" "F.Mask") (tstamp 87ee8bf9-1a2b-43ef-b743-70a826728d17))
  (pad "C10" smd circle (at -0.4 -6) (size 0.4 0.4) (property pad_prop_bga) (layers "F.Cu" "F.Paste" "F.Mask") (tstamp bf001cb9-b4ad-4716-9225-24a97cebdd51))
  (pad "C11" smd circle (at 0.4 -6) (size 0.4 0.4) (property pad_prop_bga) (layers "F.Cu" "F.Paste" "F.Mask") (tstamp 5c3114e6-9b23-4504-bebe-a0f762c4562a))
  (pad "C12" smd circle (at 1.2 -6) (size 0.4 0.4) (property pad_prop_bga) (layers "F.Cu" "F.Paste" "F.Mask") (tstamp 2fce23d7-5914-4bdd-a95b-1a691f594eb3))
  (pad "C13" smd circle (at 2 -6) (size 0.4 0.4) (property pad_prop_bga) (layers "F.Cu" "F.Paste" "F.Mask") (tstamp 1b3d5cd0-ad25-4122-be20-8f782ddbf180))
  (pad "C14" smd circle (at 2.8 -6) (size 0.4 0.4) (property pad_prop_bga) (layers "F.Cu" "F.Paste" "F.Mask") (tstamp f1ebf366-a723-47f0-b830-54464c64c1ea))
  (pad "C15" smd circle (at 3.6 -6) (size 0.4 0.4) (property pad_prop_bga) (layers "F.Cu" "F.Paste" "F.Mask") (tstamp cac9600d-97f3-4cbb-988a-7e955ab0fd27))
  (pad "C16" smd circle (at 4.4 -6) (size 0.4 0.4) (property pad_prop_bga) (layers "F.Cu" "F.Paste" "F.Mask") (tstamp 3fd3c764-4bd5-4887-a708-0e4c88befda9))
  (pad "C17" smd circle (at 5.2 -6) (size 0.4 0.4) (property pad_prop_bga) (layers "F.Cu" "F.Paste" "F.Mask") (tstamp a2f8b9ee-5b29-4fc7-8d08-869169e7b05f))
  (pad "C18" smd circle (at 6 -6) (size 0.4 0.4) (property pad_prop_bga) (layers "F.Cu" "F.Paste" "F.Mask") (tstamp 5e490e3b-b8a5-4807-8195-d86fe1cbdc58))
  (pad "C19" smd circle (at 6.8 -6) (size 0.4 0.4) (property pad_prop_bga) (layers "F.Cu" "F.Paste" "F.Mask") (tstamp fe381f51-3627-4f53-b587-f80a70ad9ceb))
  (pad "C20" smd circle (at 7.6 -6) (size 0.4 0.4) (property pad_prop_bga) (layers "F.Cu" "F.Paste" "F.Mask") (tstamp 57b30c94-81a2-4ccd-b584-242d84f2a6a7))
  (pad "D1" smd circle (at -7.6 -5.2) (size 0.4 0.4) (property pad_prop_bga) (layers "F.Cu" "F.Paste" "F.Mask") (tstamp 423801a6-cc9e-4761-ad4b-9e290d6df93c))
  (pad "D2" smd circle (at -6.8 -5.2) (size 0.4 0.4) (property pad_prop_bga) (layers "F.Cu" "F.Paste" "F.Mask") (tstamp 1877d11e-445c-499d-ac3f-c865a9cbdd20))
  (pad "D3" smd circle (at -6 -5.2) (size 0.4 0.4) (property pad_prop_bga) (layers "F.Cu" "F.Paste" "F.Mask") (tstamp d32782b5-733d-4f2e-be84-ea9d3555c85d))
  (pad "D4" smd circle (at -5.2 -5.2) (size 0.4 0.4) (property pad_prop_bga) (layers "F.Cu" "F.Paste" "F.Mask") (tstamp c9077348-7226-4c57-85e5-197c870bf4a6))
  (pad "D5" smd circle (at -4.4 -5.2) (size 0.4 0.4) (property pad_prop_bga) (layers "F.Cu" "F.Paste" "F.Mask") (tstamp 9b5aa645-edcc-44be-b628-0b1058142feb))
  (pad "D6" smd circle (at -3.6 -5.2) (size 0.4 0.4) (property pad_prop_bga) (layers "F.Cu" "F.Paste" "F.Mask") (tstamp 0a5559b4-a8cf-4cac-b5fc-ce686451b06f))
  (pad "D7" smd circle (at -2.8 -5.2) (size 0.4 0.4) (property pad_prop_bga) (layers "F.Cu" "F.Paste" "F.Mask") (tstamp 1cf18db1-0ad1-49bc-a281-da7497e0fe40))
  (pad "D8" smd circle (at -2 -5.2) (size 0.4 0.4) (property pad_prop_bga) (layers "F.Cu" "F.Paste" "F.Mask") (tstamp 1da4f7b7-465c-4220-977a-bc9ca18f1a81))
  (pad "D9" smd circle (at -1.2 -5.2) (size 0.4 0.4) (property pad_prop_bga) (layers "F.Cu" "F.Paste" "F.Mask") (tstamp bf087c30-b1cb-4e81-a8ea-ed10ced6231d))
  (pad "D10" smd circle (at -0.4 -5.2) (size 0.4 0.4) (property pad_prop_bga) (layers "F.Cu" "F.Paste" "F.Mask") (tstamp 5a9fed10-77fc-413c-b7e1-0f6920ebc427))
  (pad "D11" smd circle (at 0.4 -5.2) (size 0.4 0.4) (property pad_prop_bga) (layers "F.Cu" "F.Paste" "F.Mask") (tstamp 67d616f4-3d9d-4daa-a515-e29d61a9c9cd))
  (pad "D12" smd circle (at 1.2 -5.2) (size 0.4 0.4) (property pad_prop_bga) (layers "F.Cu" "F.Paste" "F.Mask") (tstamp 7bd8165f-5ca2-417e-8be2-9307e2c931f2))
  (pad "D13" smd circle (at 2 -5.2) (size 0.4 0.4) (property pad_prop_bga) (layers "F.Cu" "F.Paste" "F.Mask") (tstamp e73b09f4-5356-4c23-b5d6-a4391c8ba3b7))
  (pad "D14" smd circle (at 2.8 -5.2) (size 0.4 0.4) (property pad_prop_bga) (layers "F.Cu" "F.Paste" "F.Mask") (tstamp 4dbeb3f2-b6d5-4e3d-80ae-e9900426b876))
  (pad "D15" smd circle (at 3.6 -5.2) (size 0.4 0.4) (property pad_prop_bga) (layers "F.Cu" "F.Paste" "F.Mask") (tstamp aaad1e95-0d72-4932-b95d-1b82f0c2f8c1))
  (pad "D16" smd circle (at 4.4 -5.2) (size 0.4 0.4) (property pad_prop_bga) (layers "F.Cu" "F.Paste" "F.Mask") (tstamp 6a855bed-b9dc-42cd-96b7-8e529571d2ad))
  (pad "D17" smd circle (at 5.2 -5.2) (size 0.4 0.4) (property pad_prop_bga) (layers "F.Cu" "F.Paste" "F.Mask") (tstamp e8f1f017-9962-4bc9-bb1e-7371bdd28f57))
  (pad "D18" smd circle (at 6 -5.2) (size 0.4 0.4) (property pad_prop_bga) (layers "F.Cu" "F.Paste" "F.Mask") (tstamp 0442db87-8725-41b7-be9d-146d6554f28a))
  (pad "D19" smd circle (at 6.8 -5.2) (size 0.4 0.4) (property pad_prop_bga) (layers "F.Cu" "F.Paste" "F.Mask") (tstamp b3a29920-ae64-4e31-a558-8613b4873600))
  (pad "D20" smd circle (at 7.6 -5.2) (size 0.4 0.4) (property pad_prop_bga) (layers "F.Cu" "F.Paste" "F.Mask") (tstamp 3bfc7f5f-a675-41db-9821-d1cbd27a0229))
  (pad "E1" smd circle (at -7.6 -4.4) (size 0.4 0.4) (property pad_prop_bga) (layers "F.Cu" "F.Paste" "F.Mask") (tstamp f98cfc27-be10-4a8b-ae62-a18b7c93237b))
  (pad "E2" smd circle (at -6.8 -4.4) (size 0.4 0.4) (property pad_prop_bga) (layers "F.Cu" "F.Paste" "F.Mask") (tstamp 5e718810-b142-4c2c-96d8-d695893ee198))
  (pad "E3" smd circle (at -6 -4.4) (size 0.4 0.4) (property pad_prop_bga) (layers "F.Cu" "F.Paste" "F.Mask") (tstamp 36ff2253-6229-44c3-8c54-438716796a99))
  (pad "E4" smd circle (at -5.2 -4.4) (size 0.4 0.4) (property pad_prop_bga) (layers "F.Cu" "F.Paste" "F.Mask") (tstamp 971b64b5-4f74-4d52-a1e3-0ddb01d17c74))
  (pad "E5" smd circle (at -4.4 -4.4) (size 0.4 0.4) (property pad_prop_bga) (layers "F.Cu" "F.Paste" "F.Mask") (tstamp cda43196-6b97-4d8d-b9e2-e8e94d594ea5))
  (pad "E6" smd circle (at -3.6 -4.4) (size 0.4 0.4) (property pad_prop_bga) (layers "F.Cu" "F.Paste" "F.Mask") (tstamp da6fbd3f-a478-4c3d-994b-cd4cefff5cba))
  (pad "E7" smd circle (at -2.8 -4.4) (size 0.4 0.4) (property pad_prop_bga) (layers "F.Cu" "F.Paste" "F.Mask") (tstamp d9444d18-7d53-4f8f-ad6b-054824c1e8ee))
  (pad "E8" smd circle (at -2 -4.4) (size 0.4 0.4) (property pad_prop_bga) (layers "F.Cu" "F.Paste" "F.Mask") (tstamp f89e5a8f-3a6e-4995-8b21-cd14d0ad0ba8))
  (pad "E9" smd circle (at -1.2 -4.4) (size 0.4 0.4) (property pad_prop_bga) (layers "F.Cu" "F.Paste" "F.Mask") (tstamp 2c639266-f5b1-4587-955e-a53feace4288))
  (pad "E10" smd circle (at -0.4 -4.4) (size 0.4 0.4) (property pad_prop_bga) (layers "F.Cu" "F.Paste" "F.Mask") (tstamp 5f8e191e-a52e-4345-8e5e-9c5220eec8b4))
  (pad "E11" smd circle (at 0.4 -4.4) (size 0.4 0.4) (property pad_prop_bga) (layers "F.Cu" "F.Paste" "F.Mask") (tstamp 79f29c36-fda6-44a5-b94a-8cc559269eb5))
  (pad "E12" smd circle (at 1.2 -4.4) (size 0.4 0.4) (property pad_prop_bga) (layers "F.Cu" "F.Paste" "F.Mask") (tstamp 3e5d8f75-2244-4d7b-9832-1c9772b88d60))
  (pad "E13" smd circle (at 2 -4.4) (size 0.4 0.4) (property pad_prop_bga) (layers "F.Cu" "F.Paste" "F.Mask") (tstamp a079b1d6-999a-4a4c-9fac-808440bb5b33))
  (pad "E14" smd circle (at 2.8 -4.4) (size 0.4 0.4) (property pad_prop_bga) (layers "F.Cu" "F.Paste" "F.Mask") (tstamp 3f8f8284-af14-46a6-9584-4889ea1e71d9))
  (pad "E15" smd circle (at 3.6 -4.4) (size 0.4 0.4) (property pad_prop_bga) (layers "F.Cu" "F.Paste" "F.Mask") (tstamp b6a612e1-e210-4958-949b-e59c090a7708))
  (pad "E16" smd circle (at 4.4 -4.4) (size 0.4 0.4) (property pad_prop_bga) (layers "F.Cu" "F.Paste" "F.Mask") (tstamp 53875eb5-1dc2-4441-900c-f05c7456fce6))
  (pad "E17" smd circle (at 5.2 -4.4) (size 0.4 0.4) (property pad_prop_bga) (layers "F.Cu" "F.Paste" "F.Mask") (tstamp 2ff6bae8-946f-4d62-9b79-b8acf85abdb5))
  (pad "E18" smd circle (at 6 -4.4) (size 0.4 0.4) (property pad_prop_bga) (layers "F.Cu" "F.Paste" "F.Mask") (tstamp d5a0bac4-de2f-4bfa-a770-48a80f8747c1))
  (pad "E19" smd circle (at 6.8 -4.4) (size 0.4 0.4) (property pad_prop_bga) (layers "F.Cu" "F.Paste" "F.Mask") (tstamp 3b41c9ce-75c4-4bc9-a149-9405cab8a12c))
  (pad "E20" smd circle (at 7.6 -4.4) (size 0.4 0.4) (property pad_prop_bga) (layers "F.Cu" "F.Paste" "F.Mask") (tstamp 0ac85233-6a1f-4227-ba07-2be13bdded3a))
  (pad "F1" smd circle (at -7.6 -3.6) (size 0.4 0.4) (property pad_prop_bga) (layers "F.Cu" "F.Paste" "F.Mask") (tstamp e4394807-6246-4264-b6e2-af403073e37e))
  (pad "F2" smd circle (at -6.8 -3.6) (size 0.4 0.4) (property pad_prop_bga) (layers "F.Cu" "F.Paste" "F.Mask") (tstamp bc60d33e-afa2-45c4-8d45-37b80c3ae2d5))
  (pad "F3" smd circle (at -6 -3.6) (size 0.4 0.4) (property pad_prop_bga) (layers "F.Cu" "F.Paste" "F.Mask") (tstamp 9a89c071-20be-4d66-bee1-d3b1ab36aa05))
  (pad "F4" smd circle (at -5.2 -3.6) (size 0.4 0.4) (property pad_prop_bga) (layers "F.Cu" "F.Paste" "F.Mask") (tstamp 6f4bf1e9-3372-4ea2-9a67-d93c716d01c1))
  (pad "F5" smd circle (at -4.4 -3.6) (size 0.4 0.4) (property pad_prop_bga) (layers "F.Cu" "F.Paste" "F.Mask") (tstamp 0dfbe418-403c-4240-a26a-642f2fe1122b))
  (pad "F6" smd circle (at -3.6 -3.6) (size 0.4 0.4) (property pad_prop_bga) (layers "F.Cu" "F.Paste" "F.Mask") (tstamp 8a359672-3536-43ac-b22d-7f036a4cdeb5))
  (pad "F7" smd circle (at -2.8 -3.6) (size 0.4 0.4) (property pad_prop_bga) (layers "F.Cu" "F.Paste" "F.Mask") (tstamp ca1451ff-0e8a-4cb3-9afb-ea3b59ac0a6d))
  (pad "F8" smd circle (at -2 -3.6) (size 0.4 0.4) (property pad_prop_bga) (layers "F.Cu" "F.Paste" "F.Mask") (tstamp e5d792c6-b40b-4def-8215-7936b2c744c3))
  (pad "F9" smd circle (at -1.2 -3.6) (size 0.4 0.4) (property pad_prop_bga) (layers "F.Cu" "F.Paste" "F.Mask") (tstamp 8a0ff41e-fbad-4b8c-97c6-442cd58d9a0e))
  (pad "F10" smd circle (at -0.4 -3.6) (size 0.4 0.4) (property pad_prop_bga) (layers "F.Cu" "F.Paste" "F.Mask") (tstamp f7826f60-586e-43ff-9240-8b350dc81ef0))
  (pad "F11" smd circle (at 0.4 -3.6) (size 0.4 0.4) (property pad_prop_bga) (layers "F.Cu" "F.Paste" "F.Mask") (tstamp cce9318c-b3bb-4bbc-9120-73693eb4bdf7))
  (pad "F12" smd circle (at 1.2 -3.6) (size 0.4 0.4) (property pad_prop_bga) (layers "F.Cu" "F.Paste" "F.Mask") (tstamp ced2d3a5-bb03-40a8-8be7-80b3c37a4f5f))
  (pad "F13" smd circle (at 2 -3.6) (size 0.4 0.4) (property pad_prop_bga) (layers "F.Cu" "F.Paste" "F.Mask") (tstamp ad85b098-35fa-4bad-9ec7-8568f625424c))
  (pad "F14" smd circle (at 2.8 -3.6) (size 0.4 0.4) (property pad_prop_bga) (layers "F.Cu" "F.Paste" "F.Mask") (tstamp 1caaf100-6a51-4007-90ea-4257b0279b65))
  (pad "F15" smd circle (at 3.6 -3.6) (size 0.4 0.4) (property pad_prop_bga) (layers "F.Cu" "F.Paste" "F.Mask") (tstamp 509bc304-7dfe-4de0-838d-94a531951eb8))
  (pad "F16" smd circle (at 4.4 -3.6) (size 0.4 0.4) (property pad_prop_bga) (layers "F.Cu" "F.Paste" "F.Mask") (tstamp 13cfba48-3f25-475b-b735-e1fb606652f0))
  (pad "F17" smd circle (at 5.2 -3.6) (size 0.4 0.4) (property pad_prop_bga) (layers "F.Cu" "F.Paste" "F.Mask") (tstamp 74c86327-139f-4281-a489-9769c121f858))
  (pad "F18" smd circle (at 6 -3.6) (size 0.4 0.4) (property pad_prop_bga) (layers "F.Cu" "F.Paste" "F.Mask") (tstamp a5828ea0-7053-453a-808e-b6644b715ed0))
  (pad "F19" smd circle (at 6.8 -3.6) (size 0.4 0.4) (property pad_prop_bga) (layers "F.Cu" "F.Paste" "F.Mask") (tstamp b8f29bf0-0d89-42b2-86a1-685cf5afb5b8))
  (pad "F20" smd circle (at 7.6 -3.6) (size 0.4 0.4) (property pad_prop_bga) (layers "F.Cu" "F.Paste" "F.Mask") (tstamp 902a004e-8439-4f64-b4f2-32babef2147c))
  (pad "G1" smd circle (at -7.6 -2.8) (size 0.4 0.4) (property pad_prop_bga) (layers "F.Cu" "F.Paste" "F.Mask") (tstamp 781cdcfa-4815-4fbb-820e-648a07697efe))
  (pad "G2" smd circle (at -6.8 -2.8) (size 0.4 0.4) (property pad_prop_bga) (layers "F.Cu" "F.Paste" "F.Mask") (tstamp c80500de-26d5-4033-b6f3-30aa4c4ce69f))
  (pad "G3" smd circle (at -6 -2.8) (size 0.4 0.4) (property pad_prop_bga) (layers "F.Cu" "F.Paste" "F.Mask") (tstamp 1198e301-ff3f-484b-be4d-b59882384a8a))
  (pad "G4" smd circle (at -5.2 -2.8) (size 0.4 0.4) (property pad_prop_bga) (layers "F.Cu" "F.Paste" "F.Mask") (tstamp 613d0ec6-60d3-4d6c-8464-e655737f3c47))
  (pad "G5" smd circle (at -4.4 -2.8) (size 0.4 0.4) (property pad_prop_bga) (layers "F.Cu" "F.Paste" "F.Mask") (tstamp 069dcfbd-6993-4405-9ff4-053416affbaf))
  (pad "G6" smd circle (at -3.6 -2.8) (size 0.4 0.4) (property pad_prop_bga) (layers "F.Cu" "F.Paste" "F.Mask") (tstamp c803005a-057c-419a-9ce7-73d67b35aad1))
  (pad "G7" smd circle (at -2.8 -2.8) (size 0.4 0.4) (property pad_prop_bga) (layers "F.Cu" "F.Paste" "F.Mask") (tstamp 996d05c1-7e4c-44c8-a252-851411fd871d))
  (pad "G8" smd circle (at -2 -2.8) (size 0.4 0.4) (property pad_prop_bga) (layers "F.Cu" "F.Paste" "F.Mask") (tstamp 823fb20a-2aad-4b50-8ac4-a36764701479))
  (pad "G9" smd circle (at -1.2 -2.8) (size 0.4 0.4) (property pad_prop_bga) (layers "F.Cu" "F.Paste" "F.Mask") (tstamp 4490ae2c-ac10-4b84-9399-46278c93ab36))
  (pad "G10" smd circle (at -0.4 -2.8) (size 0.4 0.4) (property pad_prop_bga) (layers "F.Cu" "F.Paste" "F.Mask") (tstamp f64446ec-d110-47b6-a2dd-07d80e1239b1))
  (pad "G11" smd circle (at 0.4 -2.8) (size 0.4 0.4) (property pad_prop_bga) (layers "F.Cu" "F.Paste" "F.Mask") (tstamp e1bdea12-490f-46e6-81f3-948c0938ea58))
  (pad "G12" smd circle (at 1.2 -2.8) (size 0.4 0.4) (property pad_prop_bga) (layers "F.Cu" "F.Paste" "F.Mask") (tstamp bff6eff7-9447-43e1-a427-42dbcdd193b0))
  (pad "G13" smd circle (at 2 -2.8) (size 0.4 0.4) (property pad_prop_bga) (layers "F.Cu" "F.Paste" "F.Mask") (tstamp 2e1544ce-9eea-49c5-afc0-8bb2feceba9d))
  (pad "G14" smd circle (at 2.8 -2.8) (size 0.4 0.4) (property pad_prop_bga) (layers "F.Cu" "F.Paste" "F.Mask") (tstamp 24ddd900-1de0-495a-8986-d88e831f034b))
  (pad "G15" smd circle (at 3.6 -2.8) (size 0.4 0.4) (property pad_prop_bga) (layers "F.Cu" "F.Paste" "F.Mask") (tstamp f141be4f-0789-43c7-9768-0afb1628de7e))
  (pad "G16" smd circle (at 4.4 -2.8) (size 0.4 0.4) (property pad_prop_bga) (layers "F.Cu" "F.Paste" "F.Mask") (tstamp 734b9876-c1a7-4809-9d0a-eb8d7731641c))
  (pad "G17" smd circle (at 5.2 -2.8) (size 0.4 0.4) (property pad_prop_bga) (layers "F.Cu" "F.Paste" "F.Mask") (tstamp 2e137cfe-07fb-4065-80c4-5c47fb21faa6))
  (pad "G18" smd circle (at 6 -2.8) (size 0.4 0.4) (property pad_prop_bga) (layers "F.Cu" "F.Paste" "F.Mask") (tstamp 6b6b18fd-4600-4555-8bee-2363442b9162))
  (pad "G19" smd circle (at 6.8 -2.8) (size 0.4 0.4) (property pad_prop_bga) (layers "F.Cu" "F.Paste" "F.Mask") (tstamp ecf22993-1dec-4b20-a4c9-94b7653384e2))
  (pad "G20" smd circle (at 7.6 -2.8) (size 0.4 0.4) (property pad_prop_bga) (layers "F.Cu" "F.Paste" "F.Mask") (tstamp 8b49dc5a-3f08-4612-a78d-4d7e32382b27))
  (pad "H1" smd circle (at -7.6 -2) (size 0.4 0.4) (property pad_prop_bga) (layers "F.Cu" "F.Paste" "F.Mask") (tstamp 21b0e09b-9a7a-40cb-9427-16aba34c567e))
  (pad "H2" smd circle (at -6.8 -2) (size 0.4 0.4) (property pad_prop_bga) (layers "F.Cu" "F.Paste" "F.Mask") (tstamp d054245c-46b2-41b3-abac-459357f1352a))
  (pad "H3" smd circle (at -6 -2) (size 0.4 0.4) (property pad_prop_bga) (layers "F.Cu" "F.Paste" "F.Mask") (tstamp e1f7bfc3-ef5b-47f1-b512-14300187e4f3))
  (pad "H4" smd circle (at -5.2 -2) (size 0.4 0.4) (property pad_prop_bga) (layers "F.Cu" "F.Paste" "F.Mask") (tstamp 887ab2c0-9f17-42d5-8ba1-7174535db78e))
  (pad "H5" smd circle (at -4.4 -2) (size 0.4 0.4) (property pad_prop_bga) (layers "F.Cu" "F.Paste" "F.Mask") (tstamp 9b3f76c3-1b10-4062-8b79-fd9f2bd68ea4))
  (pad "H6" smd circle (at -3.6 -2) (size 0.4 0.4) (property pad_prop_bga) (layers "F.Cu" "F.Paste" "F.Mask") (tstamp cbd3fd89-abbc-485c-a5c4-aa352a2661cf))
  (pad "H7" smd circle (at -2.8 -2) (size 0.4 0.4) (property pad_prop_bga) (layers "F.Cu" "F.Paste" "F.Mask") (tstamp d9b74928-e9e3-4a89-bd17-6ec2702e645e))
  (pad "H8" smd circle (at -2 -2) (size 0.4 0.4) (property pad_prop_bga) (layers "F.Cu" "F.Paste" "F.Mask") (tstamp 22251396-484d-42c0-93bd-2842be8634e2))
  (pad "H9" smd circle (at -1.2 -2) (size 0.4 0.4) (property pad_prop_bga) (layers "F.Cu" "F.Paste" "F.Mask") (tstamp fb6dc4ba-d943-4930-a58c-cfa05f86b98c))
  (pad "H10" smd circle (at -0.4 -2) (size 0.4 0.4) (property pad_prop_bga) (layers "F.Cu" "F.Paste" "F.Mask") (tstamp 96c63ab6-1a46-4bef-9fe6-1b8ea95d79c6))
  (pad "H11" smd circle (at 0.4 -2) (size 0.4 0.4) (property pad_prop_bga) (layers "F.Cu" "F.Paste" "F.Mask") (tstamp 58b6c500-09c4-4bd5-874e-6ce64c99c102))
  (pad "H12" smd circle (at 1.2 -2) (size 0.4 0.4) (property pad_prop_bga) (layers "F.Cu" "F.Paste" "F.Mask") (tstamp 00e12d8d-7b50-483b-a6eb-13e562923e56))
  (pad "H13" smd circle (at 2 -2) (size 0.4 0.4) (property pad_prop_bga) (layers "F.Cu" "F.Paste" "F.Mask") (tstamp 9ee807cb-c49a-46d8-afa9-a5c2a47646a1))
  (pad "H14" smd circle (at 2.8 -2) (size 0.4 0.4) (property pad_prop_bga) (layers "F.Cu" "F.Paste" "F.Mask") (tstamp 91e19292-16f6-4832-a0a2-f365c39dc448))
  (pad "H15" smd circle (at 3.6 -2) (size 0.4 0.4) (property pad_prop_bga) (layers "F.Cu" "F.Paste" "F.Mask") (tstamp 99c0f161-df95-4c3f-baf3-5845087e6124))
  (pad "H16" smd circle (at 4.4 -2) (size 0.4 0.4) (property pad_prop_bga) (layers "F.Cu" "F.Paste" "F.Mask") (tstamp c353d7a1-63e9-481e-b66c-0a03bb8773dc))
  (pad "H17" smd circle (at 5.2 -2) (size 0.4 0.4) (property pad_prop_bga) (layers "F.Cu" "F.Paste" "F.Mask") (tstamp 8fa16ec5-5b67-490c-99b9-f62bc48bc298))
  (pad "H18" smd circle (at 6 -2) (size 0.4 0.4) (property pad_prop_bga) (layers "F.Cu" "F.Paste" "F.Mask") (tstamp e9e2a683-477f-48aa-a5cd-fb435816a18c))
  (pad "H19" smd circle (at 6.8 -2) (size 0.4 0.4) (property pad_prop_bga) (layers "F.Cu" "F.Paste" "F.Mask") (tstamp de512509-57bf-4b47-b697-c0107cccc8a0))
  (pad "H20" smd circle (at 7.6 -2) (size 0.4 0.4) (property pad_prop_bga) (layers "F.Cu" "F.Paste" "F.Mask") (tstamp 33fc3b01-d60e-4e59-b002-0740d110ce35))
  (pad "J1" smd circle (at -7.6 -1.2) (size 0.4 0.4) (property pad_prop_bga) (layers "F.Cu" "F.Paste" "F.Mask") (tstamp ff0b2c4f-fed7-4cd1-bd96-570a69763489))
  (pad "J2" smd circle (at -6.8 -1.2) (size 0.4 0.4) (property pad_prop_bga) (layers "F.Cu" "F.Paste" "F.Mask") (tstamp 389f760b-8b24-4710-b808-15128d41e0e2))
  (pad "J3" smd circle (at -6 -1.2) (size 0.4 0.4) (property pad_prop_bga) (layers "F.Cu" "F.Paste" "F.Mask") (tstamp 56d3f1d2-c6a3-46a0-b406-51b2d7328d63))
  (pad "J4" smd circle (at -5.2 -1.2) (size 0.4 0.4) (property pad_prop_bga) (layers "F.Cu" "F.Paste" "F.Mask") (tstamp 718c7cfa-d8e6-4d98-bd0d-aa2b7b10614c))
  (pad "J5" smd circle (at -4.4 -1.2) (size 0.4 0.4) (property pad_prop_bga) (layers "F.Cu" "F.Paste" "F.Mask") (tstamp 7b15d575-edf2-4cc9-8b1d-36445880edea))
  (pad "J6" smd circle (at -3.6 -1.2) (size 0.4 0.4) (property pad_prop_bga) (layers "F.Cu" "F.Paste" "F.Mask") (tstamp 12a88220-a402-44e2-993c-e2fbf0aed708))
  (pad "J7" smd circle (at -2.8 -1.2) (size 0.4 0.4) (property pad_prop_bga) (layers "F.Cu" "F.Paste" "F.Mask") (tstamp 0952dc43-4604-48d2-9386-8990d3739f26))
  (pad "J8" smd circle (at -2 -1.2) (size 0.4 0.4) (property pad_prop_bga) (layers "F.Cu" "F.Paste" "F.Mask") (tstamp 77f620c1-9846-4485-b85a-be64c43e97bb))
  (pad "J9" smd circle (at -1.2 -1.2) (size 0.4 0.4) (property pad_prop_bga) (layers "F.Cu" "F.Paste" "F.Mask") (tstamp f090ef05-4aa0-45d2-b785-56c4f8b421de))
  (pad "J10" smd circle (at -0.4 -1.2) (size 0.4 0.4) (property pad_prop_bga) (layers "F.Cu" "F.Paste" "F.Mask") (tstamp e0f3c026-aa42-4eca-a061-18469af01993))
  (pad "J11" smd circle (at 0.4 -1.2) (size 0.4 0.4) (property pad_prop_bga) (layers "F.Cu" "F.Paste" "F.Mask") (tstamp 55914c96-40c6-4e5e-aafd-5554ec4ebf76))
  (pad "J12" smd circle (at 1.2 -1.2) (size 0.4 0.4) (property pad_prop_bga) (layers "F.Cu" "F.Paste" "F.Mask") (tstamp 47e58d26-c52a-4865-96b0-3f428561dce8))
  (pad "J13" smd circle (at 2 -1.2) (size 0.4 0.4) (property pad_prop_bga) (layers "F.Cu" "F.Paste" "F.Mask") (tstamp bbd88f7d-9840-45a1-bc29-a3eefdf91207))
  (pad "J14" smd circle (at 2.8 -1.2) (size 0.4 0.4) (property pad_prop_bga) (layers "F.Cu" "F.Paste" "F.Mask") (tstamp 7a633f71-03dc-4d97-bc52-877fe8c701a7))
  (pad "J15" smd circle (at 3.6 -1.2) (size 0.4 0.4) (property pad_prop_bga) (layers "F.Cu" "F.Paste" "F.Mask") (tstamp 420267f8-f565-4449-82d4-0fda06a2caa2))
  (pad "J16" smd circle (at 4.4 -1.2) (size 0.4 0.4) (property pad_prop_bga) (layers "F.Cu" "F.Paste" "F.Mask") (tstamp 193d729a-e326-4528-9fdb-a3370da0a88c))
  (pad "J17" smd circle (at 5.2 -1.2) (size 0.4 0.4) (property pad_prop_bga) (layers "F.Cu" "F.Paste" "F.Mask") (tstamp 4a92168c-82a8-41ce-a455-04a970bfdfd4))
  (pad "J18" smd circle (at 6 -1.2) (size 0.4 0.4) (property pad_prop_bga) (layers "F.Cu" "F.Paste" "F.Mask") (tstamp 3c6cbb9f-b2fe-41ab-854e-d688426b73bd))
  (pad "J19" smd circle (at 6.8 -1.2) (size 0.4 0.4) (property pad_prop_bga) (layers "F.Cu" "F.Paste" "F.Mask") (tstamp 4bdbe123-4f80-47d0-b28b-741b095d3325))
  (pad "J20" smd circle (at 7.6 -1.2) (size 0.4 0.4) (property pad_prop_bga) (layers "F.Cu" "F.Paste" "F.Mask") (tstamp 4cb6c4b0-033a-4833-8476-e51664ba39ae))
  (pad "K1" smd circle (at -7.6 -0.4) (size 0.4 0.4) (property pad_prop_bga) (layers "F.Cu" "F.Paste" "F.Mask") (tstamp 991ec419-8921-493d-978c-960097591aee))
  (pad "K2" smd circle (at -6.8 -0.4) (size 0.4 0.4) (property pad_prop_bga) (layers "F.Cu" "F.Paste" "F.Mask") (tstamp 922e6c04-f2ad-4a4c-9ed7-6ebae6b1bdbb))
  (pad "K3" smd circle (at -6 -0.4) (size 0.4 0.4) (property pad_prop_bga) (layers "F.Cu" "F.Paste" "F.Mask") (tstamp 32a19b67-97a8-44f1-9ecd-f5709674b168))
  (pad "K4" smd circle (at -5.2 -0.4) (size 0.4 0.4) (property pad_prop_bga) (layers "F.Cu" "F.Paste" "F.Mask") (tstamp d6d9f885-e9f2-4ec2-b7ab-9959f199d140))
  (pad "K5" smd circle (at -4.4 -0.4) (size 0.4 0.4) (property pad_prop_bga) (layers "F.Cu" "F.Paste" "F.Mask") (tstamp 2e0b47ae-7065-4ec0-84ab-e13e360fa5a5))
  (pad "K6" smd circle (at -3.6 -0.4) (size 0.4 0.4) (property pad_prop_bga) (layers "F.Cu" "F.Paste" "F.Mask") (tstamp 6eb0d26e-e46c-4067-9444-1da3438a6bab))
  (pad "K7" smd circle (at -2.8 -0.4) (size 0.4 0.4) (property pad_prop_bga) (layers "F.Cu" "F.Paste" "F.Mask") (tstamp ec760c6d-aeee-4889-9628-47caaac5a15d))
  (pad "K8" smd circle (at -2 -0.4) (size 0.4 0.4) (property pad_prop_bga) (layers "F.Cu" "F.Paste" "F.Mask") (tstamp 1acc4e64-c560-4593-a18a-c3cf76b374a6))
  (pad "K9" smd circle (at -1.2 -0.4) (size 0.4 0.4) (property pad_prop_bga) (layers "F.Cu" "F.Paste" "F.Mask") (tstamp a05b966c-4453-447d-b975-951e3aad2d42))
  (pad "K10" smd circle (at -0.4 -0.4) (size 0.4 0.4) (property pad_prop_bga) (layers "F.Cu" "F.Paste" "F.Mask") (tstamp 81c6f017-96c6-425e-ace0-e3b16f2c77d2))
  (pad "K11" smd circle (at 0.4 -0.4) (size 0.4 0.4) (property pad_prop_bga) (layers "F.Cu" "F.Paste" "F.Mask") (tstamp 84ef9700-c10c-4a6d-ab54-dcdb70a646fc))
  (pad "K12" smd circle (at 1.2 -0.4) (size 0.4 0.4) (property pad_prop_bga) (layers "F.Cu" "F.Paste" "F.Mask") (tstamp 55efc36b-a742-4a37-b098-cf733ad69290))
  (pad "K13" smd circle (at 2 -0.4) (size 0.4 0.4) (property pad_prop_bga) (layers "F.Cu" "F.Paste" "F.Mask") (tstamp 7162338f-a741-4a6d-98d9-044a6574f5da))
  (pad "K14" smd circle (at 2.8 -0.4) (size 0.4 0.4) (property pad_prop_bga) (layers "F.Cu" "F.Paste" "F.Mask") (tstamp 15f0568c-8e50-409c-a8f8-26d462896195))
  (pad "K15" smd circle (at 3.6 -0.4) (size 0.4 0.4) (property pad_prop_bga) (layers "F.Cu" "F.Paste" "F.Mask") (tstamp 20591dc6-ca77-4de1-97e6-4fb39a1a1a33))
  (pad "K16" smd circle (at 4.4 -0.4) (size 0.4 0.4) (property pad_prop_bga) (layers "F.Cu" "F.Paste" "F.Mask") (tstamp 597013bf-734f-47f1-a769-c8c28f0367e4))
  (pad "K17" smd circle (at 5.2 -0.4) (size 0.4 0.4) (property pad_prop_bga) (layers "F.Cu" "F.Paste" "F.Mask") (tstamp 12b5e309-f372-4720-afec-670a8bc98136))
  (pad "K18" smd circle (at 6 -0.4) (size 0.4 0.4) (property pad_prop_bga) (layers "F.Cu" "F.Paste" "F.Mask") (tstamp 25721934-a5bc-4c8c-8e87-7190c0ea8377))
  (pad "K19" smd circle (at 6.8 -0.4) (size 0.4 0.4) (property pad_prop_bga) (layers "F.Cu" "F.Paste" "F.Mask") (tstamp 7c6fb1ee-98b0-44c0-ab43-a77e5b32fcf4))
  (pad "K20" smd circle (at 7.6 -0.4) (size 0.4 0.4) (property pad_prop_bga) (layers "F.Cu" "F.Paste" "F.Mask") (tstamp 48e4f2a4-b7a7-43b3-b989-a2f9d90eabd4))
  (pad "L1" smd circle (at -7.6 0.4) (size 0.4 0.4) (property pad_prop_bga) (layers "F.Cu" "F.Paste" "F.Mask") (tstamp c3deba05-1edc-4e19-a96c-1837c65f3fc2))
  (pad "L2" smd circle (at -6.8 0.4) (size 0.4 0.4) (property pad_prop_bga) (layers "F.Cu" "F.Paste" "F.Mask") (tstamp 966ce939-c4d7-4ec6-b587-bc5278b487d5))
  (pad "L3" smd circle (at -6 0.4) (size 0.4 0.4) (property pad_prop_bga) (layers "F.Cu" "F.Paste" "F.Mask") (tstamp 0294f97d-8bbc-410a-adca-b2b63f75b962))
  (pad "L4" smd circle (at -5.2 0.4) (size 0.4 0.4) (property pad_prop_bga) (layers "F.Cu" "F.Paste" "F.Mask") (tstamp bb567f2e-509d-4461-823f-f85887c94fe0))
  (pad "L5" smd circle (at -4.4 0.4) (size 0.4 0.4) (property pad_prop_bga) (layers "F.Cu" "F.Paste" "F.Mask") (tstamp 96114815-d416-458a-a147-c34c69657c35))
  (pad "L6" smd circle (at -3.6 0.4) (size 0.4 0.4) (property pad_prop_bga) (layers "F.Cu" "F.Paste" "F.Mask") (tstamp 2c9b65b6-b91c-4cb9-97d3-aaf35d0681a0))
  (pad "L7" smd circle (at -2.8 0.4) (size 0.4 0.4) (property pad_prop_bga) (layers "F.Cu" "F.Paste" "F.Mask") (tstamp a617fa0b-99f6-4e9f-af24-8dcb17da1074))
  (pad "L8" smd circle (at -2 0.4) (size 0.4 0.4) (property pad_prop_bga) (layers "F.Cu" "F.Paste" "F.Mask") (tstamp 11018e04-0f33-40b7-abc9-c76f4d820016))
  (pad "L9" smd circle (at -1.2 0.4) (size 0.4 0.4) (property pad_prop_bga) (layers "F.Cu" "F.Paste" "F.Mask") (tstamp 067ab028-1e6c-4b12-91fa-f7c5ce0ddf7f))
  (pad "L10" smd circle (at -0.4 0.4) (size 0.4 0.4) (property pad_prop_bga) (layers "F.Cu" "F.Paste" "F.Mask") (tstamp c6844c78-57c4-4ed3-a525-9ef0c94ff379))
  (pad "L11" smd circle (at 0.4 0.4) (size 0.4 0.4) (property pad_prop_bga) (layers "F.Cu" "F.Paste" "F.Mask") (tstamp 11ccc400-7c9d-4fc1-ac07-3175f8296956))
  (pad "L12" smd circle (at 1.2 0.4) (size 0.4 0.4) (property pad_prop_bga) (layers "F.Cu" "F.Paste" "F.Mask") (tstamp bce43032-e75c-43bf-b344-45c75ee2bae5))
  (pad "L13" smd circle (at 2 0.4) (size 0.4 0.4) (property pad_prop_bga) (layers "F.Cu" "F.Paste" "F.Mask") (tstamp 4c976b06-fcbb-4d36-89f7-b2f94dc85cf8))
  (pad "L14" smd circle (at 2.8 0.4) (size 0.4 0.4) (property pad_prop_bga) (layers "F.Cu" "F.Paste" "F.Mask") (tstamp f3c30ae1-c8dd-4dd3-896f-7c30d19f104a))
  (pad "L15" smd circle (at 3.6 0.4) (size 0.4 0.4) (property pad_prop_bga) (layers "F.Cu" "F.Paste" "F.Mask") (tstamp 9a7621da-413d-48df-b139-2a0abe0e0e0c))
  (pad "L16" smd circle (at 4.4 0.4) (size 0.4 0.4) (property pad_prop_bga) (layers "F.Cu" "F.Paste" "F.Mask") (tstamp 82b8208d-09a5-4573-96e3-b84ee0c5d452))
  (pad "L17" smd circle (at 5.2 0.4) (size 0.4 0.4) (property pad_prop_bga) (layers "F.Cu" "F.Paste" "F.Mask") (tstamp 50dce53f-d285-4f08-8499-fe65398e6d1d))
  (pad "L18" smd circle (at 6 0.4) (size 0.4 0.4) (property pad_prop_bga) (layers "F.Cu" "F.Paste" "F.Mask") (tstamp 0b3e7eb2-7661-41db-acda-1f29864ece3e))
  (pad "L19" smd circle (at 6.8 0.4) (size 0.4 0.4) (property pad_prop_bga) (layers "F.Cu" "F.Paste" "F.Mask") (tstamp 1c9bc147-c3fe-46dc-8768-450637c5faa0))
  (pad "L20" smd circle (at 7.6 0.4) (size 0.4 0.4) (property pad_prop_bga) (layers "F.Cu" "F.Paste" "F.Mask") (tstamp 74eb45f0-6ed3-4f91-abe6-2c1287f74170))
  (pad "M1" smd circle (at -7.6 1.2) (size 0.4 0.4) (property pad_prop_bga) (layers "F.Cu" "F.Paste" "F.Mask") (tstamp 22f4e775-8b82-48f8-8042-8f1f7988e6e5))
  (pad "M2" smd circle (at -6.8 1.2) (size 0.4 0.4) (property pad_prop_bga) (layers "F.Cu" "F.Paste" "F.Mask") (tstamp 6fb73215-6374-48ab-a0b9-1f1905222345))
  (pad "M3" smd circle (at -6 1.2) (size 0.4 0.4) (property pad_prop_bga) (layers "F.Cu" "F.Paste" "F.Mask") (tstamp accd4632-0382-47f8-9bd0-28b24d082a8c))
  (pad "M4" smd circle (at -5.2 1.2) (size 0.4 0.4) (property pad_prop_bga) (layers "F.Cu" "F.Paste" "F.Mask") (tstamp 7cf7bbb5-d333-4ed9-9daa-4e2d66ea2618))
  (pad "M5" smd circle (at -4.4 1.2) (size 0.4 0.4) (property pad_prop_bga) (layers "F.Cu" "F.Paste" "F.Mask") (tstamp 1e8c6ecf-3b9d-46b4-bf46-50297dd23c8d))
  (pad "M6" smd circle (at -3.6 1.2) (size 0.4 0.4) (property pad_prop_bga) (layers "F.Cu" "F.Paste" "F.Mask") (tstamp 86d5b645-edde-417e-810a-40e40316ae50))
  (pad "M7" smd circle (at -2.8 1.2) (size 0.4 0.4) (property pad_prop_bga) (layers "F.Cu" "F.Paste" "F.Mask") (tstamp 22ff68f1-955a-4419-99ff-145c9999009c))
  (pad "M8" smd circle (at -2 1.2) (size 0.4 0.4) (property pad_prop_bga) (layers "F.Cu" "F.Paste" "F.Mask") (tstamp c4bdb27a-1b6d-4db4-83ce-defafe77a004))
  (pad "M9" smd circle (at -1.2 1.2) (size 0.4 0.4) (property pad_prop_bga) (layers "F.Cu" "F.Paste" "F.Mask") (tstamp 4aefea1f-2f13-457d-8076-07597d18561a))
  (pad "M10" smd circle (at -0.4 1.2) (size 0.4 0.4) (property pad_prop_bga) (layers "F.Cu" "F.Paste" "F.Mask") (tstamp e734d1a0-e72a-4e52-a1bd-34c261c0acdc))
  (pad "M11" smd circle (at 0.4 1.2) (size 0.4 0.4) (property pad_prop_bga) (layers "F.Cu" "F.Paste" "F.Mask") (tstamp 779d1c39-139e-4502-82b1-b41edcea6512))
  (pad "M12" smd circle (at 1.2 1.2) (size 0.4 0.4) (property pad_prop_bga) (layers "F.Cu" "F.Paste" "F.Mask") (tstamp 62a4ccb4-4822-4aa6-a2a4-996d0e8820e7))
  (pad "M13" smd circle (at 2 1.2) (size 0.4 0.4) (property pad_prop_bga) (layers "F.Cu" "F.Paste" "F.Mask") (tstamp ff4b972b-54b5-44bb-ae12-9a9f735217b9))
  (pad "M14" smd circle (at 2.8 1.2) (size 0.4 0.4) (property pad_prop_bga) (layers "F.Cu" "F.Paste" "F.Mask") (tstamp 9538ab5d-4823-424f-835e-85ba8a746fe8))
  (pad "M15" smd circle (at 3.6 1.2) (size 0.4 0.4) (property pad_prop_bga) (layers "F.Cu" "F.Paste" "F.Mask") (tstamp 48e4c860-9d9e-4961-bb78-e4cd9a8a4a02))
  (pad "M16" smd circle (at 4.4 1.2) (size 0.4 0.4) (property pad_prop_bga) (layers "F.Cu" "F.Paste" "F.Mask") (tstamp a596352e-7279-4d13-b59d-c1038477ccee))
  (pad "M17" smd circle (at 5.2 1.2) (size 0.4 0.4) (property pad_prop_bga) (layers "F.Cu" "F.Paste" "F.Mask") (tstamp 7f3f5932-c70c-43ad-bf03-3fe673779520))
  (pad "M18" smd circle (at 6 1.2) (size 0.4 0.4) (property pad_prop_bga) (layers "F.Cu" "F.Paste" "F.Mask") (tstamp 885420cc-eab5-477e-98da-44e1ba053289))
  (pad "M19" smd circle (at 6.8 1.2) (size 0.4 0.4) (property pad_prop_bga) (layers "F.Cu" "F.Paste" "F.Mask") (tstamp 5acceeca-b1d9-4d2a-89f6-9b5fe59c583b))
  (pad "M20" smd circle (at 7.6 1.2) (size 0.4 0.4) (property pad_prop_bga) (layers "F.Cu" "F.Paste" "F.Mask") (tstamp d6d90c64-7078-4b2e-8b09-f81312aa4fdc))
  (pad "N1" smd circle (at -7.6 2) (size 0.4 0.4) (property pad_prop_bga) (layers "F.Cu" "F.Paste" "F.Mask") (tstamp d413b80e-7d11-40d6-8c48-3ca6ae6d0b14))
  (pad "N2" smd circle (at -6.8 2) (size 0.4 0.4) (property pad_prop_bga) (layers "F.Cu" "F.Paste" "F.Mask") (tstamp 51f33255-9c07-451f-a0ed-28aa18259c7c))
  (pad "N3" smd circle (at -6 2) (size 0.4 0.4) (property pad_prop_bga) (layers "F.Cu" "F.Paste" "F.Mask") (tstamp 22ca56bb-8ab2-4c2e-ac32-cf7ca87e4210))
  (pad "N4" smd circle (at -5.2 2) (size 0.4 0.4) (property pad_prop_bga) (layers "F.Cu" "F.Paste" "F.Mask") (tstamp f70a7eee-beb4-4502-9992-ef8b26dfad5d))
  (pad "N5" smd circle (at -4.4 2) (size 0.4 0.4) (property pad_prop_bga) (layers "F.Cu" "F.Paste" "F.Mask") (tstamp f4940353-2eab-4308-9e06-040c201d0361))
  (pad "N6" smd circle (at -3.6 2) (size 0.4 0.4) (property pad_prop_bga) (layers "F.Cu" "F.Paste" "F.Mask") (tstamp fdb0eaf9-3e9b-4e04-997d-a2c2eee2f1af))
  (pad "N7" smd circle (at -2.8 2) (size 0.4 0.4) (property pad_prop_bga) (layers "F.Cu" "F.Paste" "F.Mask") (tstamp c00ff495-6974-4452-9e91-e85194994ad8))
  (pad "N8" smd circle (at -2 2) (size 0.4 0.4) (property pad_prop_bga) (layers "F.Cu" "F.Paste" "F.Mask") (tstamp 9da4e30c-1ee8-4084-a8b5-a3776d8c1f2e))
  (pad "N9" smd circle (at -1.2 2) (size 0.4 0.4) (property pad_prop_bga) (layers "F.Cu" "F.Paste" "F.Mask") (tstamp 99571c77-62ba-4855-af75-eae793238543))
  (pad "N10" smd circle (at -0.4 2) (size 0.4 0.4) (property pad_prop_bga) (layers "F.Cu" "F.Paste" "F.Mask") (tstamp 2edb0c2a-4cbe-495c-a31f-a5c53b8809a3))
  (pad "N11" smd circle (at 0.4 2) (size 0.4 0.4) (property pad_prop_bga) (layers "F.Cu" "F.Paste" "F.Mask") (tstamp 1f3d9392-a23e-4793-870d-dd83231d1986))
  (pad "N12" smd circle (at 1.2 2) (size 0.4 0.4) (property pad_prop_bga) (layers "F.Cu" "F.Paste" "F.Mask") (tstamp 66f69876-1f58-43cf-be7d-1e33e63fec98))
  (pad "N13" smd circle (at 2 2) (size 0.4 0.4) (property pad_prop_bga) (layers "F.Cu" "F.Paste" "F.Mask") (tstamp 69a2002c-076b-4118-acf1-c4d5cb9772d2))
  (pad "N14" smd circle (at 2.8 2) (size 0.4 0.4) (property pad_prop_bga) (layers "F.Cu" "F.Paste" "F.Mask") (tstamp 1079941c-7331-4b69-9988-505c581fda30))
  (pad "N15" smd circle (at 3.6 2) (size 0.4 0.4) (property pad_prop_bga) (layers "F.Cu" "F.Paste" "F.Mask") (tstamp 256cb9a1-547d-47b8-9fb9-1ceb0a39d5e8))
  (pad "N16" smd circle (at 4.4 2) (size 0.4 0.4) (property pad_prop_bga) (layers "F.Cu" "F.Paste" "F.Mask") (tstamp 7d48d2f9-796f-4b95-8491-825c69f219ba))
  (pad "N17" smd circle (at 5.2 2) (size 0.4 0.4) (property pad_prop_bga) (layers "F.Cu" "F.Paste" "F.Mask") (tstamp 73da84a8-a5a1-4f7d-874b-e7cdb91541f6))
  (pad "N18" smd circle (at 6 2) (size 0.4 0.4) (property pad_prop_bga) (layers "F.Cu" "F.Paste" "F.Mask") (tstamp b3bb3273-254a-4e2d-a321-41518f6b59ec))
  (pad "N19" smd circle (at 6.8 2) (size 0.4 0.4) (property pad_prop_bga) (layers "F.Cu" "F.Paste" "F.Mask") (tstamp 69a45b21-363f-472a-85f2-f2e3664f4d61))
  (pad "N20" smd circle (at 7.6 2) (size 0.4 0.4) (property pad_prop_bga) (layers "F.Cu" "F.Paste" "F.Mask") (tstamp 164bc3b4-e452-4d20-8483-37b1b27d324c))
  (pad "P1" smd circle (at -7.6 2.8) (size 0.4 0.4) (property pad_prop_bga) (layers "F.Cu" "F.Paste" "F.Mask") (tstamp 138a4b14-a081-4145-8a12-8b6d6758d0c7))
  (pad "P2" smd circle (at -6.8 2.8) (size 0.4 0.4) (property pad_prop_bga) (layers "F.Cu" "F.Paste" "F.Mask") (tstamp 4623f096-b25f-40c6-bf3c-1e07585b8af7))
  (pad "P3" smd circle (at -6 2.8) (size 0.4 0.4) (property pad_prop_bga) (layers "F.Cu" "F.Paste" "F.Mask") (tstamp 51a7891f-baea-4f1c-a0d5-6747d2828c06))
  (pad "P4" smd circle (at -5.2 2.8) (size 0.4 0.4) (property pad_prop_bga) (layers "F.Cu" "F.Paste" "F.Mask") (tstamp d5771839-ad72-4920-96d9-d274edd434a1))
  (pad "P5" smd circle (at -4.4 2.8) (size 0.4 0.4) (property pad_prop_bga) (layers "F.Cu" "F.Paste" "F.Mask") (tstamp 3d0c5c52-de2c-49b3-98ca-b3da757b83a9))
  (pad "P6" smd circle (at -3.6 2.8) (size 0.4 0.4) (property pad_prop_bga) (layers "F.Cu" "F.Paste" "F.Mask") (tstamp dab7ca5e-b33c-4cb4-b46e-201b62435e33))
  (pad "P7" smd circle (at -2.8 2.8) (size 0.4 0.4) (property pad_prop_bga) (layers "F.Cu" "F.Paste" "F.Mask") (tstamp 82eaac35-c778-4b20-bb15-bc04a99c7452))
  (pad "P8" smd circle (at -2 2.8) (size 0.4 0.4) (property pad_prop_bga) (layers "F.Cu" "F.Paste" "F.Mask") (tstamp 541c27d4-33ee-4c30-befa-50d12ae96842))
  (pad "P9" smd circle (at -1.2 2.8) (size 0.4 0.4) (property pad_prop_bga) (layers "F.Cu" "F.Paste" "F.Mask") (tstamp 6a31fc29-87d4-48c8-99e9-6a438a4c311d))
  (pad "P10" smd circle (at -0.4 2.8) (size 0.4 0.4) (property pad_prop_bga) (layers "F.Cu" "F.Paste" "F.Mask") (tstamp ff78e24c-cf24-4edf-aa4a-6e593331c97e))
  (pad "P11" smd circle (at 0.4 2.8) (size 0.4 0.4) (property pad_prop_bga) (layers "F.Cu" "F.Paste" "F.Mask") (tstamp 44cac512-3032-4729-9c78-6fc07a51db4a))
  (pad "P12" smd circle (at 1.2 2.8) (size 0.4 0.4) (property pad_prop_bga) (layers "F.Cu" "F.Paste" "F.Mask") (tstamp 62ee0a12-1226-4ef1-a922-b87f58081069))
  (pad "P13" smd circle (at 2 2.8) (size 0.4 0.4) (property pad_prop_bga) (layers "F.Cu" "F.Paste" "F.Mask") (tstamp bf8f7a54-445b-4389-b76b-52a534aa7935))
  (pad "P14" smd circle (at 2.8 2.8) (size 0.4 0.4) (property pad_prop_bga) (layers "F.Cu" "F.Paste" "F.Mask") (tstamp 8ba94502-06a9-4cef-9523-4023e6d2f40a))
  (pad "P15" smd circle (at 3.6 2.8) (size 0.4 0.4) (property pad_prop_bga) (layers "F.Cu" "F.Paste" "F.Mask") (tstamp 904af83e-08bf-4604-9509-17a6fb0a5837))
  (pad "P16" smd circle (at 4.4 2.8) (size 0.4 0.4) (property pad_prop_bga) (layers "F.Cu" "F.Paste" "F.Mask") (tstamp 96b7d2de-dc1e-4a95-9331-39cdfc0fdd35))
  (pad "P17" smd circle (at 5.2 2.8) (size 0.4 0.4) (property pad_prop_bga) (layers "F.Cu" "F.Paste" "F.Mask") (tstamp 5ec494c8-d338-4ff6-adc3-da9d06c7e79d))
  (pad "P18" smd circle (at 6 2.8) (size 0.4 0.4) (property pad_prop_bga) (layers "F.Cu" "F.Paste" "F.Mask") (tstamp a75069a4-ca7e-41ec-b0cc-aa16e78ee677))
  (pad "P19" smd circle (at 6.8 2.8) (size 0.4 0.4) (property pad_prop_bga) (layers "F.Cu" "F.Paste" "F.Mask") (tstamp 36f6b90c-8cab-4cc1-a53e-8013a2cdbbc9))
  (pad "P20" smd circle (at 7.6 2.8) (size 0.4 0.4) (property pad_prop_bga) (layers "F.Cu" "F.Paste" "F.Mask") (tstamp 068f59fe-f897-4eba-bf29-9b60d210e9ba))
  (pad "R1" smd circle (at -7.6 3.6) (size 0.4 0.4) (property pad_prop_bga) (layers "F.Cu" "F.Paste" "F.Mask") (tstamp af7aacd8-61c1-4430-8926-4bc23ad76ec9))
  (pad "R2" smd circle (at -6.8 3.6) (size 0.4 0.4) (property pad_prop_bga) (layers "F.Cu" "F.Paste" "F.Mask") (tstamp f42bd1ef-5191-4950-8b7f-e2ff032d12cc))
  (pad "R3" smd circle (at -6 3.6) (size 0.4 0.4) (property pad_prop_bga) (layers "F.Cu" "F.Paste" "F.Mask") (tstamp 81c0ac0c-6ed8-4a41-882b-4476bd486d26))
  (pad "R4" smd circle (at -5.2 3.6) (size 0.4 0.4) (property pad_prop_bga) (layers "F.Cu" "F.Paste" "F.Mask") (tstamp 843c1da2-0c5c-47ca-abbf-887ad8861e47))
  (pad "R5" smd circle (at -4.4 3.6) (size 0.4 0.4) (property pad_prop_bga) (layers "F.Cu" "F.Paste" "F.Mask") (tstamp b2b29c1b-3ca1-45a6-ac4c-81a6cfa9329d))
  (pad "R6" smd circle (at -3.6 3.6) (size 0.4 0.4) (property pad_prop_bga) (layers "F.Cu" "F.Paste" "F.Mask") (tstamp 482506ff-2bdf-4e8b-944b-573d86f9c561))
  (pad "R7" smd circle (at -2.8 3.6) (size 0.4 0.4) (property pad_prop_bga) (layers "F.Cu" "F.Paste" "F.Mask") (tstamp 6e198025-2df8-4f51-be1d-9011841d58e8))
  (pad "R8" smd circle (at -2 3.6) (size 0.4 0.4) (property pad_prop_bga) (layers "F.Cu" "F.Paste" "F.Mask") (tstamp 9daac9ba-7ff5-48d9-b2b8-2994c26a14a1))
  (pad "R9" smd circle (at -1.2 3.6) (size 0.4 0.4) (property pad_prop_bga) (layers "F.Cu" "F.Paste" "F.Mask") (tstamp c698f92f-7d60-4f62-90b0-7b4430c98d88))
  (pad "R10" smd circle (at -0.4 3.6) (size 0.4 0.4) (property pad_prop_bga) (layers "F.Cu" "F.Paste" "F.Mask") (tstamp a2a1cf73-15cd-4cc9-8496-4c715a28a9ac))
  (pad "R11" smd circle (at 0.4 3.6) (size 0.4 0.4) (property pad_prop_bga) (layers "F.Cu" "F.Paste" "F.Mask") (tstamp 3ad3b4a8-c5b3-4223-85f8-37c23cf6b1d1))
  (pad "R12" smd circle (at 1.2 3.6) (size 0.4 0.4) (property pad_prop_bga) (layers "F.Cu" "F.Paste" "F.Mask") (tstamp 42686fb3-8d70-454c-9d75-aea2fb812d1b))
  (pad "R13" smd circle (at 2 3.6) (size 0.4 0.4) (property pad_prop_bga) (layers "F.Cu" "F.Paste" "F.Mask") (tstamp 68283160-ec7c-4d6d-b38b-bd9ca6cc43a5))
  (pad "R14" smd circle (at 2.8 3.6) (size 0.4 0.4) (property pad_prop_bga) (layers "F.Cu" "F.Paste" "F.Mask") (tstamp dc06d75d-4e19-49b7-b34d-721be080cd17))
  (pad "R15" smd circle (at 3.6 3.6) (size 0.4 0.4) (property pad_prop_bga) (layers "F.Cu" "F.Paste" "F.Mask") (tstamp de406be5-6e61-4951-8672-4b84d89d9f06))
  (pad "R16" smd circle (at 4.4 3.6) (size 0.4 0.4) (property pad_prop_bga) (layers "F.Cu" "F.Paste" "F.Mask") (tstamp 7c3f9b5f-9f1c-4865-bf9b-e6e32b7d6fde))
  (pad "R17" smd circle (at 5.2 3.6) (size 0.4 0.4) (property pad_prop_bga) (layers "F.Cu" "F.Paste" "F.Mask") (tstamp 6b7fa1c0-e655-4da8-9a12-26fa71779e4a))
  (pad "R18" smd circle (at 6 3.6) (size 0.4 0.4) (property pad_prop_bga) (layers "F.Cu" "F.Paste" "F.Mask") (tstamp cad4135b-20a7-483a-94c8-57a49d451c06))
  (pad "R19" smd circle (at 6.8 3.6) (size 0.4 0.4) (property pad_prop_bga) (layers "F.Cu" "F.Paste" "F.Mask") (tstamp bd022837-7530-4bc6-b3d9-e75c8cdea4d8))
  (pad "R20" smd circle (at 7.6 3.6) (size 0.4 0.4) (property pad_prop_bga) (layers "F.Cu" "F.Paste" "F.Mask") (tstamp 5373fa7a-7af5-480f-b8ed-fe548a4a06b7))
  (pad "T1" smd circle (at -7.6 4.4) (size 0.4 0.4) (property pad_prop_bga) (layers "F.Cu" "F.Paste" "F.Mask") (tstamp eba41e75-59dc-41ee-b110-c7c8502ef8ee))
  (pad "T2" smd circle (at -6.8 4.4) (size 0.4 0.4) (property pad_prop_bga) (layers "F.Cu" "F.Paste" "F.Mask") (tstamp b8938088-361a-4a28-a8e9-c768c313844d))
  (pad "T3" smd circle (at -6 4.4) (size 0.4 0.4) (property pad_prop_bga) (layers "F.Cu" "F.Paste" "F.Mask") (tstamp 7e8b2be5-1b07-4482-9c84-e925817b9bb6))
  (pad "T4" smd circle (at -5.2 4.4) (size 0.4 0.4) (property pad_prop_bga) (layers "F.Cu" "F.Paste" "F.Mask") (tstamp 45ddb93d-7aa2-4a14-94e5-2ee718124647))
  (pad "T5" smd circle (at -4.4 4.4) (size 0.4 0.4) (property pad_prop_bga) (layers "F.Cu" "F.Paste" "F.Mask") (tstamp 2e2e8660-0d74-49ae-a1f0-e830138520ae))
  (pad "T6" smd circle (at -3.6 4.4) (size 0.4 0.4) (property pad_prop_bga) (layers "F.Cu" "F.Paste" "F.Mask") (tstamp a99e69ac-0526-44a7-b879-61114e1c5eba))
  (pad "T7" smd circle (at -2.8 4.4) (size 0.4 0.4) (property pad_prop_bga) (layers "F.Cu" "F.Paste" "F.Mask") (tstamp b129c116-8b61-4e04-b6d9-e1762b11f230))
  (pad "T8" smd circle (at -2 4.4) (size 0.4 0.4) (property pad_prop_bga) (layers "F.Cu" "F.Paste" "F.Mask") (tstamp 3cd173f0-4819-43c3-b212-87d19200f4ce))
  (pad "T9" smd circle (at -1.2 4.4) (size 0.4 0.4) (property pad_prop_bga) (layers "F.Cu" "F.Paste" "F.Mask") (tstamp f1db8489-bd08-48c6-993e-f85624587baf))
  (pad "T10" smd circle (at -0.4 4.4) (size 0.4 0.4) (property pad_prop_bga) (layers "F.Cu" "F.Paste" "F.Mask") (tstamp cd26a24e-f57a-4a9b-9374-d1e458a77fb1))
  (pad "T11" smd circle (at 0.4 4.4) (size 0.4 0.4) (property pad_prop_bga) (layers "F.Cu" "F.Paste" "F.Mask") (tstamp 16470fa4-c4ec-4def-b525-6970134d2a31))
  (pad "T12" smd circle (at 1.2 4.4) (size 0.4 0.4) (property pad_prop_bga) (layers "F.Cu" "F.Paste" "F.Mask") (tstamp a01855a3-af7f-414b-8b0b-ba305f3ff0d0))
  (pad "T13" smd circle (at 2 4.4) (size 0.4 0.4) (property pad_prop_bga) (layers "F.Cu" "F.Paste" "F.Mask") (tstamp 54dd0f54-4c9e-48a0-8218-78e969aeeffc))
  (pad "T14" smd circle (at 2.8 4.4) (size 0.4 0.4) (property pad_prop_bga) (layers "F.Cu" "F.Paste" "F.Mask") (tstamp 88dcab43-60d7-4c56-94fa-1552c16ed596))
  (pad "T15" smd circle (at 3.6 4.4) (size 0.4 0.4) (property pad_prop_bga) (layers "F.Cu" "F.Paste" "F.Mask") (tstamp c364dbab-cefc-4f51-83e6-d3011b5269f5))
  (pad "T16" smd circle (at 4.4 4.4) (size 0.4 0.4) (property pad_prop_bga) (layers "F.Cu" "F.Paste" "F.Mask") (tstamp 9adb48e9-9448-455c-9cdd-c7e704a8c569))
  (pad "T17" smd circle (at 5.2 4.4) (size 0.4 0.4) (property pad_prop_bga) (layers "F.Cu" "F.Paste" "F.Mask") (tstamp 31aca54c-be8d-4b96-805b-b159ef87737d))
  (pad "T18" smd circle (at 6 4.4) (size 0.4 0.4) (property pad_prop_bga) (layers "F.Cu" "F.Paste" "F.Mask") (tstamp b5fec52f-d38a-46a1-8ee4-3827bdbec8cc))
  (pad "T19" smd circle (at 6.8 4.4) (size 0.4 0.4) (property pad_prop_bga) (layers "F.Cu" "F.Paste" "F.Mask") (tstamp 8fb37f53-254d-4323-9e27-dc327dc8e620))
  (pad "T20" smd circle (at 7.6 4.4) (size 0.4 0.4) (property pad_prop_bga) (layers "F.Cu" "F.Paste" "F.Mask") (tstamp eedd7772-c599-4f2e-bb6d-ec5ebac9b9d6))
  (pad "U1" smd circle (at -7.6 5.2) (size 0.4 0.4) (property pad_prop_bga) (layers "F.Cu" "F.Paste" "F.Mask") (tstamp e7e9593f-ad1f-4564-912c-00568f67f18e))
  (pad "U2" smd circle (at -6.8 5.2) (size 0.4 0.4) (property pad_prop_bga) (layers "F.Cu" "F.Paste" "F.Mask") (tstamp a5cd92a6-10e9-42f1-ad8c-6b69c7b44121))
  (pad "U3" smd circle (at -6 5.2) (size 0.4 0.4) (property pad_prop_bga) (layers "F.Cu" "F.Paste" "F.Mask") (tstamp 9d03cddd-7c7b-47af-8229-114ecc43cefe))
  (pad "U4" smd circle (at -5.2 5.2) (size 0.4 0.4) (property pad_prop_bga) (layers "F.Cu" "F.Paste" "F.Mask") (tstamp c41fdc06-9874-4e13-81d1-b0b032478fcc))
  (pad "U5" smd circle (at -4.4 5.2) (size 0.4 0.4) (property pad_prop_bga) (layers "F.Cu" "F.Paste" "F.Mask") (tstamp 2bf3c46f-9192-4bba-9d45-5485d56ca2fb))
  (pad "U6" smd circle (at -3.6 5.2) (size 0.4 0.4) (property pad_prop_bga) (layers "F.Cu" "F.Paste" "F.Mask") (tstamp dc1179cd-7f09-48d0-8896-808b83319dc6))
  (pad "U7" smd circle (at -2.8 5.2) (size 0.4 0.4) (property pad_prop_bga) (layers "F.Cu" "F.Paste" "F.Mask") (tstamp 34f66231-0a51-4404-9b13-c9c6e7218081))
  (pad "U8" smd circle (at -2 5.2) (size 0.4 0.4) (property pad_prop_bga) (layers "F.Cu" "F.Paste" "F.Mask") (tstamp 27aad14c-d66d-4313-8dfa-44b4f286deba))
  (pad "U9" smd circle (at -1.2 5.2) (size 0.4 0.4) (property pad_prop_bga) (layers "F.Cu" "F.Paste" "F.Mask") (tstamp 90badf37-144e-436a-8f4e-3f30636d6294))
  (pad "U10" smd circle (at -0.4 5.2) (size 0.4 0.4) (property pad_prop_bga) (layers "F.Cu" "F.Paste" "F.Mask") (tstamp ea1e9cc9-2a76-494b-a2ac-5486f3f33795))
  (pad "U11" smd circle (at 0.4 5.2) (size 0.4 0.4) (property pad_prop_bga) (layers "F.Cu" "F.Paste" "F.Mask") (tstamp b4cda632-7217-48a3-ac75-9162b42d6290))
  (pad "U12" smd circle (at 1.2 5.2) (size 0.4 0.4) (property pad_prop_bga) (layers "F.Cu" "F.Paste" "F.Mask") (tstamp 0aeaf4aa-4d25-4c19-8df0-ea2b216db744))
  (pad "U13" smd circle (at 2 5.2) (size 0.4 0.4) (property pad_prop_bga) (layers "F.Cu" "F.Paste" "F.Mask") (tstamp 04b28c02-e17c-48a1-960c-debfb91cafee))
  (pad "U14" smd circle (at 2.8 5.2) (size 0.4 0.4) (property pad_prop_bga) (layers "F.Cu" "F.Paste" "F.Mask") (tstamp 780fd993-2835-487b-bcbc-14babb365afd))
  (pad "U15" smd circle (at 3.6 5.2) (size 0.4 0.4) (property pad_prop_bga) (layers "F.Cu" "F.Paste" "F.Mask") (tstamp b87480ae-1935-445a-afcd-6941734c7371))
  (pad "U16" smd circle (at 4.4 5.2) (size 0.4 0.4) (property pad_prop_bga) (layers "F.Cu" "F.Paste" "F.Mask") (tstamp a859bb60-26f2-4772-aabc-689be8501605))
  (pad "U17" smd circle (at 5.2 5.2) (size 0.4 0.4) (property pad_prop_bga) (layers "F.Cu" "F.Paste" "F.Mask") (tstamp e51395a0-439b-4996-96f4-ff2b6c17b031))
  (pad "U18" smd circle (at 6 5.2) (size 0.4 0.4) (property pad_prop_bga) (layers "F.Cu" "F.Paste" "F.Mask") (tstamp bf9f26c2-4030-472f-8776-8af18afa830f))
  (pad "U19" smd circle (at 6.8 5.2) (size 0.4 0.4) (property pad_prop_bga) (layers "F.Cu" "F.Paste" "F.Mask") (tstamp e324f008-de35-4740-9199-2c700479cdee))
  (pad "U20" smd circle (at 7.6 5.2) (size 0.4 0.4) (property pad_prop_bga) (layers "F.Cu" "F.Paste" "F.Mask") (tstamp a68f84fc-dcb2-46b9-85ef-06ef047d4487))
  (pad "V1" smd circle (at -7.6 6) (size 0.4 0.4) (property pad_prop_bga) (layers "F.Cu" "F.Paste" "F.Mask") (tstamp c62df140-8c77-4de4-badf-0eed5c6db4b4))
  (pad "V2" smd circle (at -6.8 6) (size 0.4 0.4) (property pad_prop_bga) (layers "F.Cu" "F.Paste" "F.Mask") (tstamp 48f13c29-9711-4e0d-a391-947b4cb66c1a))
  (pad "V3" smd circle (at -6 6) (size 0.4 0.4) (property pad_prop_bga) (layers "F.Cu" "F.Paste" "F.Mask") (tstamp 914093e9-2523-4838-afc3-c2bb0b070777))
  (pad "V4" smd circle (at -5.2 6) (size 0.4 0.4) (property pad_prop_bga) (layers "F.Cu" "F.Paste" "F.Mask") (tstamp c97584ca-ad96-4f5f-af6f-20766186338d))
  (pad "V5" smd circle (at -4.4 6) (size 0.4 0.4) (property pad_prop_bga) (layers "F.Cu" "F.Paste" "F.Mask") (tstamp 323acb98-4913-4e8b-b015-9b428f9d2449))
  (pad "V6" smd circle (at -3.6 6) (size 0.4 0.4) (property pad_prop_bga) (layers "F.Cu" "F.Paste" "F.Mask") (tstamp 66b871d7-6bbb-4a31-969a-d7516aff89a3))
  (pad "V7" smd circle (at -2.8 6) (size 0.4 0.4) (property pad_prop_bga) (layers "F.Cu" "F.Paste" "F.Mask") (tstamp a25debe6-9a41-48aa-a2d6-afd01a985b1f))
  (pad "V8" smd circle (at -2 6) (size 0.4 0.4) (property pad_prop_bga) (layers "F.Cu" "F.Paste" "F.Mask") (tstamp 1927f66a-a122-4060-9c9f-0d8455bc4b55))
  (pad "V9" smd circle (at -1.2 6) (size 0.4 0.4) (property pad_prop_bga) (layers "F.Cu" "F.Paste" "F.Mask") (tstamp 1cb1fccf-ba9e-45de-8039-73ac62d23d7b))
  (pad "V10" smd circle (at -0.4 6) (size 0.4 0.4) (property pad_prop_bga) (layers "F.Cu" "F.Paste" "F.Mask") (tstamp 5ff54273-ef90-4c88-8e22-95777e5a358c))
  (pad "V11" smd circle (at 0.4 6) (size 0.4 0.4) (property pad_prop_bga) (layers "F.Cu" "F.Paste" "F.Mask") (tstamp 24d20134-d48d-46c8-8c9a-c505735fc264))
  (pad "V12" smd circle (at 1.2 6) (size 0.4 0.4) (property pad_prop_bga) (layers "F.Cu" "F.Paste" "F.Mask") (tstamp 8d6eccfb-b8d1-4f78-8ed0-cc86e15b1d94))
  (pad "V13" smd circle (at 2 6) (size 0.4 0.4) (property pad_prop_bga) (layers "F.Cu" "F.Paste" "F.Mask") (tstamp 724aae5c-9562-42ee-984f-d0686980ef61))
  (pad "V14" smd circle (at 2.8 6) (size 0.4 0.4) (property pad_prop_bga) (layers "F.Cu" "F.Paste" "F.Mask") (tstamp 6277e09b-aa61-4536-bde4-efc991bff8da))
  (pad "V15" smd circle (at 3.6 6) (size 0.4 0.4) (property pad_prop_bga) (layers "F.Cu" "F.Paste" "F.Mask") (tstamp efeee60d-5b7a-4e15-b21b-6904f406e6c8))
  (pad "V16" smd circle (at 4.4 6) (size 0.4 0.4) (property pad_prop_bga) (layers "F.Cu" "F.Paste" "F.Mask") (tstamp 5384d4f3-0ec4-4214-b7c2-88f93a962320))
  (pad "V17" smd circle (at 5.2 6) (size 0.4 0.4) (property pad_prop_bga) (layers "F.Cu" "F.Paste" "F.Mask") (tstamp 1e81c99b-d088-4326-8bb9-9365ea1ec3bc))
  (pad "V18" smd circle (at 6 6) (size 0.4 0.4) (property pad_prop_bga) (layers "F.Cu" "F.Paste" "F.Mask") (tstamp af5189a3-d2e1-4aed-af43-109c303b5b48))
  (pad "V19" smd circle (at 6.8 6) (size 0.4 0.4) (property pad_prop_bga) (layers "F.Cu" "F.Paste" "F.Mask") (tstamp adff0061-7ae5-4ed7-bf0d-71ab876087d4))
  (pad "V20" smd circle (at 7.6 6) (size 0.4 0.4) (property pad_prop_bga) (layers "F.Cu" "F.Paste" "F.Mask") (tstamp 12f615a8-7e27-4d19-a3e5-39b982e62c3f))
  (pad "W1" smd circle (at -7.6 6.8) (size 0.4 0.4) (property pad_prop_bga) (layers "F.Cu" "F.Paste" "F.Mask") (tstamp 1434b9c0-c7ad-442b-bb0e-a7d3d7272e4a))
  (pad "W2" smd circle (at -6.8 6.8) (size 0.4 0.4) (property pad_prop_bga) (layers "F.Cu" "F.Paste" "F.Mask") (tstamp e0b12c5b-41e9-427f-b82b-77be770587ec))
  (pad "W3" smd circle (at -6 6.8) (size 0.4 0.4) (property pad_prop_bga) (layers "F.Cu" "F.Paste" "F.Mask") (tstamp b61fff91-6f14-415a-b0c3-a58c481442d3))
  (pad "W4" smd circle (at -5.2 6.8) (size 0.4 0.4) (property pad_prop_bga) (layers "F.Cu" "F.Paste" "F.Mask") (tstamp b884c3bb-50d2-49bb-8d2f-f382e9e373f9))
  (pad "W5" smd circle (at -4.4 6.8) (size 0.4 0.4) (property pad_prop_bga) (layers "F.Cu" "F.Paste" "F.Mask") (tstamp 835a52ec-94ac-47d8-90bf-8fa553aea53f))
  (pad "W6" smd circle (at -3.6 6.8) (size 0.4 0.4) (property pad_prop_bga) (layers "F.Cu" "F.Paste" "F.Mask") (tstamp 1bbe6418-1573-4d92-8145-a01b4969f2c8))
  (pad "W7" smd circle (at -2.8 6.8) (size 0.4 0.4) (property pad_prop_bga) (layers "F.Cu" "F.Paste" "F.Mask") (tstamp f6faaa56-6906-4c2d-b62e-018de9e5b69a))
  (pad "W8" smd circle (at -2 6.8) (size 0.4 0.4) (property pad_prop_bga) (layers "F.Cu" "F.Paste" "F.Mask") (tstamp c404911e-74f3-4b22-bfb6-de0c33f4b5ea))
  (pad "W9" smd circle (at -1.2 6.8) (size 0.4 0.4) (property pad_prop_bga) (layers "F.Cu" "F.Paste" "F.Mask") (tstamp 8f868700-67ca-47d5-8a95-359066218337))
  (pad "W10" smd circle (at -0.4 6.8) (size 0.4 0.4) (property pad_prop_bga) (layers "F.Cu" "F.Paste" "F.Mask") (tstamp dff5be1e-3d76-4b40-8ebf-d876d256e7f8))
  (pad "W11" smd circle (at 0.4 6.8) (size 0.4 0.4) (property pad_prop_bga) (layers "F.Cu" "F.Paste" "F.Mask") (tstamp 59dc0778-1b93-4e73-9be3-e2d994571193))
  (pad "W12" smd circle (at 1.2 6.8) (size 0.4 0.4) (property pad_prop_bga) (layers "F.Cu" "F.Paste" "F.Mask") (tstamp e399fc33-2772-4455-a04e-2ef11aba3dbc))
  (pad "W13" smd circle (at 2 6.8) (size 0.4 0.4) (property pad_prop_bga) (layers "F.Cu" "F.Paste" "F.Mask") (tstamp 9ef987e2-238a-4c4b-8028-111bd9a62fd6))
  (pad "W14" smd circle (at 2.8 6.8) (size 0.4 0.4) (property pad_prop_bga) (layers "F.Cu" "F.Paste" "F.Mask") (tstamp df78f24a-4243-492d-8ff5-998153f3a1bc))
  (pad "W15" smd circle (at 3.6 6.8) (size 0.4 0.4) (property pad_prop_bga) (layers "F.Cu" "F.Paste" "F.Mask") (tstamp ed7ca549-18c2-4aec-a04c-88083d347c06))
  (pad "W16" smd circle (at 4.4 6.8) (size 0.4 0.4) (property pad_prop_bga) (layers "F.Cu" "F.Paste" "F.Mask") (tstamp d6283bae-c5b7-4500-a958-99a32891fd15))
  (pad "W17" smd circle (at 5.2 6.8) (size 0.4 0.4) (property pad_prop_bga) (layers "F.Cu" "F.Paste" "F.Mask") (tstamp 2c34c7b0-25bc-43b0-8009-75e14243af07))
  (pad "W18" smd circle (at 6 6.8) (size 0.4 0.4) (property pad_prop_bga) (layers "F.Cu" "F.Paste" "F.Mask") (tstamp 7eeff54a-fd6d-4b5e-8765-6e7118fe1c5f))
  (pad "W19" smd circle (at 6.8 6.8) (size 0.4 0.4) (property pad_prop_bga) (layers "F.Cu" "F.Paste" "F.Mask") (tstamp 45c8e47b-0b08-46c5-95c8-8740b03379ee))
  (pad "W20" smd circle (at 7.6 6.8) (size 0.4 0.4) (property pad_prop_bga) (layers "F.Cu" "F.Paste" "F.Mask") (tstamp 7b2ad164-b8d8-4098-873b-3e21ab11e805))
  (pad "Y1" smd circle (at -7.6 7.6) (size 0.4 0.4) (property pad_prop_bga) (layers "F.Cu" "F.Paste" "F.Mask") (tstamp be3db841-8201-4d9c-916c-65b39c82cf43))
  (pad "Y2" smd circle (at -6.8 7.6) (size 0.4 0.4) (property pad_prop_bga) (layers "F.Cu" "F.Paste" "F.Mask") (tstamp 2c32ff6b-182b-40cb-b44e-75576ec26620))
  (pad "Y3" smd circle (at -6 7.6) (size 0.4 0.4) (property pad_prop_bga) (layers "F.Cu" "F.Paste" "F.Mask") (tstamp 11c897f9-27ec-4566-a2b4-0cea3cf9932b))
  (pad "Y4" smd circle (at -5.2 7.6) (size 0.4 0.4) (property pad_prop_bga) (layers "F.Cu" "F.Paste" "F.Mask") (tstamp ef0d15a2-fbb3-4484-add4-22398d1c3da2))
  (pad "Y5" smd circle (at -4.4 7.6) (size 0.4 0.4) (property pad_prop_bga) (layers "F.Cu" "F.Paste" "F.Mask") (tstamp 92efbe74-8363-4f11-8e6a-d8807a16d1ee))
  (pad "Y6" smd circle (at -3.6 7.6) (size 0.4 0.4) (property pad_prop_bga) (layers "F.Cu" "F.Paste" "F.Mask") (tstamp 2988d13b-9b98-4140-8d61-4c0a181536f0))
  (pad "Y7" smd circle (at -2.8 7.6) (size 0.4 0.4) (property pad_prop_bga) (layers "F.Cu" "F.Paste" "F.Mask") (tstamp db635ef6-d1c8-471d-b9ec-b1a6240f61ae))
  (pad "Y8" smd circle (at -2 7.6) (size 0.4 0.4) (property pad_prop_bga) (layers "F.Cu" "F.Paste" "F.Mask") (tstamp 47922c27-d9c9-4e69-8bef-346bc007eb8d))
  (pad "Y9" smd circle (at -1.2 7.6) (size 0.4 0.4) (property pad_prop_bga) (layers "F.Cu" "F.Paste" "F.Mask") (tstamp 65370563-da82-4789-8314-7438d9b42164))
  (pad "Y10" smd circle (at -0.4 7.6) (size 0.4 0.4) (property pad_prop_bga) (layers "F.Cu" "F.Paste" "F.Mask") (tstamp a853edcd-418c-447f-91a6-2e8ac340c327))
  (pad "Y11" smd circle (at 0.4 7.6) (size 0.4 0.4) (property pad_prop_bga) (layers "F.Cu" "F.Paste" "F.Mask") (tstamp f5d94896-3506-4312-9c66-d5aa4c052726))
  (pad "Y12" smd circle (at 1.2 7.6) (size 0.4 0.4) (property pad_prop_bga) (layers "F.Cu" "F.Paste" "F.Mask") (tstamp c12c8382-7769-42af-8e90-cd7a714d2860))
  (pad "Y13" smd circle (at 2 7.6) (size 0.4 0.4) (property pad_prop_bga) (layers "F.Cu" "F.Paste" "F.Mask") (tstamp 52f86c76-3ad8-4e1a-a849-9c9f45983294))
  (pad "Y14" smd circle (at 2.8 7.6) (size 0.4 0.4) (property pad_prop_bga) (layers "F.Cu" "F.Paste" "F.Mask") (tstamp 4a6008ed-f0bb-4553-a2af-433f74c4cb31))
  (pad "Y15" smd circle (at 3.6 7.6) (size 0.4 0.4) (property pad_prop_bga) (layers "F.Cu" "F.Paste" "F.Mask") (tstamp aa5f6e61-55ff-4e33-a5bd-5b860f7eebb7))
  (pad "Y16" smd circle (at 4.4 7.6) (size 0.4 0.4) (property pad_prop_bga) (layers "F.Cu" "F.Paste" "F.Mask") (tstamp b116298d-5f26-4874-8f2b-c74a9fa89432))
  (pad "Y17" smd circle (at 5.2 7.6) (size 0.4 0.4) (property pad_prop_bga) (layers "F.Cu" "F.Paste" "F.Mask") (tstamp ebbbda85-fd6f-47f9-b9e1-ea812bac5a4b))
  (pad "Y18" smd circle (at 6 7.6) (size 0.4 0.4) (property pad_prop_bga) (layers "F.Cu" "F.Paste" "F.Mask") (tstamp 86fb1735-5632-4d23-8771-a5070276dddf))
  (pad "Y19" smd circle (at 6.8 7.6) (size 0.4 0.4) (property pad_prop_bga) (layers "F.Cu" "F.Paste" "F.Mask") (tstamp 9e22c336-6ea9-4b02-9d79-7c36a4eab316))
  (pad "Y20" smd circle (at 7.6 7.6) (size 0.4 0.4) (property pad_prop_bga) (layers "F.Cu" "F.Paste" "F.Mask") (tstamp cb2dd18d-d722-45bd-92ee-fa869892a863))
  (model "${KICAD6_3DMODEL_DIR}/Package_BGA.3dshapes/Xilinx_CLG400.wrl"
    (offset (xyz 0 0 0))
    (scale (xyz 1 1 1))
    (rotate (xyz 0 0 0))
  )
)
