(footprint "Xilinx_CPG236" (version 20211014) (generator pcbnew)
  (layer "F.Cu")
  (tedit 5CC4225E)
  (descr "Artix-7 BGA, 19x19 grid, 10x10mm package, 0.5mm pitch; https://www.xilinx.com/support/documentation/user_guides/ug475_7Series_Pkg_Pinout.pdf#page=266, NSMD pad definition Appendix A")
  (tags "BGA 238 0.5 CP236 CPG236")
  (solder_mask_margin 0.05)
  (attr smd)
  (fp_text reference "REF**" (at 0 -6) (layer "F.SilkS")
    (effects (font (size 1 1) (thickness 0.15)))
    (tstamp 6d6ba6b5-4178-478c-9799-b28a3cb6b8f9)
  )
  (fp_text value "Xilinx_CPG236" (at 0 6) (layer "F.Fab")
    (effects (font (size 1 1) (thickness 0.15)))
    (tstamp 5c6eb9d9-7f4a-4fa2-ab76-801eb56aa511)
  )
  (fp_text user "${REFERENCE}" (at 0 0) (layer "F.Fab")
    (effects (font (size 1 1) (thickness 0.15)))
    (tstamp c1ec2702-07fa-4f0c-be60-c54dc7466c0f)
  )
  (fp_line (start -5.11 5.11) (end -5.11 -4.11) (layer "F.SilkS") (width 0.12) (tstamp 60bb29ac-8db8-4caf-ad98-0c56961f91b2))
  (fp_line (start 5.11 5.11) (end -5.11 5.11) (layer "F.SilkS") (width 0.12) (tstamp b994eb13-4a71-41af-8a86-39c87b9bbd00))
  (fp_line (start -4.11 -5.11) (end 5.11 -5.11) (layer "F.SilkS") (width 0.12) (tstamp ca07c65f-f0e0-49a5-8214-20523788584b))
  (fp_line (start 5.11 -5.11) (end 5.11 5.11) (layer "F.SilkS") (width 0.12) (tstamp ef1f6537-9988-4cc2-9793-3ba79d57a8e5))
  (fp_line (start 6 -6) (end -6 -6) (layer "F.CrtYd") (width 0.05) (tstamp 2b0f8887-bc58-4d8d-b977-7501e96a50be))
  (fp_line (start 6 6) (end 6 -6) (layer "F.CrtYd") (width 0.05) (tstamp 806b6163-24c5-4edc-94e5-fe3ececd831c))
  (fp_line (start -6 -6) (end -6 6) (layer "F.CrtYd") (width 0.05) (tstamp 8b560da7-e720-4b36-849e-9ff1bbae428a))
  (fp_line (start -6 6) (end 6 6) (layer "F.CrtYd") (width 0.05) (tstamp 961243ab-15db-48aa-a277-448877e39016))
  (fp_line (start -5 5) (end -5 -4) (layer "F.Fab") (width 0.1) (tstamp 62c2fe9f-ff02-43f4-a1d9-391433f72197))
  (fp_line (start -4 -5) (end 5 -5) (layer "F.Fab") (width 0.1) (tstamp 8b5e45fd-976a-472e-b846-5f8d3df90c4b))
  (fp_line (start -5 -4) (end -4 -5) (layer "F.Fab") (width 0.1) (tstamp 9e74195e-1ace-40f5-b34b-2f4f45ffc9a8))
  (fp_line (start 5 -5) (end 5 5) (layer "F.Fab") (width 0.1) (tstamp aa3856d1-e8a9-4dea-b258-2d9d02f0ae18))
  (fp_line (start 5 5) (end -5 5) (layer "F.Fab") (width 0.1) (tstamp fede8997-6179-42b0-bd02-1db7abd5d358))
  (pad "A1" smd circle (at -4.5 -4.5) (size 0.275 0.275) (property pad_prop_bga) (layers "F.Cu" "F.Paste" "F.Mask") (tstamp 06bbc3d6-c5ab-4bea-8dd5-6af0baac83ed))
  (pad "A2" smd circle (at -4 -4.5) (size 0.275 0.275) (property pad_prop_bga) (layers "F.Cu" "F.Paste" "F.Mask") (tstamp 0f3f2c0c-ecf9-4ec7-b35d-dd6a4ede3c17))
  (pad "A3" smd circle (at -3.5 -4.5) (size 0.275 0.275) (property pad_prop_bga) (layers "F.Cu" "F.Paste" "F.Mask") (tstamp ecbef4bc-351e-4f38-8d2a-5ddcfa910ba5))
  (pad "A4" smd circle (at -3 -4.5) (size 0.275 0.275) (property pad_prop_bga) (layers "F.Cu" "F.Paste" "F.Mask") (tstamp 73e2b6f3-32fe-43c1-be74-e0c4b114e2d9))
  (pad "A5" smd circle (at -2.5 -4.5) (size 0.275 0.275) (property pad_prop_bga) (layers "F.Cu" "F.Paste" "F.Mask") (tstamp 8cb66c96-847f-40da-99c0-ee94ac76a8df))
  (pad "A6" smd circle (at -2 -4.5) (size 0.275 0.275) (property pad_prop_bga) (layers "F.Cu" "F.Paste" "F.Mask") (tstamp a1b3e8df-f351-4a84-985b-e683ec8fa745))
  (pad "A7" smd circle (at -1.5 -4.5) (size 0.275 0.275) (property pad_prop_bga) (layers "F.Cu" "F.Paste" "F.Mask") (tstamp 1a98a93d-a503-40ac-a742-9ed1237771d5))
  (pad "A8" smd circle (at -1 -4.5) (size 0.275 0.275) (property pad_prop_bga) (layers "F.Cu" "F.Paste" "F.Mask") (tstamp 7879598d-6d7f-42e2-bd64-8aaa9e84aa3e))
  (pad "A9" smd circle (at -0.5 -4.5) (size 0.275 0.275) (property pad_prop_bga) (layers "F.Cu" "F.Paste" "F.Mask") (tstamp 1cd33d1b-46a0-4f48-ac43-4750467c3608))
  (pad "A10" smd circle (at 0 -4.5) (size 0.275 0.275) (property pad_prop_bga) (layers "F.Cu" "F.Paste" "F.Mask") (tstamp 8863e9fd-e809-4e7b-ad13-f1f0deabb3b1))
  (pad "A11" smd circle (at 0.5 -4.5) (size 0.275 0.275) (property pad_prop_bga) (layers "F.Cu" "F.Paste" "F.Mask") (tstamp 45fe0122-8b6e-4f2e-a204-ed77195d8eaf))
  (pad "A12" smd circle (at 1 -4.5) (size 0.275 0.275) (property pad_prop_bga) (layers "F.Cu" "F.Paste" "F.Mask") (tstamp 18cbf4bd-93d9-4900-bd31-b3663ea5cecb))
  (pad "A13" smd circle (at 1.5 -4.5) (size 0.275 0.275) (property pad_prop_bga) (layers "F.Cu" "F.Paste" "F.Mask") (tstamp 520e9695-03de-48b5-9f79-f6094875f506))
  (pad "A14" smd circle (at 2 -4.5) (size 0.275 0.275) (property pad_prop_bga) (layers "F.Cu" "F.Paste" "F.Mask") (tstamp 30df821a-acf6-4928-a697-4a872168737c))
  (pad "A15" smd circle (at 2.5 -4.5) (size 0.275 0.275) (property pad_prop_bga) (layers "F.Cu" "F.Paste" "F.Mask") (tstamp c29ceb47-2c79-4fcc-a4e1-583fddb08c26))
  (pad "A16" smd circle (at 3 -4.5) (size 0.275 0.275) (property pad_prop_bga) (layers "F.Cu" "F.Paste" "F.Mask") (tstamp 673cac57-913c-49e9-a2c3-f42e6c104fbc))
  (pad "A17" smd circle (at 3.5 -4.5) (size 0.275 0.275) (property pad_prop_bga) (layers "F.Cu" "F.Paste" "F.Mask") (tstamp 47800fcb-3231-492b-a553-78fa25b1dd8d))
  (pad "A18" smd circle (at 4 -4.5) (size 0.275 0.275) (property pad_prop_bga) (layers "F.Cu" "F.Paste" "F.Mask") (tstamp bf7bdd61-aa76-4876-a906-cd498ed12abc))
  (pad "A19" smd circle (at 4.5 -4.5) (size 0.275 0.275) (property pad_prop_bga) (layers "F.Cu" "F.Paste" "F.Mask") (tstamp c7e2feca-b82c-416a-9d6d-0100ceffe433))
  (pad "B1" smd circle (at -4.5 -4) (size 0.275 0.275) (property pad_prop_bga) (layers "F.Cu" "F.Paste" "F.Mask") (tstamp a677bfa8-0ea8-4eb8-a683-90796db7f442))
  (pad "B2" smd circle (at -4 -4) (size 0.275 0.275) (property pad_prop_bga) (layers "F.Cu" "F.Paste" "F.Mask") (tstamp fa301d84-4cae-45ae-85c1-6c2cfd47e5ab))
  (pad "B3" smd circle (at -3.5 -4) (size 0.275 0.275) (property pad_prop_bga) (layers "F.Cu" "F.Paste" "F.Mask") (tstamp 0bfb6194-1d21-4bee-ab5a-aaf16b9194fe))
  (pad "B4" smd circle (at -3 -4) (size 0.275 0.275) (property pad_prop_bga) (layers "F.Cu" "F.Paste" "F.Mask") (tstamp 902ac414-f38d-43f1-b953-8faae74960f9))
  (pad "B5" smd circle (at -2.5 -4) (size 0.275 0.275) (property pad_prop_bga) (layers "F.Cu" "F.Paste" "F.Mask") (tstamp b54563cb-0f3b-48d9-a411-d1e5d43779f5))
  (pad "B6" smd circle (at -2 -4) (size 0.275 0.275) (property pad_prop_bga) (layers "F.Cu" "F.Paste" "F.Mask") (tstamp ece4d198-418f-4ba4-8d4b-2493f402a04a))
  (pad "B7" smd circle (at -1.5 -4) (size 0.275 0.275) (property pad_prop_bga) (layers "F.Cu" "F.Paste" "F.Mask") (tstamp aa9c389d-6c9c-4ebf-b942-4843d02c760f))
  (pad "B8" smd circle (at -1 -4) (size 0.275 0.275) (property pad_prop_bga) (layers "F.Cu" "F.Paste" "F.Mask") (tstamp 2408bbf8-0416-4780-9600-db8c14b98f09))
  (pad "B9" smd circle (at -0.5 -4) (size 0.275 0.275) (property pad_prop_bga) (layers "F.Cu" "F.Paste" "F.Mask") (tstamp 9344510d-e543-4ddc-bc2c-4720c2e8b844))
  (pad "B10" smd circle (at 0 -4) (size 0.275 0.275) (property pad_prop_bga) (layers "F.Cu" "F.Paste" "F.Mask") (tstamp f563b491-c070-4db8-9cfb-a2ef41baf7c6))
  (pad "B11" smd circle (at 0.5 -4) (size 0.275 0.275) (property pad_prop_bga) (layers "F.Cu" "F.Paste" "F.Mask") (tstamp f198075f-60d4-48e4-944d-ac779136f943))
  (pad "B12" smd circle (at 1 -4) (size 0.275 0.275) (property pad_prop_bga) (layers "F.Cu" "F.Paste" "F.Mask") (tstamp 9d147df1-41b9-4267-8bf4-65f0ae70dd85))
  (pad "B13" smd circle (at 1.5 -4) (size 0.275 0.275) (property pad_prop_bga) (layers "F.Cu" "F.Paste" "F.Mask") (tstamp ac349f7b-a6c0-4a8c-a8dc-9074c0c802fe))
  (pad "B14" smd circle (at 2 -4) (size 0.275 0.275) (property pad_prop_bga) (layers "F.Cu" "F.Paste" "F.Mask") (tstamp 0f494161-05a2-409e-b44e-895789156c9f))
  (pad "B15" smd circle (at 2.5 -4) (size 0.275 0.275) (property pad_prop_bga) (layers "F.Cu" "F.Paste" "F.Mask") (tstamp fc183eb2-b2bc-43cb-913a-8729d76ec689))
  (pad "B16" smd circle (at 3 -4) (size 0.275 0.275) (property pad_prop_bga) (layers "F.Cu" "F.Paste" "F.Mask") (tstamp 92c0d7b0-d2af-4ea6-b1e9-564ae41b8f11))
  (pad "B17" smd circle (at 3.5 -4) (size 0.275 0.275) (property pad_prop_bga) (layers "F.Cu" "F.Paste" "F.Mask") (tstamp 3442c981-2f13-4f9a-8ded-a6ab1f885ae2))
  (pad "B18" smd circle (at 4 -4) (size 0.275 0.275) (property pad_prop_bga) (layers "F.Cu" "F.Paste" "F.Mask") (tstamp 386fb739-9598-4a59-a931-471572f3bfb1))
  (pad "B19" smd circle (at 4.5 -4) (size 0.275 0.275) (property pad_prop_bga) (layers "F.Cu" "F.Paste" "F.Mask") (tstamp eee9b4d2-c675-4ebc-8c6c-08dd6afe7306))
  (pad "C1" smd circle (at -4.5 -3.5) (size 0.275 0.275) (property pad_prop_bga) (layers "F.Cu" "F.Paste" "F.Mask") (tstamp 73ccc494-c244-4dcc-90a2-f6cfe3845e03))
  (pad "C2" smd circle (at -4 -3.5) (size 0.275 0.275) (property pad_prop_bga) (layers "F.Cu" "F.Paste" "F.Mask") (tstamp 058ffe12-b5a7-4125-8947-98ea21c16a4a))
  (pad "C3" smd circle (at -3.5 -3.5) (size 0.275 0.275) (property pad_prop_bga) (layers "F.Cu" "F.Paste" "F.Mask") (tstamp 58952cd9-72e9-4917-9c3e-d0ae232deb5a))
  (pad "C4" smd circle (at -3 -3.5) (size 0.275 0.275) (property pad_prop_bga) (layers "F.Cu" "F.Paste" "F.Mask") (tstamp 3ac2c685-19a5-47bb-813f-743fd85c78c0))
  (pad "C5" smd circle (at -2.5 -3.5) (size 0.275 0.275) (property pad_prop_bga) (layers "F.Cu" "F.Paste" "F.Mask") (tstamp d8309130-73d1-483c-b258-5d5c8401c83f))
  (pad "C6" smd circle (at -2 -3.5) (size 0.275 0.275) (property pad_prop_bga) (layers "F.Cu" "F.Paste" "F.Mask") (tstamp 3c73fcbf-a5ec-489b-8b27-6105d08b7c35))
  (pad "C7" smd circle (at -1.5 -3.5) (size 0.275 0.275) (property pad_prop_bga) (layers "F.Cu" "F.Paste" "F.Mask") (tstamp b62e8629-f882-4955-81f7-d18afc2bbe38))
  (pad "C8" smd circle (at -1 -3.5) (size 0.275 0.275) (property pad_prop_bga) (layers "F.Cu" "F.Paste" "F.Mask") (tstamp d1193501-def0-4a45-b499-fe41fd2ceb0d))
  (pad "C9" smd circle (at -0.5 -3.5) (size 0.275 0.275) (property pad_prop_bga) (layers "F.Cu" "F.Paste" "F.Mask") (tstamp 194660ef-d449-4e2a-8967-008483175f1c))
  (pad "C10" smd circle (at 0 -3.5) (size 0.275 0.275) (property pad_prop_bga) (layers "F.Cu" "F.Paste" "F.Mask") (tstamp 6940f4eb-22c4-492f-8ca2-8b100d165e8b))
  (pad "C11" smd circle (at 0.5 -3.5) (size 0.275 0.275) (property pad_prop_bga) (layers "F.Cu" "F.Paste" "F.Mask") (tstamp 6b6239fe-d190-4548-8d14-f952b86ab01d))
  (pad "C12" smd circle (at 1 -3.5) (size 0.275 0.275) (property pad_prop_bga) (layers "F.Cu" "F.Paste" "F.Mask") (tstamp cbac5924-7391-40ec-9cae-48197558b11c))
  (pad "C13" smd circle (at 1.5 -3.5) (size 0.275 0.275) (property pad_prop_bga) (layers "F.Cu" "F.Paste" "F.Mask") (tstamp 36c46bd6-7fca-40dd-afdf-c6a83fca04e3))
  (pad "C14" smd circle (at 2 -3.5) (size 0.275 0.275) (property pad_prop_bga) (layers "F.Cu" "F.Paste" "F.Mask") (tstamp 837f6942-b4ce-412f-9846-a47deec11a27))
  (pad "C15" smd circle (at 2.5 -3.5) (size 0.275 0.275) (property pad_prop_bga) (layers "F.Cu" "F.Paste" "F.Mask") (tstamp 7f44c803-d4bf-43c6-980a-1af5a4b0176d))
  (pad "C16" smd circle (at 3 -3.5) (size 0.275 0.275) (property pad_prop_bga) (layers "F.Cu" "F.Paste" "F.Mask") (tstamp baa747ab-c4b4-4152-9b75-352a952c4950))
  (pad "C17" smd circle (at 3.5 -3.5) (size 0.275 0.275) (property pad_prop_bga) (layers "F.Cu" "F.Paste" "F.Mask") (tstamp 97eb803b-3093-4317-8491-b1d4b1c9a1b4))
  (pad "C18" smd circle (at 4 -3.5) (size 0.275 0.275) (property pad_prop_bga) (layers "F.Cu" "F.Paste" "F.Mask") (tstamp e8f5d7c2-0317-49aa-abe9-070da0237cca))
  (pad "C19" smd circle (at 4.5 -3.5) (size 0.275 0.275) (property pad_prop_bga) (layers "F.Cu" "F.Paste" "F.Mask") (tstamp b4b86a0d-368d-45ae-aff1-9672a2f31432))
  (pad "D1" smd circle (at -4.5 -3) (size 0.275 0.275) (property pad_prop_bga) (layers "F.Cu" "F.Paste" "F.Mask") (tstamp 6bf9bac3-101d-49bb-b82a-22b570973d2c))
  (pad "D2" smd circle (at -4 -3) (size 0.275 0.275) (property pad_prop_bga) (layers "F.Cu" "F.Paste" "F.Mask") (tstamp b0b210a0-dcad-4428-8a50-e1b9f2e79123))
  (pad "D3" smd circle (at -3.5 -3) (size 0.275 0.275) (property pad_prop_bga) (layers "F.Cu" "F.Paste" "F.Mask") (tstamp 2d49e1bf-c70b-48e8-87d2-3f99523cbffb))
  (pad "D17" smd circle (at 3.5 -3) (size 0.275 0.275) (property pad_prop_bga) (layers "F.Cu" "F.Paste" "F.Mask") (tstamp 5be136da-d2fc-4196-9800-ac44fda52d54))
  (pad "D18" smd circle (at 4 -3) (size 0.275 0.275) (property pad_prop_bga) (layers "F.Cu" "F.Paste" "F.Mask") (tstamp 3f351a5d-76cf-4a8a-b929-3f45486508c5))
  (pad "D19" smd circle (at 4.5 -3) (size 0.275 0.275) (property pad_prop_bga) (layers "F.Cu" "F.Paste" "F.Mask") (tstamp eb5c9434-11ef-4218-ad0e-aaed2be2019c))
  (pad "E1" smd circle (at -4.5 -2.5) (size 0.275 0.275) (property pad_prop_bga) (layers "F.Cu" "F.Paste" "F.Mask") (tstamp 95a83d39-7056-4be4-9f65-8e596be48f13))
  (pad "E2" smd circle (at -4 -2.5) (size 0.275 0.275) (property pad_prop_bga) (layers "F.Cu" "F.Paste" "F.Mask") (tstamp f3bd957e-7f82-4ec6-bc88-d134ec0f05d7))
  (pad "E3" smd circle (at -3.5 -2.5) (size 0.275 0.275) (property pad_prop_bga) (layers "F.Cu" "F.Paste" "F.Mask") (tstamp 404da35c-2228-4881-97b1-d8620ebc0459))
  (pad "E17" smd circle (at 3.5 -2.5) (size 0.275 0.275) (property pad_prop_bga) (layers "F.Cu" "F.Paste" "F.Mask") (tstamp 50a4ed46-fad0-4b9c-beff-2594163790ce))
  (pad "E18" smd circle (at 4 -2.5) (size 0.275 0.275) (property pad_prop_bga) (layers "F.Cu" "F.Paste" "F.Mask") (tstamp 0a7c2ac0-7c14-4f10-b90a-36d6de32eb62))
  (pad "E19" smd circle (at 4.5 -2.5) (size 0.275 0.275) (property pad_prop_bga) (layers "F.Cu" "F.Paste" "F.Mask") (tstamp cb2ced1b-1e13-4869-88d9-349c63d55b94))
  (pad "F1" smd circle (at -4.5 -2) (size 0.275 0.275) (property pad_prop_bga) (layers "F.Cu" "F.Paste" "F.Mask") (tstamp d448bc92-725d-4174-9fcd-a775d0a3c89b))
  (pad "F2" smd circle (at -4 -2) (size 0.275 0.275) (property pad_prop_bga) (layers "F.Cu" "F.Paste" "F.Mask") (tstamp 4a5a6282-0d30-4461-ac88-2af17fd98c53))
  (pad "F3" smd circle (at -3.5 -2) (size 0.275 0.275) (property pad_prop_bga) (layers "F.Cu" "F.Paste" "F.Mask") (tstamp 1025e61f-26fa-4525-9ccd-973f97435bcb))
  (pad "F17" smd circle (at 3.5 -2) (size 0.275 0.275) (property pad_prop_bga) (layers "F.Cu" "F.Paste" "F.Mask") (tstamp bcf64cfe-9640-4110-9335-7a439aab235e))
  (pad "F18" smd circle (at 4 -2) (size 0.275 0.275) (property pad_prop_bga) (layers "F.Cu" "F.Paste" "F.Mask") (tstamp f5191d97-6fdc-4ceb-81e3-ec39a982b446))
  (pad "F19" smd circle (at 4.5 -2) (size 0.275 0.275) (property pad_prop_bga) (layers "F.Cu" "F.Paste" "F.Mask") (tstamp c6592fdf-35f8-4c90-bb83-cd70dd83ddd4))
  (pad "G1" smd circle (at -4.5 -1.5) (size 0.275 0.275) (property pad_prop_bga) (layers "F.Cu" "F.Paste" "F.Mask") (tstamp 18729afd-1bd3-41f0-bc28-f18768ed14bd))
  (pad "G2" smd circle (at -4 -1.5) (size 0.275 0.275) (property pad_prop_bga) (layers "F.Cu" "F.Paste" "F.Mask") (tstamp dfbc3890-5df0-480d-8b6c-4c6974bdec6d))
  (pad "G3" smd circle (at -3.5 -1.5) (size 0.275 0.275) (property pad_prop_bga) (layers "F.Cu" "F.Paste" "F.Mask") (tstamp 80dcd863-7f22-4882-b164-e569d402d719))
  (pad "G7" smd circle (at -1.5 -1.5) (size 0.275 0.275) (property pad_prop_bga) (layers "F.Cu" "F.Paste" "F.Mask") (tstamp 34e62f96-2857-435b-b59c-48b3aba5fa6b))
  (pad "G8" smd circle (at -1 -1.5) (size 0.275 0.275) (property pad_prop_bga) (layers "F.Cu" "F.Paste" "F.Mask") (tstamp 15f78670-fd3c-4720-b6e3-e5876a9c3408))
  (pad "G9" smd circle (at -0.5 -1.5) (size 0.275 0.275) (property pad_prop_bga) (layers "F.Cu" "F.Paste" "F.Mask") (tstamp d3f281db-3391-4285-8497-8fc9e42b33ba))
  (pad "G10" smd circle (at 0 -1.5) (size 0.275 0.275) (property pad_prop_bga) (layers "F.Cu" "F.Paste" "F.Mask") (tstamp c622342a-8971-4cc9-b183-56c7cc2acafa))
  (pad "G11" smd circle (at 0.5 -1.5) (size 0.275 0.275) (property pad_prop_bga) (layers "F.Cu" "F.Paste" "F.Mask") (tstamp cc8cf6b9-0fd2-468c-a857-5a3f5c5c263e))
  (pad "G12" smd circle (at 1 -1.5) (size 0.275 0.275) (property pad_prop_bga) (layers "F.Cu" "F.Paste" "F.Mask") (tstamp 53f42a1f-cdf5-48b1-9a8d-288360cb6277))
  (pad "G13" smd circle (at 1.5 -1.5) (size 0.275 0.275) (property pad_prop_bga) (layers "F.Cu" "F.Paste" "F.Mask") (tstamp 95a6e30e-b20d-40d4-ac1c-fc4165b4ce11))
  (pad "G17" smd circle (at 3.5 -1.5) (size 0.275 0.275) (property pad_prop_bga) (layers "F.Cu" "F.Paste" "F.Mask") (tstamp b46de9ca-d867-4389-8609-77b7d825452b))
  (pad "G18" smd circle (at 4 -1.5) (size 0.275 0.275) (property pad_prop_bga) (layers "F.Cu" "F.Paste" "F.Mask") (tstamp 58ded2e4-24c4-47b9-b058-ce539dd7247c))
  (pad "G19" smd circle (at 4.5 -1.5) (size 0.275 0.275) (property pad_prop_bga) (layers "F.Cu" "F.Paste" "F.Mask") (tstamp 1fb86f83-dded-408f-9fee-9507ae71974d))
  (pad "H1" smd circle (at -4.5 -1) (size 0.275 0.275) (property pad_prop_bga) (layers "F.Cu" "F.Paste" "F.Mask") (tstamp 6f6798c4-53fd-4b2d-8e15-f77d84b99723))
  (pad "H2" smd circle (at -4 -1) (size 0.275 0.275) (property pad_prop_bga) (layers "F.Cu" "F.Paste" "F.Mask") (tstamp 224710b4-d7b4-4c08-a235-0463a82b13ec))
  (pad "H3" smd circle (at -3.5 -1) (size 0.275 0.275) (property pad_prop_bga) (layers "F.Cu" "F.Paste" "F.Mask") (tstamp 5a2a8b2d-5a52-474a-afd3-a9a10e489225))
  (pad "H7" smd circle (at -1.5 -1) (size 0.275 0.275) (property pad_prop_bga) (layers "F.Cu" "F.Paste" "F.Mask") (tstamp ff0052fe-b56a-487e-b690-aa897d05f7d0))
  (pad "H8" smd circle (at -1 -1) (size 0.275 0.275) (property pad_prop_bga) (layers "F.Cu" "F.Paste" "F.Mask") (tstamp fab1369d-57a1-46c8-a14c-a7a031e82222))
  (pad "H9" smd circle (at -0.5 -1) (size 0.275 0.275) (property pad_prop_bga) (layers "F.Cu" "F.Paste" "F.Mask") (tstamp 1b98ca65-98d8-4927-8842-7b01d81e691a))
  (pad "H10" smd circle (at 0 -1) (size 0.275 0.275) (property pad_prop_bga) (layers "F.Cu" "F.Paste" "F.Mask") (tstamp 17c8687f-5db4-4d5a-aff9-c45b87908771))
  (pad "H11" smd circle (at 0.5 -1) (size 0.275 0.275) (property pad_prop_bga) (layers "F.Cu" "F.Paste" "F.Mask") (tstamp 5917189c-5080-41f0-af80-f9bbc23b40db))
  (pad "H12" smd circle (at 1 -1) (size 0.275 0.275) (property pad_prop_bga) (layers "F.Cu" "F.Paste" "F.Mask") (tstamp d0587ba5-44d5-4645-967f-d621bfdc3315))
  (pad "H13" smd circle (at 1.5 -1) (size 0.275 0.275) (property pad_prop_bga) (layers "F.Cu" "F.Paste" "F.Mask") (tstamp 5bf42ad1-af65-42f2-a7e6-928de61ce803))
  (pad "H17" smd circle (at 3.5 -1) (size 0.275 0.275) (property pad_prop_bga) (layers "F.Cu" "F.Paste" "F.Mask") (tstamp b577eeef-361f-4a74-ba29-3f57691bd58b))
  (pad "H18" smd circle (at 4 -1) (size 0.275 0.275) (property pad_prop_bga) (layers "F.Cu" "F.Paste" "F.Mask") (tstamp 01cb1322-f1c5-4256-950e-344c966b5f8b))
  (pad "H19" smd circle (at 4.5 -1) (size 0.275 0.275) (property pad_prop_bga) (layers "F.Cu" "F.Paste" "F.Mask") (tstamp a79916d4-b627-44e1-93e2-a2ed34cc0f25))
  (pad "J1" smd circle (at -4.5 -0.5) (size 0.275 0.275) (property pad_prop_bga) (layers "F.Cu" "F.Paste" "F.Mask") (tstamp 97c9b0a3-3777-4fc9-bc00-45bef202f2a6))
  (pad "J2" smd circle (at -4 -0.5) (size 0.275 0.275) (property pad_prop_bga) (layers "F.Cu" "F.Paste" "F.Mask") (tstamp 2f45880c-5ebf-460e-94d7-0c58c693d8dd))
  (pad "J3" smd circle (at -3.5 -0.5) (size 0.275 0.275) (property pad_prop_bga) (layers "F.Cu" "F.Paste" "F.Mask") (tstamp 121a2729-9e7d-49a4-8eb1-4422a0e9fd27))
  (pad "J7" smd circle (at -1.5 -0.5) (size 0.275 0.275) (property pad_prop_bga) (layers "F.Cu" "F.Paste" "F.Mask") (tstamp ba9bd8f5-58d5-46a2-9064-6b676ecbc66f))
  (pad "J8" smd circle (at -1 -0.5) (size 0.275 0.275) (property pad_prop_bga) (layers "F.Cu" "F.Paste" "F.Mask") (tstamp 7ee8893d-3da7-4393-8b91-3115094383c2))
  (pad "J9" smd circle (at -0.5 -0.5) (size 0.275 0.275) (property pad_prop_bga) (layers "F.Cu" "F.Paste" "F.Mask") (tstamp b3640d22-dbf3-4285-b565-77aabad52789))
  (pad "J10" smd circle (at 0 -0.5) (size 0.275 0.275) (property pad_prop_bga) (layers "F.Cu" "F.Paste" "F.Mask") (tstamp b3e9e9e6-7c2b-4dec-91f5-25d4815a26ee))
  (pad "J11" smd circle (at 0.5 -0.5) (size 0.275 0.275) (property pad_prop_bga) (layers "F.Cu" "F.Paste" "F.Mask") (tstamp cbe74954-6ab9-4319-ae9c-85c1684ebb36))
  (pad "J12" smd circle (at 1 -0.5) (size 0.275 0.275) (property pad_prop_bga) (layers "F.Cu" "F.Paste" "F.Mask") (tstamp 6522d898-b8cb-47c4-841b-e76d11ceac22))
  (pad "J13" smd circle (at 1.5 -0.5) (size 0.275 0.275) (property pad_prop_bga) (layers "F.Cu" "F.Paste" "F.Mask") (tstamp 5559c29d-dccf-4c7f-a089-fefbff9f57fe))
  (pad "J17" smd circle (at 3.5 -0.5) (size 0.275 0.275) (property pad_prop_bga) (layers "F.Cu" "F.Paste" "F.Mask") (tstamp a0d05684-2de7-43ce-a00c-7cc8e13b51ae))
  (pad "J18" smd circle (at 4 -0.5) (size 0.275 0.275) (property pad_prop_bga) (layers "F.Cu" "F.Paste" "F.Mask") (tstamp 63d5704d-06c4-4a3f-9b7c-ae256e765e0e))
  (pad "J19" smd circle (at 4.5 -0.5) (size 0.275 0.275) (property pad_prop_bga) (layers "F.Cu" "F.Paste" "F.Mask") (tstamp 9bc4a161-034a-4024-9128-86e4b540ca79))
  (pad "K1" smd circle (at -4.5 0) (size 0.275 0.275) (property pad_prop_bga) (layers "F.Cu" "F.Paste" "F.Mask") (tstamp 2c658f08-1858-4e8e-be17-2534f17d4db4))
  (pad "K2" smd circle (at -4 0) (size 0.275 0.275) (property pad_prop_bga) (layers "F.Cu" "F.Paste" "F.Mask") (tstamp b9001c9b-b99d-414d-83f5-937a83dbb87a))
  (pad "K3" smd circle (at -3.5 0) (size 0.275 0.275) (property pad_prop_bga) (layers "F.Cu" "F.Paste" "F.Mask") (tstamp a6ef613e-9f67-4658-a93b-f964ca7521e5))
  (pad "K7" smd circle (at -1.5 0) (size 0.275 0.275) (property pad_prop_bga) (layers "F.Cu" "F.Paste" "F.Mask") (tstamp a7054cf0-2e05-4737-8a86-363c5020b9b1))
  (pad "K8" smd circle (at -1 0) (size 0.275 0.275) (property pad_prop_bga) (layers "F.Cu" "F.Paste" "F.Mask") (tstamp a9263ba8-9b51-4b88-8bfd-a3638ad69015))
  (pad "K12" smd circle (at 1 0) (size 0.275 0.275) (property pad_prop_bga) (layers "F.Cu" "F.Paste" "F.Mask") (tstamp 7d702919-915b-475a-b614-4a2e1a6e0729))
  (pad "K13" smd circle (at 1.5 0) (size 0.275 0.275) (property pad_prop_bga) (layers "F.Cu" "F.Paste" "F.Mask") (tstamp 72b7bc85-9824-46bf-a015-d3682d42e3e2))
  (pad "K17" smd circle (at 3.5 0) (size 0.275 0.275) (property pad_prop_bga) (layers "F.Cu" "F.Paste" "F.Mask") (tstamp aa2318ea-6c1c-4eed-9e24-18985a046b37))
  (pad "K18" smd circle (at 4 0) (size 0.275 0.275) (property pad_prop_bga) (layers "F.Cu" "F.Paste" "F.Mask") (tstamp e1d2231e-ea15-4d97-afed-b236023cd1c0))
  (pad "K19" smd circle (at 4.5 0) (size 0.275 0.275) (property pad_prop_bga) (layers "F.Cu" "F.Paste" "F.Mask") (tstamp 0fee6992-bf4a-4831-90ce-176405ae3fe8))
  (pad "L1" smd circle (at -4.5 0.5) (size 0.275 0.275) (property pad_prop_bga) (layers "F.Cu" "F.Paste" "F.Mask") (tstamp 43e3b50e-2c78-4db1-bb10-d27764a225f1))
  (pad "L2" smd circle (at -4 0.5) (size 0.275 0.275) (property pad_prop_bga) (layers "F.Cu" "F.Paste" "F.Mask") (tstamp 9da7f6ce-2eeb-43b7-9a05-81c28604fdf3))
  (pad "L3" smd circle (at -3.5 0.5) (size 0.275 0.275) (property pad_prop_bga) (layers "F.Cu" "F.Paste" "F.Mask") (tstamp f49ecc2e-3691-4bff-ac99-55d512cb88f3))
  (pad "L7" smd circle (at -1.5 0.5) (size 0.275 0.275) (property pad_prop_bga) (layers "F.Cu" "F.Paste" "F.Mask") (tstamp ebe92915-78e0-45f8-ac65-bd28b523408a))
  (pad "L8" smd circle (at -1 0.5) (size 0.275 0.275) (property pad_prop_bga) (layers "F.Cu" "F.Paste" "F.Mask") (tstamp 48cd0358-6565-4419-9ed4-439e25d160bb))
  (pad "L9" smd circle (at -0.5 0.5) (size 0.275 0.275) (property pad_prop_bga) (layers "F.Cu" "F.Paste" "F.Mask") (tstamp 23f06ff2-72dd-4ff6-acfd-e9b9a94d887e))
  (pad "L10" smd circle (at 0 0.5) (size 0.275 0.275) (property pad_prop_bga) (layers "F.Cu" "F.Paste" "F.Mask") (tstamp b9e28674-4875-4c81-a3e4-d6eae5c68102))
  (pad "L11" smd circle (at 0.5 0.5) (size 0.275 0.275) (property pad_prop_bga) (layers "F.Cu" "F.Paste" "F.Mask") (tstamp d2f78532-8857-46df-a62a-160f01e6ee08))
  (pad "L12" smd circle (at 1 0.5) (size 0.275 0.275) (property pad_prop_bga) (layers "F.Cu" "F.Paste" "F.Mask") (tstamp 763fda62-b2eb-468b-8d67-0a4f8b6ce904))
  (pad "L13" smd circle (at 1.5 0.5) (size 0.275 0.275) (property pad_prop_bga) (layers "F.Cu" "F.Paste" "F.Mask") (tstamp d1e18d8e-ee0d-479e-9103-425684cb3389))
  (pad "L17" smd circle (at 3.5 0.5) (size 0.275 0.275) (property pad_prop_bga) (layers "F.Cu" "F.Paste" "F.Mask") (tstamp d10adfd0-4d79-4261-8af9-8f0f2d706791))
  (pad "L18" smd circle (at 4 0.5) (size 0.275 0.275) (property pad_prop_bga) (layers "F.Cu" "F.Paste" "F.Mask") (tstamp cb215063-3a03-4d2a-b62a-e3b96b89d5f9))
  (pad "L19" smd circle (at 4.5 0.5) (size 0.275 0.275) (property pad_prop_bga) (layers "F.Cu" "F.Paste" "F.Mask") (tstamp 4760d85c-a02a-41c0-b4b8-3031b608e9de))
  (pad "M1" smd circle (at -4.5 1) (size 0.275 0.275) (property pad_prop_bga) (layers "F.Cu" "F.Paste" "F.Mask") (tstamp e63b0fa4-79ab-454b-b98e-c0b6fe47dfe4))
  (pad "M2" smd circle (at -4 1) (size 0.275 0.275) (property pad_prop_bga) (layers "F.Cu" "F.Paste" "F.Mask") (tstamp 872d0c76-41e5-4768-8867-fd7c10035be3))
  (pad "M3" smd circle (at -3.5 1) (size 0.275 0.275) (property pad_prop_bga) (layers "F.Cu" "F.Paste" "F.Mask") (tstamp 0cbda7cc-439f-4475-ac1c-889fc97023ad))
  (pad "M7" smd circle (at -1.5 1) (size 0.275 0.275) (property pad_prop_bga) (layers "F.Cu" "F.Paste" "F.Mask") (tstamp c7330316-a9c6-44de-aa01-5c6045a7a981))
  (pad "M8" smd circle (at -1 1) (size 0.275 0.275) (property pad_prop_bga) (layers "F.Cu" "F.Paste" "F.Mask") (tstamp b7feacfa-38f9-4cc4-8c12-eb9ea138fc49))
  (pad "M9" smd circle (at -0.5 1) (size 0.275 0.275) (property pad_prop_bga) (layers "F.Cu" "F.Paste" "F.Mask") (tstamp cfee8c88-8d58-4f13-89b5-b8604691b66f))
  (pad "M10" smd circle (at 0 1) (size 0.275 0.275) (property pad_prop_bga) (layers "F.Cu" "F.Paste" "F.Mask") (tstamp 35ae7b4e-f365-419d-918e-0fdda5689a4a))
  (pad "M11" smd circle (at 0.5 1) (size 0.275 0.275) (property pad_prop_bga) (layers "F.Cu" "F.Paste" "F.Mask") (tstamp f5ded03a-973e-4a5b-a2b5-538967a78812))
  (pad "M12" smd circle (at 1 1) (size 0.275 0.275) (property pad_prop_bga) (layers "F.Cu" "F.Paste" "F.Mask") (tstamp ec191d4a-dc50-49fd-bf20-961b7c80deb8))
  (pad "M13" smd circle (at 1.5 1) (size 0.275 0.275) (property pad_prop_bga) (layers "F.Cu" "F.Paste" "F.Mask") (tstamp 2b6352a3-2c18-452f-a533-daaeb409cfcc))
  (pad "M17" smd circle (at 3.5 1) (size 0.275 0.275) (property pad_prop_bga) (layers "F.Cu" "F.Paste" "F.Mask") (tstamp f1dddd81-172d-4916-89f5-fac9101d5962))
  (pad "M18" smd circle (at 4 1) (size 0.275 0.275) (property pad_prop_bga) (layers "F.Cu" "F.Paste" "F.Mask") (tstamp 22928e03-2660-4d2c-b2b4-bbf9c10c545f))
  (pad "M19" smd circle (at 4.5 1) (size 0.275 0.275) (property pad_prop_bga) (layers "F.Cu" "F.Paste" "F.Mask") (tstamp e568145f-a323-4907-9d9d-366b70bbf10b))
  (pad "N1" smd circle (at -4.5 1.5) (size 0.275 0.275) (property pad_prop_bga) (layers "F.Cu" "F.Paste" "F.Mask") (tstamp 5c56092e-362e-4647-8fd2-eb5aa6201994))
  (pad "N2" smd circle (at -4 1.5) (size 0.275 0.275) (property pad_prop_bga) (layers "F.Cu" "F.Paste" "F.Mask") (tstamp dd7590ec-3b37-4f6a-b2e3-aac3c93d2fa5))
  (pad "N3" smd circle (at -3.5 1.5) (size 0.275 0.275) (property pad_prop_bga) (layers "F.Cu" "F.Paste" "F.Mask") (tstamp bb1dfb86-fcbb-4157-9944-ee719a251b17))
  (pad "N7" smd circle (at -1.5 1.5) (size 0.275 0.275) (property pad_prop_bga) (layers "F.Cu" "F.Paste" "F.Mask") (tstamp ff6ca090-d04d-4a9a-8000-079af9192784))
  (pad "N8" smd circle (at -1 1.5) (size 0.275 0.275) (property pad_prop_bga) (layers "F.Cu" "F.Paste" "F.Mask") (tstamp bf0fca0c-4824-47a9-be44-06575fa092f2))
  (pad "N9" smd circle (at -0.5 1.5) (size 0.275 0.275) (property pad_prop_bga) (layers "F.Cu" "F.Paste" "F.Mask") (tstamp ea288ccf-9823-4a81-b1e3-d13c9bc032f2))
  (pad "N10" smd circle (at 0 1.5) (size 0.275 0.275) (property pad_prop_bga) (layers "F.Cu" "F.Paste" "F.Mask") (tstamp 0390c8b5-e42f-4e0d-923d-dd7ace7f9c64))
  (pad "N11" smd circle (at 0.5 1.5) (size 0.275 0.275) (property pad_prop_bga) (layers "F.Cu" "F.Paste" "F.Mask") (tstamp 55951a7c-22cf-4a85-b930-1c340e33516e))
  (pad "N12" smd circle (at 1 1.5) (size 0.275 0.275) (property pad_prop_bga) (layers "F.Cu" "F.Paste" "F.Mask") (tstamp f33e8fb9-4bef-4d6b-a8c1-e968e5009c30))
  (pad "N13" smd circle (at 1.5 1.5) (size 0.275 0.275) (property pad_prop_bga) (layers "F.Cu" "F.Paste" "F.Mask") (tstamp 7b4b1520-5181-450e-9853-168e4b396c15))
  (pad "N17" smd circle (at 3.5 1.5) (size 0.275 0.275) (property pad_prop_bga) (layers "F.Cu" "F.Paste" "F.Mask") (tstamp db0e16ef-307a-4cf3-a09c-7036f5f15087))
  (pad "N18" smd circle (at 4 1.5) (size 0.275 0.275) (property pad_prop_bga) (layers "F.Cu" "F.Paste" "F.Mask") (tstamp 21133d4a-10d3-4df8-96d2-09657a53798f))
  (pad "N19" smd circle (at 4.5 1.5) (size 0.275 0.275) (property pad_prop_bga) (layers "F.Cu" "F.Paste" "F.Mask") (tstamp 0b6a57a6-9ea6-4624-8be7-76211be0f2a2))
  (pad "P1" smd circle (at -4.5 2) (size 0.275 0.275) (property pad_prop_bga) (layers "F.Cu" "F.Paste" "F.Mask") (tstamp 2e7cf935-ba74-45a7-b218-4acb2a5f2bc4))
  (pad "P2" smd circle (at -4 2) (size 0.275 0.275) (property pad_prop_bga) (layers "F.Cu" "F.Paste" "F.Mask") (tstamp 32f34618-4403-4b56-9050-f7f938a6444d))
  (pad "P3" smd circle (at -3.5 2) (size 0.275 0.275) (property pad_prop_bga) (layers "F.Cu" "F.Paste" "F.Mask") (tstamp ebe580d6-b36b-4352-9e00-21e481ecc10b))
  (pad "P17" smd circle (at 3.5 2) (size 0.275 0.275) (property pad_prop_bga) (layers "F.Cu" "F.Paste" "F.Mask") (tstamp 1b3361e8-bef4-4ff1-8a07-104f51151980))
  (pad "P18" smd circle (at 4 2) (size 0.275 0.275) (property pad_prop_bga) (layers "F.Cu" "F.Paste" "F.Mask") (tstamp d3460bcd-3935-498b-ae6d-ae097eb142e2))
  (pad "P19" smd circle (at 4.5 2) (size 0.275 0.275) (property pad_prop_bga) (layers "F.Cu" "F.Paste" "F.Mask") (tstamp 27fd1bb1-1951-4d28-a452-89c098d7bf65))
  (pad "R1" smd circle (at -4.5 2.5) (size 0.275 0.275) (property pad_prop_bga) (layers "F.Cu" "F.Paste" "F.Mask") (tstamp 801d8d26-8d08-4e2e-9f85-e29b517afab0))
  (pad "R2" smd circle (at -4 2.5) (size 0.275 0.275) (property pad_prop_bga) (layers "F.Cu" "F.Paste" "F.Mask") (tstamp 27ea5593-7c57-44f4-aea7-7cb5d3056a5c))
  (pad "R3" smd circle (at -3.5 2.5) (size 0.275 0.275) (property pad_prop_bga) (layers "F.Cu" "F.Paste" "F.Mask") (tstamp a41e6d8f-f876-4034-9c5f-22e1123c9ddd))
  (pad "R17" smd circle (at 3.5 2.5) (size 0.275 0.275) (property pad_prop_bga) (layers "F.Cu" "F.Paste" "F.Mask") (tstamp 828651c7-ec9c-4975-a6ea-ad9df13faf78))
  (pad "R18" smd circle (at 4 2.5) (size 0.275 0.275) (property pad_prop_bga) (layers "F.Cu" "F.Paste" "F.Mask") (tstamp e0c8df66-e273-4428-af0e-bf7205911027))
  (pad "R19" smd circle (at 4.5 2.5) (size 0.275 0.275) (property pad_prop_bga) (layers "F.Cu" "F.Paste" "F.Mask") (tstamp 9e465924-055a-4102-ae38-2e83ba2f4163))
  (pad "T1" smd circle (at -4.5 3) (size 0.275 0.275) (property pad_prop_bga) (layers "F.Cu" "F.Paste" "F.Mask") (tstamp 9eefe2ac-ae2d-460e-bbe1-f657498a02a7))
  (pad "T2" smd circle (at -4 3) (size 0.275 0.275) (property pad_prop_bga) (layers "F.Cu" "F.Paste" "F.Mask") (tstamp 5a00671e-4b8e-4413-a2a6-eed480a575b4))
  (pad "T3" smd circle (at -3.5 3) (size 0.275 0.275) (property pad_prop_bga) (layers "F.Cu" "F.Paste" "F.Mask") (tstamp 41468267-7bf6-49bc-8c0e-fa482845500e))
  (pad "T17" smd circle (at 3.5 3) (size 0.275 0.275) (property pad_prop_bga) (layers "F.Cu" "F.Paste" "F.Mask") (tstamp 26819aec-f92f-4640-9889-398e19001b5e))
  (pad "T18" smd circle (at 4 3) (size 0.275 0.275) (property pad_prop_bga) (layers "F.Cu" "F.Paste" "F.Mask") (tstamp 694b4316-7ca8-4bb5-9a7c-8002ba2f0dc1))
  (pad "T19" smd circle (at 4.5 3) (size 0.275 0.275) (property pad_prop_bga) (layers "F.Cu" "F.Paste" "F.Mask") (tstamp 6085a8b5-5e6f-416f-bcb9-62c0d2f83af3))
  (pad "U1" smd circle (at -4.5 3.5) (size 0.275 0.275) (property pad_prop_bga) (layers "F.Cu" "F.Paste" "F.Mask") (tstamp 8582597a-5738-46d1-8631-92317d2163bb))
  (pad "U2" smd circle (at -4 3.5) (size 0.275 0.275) (property pad_prop_bga) (layers "F.Cu" "F.Paste" "F.Mask") (tstamp 4962656b-5d19-4b82-b1bd-cd978f888aea))
  (pad "U3" smd circle (at -3.5 3.5) (size 0.275 0.275) (property pad_prop_bga) (layers "F.Cu" "F.Paste" "F.Mask") (tstamp f0ea5b6a-34cf-48b5-b1ff-df37747e4001))
  (pad "U4" smd circle (at -3 3.5) (size 0.275 0.275) (property pad_prop_bga) (layers "F.Cu" "F.Paste" "F.Mask") (tstamp a8999694-cdff-4621-9e43-33bef78fb929))
  (pad "U5" smd circle (at -2.5 3.5) (size 0.275 0.275) (property pad_prop_bga) (layers "F.Cu" "F.Paste" "F.Mask") (tstamp e7a8f4e6-0930-474f-bb46-c54f9da13472))
  (pad "U6" smd circle (at -2 3.5) (size 0.275 0.275) (property pad_prop_bga) (layers "F.Cu" "F.Paste" "F.Mask") (tstamp dd5c7cf1-d600-458f-9d44-cdfcdb499b4e))
  (pad "U7" smd circle (at -1.5 3.5) (size 0.275 0.275) (property pad_prop_bga) (layers "F.Cu" "F.Paste" "F.Mask") (tstamp 786e64be-393a-4083-abde-38cfc40c60ab))
  (pad "U8" smd circle (at -1 3.5) (size 0.275 0.275) (property pad_prop_bga) (layers "F.Cu" "F.Paste" "F.Mask") (tstamp 886a8f25-c52c-42a1-b827-8b6e51c58644))
  (pad "U9" smd circle (at -0.5 3.5) (size 0.275 0.275) (property pad_prop_bga) (layers "F.Cu" "F.Paste" "F.Mask") (tstamp bce10e98-c6d5-45d4-b6bc-762cee2f3d48))
  (pad "U10" smd circle (at 0 3.5) (size 0.275 0.275) (property pad_prop_bga) (layers "F.Cu" "F.Paste" "F.Mask") (tstamp 2954a814-a7d9-4579-a2c1-80cf3160f5ac))
  (pad "U11" smd circle (at 0.5 3.5) (size 0.275 0.275) (property pad_prop_bga) (layers "F.Cu" "F.Paste" "F.Mask") (tstamp 984d822c-80cb-4d6d-aedd-5d13181591f2))
  (pad "U12" smd circle (at 1 3.5) (size 0.275 0.275) (property pad_prop_bga) (layers "F.Cu" "F.Paste" "F.Mask") (tstamp 2d96a861-2f50-431f-b928-a556ea7be84b))
  (pad "U13" smd circle (at 1.5 3.5) (size 0.275 0.275) (property pad_prop_bga) (layers "F.Cu" "F.Paste" "F.Mask") (tstamp 83c88be9-881a-481d-9c7d-885443141f8a))
  (pad "U14" smd circle (at 2 3.5) (size 0.275 0.275) (property pad_prop_bga) (layers "F.Cu" "F.Paste" "F.Mask") (tstamp b9a229a3-9d99-4a2d-88e6-4a089ef43ae2))
  (pad "U15" smd circle (at 2.5 3.5) (size 0.275 0.275) (property pad_prop_bga) (layers "F.Cu" "F.Paste" "F.Mask") (tstamp 34d46fd0-5ece-4d11-99c8-2d0dd162d233))
  (pad "U16" smd circle (at 3 3.5) (size 0.275 0.275) (property pad_prop_bga) (layers "F.Cu" "F.Paste" "F.Mask") (tstamp 796577f0-6ebe-470b-b3a8-f8aa220b00f0))
  (pad "U17" smd circle (at 3.5 3.5) (size 0.275 0.275) (property pad_prop_bga) (layers "F.Cu" "F.Paste" "F.Mask") (tstamp 4046c83e-05e5-4c91-9f46-694c544edbb4))
  (pad "U18" smd circle (at 4 3.5) (size 0.275 0.275) (property pad_prop_bga) (layers "F.Cu" "F.Paste" "F.Mask") (tstamp 08a297c1-5beb-4ec0-b212-5f898fc008cb))
  (pad "U19" smd circle (at 4.5 3.5) (size 0.275 0.275) (property pad_prop_bga) (layers "F.Cu" "F.Paste" "F.Mask") (tstamp 28ca1a6b-1bea-4316-922f-dec955985589))
  (pad "V1" smd circle (at -4.5 4) (size 0.275 0.275) (property pad_prop_bga) (layers "F.Cu" "F.Paste" "F.Mask") (tstamp b60fd6fc-18fd-4598-a035-2927501b7d8b))
  (pad "V2" smd circle (at -4 4) (size 0.275 0.275) (property pad_prop_bga) (layers "F.Cu" "F.Paste" "F.Mask") (tstamp d8109781-c883-4e02-a14b-9efb6c679f0a))
  (pad "V3" smd circle (at -3.5 4) (size 0.275 0.275) (property pad_prop_bga) (layers "F.Cu" "F.Paste" "F.Mask") (tstamp 460e96c2-97ed-4176-923f-4cf1fa8b1834))
  (pad "V4" smd circle (at -3 4) (size 0.275 0.275) (property pad_prop_bga) (layers "F.Cu" "F.Paste" "F.Mask") (tstamp 5272e8bc-1b15-49c9-8f07-944fa4e465ef))
  (pad "V5" smd circle (at -2.5 4) (size 0.275 0.275) (property pad_prop_bga) (layers "F.Cu" "F.Paste" "F.Mask") (tstamp 9615e150-3a64-427e-8544-a60ba8e3388e))
  (pad "V6" smd circle (at -2 4) (size 0.275 0.275) (property pad_prop_bga) (layers "F.Cu" "F.Paste" "F.Mask") (tstamp 4005c31e-a6d6-4467-baea-0aa91ccca88b))
  (pad "V7" smd circle (at -1.5 4) (size 0.275 0.275) (property pad_prop_bga) (layers "F.Cu" "F.Paste" "F.Mask") (tstamp c7152f97-bba8-40c3-9209-a186327da499))
  (pad "V8" smd circle (at -1 4) (size 0.275 0.275) (property pad_prop_bga) (layers "F.Cu" "F.Paste" "F.Mask") (tstamp 8e499842-424e-48fc-93b6-b9298298d280))
  (pad "V9" smd circle (at -0.5 4) (size 0.275 0.275) (property pad_prop_bga) (layers "F.Cu" "F.Paste" "F.Mask") (tstamp 543d277a-8f8a-425e-977b-b1dfb6733d92))
  (pad "V10" smd circle (at 0 4) (size 0.275 0.275) (property pad_prop_bga) (layers "F.Cu" "F.Paste" "F.Mask") (tstamp bbaa2a57-6fa3-4bc4-8891-5cb203a39ac7))
  (pad "V11" smd circle (at 0.5 4) (size 0.275 0.275) (property pad_prop_bga) (layers "F.Cu" "F.Paste" "F.Mask") (tstamp c34c8932-6a3c-48d5-a6db-6b55a28a0447))
  (pad "V12" smd circle (at 1 4) (size 0.275 0.275) (property pad_prop_bga) (layers "F.Cu" "F.Paste" "F.Mask") (tstamp c0c8ec55-bbba-47da-9ac1-f9e36aee7511))
  (pad "V13" smd circle (at 1.5 4) (size 0.275 0.275) (property pad_prop_bga) (layers "F.Cu" "F.Paste" "F.Mask") (tstamp 7f0cd725-740f-4702-92ee-5b13fe7f11c9))
  (pad "V14" smd circle (at 2 4) (size 0.275 0.275) (property pad_prop_bga) (layers "F.Cu" "F.Paste" "F.Mask") (tstamp 1f1af11a-ef6f-484c-ab9a-f53fcad50dff))
  (pad "V15" smd circle (at 2.5 4) (size 0.275 0.275) (property pad_prop_bga) (layers "F.Cu" "F.Paste" "F.Mask") (tstamp 4dd15de6-cbb7-42e7-8451-717a4440dd8e))
  (pad "V16" smd circle (at 3 4) (size 0.275 0.275) (property pad_prop_bga) (layers "F.Cu" "F.Paste" "F.Mask") (tstamp e2b6092f-87f1-4196-a5b6-e6dbcbbe5cda))
  (pad "V17" smd circle (at 3.5 4) (size 0.275 0.275) (property pad_prop_bga) (layers "F.Cu" "F.Paste" "F.Mask") (tstamp 09eff402-ad00-4491-8e09-b0140de298bc))
  (pad "V18" smd circle (at 4 4) (size 0.275 0.275) (property pad_prop_bga) (layers "F.Cu" "F.Paste" "F.Mask") (tstamp a8608696-8131-4804-85f7-8434a28d8900))
  (pad "V19" smd circle (at 4.5 4) (size 0.275 0.275) (property pad_prop_bga) (layers "F.Cu" "F.Paste" "F.Mask") (tstamp b1d7638d-1aaa-45eb-9b0d-8e8838550a90))
  (pad "W1" smd circle (at -4.5 4.5) (size 0.275 0.275) (property pad_prop_bga) (layers "F.Cu" "F.Paste" "F.Mask") (tstamp 506d90b3-015a-4393-a2cb-221b8cb7de09))
  (pad "W2" smd circle (at -4 4.5) (size 0.275 0.275) (property pad_prop_bga) (layers "F.Cu" "F.Paste" "F.Mask") (tstamp 0c8ee08b-ca97-4a3c-9ae2-b2e25a801254))
  (pad "W3" smd circle (at -3.5 4.5) (size 0.275 0.275) (property pad_prop_bga) (layers "F.Cu" "F.Paste" "F.Mask") (tstamp 1604610b-b9a5-468b-a3e8-b5e47d8c292d))
  (pad "W4" smd circle (at -3 4.5) (size 0.275 0.275) (property pad_prop_bga) (layers "F.Cu" "F.Paste" "F.Mask") (tstamp eeee2668-b839-43d6-b925-62c214e27961))
  (pad "W5" smd circle (at -2.5 4.5) (size 0.275 0.275) (property pad_prop_bga) (layers "F.Cu" "F.Paste" "F.Mask") (tstamp b471d026-f9ac-43bc-9ca0-e76437eafb1a))
  (pad "W6" smd circle (at -2 4.5) (size 0.275 0.275) (property pad_prop_bga) (layers "F.Cu" "F.Paste" "F.Mask") (tstamp f45bc646-a237-4719-a676-cae85cf103ab))
  (pad "W7" smd circle (at -1.5 4.5) (size 0.275 0.275) (property pad_prop_bga) (layers "F.Cu" "F.Paste" "F.Mask") (tstamp 1a2eab67-7670-484b-8439-aca2b0fbcdcc))
  (pad "W8" smd circle (at -1 4.5) (size 0.275 0.275) (property pad_prop_bga) (layers "F.Cu" "F.Paste" "F.Mask") (tstamp 0a302bc8-5327-49cb-af5b-3b38ab0a9160))
  (pad "W9" smd circle (at -0.5 4.5) (size 0.275 0.275) (property pad_prop_bga) (layers "F.Cu" "F.Paste" "F.Mask") (tstamp 74df92c1-a791-4c4c-badc-4f198effbf6b))
  (pad "W10" smd circle (at 0 4.5) (size 0.275 0.275) (property pad_prop_bga) (layers "F.Cu" "F.Paste" "F.Mask") (tstamp 0609e281-51f7-4919-8a24-fd8105ee0e7a))
  (pad "W11" smd circle (at 0.5 4.5) (size 0.275 0.275) (property pad_prop_bga) (layers "F.Cu" "F.Paste" "F.Mask") (tstamp 3533c8f2-79fe-4566-af26-dc3ca143c312))
  (pad "W12" smd circle (at 1 4.5) (size 0.275 0.275) (property pad_prop_bga) (layers "F.Cu" "F.Paste" "F.Mask") (tstamp 4bd47349-98b0-43f7-bf48-2ecf49e6dc1e))
  (pad "W13" smd circle (at 1.5 4.5) (size 0.275 0.275) (property pad_prop_bga) (layers "F.Cu" "F.Paste" "F.Mask") (tstamp d3d85640-92c1-4c75-a8be-75519e586745))
  (pad "W14" smd circle (at 2 4.5) (size 0.275 0.275) (property pad_prop_bga) (layers "F.Cu" "F.Paste" "F.Mask") (tstamp 5a0e4be0-b70a-4353-aff2-858fe9ab611b))
  (pad "W15" smd circle (at 2.5 4.5) (size 0.275 0.275) (property pad_prop_bga) (layers "F.Cu" "F.Paste" "F.Mask") (tstamp bdb49c8c-3e35-4e27-aec7-a9412ec140ca))
  (pad "W16" smd circle (at 3 4.5) (size 0.275 0.275) (property pad_prop_bga) (layers "F.Cu" "F.Paste" "F.Mask") (tstamp 69edeec2-4a6d-4f43-bc95-8db26d53f912))
  (pad "W17" smd circle (at 3.5 4.5) (size 0.275 0.275) (property pad_prop_bga) (layers "F.Cu" "F.Paste" "F.Mask") (tstamp c6633ebc-d996-4527-b265-7a1237707895))
  (pad "W18" smd circle (at 4 4.5) (size 0.275 0.275) (property pad_prop_bga) (layers "F.Cu" "F.Paste" "F.Mask") (tstamp 7437100b-e81e-4131-a8d9-94739795e065))
  (pad "W19" smd circle (at 4.5 4.5) (size 0.275 0.275) (property pad_prop_bga) (layers "F.Cu" "F.Paste" "F.Mask") (tstamp ecdf389d-c2e0-4026-a91d-0d6d2e00b151))
  (model "${KICAD6_3DMODEL_DIR}/Package_BGA.3dshapes/Xilinx_CPG236.wrl"
    (offset (xyz 0 0 0))
    (scale (xyz 1 1 1))
    (rotate (xyz 0 0 0))
  )
)
