(footprint "Xilinx_FGG484" (version 20211014) (generator pcbnew)
  (layer "F.Cu")
  (tedit 5CC4225D)
  (descr "Artix-7 BGA, 22x22 grid, 23x23mm package, 1mm pitch; https://www.xilinx.com/support/documentation/user_guides/ug475_7Series_Pkg_Pinout.pdf#page=275, NSMD pad definition Appendix A")
  (tags "BGA 484 1 FG484 FGG484")
  (solder_mask_margin 0.05)
  (attr smd)
  (fp_text reference "REF**" (at 0 -12.5) (layer "F.SilkS")
    (effects (font (size 1 1) (thickness 0.15)))
    (tstamp 352d1d46-f8b4-4200-a203-45757661437f)
  )
  (fp_text value "Xilinx_FGG484" (at 0 12.5) (layer "F.Fab")
    (effects (font (size 1 1) (thickness 0.15)))
    (tstamp f80287dd-f6d2-44a0-8276-0e733c840bda)
  )
  (fp_text user "${REFERENCE}" (at 0 0) (layer "F.Fab")
    (effects (font (size 1 1) (thickness 0.15)))
    (tstamp 3fdd7a43-7e89-45ab-9289-6bc162c1eb47)
  )
  (fp_line (start 11.61 -11.61) (end 11.61 11.61) (layer "F.SilkS") (width 0.12) (tstamp 00e5e6d1-dc69-487a-ae63-e001db083fd0))
  (fp_line (start -11.61 11.61) (end -11.61 -10.61) (layer "F.SilkS") (width 0.12) (tstamp 8ad79737-f728-4214-89fc-76193552fd53))
  (fp_line (start 11.61 11.61) (end -11.61 11.61) (layer "F.SilkS") (width 0.12) (tstamp ab4c5c9e-6ff2-4a93-ad57-f1c5aaaf4645))
  (fp_line (start -10.61 -11.61) (end 11.61 -11.61) (layer "F.SilkS") (width 0.12) (tstamp c71cd94c-72b3-4c8b-82ee-78bf4ac87f1e))
  (fp_line (start 12.5 -12.5) (end -12.5 -12.5) (layer "F.CrtYd") (width 0.05) (tstamp 1c0a0d6e-3237-4fda-aac1-04ed328e2339))
  (fp_line (start 12.5 12.5) (end 12.5 -12.5) (layer "F.CrtYd") (width 0.05) (tstamp 52fbd67a-e4b6-476f-8bc3-1a48aa296ff7))
  (fp_line (start -12.5 12.5) (end 12.5 12.5) (layer "F.CrtYd") (width 0.05) (tstamp 682c975f-13dd-4611-b3a7-0fd4a52bcd28))
  (fp_line (start -12.5 -12.5) (end -12.5 12.5) (layer "F.CrtYd") (width 0.05) (tstamp 9306e31a-5100-4a85-9f05-84f400ef47d4))
  (fp_line (start -11.5 -10.5) (end -10.5 -11.5) (layer "F.Fab") (width 0.1) (tstamp 199ed8ae-a7d7-46ea-ac9e-f14e64f286aa))
  (fp_line (start 11.5 -11.5) (end 11.5 11.5) (layer "F.Fab") (width 0.1) (tstamp 25a58211-fc13-4ae8-a4f9-65e78f173128))
  (fp_line (start -11.5 11.5) (end -11.5 -10.5) (layer "F.Fab") (width 0.1) (tstamp 65e5b476-2d56-43da-a3b8-ef922a133444))
  (fp_line (start -10.5 -11.5) (end 11.5 -11.5) (layer "F.Fab") (width 0.1) (tstamp bad1bf67-da77-4153-95b2-99824ae10942))
  (fp_line (start 11.5 11.5) (end -11.5 11.5) (layer "F.Fab") (width 0.1) (tstamp e085f3d3-9b7c-44e1-8690-fc82c67f9357))
  (pad "A1" smd circle (at -10.5 -10.5) (size 0.5 0.5) (property pad_prop_bga) (layers "F.Cu" "F.Paste" "F.Mask") (tstamp 56dada46-ff0f-4a82-a74c-3b4e9b738a65))
  (pad "A2" smd circle (at -9.5 -10.5) (size 0.5 0.5) (property pad_prop_bga) (layers "F.Cu" "F.Paste" "F.Mask") (tstamp a093a3f9-d798-4751-a1bc-de651e323f8b))
  (pad "A3" smd circle (at -8.5 -10.5) (size 0.5 0.5) (property pad_prop_bga) (layers "F.Cu" "F.Paste" "F.Mask") (tstamp 6d9dd00b-cdcb-416e-8837-cd4ffff9fe59))
  (pad "A4" smd circle (at -7.5 -10.5) (size 0.5 0.5) (property pad_prop_bga) (layers "F.Cu" "F.Paste" "F.Mask") (tstamp 0ecaa640-2863-447d-b194-3c81920c8cc6))
  (pad "A5" smd circle (at -6.5 -10.5) (size 0.5 0.5) (property pad_prop_bga) (layers "F.Cu" "F.Paste" "F.Mask") (tstamp 2c9beb6f-bd3d-4a14-a7a5-ac91bdac49f9))
  (pad "A6" smd circle (at -5.5 -10.5) (size 0.5 0.5) (property pad_prop_bga) (layers "F.Cu" "F.Paste" "F.Mask") (tstamp 46082471-fd0c-40ec-96bf-cb593ea78cf3))
  (pad "A7" smd circle (at -4.5 -10.5) (size 0.5 0.5) (property pad_prop_bga) (layers "F.Cu" "F.Paste" "F.Mask") (tstamp 9ba53222-af4c-449b-92d9-2538fe9ca74f))
  (pad "A8" smd circle (at -3.5 -10.5) (size 0.5 0.5) (property pad_prop_bga) (layers "F.Cu" "F.Paste" "F.Mask") (tstamp 825c2425-6b46-49b1-9b5f-c7723581ccac))
  (pad "A9" smd circle (at -2.5 -10.5) (size 0.5 0.5) (property pad_prop_bga) (layers "F.Cu" "F.Paste" "F.Mask") (tstamp aeecf6f5-3912-456c-9a24-cf0517542a26))
  (pad "A10" smd circle (at -1.5 -10.5) (size 0.5 0.5) (property pad_prop_bga) (layers "F.Cu" "F.Paste" "F.Mask") (tstamp 7677660a-4c06-498a-abe2-3813eae4452c))
  (pad "A11" smd circle (at -0.5 -10.5) (size 0.5 0.5) (property pad_prop_bga) (layers "F.Cu" "F.Paste" "F.Mask") (tstamp d8e892c5-31bb-41a7-bd6f-02a0d0832247))
  (pad "A12" smd circle (at 0.5 -10.5) (size 0.5 0.5) (property pad_prop_bga) (layers "F.Cu" "F.Paste" "F.Mask") (tstamp 924ed5b1-c999-4a18-b5ca-5c68ae41d66c))
  (pad "A13" smd circle (at 1.5 -10.5) (size 0.5 0.5) (property pad_prop_bga) (layers "F.Cu" "F.Paste" "F.Mask") (tstamp 68839537-63ad-413e-8671-fa1f0d9e941d))
  (pad "A14" smd circle (at 2.5 -10.5) (size 0.5 0.5) (property pad_prop_bga) (layers "F.Cu" "F.Paste" "F.Mask") (tstamp a6050413-9a91-4f65-876c-2dec6d2f480d))
  (pad "A15" smd circle (at 3.5 -10.5) (size 0.5 0.5) (property pad_prop_bga) (layers "F.Cu" "F.Paste" "F.Mask") (tstamp 1aab5c10-fc2e-411f-9aba-895c44be897e))
  (pad "A16" smd circle (at 4.5 -10.5) (size 0.5 0.5) (property pad_prop_bga) (layers "F.Cu" "F.Paste" "F.Mask") (tstamp 23ba4586-e63d-4026-8e92-df3f2111c0b8))
  (pad "A17" smd circle (at 5.5 -10.5) (size 0.5 0.5) (property pad_prop_bga) (layers "F.Cu" "F.Paste" "F.Mask") (tstamp e89c3cd9-3ca8-476f-9ddf-39235fa115dc))
  (pad "A18" smd circle (at 6.5 -10.5) (size 0.5 0.5) (property pad_prop_bga) (layers "F.Cu" "F.Paste" "F.Mask") (tstamp 74e3b890-90e7-4888-9ad0-be5aed85e38c))
  (pad "A19" smd circle (at 7.5 -10.5) (size 0.5 0.5) (property pad_prop_bga) (layers "F.Cu" "F.Paste" "F.Mask") (tstamp d85c1108-c60d-4029-9049-c9524ba68aa7))
  (pad "A20" smd circle (at 8.5 -10.5) (size 0.5 0.5) (property pad_prop_bga) (layers "F.Cu" "F.Paste" "F.Mask") (tstamp f2ae1c56-f1a6-42c8-9313-041ffe5ffe1e))
  (pad "A21" smd circle (at 9.5 -10.5) (size 0.5 0.5) (property pad_prop_bga) (layers "F.Cu" "F.Paste" "F.Mask") (tstamp cd2e70c1-d4ad-4f91-a5ed-d68ac94d85d4))
  (pad "A22" smd circle (at 10.5 -10.5) (size 0.5 0.5) (property pad_prop_bga) (layers "F.Cu" "F.Paste" "F.Mask") (tstamp 68557e01-97f4-4d84-a892-60b054533a65))
  (pad "AA1" smd circle (at -10.5 9.5) (size 0.5 0.5) (property pad_prop_bga) (layers "F.Cu" "F.Paste" "F.Mask") (tstamp 3ac2e7b5-0fbf-4429-8225-2da8243d0669))
  (pad "AA2" smd circle (at -9.5 9.5) (size 0.5 0.5) (property pad_prop_bga) (layers "F.Cu" "F.Paste" "F.Mask") (tstamp d4535157-80bb-4a7d-aa8c-ce28edffad5f))
  (pad "AA3" smd circle (at -8.5 9.5) (size 0.5 0.5) (property pad_prop_bga) (layers "F.Cu" "F.Paste" "F.Mask") (tstamp f1e6368c-d011-48ef-a2f2-9b7f590cc06d))
  (pad "AA4" smd circle (at -7.5 9.5) (size 0.5 0.5) (property pad_prop_bga) (layers "F.Cu" "F.Paste" "F.Mask") (tstamp 11172f1e-4b3e-47c0-8643-245c093f192c))
  (pad "AA5" smd circle (at -6.5 9.5) (size 0.5 0.5) (property pad_prop_bga) (layers "F.Cu" "F.Paste" "F.Mask") (tstamp 899f30d7-c4c5-4045-9bd2-f6a341eb85f4))
  (pad "AA6" smd circle (at -5.5 9.5) (size 0.5 0.5) (property pad_prop_bga) (layers "F.Cu" "F.Paste" "F.Mask") (tstamp 117edc71-82a0-40df-937e-5b2a1a774152))
  (pad "AA7" smd circle (at -4.5 9.5) (size 0.5 0.5) (property pad_prop_bga) (layers "F.Cu" "F.Paste" "F.Mask") (tstamp 7933be69-4b65-47d6-9d94-15767503a55e))
  (pad "AA8" smd circle (at -3.5 9.5) (size 0.5 0.5) (property pad_prop_bga) (layers "F.Cu" "F.Paste" "F.Mask") (tstamp 1d5feaf5-52e7-4be9-8693-8a7218eef65e))
  (pad "AA9" smd circle (at -2.5 9.5) (size 0.5 0.5) (property pad_prop_bga) (layers "F.Cu" "F.Paste" "F.Mask") (tstamp fb78d3d1-71b5-481f-9a63-7c27594b03f9))
  (pad "AA10" smd circle (at -1.5 9.5) (size 0.5 0.5) (property pad_prop_bga) (layers "F.Cu" "F.Paste" "F.Mask") (tstamp d4b0bd89-d45c-4a41-aa70-d75ab9be7f81))
  (pad "AA11" smd circle (at -0.5 9.5) (size 0.5 0.5) (property pad_prop_bga) (layers "F.Cu" "F.Paste" "F.Mask") (tstamp e5559b54-3f8f-4115-bb05-485b09bf2c7d))
  (pad "AA12" smd circle (at 0.5 9.5) (size 0.5 0.5) (property pad_prop_bga) (layers "F.Cu" "F.Paste" "F.Mask") (tstamp 6faf64f3-43b7-41c8-91fa-ebddb9f93af1))
  (pad "AA13" smd circle (at 1.5 9.5) (size 0.5 0.5) (property pad_prop_bga) (layers "F.Cu" "F.Paste" "F.Mask") (tstamp 378445d8-097b-47d7-bffc-99009cd11942))
  (pad "AA14" smd circle (at 2.5 9.5) (size 0.5 0.5) (property pad_prop_bga) (layers "F.Cu" "F.Paste" "F.Mask") (tstamp d2f280f0-cf0e-4e79-98ec-556aee534185))
  (pad "AA15" smd circle (at 3.5 9.5) (size 0.5 0.5) (property pad_prop_bga) (layers "F.Cu" "F.Paste" "F.Mask") (tstamp 48d363d0-a199-4ef8-b325-07cfcf6df024))
  (pad "AA16" smd circle (at 4.5 9.5) (size 0.5 0.5) (property pad_prop_bga) (layers "F.Cu" "F.Paste" "F.Mask") (tstamp d3cb2a4f-bde5-4fc7-99a0-227cb4060bec))
  (pad "AA17" smd circle (at 5.5 9.5) (size 0.5 0.5) (property pad_prop_bga) (layers "F.Cu" "F.Paste" "F.Mask") (tstamp adf38f2d-052a-4998-89c7-9d8057cad8f2))
  (pad "AA18" smd circle (at 6.5 9.5) (size 0.5 0.5) (property pad_prop_bga) (layers "F.Cu" "F.Paste" "F.Mask") (tstamp c09a9c3b-41b5-40e4-87ba-1cdbf8e6cd19))
  (pad "AA19" smd circle (at 7.5 9.5) (size 0.5 0.5) (property pad_prop_bga) (layers "F.Cu" "F.Paste" "F.Mask") (tstamp ee5bd5b3-c7ab-4f90-b4c3-20f3fb402e21))
  (pad "AA20" smd circle (at 8.5 9.5) (size 0.5 0.5) (property pad_prop_bga) (layers "F.Cu" "F.Paste" "F.Mask") (tstamp 810d54a9-6171-44cd-af36-9e7fadbe9e8b))
  (pad "AA21" smd circle (at 9.5 9.5) (size 0.5 0.5) (property pad_prop_bga) (layers "F.Cu" "F.Paste" "F.Mask") (tstamp ec8ce405-d357-4c1d-a051-9d5105414bbc))
  (pad "AA22" smd circle (at 10.5 9.5) (size 0.5 0.5) (property pad_prop_bga) (layers "F.Cu" "F.Paste" "F.Mask") (tstamp 5af797ab-b9a6-455c-8def-2911fcba0d00))
  (pad "AB1" smd circle (at -10.5 10.5) (size 0.5 0.5) (property pad_prop_bga) (layers "F.Cu" "F.Paste" "F.Mask") (tstamp 28617ec4-4425-41e3-ba06-212a38d75d55))
  (pad "AB2" smd circle (at -9.5 10.5) (size 0.5 0.5) (property pad_prop_bga) (layers "F.Cu" "F.Paste" "F.Mask") (tstamp 56ce330c-b986-48ae-9c09-2f179ca76b80))
  (pad "AB3" smd circle (at -8.5 10.5) (size 0.5 0.5) (property pad_prop_bga) (layers "F.Cu" "F.Paste" "F.Mask") (tstamp 449af825-e4a7-4335-b1a0-fb1de99769ac))
  (pad "AB4" smd circle (at -7.5 10.5) (size 0.5 0.5) (property pad_prop_bga) (layers "F.Cu" "F.Paste" "F.Mask") (tstamp eae55042-6cfc-413b-a46a-9a422d602013))
  (pad "AB5" smd circle (at -6.5 10.5) (size 0.5 0.5) (property pad_prop_bga) (layers "F.Cu" "F.Paste" "F.Mask") (tstamp 5c00ea4a-2d16-4502-bf0a-093537e28303))
  (pad "AB6" smd circle (at -5.5 10.5) (size 0.5 0.5) (property pad_prop_bga) (layers "F.Cu" "F.Paste" "F.Mask") (tstamp a98534d0-7764-4c95-8081-14731f33c505))
  (pad "AB7" smd circle (at -4.5 10.5) (size 0.5 0.5) (property pad_prop_bga) (layers "F.Cu" "F.Paste" "F.Mask") (tstamp 7524c0ac-b387-41ba-be84-f4de0ee48c97))
  (pad "AB8" smd circle (at -3.5 10.5) (size 0.5 0.5) (property pad_prop_bga) (layers "F.Cu" "F.Paste" "F.Mask") (tstamp 1dc13e42-4260-4478-9870-2b4032d2a4a9))
  (pad "AB9" smd circle (at -2.5 10.5) (size 0.5 0.5) (property pad_prop_bga) (layers "F.Cu" "F.Paste" "F.Mask") (tstamp 6a0346b8-567d-422f-9f52-372d49626a01))
  (pad "AB10" smd circle (at -1.5 10.5) (size 0.5 0.5) (property pad_prop_bga) (layers "F.Cu" "F.Paste" "F.Mask") (tstamp 2e558a46-d898-4a59-b9af-15edb56d3402))
  (pad "AB11" smd circle (at -0.5 10.5) (size 0.5 0.5) (property pad_prop_bga) (layers "F.Cu" "F.Paste" "F.Mask") (tstamp dcecb716-d3b3-43a9-bad8-eded2dcc46b5))
  (pad "AB12" smd circle (at 0.5 10.5) (size 0.5 0.5) (property pad_prop_bga) (layers "F.Cu" "F.Paste" "F.Mask") (tstamp db4cb04a-6c85-4c89-b1f0-6f847c511f3f))
  (pad "AB13" smd circle (at 1.5 10.5) (size 0.5 0.5) (property pad_prop_bga) (layers "F.Cu" "F.Paste" "F.Mask") (tstamp bfd705a3-fdcf-4289-818f-10d98bcd9fff))
  (pad "AB14" smd circle (at 2.5 10.5) (size 0.5 0.5) (property pad_prop_bga) (layers "F.Cu" "F.Paste" "F.Mask") (tstamp 23723db0-8640-4ff0-b271-a8f5259d6aed))
  (pad "AB15" smd circle (at 3.5 10.5) (size 0.5 0.5) (property pad_prop_bga) (layers "F.Cu" "F.Paste" "F.Mask") (tstamp 81f031c5-20c8-49da-a27b-338223e01807))
  (pad "AB16" smd circle (at 4.5 10.5) (size 0.5 0.5) (property pad_prop_bga) (layers "F.Cu" "F.Paste" "F.Mask") (tstamp 494b3f7a-535d-463b-84c3-a8c6373813d2))
  (pad "AB17" smd circle (at 5.5 10.5) (size 0.5 0.5) (property pad_prop_bga) (layers "F.Cu" "F.Paste" "F.Mask") (tstamp 072d123d-5053-49c3-9ed0-faf7ec603fc0))
  (pad "AB18" smd circle (at 6.5 10.5) (size 0.5 0.5) (property pad_prop_bga) (layers "F.Cu" "F.Paste" "F.Mask") (tstamp faa2674f-a42c-46eb-98c8-e48581ed3c38))
  (pad "AB19" smd circle (at 7.5 10.5) (size 0.5 0.5) (property pad_prop_bga) (layers "F.Cu" "F.Paste" "F.Mask") (tstamp b840fd02-2427-4911-834a-15af64600af6))
  (pad "AB20" smd circle (at 8.5 10.5) (size 0.5 0.5) (property pad_prop_bga) (layers "F.Cu" "F.Paste" "F.Mask") (tstamp fbbcb418-cc82-490f-be57-82d3fae04249))
  (pad "AB21" smd circle (at 9.5 10.5) (size 0.5 0.5) (property pad_prop_bga) (layers "F.Cu" "F.Paste" "F.Mask") (tstamp 336a45da-d3de-4e6b-8adc-d5700fce6e85))
  (pad "AB22" smd circle (at 10.5 10.5) (size 0.5 0.5) (property pad_prop_bga) (layers "F.Cu" "F.Paste" "F.Mask") (tstamp b299dded-3e39-495a-ad0a-caa5189ad655))
  (pad "B1" smd circle (at -10.5 -9.5) (size 0.5 0.5) (property pad_prop_bga) (layers "F.Cu" "F.Paste" "F.Mask") (tstamp a0c891a4-0cfc-46b3-af84-93ff70eff06e))
  (pad "B2" smd circle (at -9.5 -9.5) (size 0.5 0.5) (property pad_prop_bga) (layers "F.Cu" "F.Paste" "F.Mask") (tstamp 77b5c761-ac9c-4f99-a290-cda09e5b23a0))
  (pad "B3" smd circle (at -8.5 -9.5) (size 0.5 0.5) (property pad_prop_bga) (layers "F.Cu" "F.Paste" "F.Mask") (tstamp 858e0532-56a6-4706-9194-1ca99c6ba259))
  (pad "B4" smd circle (at -7.5 -9.5) (size 0.5 0.5) (property pad_prop_bga) (layers "F.Cu" "F.Paste" "F.Mask") (tstamp 2081b218-fbcd-4b4a-ace3-870cdc98d7e3))
  (pad "B5" smd circle (at -6.5 -9.5) (size 0.5 0.5) (property pad_prop_bga) (layers "F.Cu" "F.Paste" "F.Mask") (tstamp 68a36d9b-785c-43d8-bde8-c9edbd31237e))
  (pad "B6" smd circle (at -5.5 -9.5) (size 0.5 0.5) (property pad_prop_bga) (layers "F.Cu" "F.Paste" "F.Mask") (tstamp 8d0d97ea-526e-42a2-868b-7f010eb1d144))
  (pad "B7" smd circle (at -4.5 -9.5) (size 0.5 0.5) (property pad_prop_bga) (layers "F.Cu" "F.Paste" "F.Mask") (tstamp dcc17f52-d0ac-4612-905a-48c3bc589e11))
  (pad "B8" smd circle (at -3.5 -9.5) (size 0.5 0.5) (property pad_prop_bga) (layers "F.Cu" "F.Paste" "F.Mask") (tstamp cf7e1f00-1c24-4184-8843-b69dffce83d9))
  (pad "B9" smd circle (at -2.5 -9.5) (size 0.5 0.5) (property pad_prop_bga) (layers "F.Cu" "F.Paste" "F.Mask") (tstamp 7329f05e-f57b-4364-ade9-8d526d1ec043))
  (pad "B10" smd circle (at -1.5 -9.5) (size 0.5 0.5) (property pad_prop_bga) (layers "F.Cu" "F.Paste" "F.Mask") (tstamp 45f94c0d-b256-4678-89de-c9ef4151ccd6))
  (pad "B11" smd circle (at -0.5 -9.5) (size 0.5 0.5) (property pad_prop_bga) (layers "F.Cu" "F.Paste" "F.Mask") (tstamp 996f6388-4e37-4a72-bb88-b12410b5026e))
  (pad "B12" smd circle (at 0.5 -9.5) (size 0.5 0.5) (property pad_prop_bga) (layers "F.Cu" "F.Paste" "F.Mask") (tstamp 84aa93e2-2e44-4e77-8689-2fd00cba3699))
  (pad "B13" smd circle (at 1.5 -9.5) (size 0.5 0.5) (property pad_prop_bga) (layers "F.Cu" "F.Paste" "F.Mask") (tstamp cc8ee0bb-74cd-46e5-9809-ce96f73707a7))
  (pad "B14" smd circle (at 2.5 -9.5) (size 0.5 0.5) (property pad_prop_bga) (layers "F.Cu" "F.Paste" "F.Mask") (tstamp 2b977891-061f-4452-be18-914f6429c42f))
  (pad "B15" smd circle (at 3.5 -9.5) (size 0.5 0.5) (property pad_prop_bga) (layers "F.Cu" "F.Paste" "F.Mask") (tstamp acada0c6-148d-4231-adfc-b962e848d3b1))
  (pad "B16" smd circle (at 4.5 -9.5) (size 0.5 0.5) (property pad_prop_bga) (layers "F.Cu" "F.Paste" "F.Mask") (tstamp 64cfa61e-cad3-4e76-a12b-b4db0e04fcf8))
  (pad "B17" smd circle (at 5.5 -9.5) (size 0.5 0.5) (property pad_prop_bga) (layers "F.Cu" "F.Paste" "F.Mask") (tstamp 0bdd39fd-d4a5-4677-bc6e-7a480023ef1a))
  (pad "B18" smd circle (at 6.5 -9.5) (size 0.5 0.5) (property pad_prop_bga) (layers "F.Cu" "F.Paste" "F.Mask") (tstamp 34b5cbff-6692-4279-bd4b-64126fa59aa5))
  (pad "B19" smd circle (at 7.5 -9.5) (size 0.5 0.5) (property pad_prop_bga) (layers "F.Cu" "F.Paste" "F.Mask") (tstamp 58211333-e384-459a-b71e-13d697241c94))
  (pad "B20" smd circle (at 8.5 -9.5) (size 0.5 0.5) (property pad_prop_bga) (layers "F.Cu" "F.Paste" "F.Mask") (tstamp 56dfa30e-5f55-4328-bd06-8c5c4f2decda))
  (pad "B21" smd circle (at 9.5 -9.5) (size 0.5 0.5) (property pad_prop_bga) (layers "F.Cu" "F.Paste" "F.Mask") (tstamp b3d67a1b-1685-4871-82a6-b556509a1757))
  (pad "B22" smd circle (at 10.5 -9.5) (size 0.5 0.5) (property pad_prop_bga) (layers "F.Cu" "F.Paste" "F.Mask") (tstamp 3682cb4e-d6e9-4e25-999b-b8dca054c2cd))
  (pad "C1" smd circle (at -10.5 -8.5) (size 0.5 0.5) (property pad_prop_bga) (layers "F.Cu" "F.Paste" "F.Mask") (tstamp bafde052-746a-42f5-9e0d-ce83080d4e76))
  (pad "C2" smd circle (at -9.5 -8.5) (size 0.5 0.5) (property pad_prop_bga) (layers "F.Cu" "F.Paste" "F.Mask") (tstamp 960957bc-42ac-4223-a5d5-fb5ecab63932))
  (pad "C3" smd circle (at -8.5 -8.5) (size 0.5 0.5) (property pad_prop_bga) (layers "F.Cu" "F.Paste" "F.Mask") (tstamp b9a1b3d0-666b-41e3-ac15-87d8fa3277f8))
  (pad "C4" smd circle (at -7.5 -8.5) (size 0.5 0.5) (property pad_prop_bga) (layers "F.Cu" "F.Paste" "F.Mask") (tstamp 7e9c8bc3-84a4-4edd-a118-743f8aa09068))
  (pad "C5" smd circle (at -6.5 -8.5) (size 0.5 0.5) (property pad_prop_bga) (layers "F.Cu" "F.Paste" "F.Mask") (tstamp 3ec87d2e-6bac-47a7-a238-51ac5632b0fe))
  (pad "C6" smd circle (at -5.5 -8.5) (size 0.5 0.5) (property pad_prop_bga) (layers "F.Cu" "F.Paste" "F.Mask") (tstamp a4f1f723-81d9-43ad-9cea-7b71182fc191))
  (pad "C7" smd circle (at -4.5 -8.5) (size 0.5 0.5) (property pad_prop_bga) (layers "F.Cu" "F.Paste" "F.Mask") (tstamp af5a60e3-ee8c-4566-98ab-0634ca469d36))
  (pad "C8" smd circle (at -3.5 -8.5) (size 0.5 0.5) (property pad_prop_bga) (layers "F.Cu" "F.Paste" "F.Mask") (tstamp c9d15ff4-0bd0-49c8-b877-a5970e63a2ca))
  (pad "C9" smd circle (at -2.5 -8.5) (size 0.5 0.5) (property pad_prop_bga) (layers "F.Cu" "F.Paste" "F.Mask") (tstamp 2f5195fe-d7ba-47a5-826a-f90b09b45350))
  (pad "C10" smd circle (at -1.5 -8.5) (size 0.5 0.5) (property pad_prop_bga) (layers "F.Cu" "F.Paste" "F.Mask") (tstamp 43cb7744-36ba-479b-9e91-91d09aeed4f2))
  (pad "C11" smd circle (at -0.5 -8.5) (size 0.5 0.5) (property pad_prop_bga) (layers "F.Cu" "F.Paste" "F.Mask") (tstamp 3c45b92a-b185-462f-baf6-e0a43b51a8ee))
  (pad "C12" smd circle (at 0.5 -8.5) (size 0.5 0.5) (property pad_prop_bga) (layers "F.Cu" "F.Paste" "F.Mask") (tstamp c5021c5d-4b91-43f4-84c5-2406cb4aaf32))
  (pad "C13" smd circle (at 1.5 -8.5) (size 0.5 0.5) (property pad_prop_bga) (layers "F.Cu" "F.Paste" "F.Mask") (tstamp aa7f665e-859d-4782-85ed-635c244cc650))
  (pad "C14" smd circle (at 2.5 -8.5) (size 0.5 0.5) (property pad_prop_bga) (layers "F.Cu" "F.Paste" "F.Mask") (tstamp 08e6edc1-2b52-458c-9358-6888a0ff744b))
  (pad "C15" smd circle (at 3.5 -8.5) (size 0.5 0.5) (property pad_prop_bga) (layers "F.Cu" "F.Paste" "F.Mask") (tstamp d3eb9f9c-5825-4149-9956-468413fd5f8a))
  (pad "C16" smd circle (at 4.5 -8.5) (size 0.5 0.5) (property pad_prop_bga) (layers "F.Cu" "F.Paste" "F.Mask") (tstamp 4d65e1fb-c77e-4771-8139-3f23640643ce))
  (pad "C17" smd circle (at 5.5 -8.5) (size 0.5 0.5) (property pad_prop_bga) (layers "F.Cu" "F.Paste" "F.Mask") (tstamp 75c5307d-31ec-4b2d-a11f-ff3963d0fca5))
  (pad "C18" smd circle (at 6.5 -8.5) (size 0.5 0.5) (property pad_prop_bga) (layers "F.Cu" "F.Paste" "F.Mask") (tstamp 448de330-a200-41b3-a536-4b3adbf7ecb8))
  (pad "C19" smd circle (at 7.5 -8.5) (size 0.5 0.5) (property pad_prop_bga) (layers "F.Cu" "F.Paste" "F.Mask") (tstamp 9a253ed0-df32-49a4-89b9-c6eaf4a906a3))
  (pad "C20" smd circle (at 8.5 -8.5) (size 0.5 0.5) (property pad_prop_bga) (layers "F.Cu" "F.Paste" "F.Mask") (tstamp f5605b42-9c1d-48bc-822d-b8e0f305641a))
  (pad "C21" smd circle (at 9.5 -8.5) (size 0.5 0.5) (property pad_prop_bga) (layers "F.Cu" "F.Paste" "F.Mask") (tstamp 67e2ee6d-a5c3-431d-bc1f-a9d48bedad15))
  (pad "C22" smd circle (at 10.5 -8.5) (size 0.5 0.5) (property pad_prop_bga) (layers "F.Cu" "F.Paste" "F.Mask") (tstamp 1dfd92e0-22d9-45f7-9712-a0e6d45ae098))
  (pad "D1" smd circle (at -10.5 -7.5) (size 0.5 0.5) (property pad_prop_bga) (layers "F.Cu" "F.Paste" "F.Mask") (tstamp 32fe672f-824d-4d99-9466-dde149ad2d1b))
  (pad "D2" smd circle (at -9.5 -7.5) (size 0.5 0.5) (property pad_prop_bga) (layers "F.Cu" "F.Paste" "F.Mask") (tstamp 7828c4b5-ba47-4f34-9510-ff86b5ff86bc))
  (pad "D3" smd circle (at -8.5 -7.5) (size 0.5 0.5) (property pad_prop_bga) (layers "F.Cu" "F.Paste" "F.Mask") (tstamp 01b93ad6-9222-45a2-925c-1de532412bff))
  (pad "D4" smd circle (at -7.5 -7.5) (size 0.5 0.5) (property pad_prop_bga) (layers "F.Cu" "F.Paste" "F.Mask") (tstamp 54de0b70-bc8b-4255-b5ee-e7a0e6d9269e))
  (pad "D5" smd circle (at -6.5 -7.5) (size 0.5 0.5) (property pad_prop_bga) (layers "F.Cu" "F.Paste" "F.Mask") (tstamp f058fba5-0266-4c9b-8c67-24f017f41533))
  (pad "D6" smd circle (at -5.5 -7.5) (size 0.5 0.5) (property pad_prop_bga) (layers "F.Cu" "F.Paste" "F.Mask") (tstamp 0dbfabf3-7137-4eeb-86a5-1e9187faa33a))
  (pad "D7" smd circle (at -4.5 -7.5) (size 0.5 0.5) (property pad_prop_bga) (layers "F.Cu" "F.Paste" "F.Mask") (tstamp b0ba5862-8345-4a88-b59b-dc12191e50a3))
  (pad "D8" smd circle (at -3.5 -7.5) (size 0.5 0.5) (property pad_prop_bga) (layers "F.Cu" "F.Paste" "F.Mask") (tstamp e0f6036a-a397-409f-ac75-5d84c796394a))
  (pad "D9" smd circle (at -2.5 -7.5) (size 0.5 0.5) (property pad_prop_bga) (layers "F.Cu" "F.Paste" "F.Mask") (tstamp d7ad51c8-554b-4774-a1ed-8eb03ca9089e))
  (pad "D10" smd circle (at -1.5 -7.5) (size 0.5 0.5) (property pad_prop_bga) (layers "F.Cu" "F.Paste" "F.Mask") (tstamp 0828d116-bb52-45a2-a9be-e62016a38f13))
  (pad "D11" smd circle (at -0.5 -7.5) (size 0.5 0.5) (property pad_prop_bga) (layers "F.Cu" "F.Paste" "F.Mask") (tstamp 5d1a4e3d-4679-453b-880d-9cd1f489ece2))
  (pad "D12" smd circle (at 0.5 -7.5) (size 0.5 0.5) (property pad_prop_bga) (layers "F.Cu" "F.Paste" "F.Mask") (tstamp 0997b2bf-67a7-4113-a94c-a18f1a7b0333))
  (pad "D13" smd circle (at 1.5 -7.5) (size 0.5 0.5) (property pad_prop_bga) (layers "F.Cu" "F.Paste" "F.Mask") (tstamp 02c63fc5-94cd-4e84-bd86-1bd8fb5d92d8))
  (pad "D14" smd circle (at 2.5 -7.5) (size 0.5 0.5) (property pad_prop_bga) (layers "F.Cu" "F.Paste" "F.Mask") (tstamp 6d42734f-8dd9-4040-b994-ebdc2a1e616d))
  (pad "D15" smd circle (at 3.5 -7.5) (size 0.5 0.5) (property pad_prop_bga) (layers "F.Cu" "F.Paste" "F.Mask") (tstamp ca58d853-1419-4bf9-bd83-644f9a13ede6))
  (pad "D16" smd circle (at 4.5 -7.5) (size 0.5 0.5) (property pad_prop_bga) (layers "F.Cu" "F.Paste" "F.Mask") (tstamp 2a5d1580-1c43-4ef8-8a79-1b4e8e4c4975))
  (pad "D17" smd circle (at 5.5 -7.5) (size 0.5 0.5) (property pad_prop_bga) (layers "F.Cu" "F.Paste" "F.Mask") (tstamp 77022abe-5276-40b9-a088-7981411a4953))
  (pad "D18" smd circle (at 6.5 -7.5) (size 0.5 0.5) (property pad_prop_bga) (layers "F.Cu" "F.Paste" "F.Mask") (tstamp 346e2383-cb05-411a-b8cb-6f0b22a82207))
  (pad "D19" smd circle (at 7.5 -7.5) (size 0.5 0.5) (property pad_prop_bga) (layers "F.Cu" "F.Paste" "F.Mask") (tstamp 5c18852a-adb4-4ad4-af3b-c12246943786))
  (pad "D20" smd circle (at 8.5 -7.5) (size 0.5 0.5) (property pad_prop_bga) (layers "F.Cu" "F.Paste" "F.Mask") (tstamp 93eac157-1ca1-431e-8dd6-e34446a6fc73))
  (pad "D21" smd circle (at 9.5 -7.5) (size 0.5 0.5) (property pad_prop_bga) (layers "F.Cu" "F.Paste" "F.Mask") (tstamp 4bcb3f53-b24b-49f1-b48b-03a6c18fa74d))
  (pad "D22" smd circle (at 10.5 -7.5) (size 0.5 0.5) (property pad_prop_bga) (layers "F.Cu" "F.Paste" "F.Mask") (tstamp 449c015a-d10a-4b3f-a664-d92e936469e3))
  (pad "E1" smd circle (at -10.5 -6.5) (size 0.5 0.5) (property pad_prop_bga) (layers "F.Cu" "F.Paste" "F.Mask") (tstamp 136c7fa6-e2a3-4e1d-b7a2-f6f184c6b11a))
  (pad "E2" smd circle (at -9.5 -6.5) (size 0.5 0.5) (property pad_prop_bga) (layers "F.Cu" "F.Paste" "F.Mask") (tstamp 2619de60-63c1-41da-a690-1f2d9e4b9cf0))
  (pad "E3" smd circle (at -8.5 -6.5) (size 0.5 0.5) (property pad_prop_bga) (layers "F.Cu" "F.Paste" "F.Mask") (tstamp a9eea8c1-3dcd-43aa-acba-579accde4e9a))
  (pad "E4" smd circle (at -7.5 -6.5) (size 0.5 0.5) (property pad_prop_bga) (layers "F.Cu" "F.Paste" "F.Mask") (tstamp 89164bd9-05a1-43d4-b8c9-364165472a7b))
  (pad "E5" smd circle (at -6.5 -6.5) (size 0.5 0.5) (property pad_prop_bga) (layers "F.Cu" "F.Paste" "F.Mask") (tstamp fd4b18d7-ee29-4dfc-9a2a-f2fa54f3ccf1))
  (pad "E6" smd circle (at -5.5 -6.5) (size 0.5 0.5) (property pad_prop_bga) (layers "F.Cu" "F.Paste" "F.Mask") (tstamp f835a3e9-fa79-475a-9e28-9e81f2352e00))
  (pad "E7" smd circle (at -4.5 -6.5) (size 0.5 0.5) (property pad_prop_bga) (layers "F.Cu" "F.Paste" "F.Mask") (tstamp a49d004e-b036-457d-b61d-d2aa28716be0))
  (pad "E8" smd circle (at -3.5 -6.5) (size 0.5 0.5) (property pad_prop_bga) (layers "F.Cu" "F.Paste" "F.Mask") (tstamp a8b9d279-5230-40fa-8b08-2237261d43d8))
  (pad "E9" smd circle (at -2.5 -6.5) (size 0.5 0.5) (property pad_prop_bga) (layers "F.Cu" "F.Paste" "F.Mask") (tstamp 9c56e0c0-db26-420d-be11-bc4d14d7e4af))
  (pad "E10" smd circle (at -1.5 -6.5) (size 0.5 0.5) (property pad_prop_bga) (layers "F.Cu" "F.Paste" "F.Mask") (tstamp a7675ac9-2cf7-49ff-88fe-fb6d71e0d99f))
  (pad "E11" smd circle (at -0.5 -6.5) (size 0.5 0.5) (property pad_prop_bga) (layers "F.Cu" "F.Paste" "F.Mask") (tstamp 4f617b8e-8ac1-4185-800f-3125eb999605))
  (pad "E12" smd circle (at 0.5 -6.5) (size 0.5 0.5) (property pad_prop_bga) (layers "F.Cu" "F.Paste" "F.Mask") (tstamp 1a3990ca-0fb0-423a-bead-f496ad42d9d5))
  (pad "E13" smd circle (at 1.5 -6.5) (size 0.5 0.5) (property pad_prop_bga) (layers "F.Cu" "F.Paste" "F.Mask") (tstamp ae36516f-5a34-47b3-bad0-ccb66ed8a021))
  (pad "E14" smd circle (at 2.5 -6.5) (size 0.5 0.5) (property pad_prop_bga) (layers "F.Cu" "F.Paste" "F.Mask") (tstamp 767403b9-d557-4e04-8c07-453d366b01bb))
  (pad "E15" smd circle (at 3.5 -6.5) (size 0.5 0.5) (property pad_prop_bga) (layers "F.Cu" "F.Paste" "F.Mask") (tstamp 07d4c9fe-fb06-4c94-bb53-d271721c56ba))
  (pad "E16" smd circle (at 4.5 -6.5) (size 0.5 0.5) (property pad_prop_bga) (layers "F.Cu" "F.Paste" "F.Mask") (tstamp fe89a765-519f-4c1d-8404-08860f101270))
  (pad "E17" smd circle (at 5.5 -6.5) (size 0.5 0.5) (property pad_prop_bga) (layers "F.Cu" "F.Paste" "F.Mask") (tstamp beecfd26-49b7-442c-834b-85783cb419a5))
  (pad "E18" smd circle (at 6.5 -6.5) (size 0.5 0.5) (property pad_prop_bga) (layers "F.Cu" "F.Paste" "F.Mask") (tstamp 5f4f348c-6a0c-498d-ae3d-1a0594594afe))
  (pad "E19" smd circle (at 7.5 -6.5) (size 0.5 0.5) (property pad_prop_bga) (layers "F.Cu" "F.Paste" "F.Mask") (tstamp 86887056-e3ac-4358-8a1a-6e64e2eca57e))
  (pad "E20" smd circle (at 8.5 -6.5) (size 0.5 0.5) (property pad_prop_bga) (layers "F.Cu" "F.Paste" "F.Mask") (tstamp e8a96d93-b668-476a-b698-f05597961afe))
  (pad "E21" smd circle (at 9.5 -6.5) (size 0.5 0.5) (property pad_prop_bga) (layers "F.Cu" "F.Paste" "F.Mask") (tstamp 79bdadc4-4323-41e7-bb59-32960ea19bf9))
  (pad "E22" smd circle (at 10.5 -6.5) (size 0.5 0.5) (property pad_prop_bga) (layers "F.Cu" "F.Paste" "F.Mask") (tstamp eca23931-cd92-4b20-a68b-66cbd21cdc34))
  (pad "F1" smd circle (at -10.5 -5.5) (size 0.5 0.5) (property pad_prop_bga) (layers "F.Cu" "F.Paste" "F.Mask") (tstamp b40dc61d-6bff-4ae6-b8e8-3136add84832))
  (pad "F2" smd circle (at -9.5 -5.5) (size 0.5 0.5) (property pad_prop_bga) (layers "F.Cu" "F.Paste" "F.Mask") (tstamp 9eae0ac4-63e5-4cd3-a65a-118453d24287))
  (pad "F3" smd circle (at -8.5 -5.5) (size 0.5 0.5) (property pad_prop_bga) (layers "F.Cu" "F.Paste" "F.Mask") (tstamp 725e4bfb-2dbe-449a-9aeb-94c67cb2d0c3))
  (pad "F4" smd circle (at -7.5 -5.5) (size 0.5 0.5) (property pad_prop_bga) (layers "F.Cu" "F.Paste" "F.Mask") (tstamp 99ad3c3f-fdc6-4957-b520-abdab7e30eb9))
  (pad "F5" smd circle (at -6.5 -5.5) (size 0.5 0.5) (property pad_prop_bga) (layers "F.Cu" "F.Paste" "F.Mask") (tstamp a7f38c69-0d6d-4973-84af-af5a97a0abcb))
  (pad "F6" smd circle (at -5.5 -5.5) (size 0.5 0.5) (property pad_prop_bga) (layers "F.Cu" "F.Paste" "F.Mask") (tstamp c33dc5af-a9d5-4454-add5-d822ad69f057))
  (pad "F7" smd circle (at -4.5 -5.5) (size 0.5 0.5) (property pad_prop_bga) (layers "F.Cu" "F.Paste" "F.Mask") (tstamp 0e61c17d-6d6b-4dd7-bbbf-9b140257ffe8))
  (pad "F8" smd circle (at -3.5 -5.5) (size 0.5 0.5) (property pad_prop_bga) (layers "F.Cu" "F.Paste" "F.Mask") (tstamp 6a567594-d2e6-414a-9c7a-0376ddc63e19))
  (pad "F9" smd circle (at -2.5 -5.5) (size 0.5 0.5) (property pad_prop_bga) (layers "F.Cu" "F.Paste" "F.Mask") (tstamp 98765617-2f45-4ab5-b483-fe3783930069))
  (pad "F10" smd circle (at -1.5 -5.5) (size 0.5 0.5) (property pad_prop_bga) (layers "F.Cu" "F.Paste" "F.Mask") (tstamp 8ef8eed8-1ff0-4c7b-962f-94a5035f8eee))
  (pad "F11" smd circle (at -0.5 -5.5) (size 0.5 0.5) (property pad_prop_bga) (layers "F.Cu" "F.Paste" "F.Mask") (tstamp 7dd38dd0-534b-45e2-a3d4-bd5ad7d1ed06))
  (pad "F12" smd circle (at 0.5 -5.5) (size 0.5 0.5) (property pad_prop_bga) (layers "F.Cu" "F.Paste" "F.Mask") (tstamp ad777c04-0f9c-46d9-a728-03e73e5f223a))
  (pad "F13" smd circle (at 1.5 -5.5) (size 0.5 0.5) (property pad_prop_bga) (layers "F.Cu" "F.Paste" "F.Mask") (tstamp ed32074e-dbc6-43af-8a23-819d6e146022))
  (pad "F14" smd circle (at 2.5 -5.5) (size 0.5 0.5) (property pad_prop_bga) (layers "F.Cu" "F.Paste" "F.Mask") (tstamp 1d61a037-440f-447f-b703-80e9e15a0e65))
  (pad "F15" smd circle (at 3.5 -5.5) (size 0.5 0.5) (property pad_prop_bga) (layers "F.Cu" "F.Paste" "F.Mask") (tstamp 4f3adb3e-09c5-4cd0-83d7-676566dec9a2))
  (pad "F16" smd circle (at 4.5 -5.5) (size 0.5 0.5) (property pad_prop_bga) (layers "F.Cu" "F.Paste" "F.Mask") (tstamp 993ee247-1bd0-4228-9990-bdf74d27eb17))
  (pad "F17" smd circle (at 5.5 -5.5) (size 0.5 0.5) (property pad_prop_bga) (layers "F.Cu" "F.Paste" "F.Mask") (tstamp e7a4ada7-3fb5-4e56-91e4-322e80e3b4c3))
  (pad "F18" smd circle (at 6.5 -5.5) (size 0.5 0.5) (property pad_prop_bga) (layers "F.Cu" "F.Paste" "F.Mask") (tstamp 9717f38e-1d89-490f-8bf8-d3fd8950ec4d))
  (pad "F19" smd circle (at 7.5 -5.5) (size 0.5 0.5) (property pad_prop_bga) (layers "F.Cu" "F.Paste" "F.Mask") (tstamp 6f2c240f-7ebb-464e-a661-234ed4cd69df))
  (pad "F20" smd circle (at 8.5 -5.5) (size 0.5 0.5) (property pad_prop_bga) (layers "F.Cu" "F.Paste" "F.Mask") (tstamp b6b37899-cf5d-4bb8-b9ce-78f99406e191))
  (pad "F21" smd circle (at 9.5 -5.5) (size 0.5 0.5) (property pad_prop_bga) (layers "F.Cu" "F.Paste" "F.Mask") (tstamp 36dbc02f-a6ed-47e8-8590-e6d9f7a36631))
  (pad "F22" smd circle (at 10.5 -5.5) (size 0.5 0.5) (property pad_prop_bga) (layers "F.Cu" "F.Paste" "F.Mask") (tstamp 7f7fa4b2-a33a-4cb9-b2cf-48466d6fc684))
  (pad "G1" smd circle (at -10.5 -4.5) (size 0.5 0.5) (property pad_prop_bga) (layers "F.Cu" "F.Paste" "F.Mask") (tstamp 26295b28-a569-4914-b76d-cf945f6ac620))
  (pad "G2" smd circle (at -9.5 -4.5) (size 0.5 0.5) (property pad_prop_bga) (layers "F.Cu" "F.Paste" "F.Mask") (tstamp f0a284d9-8d8c-4c6e-a4fb-7c3a82e5a4a8))
  (pad "G3" smd circle (at -8.5 -4.5) (size 0.5 0.5) (property pad_prop_bga) (layers "F.Cu" "F.Paste" "F.Mask") (tstamp a0bee814-f18e-4899-a39f-423a9a41428b))
  (pad "G4" smd circle (at -7.5 -4.5) (size 0.5 0.5) (property pad_prop_bga) (layers "F.Cu" "F.Paste" "F.Mask") (tstamp e36fb7fc-735c-4fee-915a-f68504638679))
  (pad "G5" smd circle (at -6.5 -4.5) (size 0.5 0.5) (property pad_prop_bga) (layers "F.Cu" "F.Paste" "F.Mask") (tstamp f5651468-79e3-4b28-9c1e-2bd1ff97b3af))
  (pad "G6" smd circle (at -5.5 -4.5) (size 0.5 0.5) (property pad_prop_bga) (layers "F.Cu" "F.Paste" "F.Mask") (tstamp 3dfc4f55-30d1-42cd-b532-577d713198cd))
  (pad "G7" smd circle (at -4.5 -4.5) (size 0.5 0.5) (property pad_prop_bga) (layers "F.Cu" "F.Paste" "F.Mask") (tstamp 3c7f5b03-64ed-4ec8-98a4-9478000cfe9c))
  (pad "G8" smd circle (at -3.5 -4.5) (size 0.5 0.5) (property pad_prop_bga) (layers "F.Cu" "F.Paste" "F.Mask") (tstamp aa27cef2-904d-478d-b4c7-d56cfa003219))
  (pad "G9" smd circle (at -2.5 -4.5) (size 0.5 0.5) (property pad_prop_bga) (layers "F.Cu" "F.Paste" "F.Mask") (tstamp 57ccf9a3-c0d0-4cb8-9977-73a55bb4fd51))
  (pad "G10" smd circle (at -1.5 -4.5) (size 0.5 0.5) (property pad_prop_bga) (layers "F.Cu" "F.Paste" "F.Mask") (tstamp 1a24007a-c797-459e-abe0-ea5a8630a645))
  (pad "G11" smd circle (at -0.5 -4.5) (size 0.5 0.5) (property pad_prop_bga) (layers "F.Cu" "F.Paste" "F.Mask") (tstamp 33ec8298-cedb-4e27-8394-b33d3c98fc3d))
  (pad "G12" smd circle (at 0.5 -4.5) (size 0.5 0.5) (property pad_prop_bga) (layers "F.Cu" "F.Paste" "F.Mask") (tstamp 27425298-38c8-417b-bad4-2b8334fe51e2))
  (pad "G13" smd circle (at 1.5 -4.5) (size 0.5 0.5) (property pad_prop_bga) (layers "F.Cu" "F.Paste" "F.Mask") (tstamp 04610031-7c57-471e-bc9e-bdfce1bbcde0))
  (pad "G14" smd circle (at 2.5 -4.5) (size 0.5 0.5) (property pad_prop_bga) (layers "F.Cu" "F.Paste" "F.Mask") (tstamp 0c964a06-c8eb-4f0b-be66-f63b90e3aecf))
  (pad "G15" smd circle (at 3.5 -4.5) (size 0.5 0.5) (property pad_prop_bga) (layers "F.Cu" "F.Paste" "F.Mask") (tstamp b6eba6e0-9dbe-4056-9509-078eb93f4757))
  (pad "G16" smd circle (at 4.5 -4.5) (size 0.5 0.5) (property pad_prop_bga) (layers "F.Cu" "F.Paste" "F.Mask") (tstamp 13772b86-b778-40e5-bdc2-ab87f6b9e2c7))
  (pad "G17" smd circle (at 5.5 -4.5) (size 0.5 0.5) (property pad_prop_bga) (layers "F.Cu" "F.Paste" "F.Mask") (tstamp b41d5582-0ad2-43a8-a05e-386f8d49e7f9))
  (pad "G18" smd circle (at 6.5 -4.5) (size 0.5 0.5) (property pad_prop_bga) (layers "F.Cu" "F.Paste" "F.Mask") (tstamp 36e6d672-480b-4ebf-9939-d70c8bf6861d))
  (pad "G19" smd circle (at 7.5 -4.5) (size 0.5 0.5) (property pad_prop_bga) (layers "F.Cu" "F.Paste" "F.Mask") (tstamp 0b3a3cef-ff00-4284-82ba-0de6f341630b))
  (pad "G20" smd circle (at 8.5 -4.5) (size 0.5 0.5) (property pad_prop_bga) (layers "F.Cu" "F.Paste" "F.Mask") (tstamp c0cd3fa6-fb51-428d-8889-1e71404190f4))
  (pad "G21" smd circle (at 9.5 -4.5) (size 0.5 0.5) (property pad_prop_bga) (layers "F.Cu" "F.Paste" "F.Mask") (tstamp a83823cf-6b16-4b59-a4a3-e3ebf762bf42))
  (pad "G22" smd circle (at 10.5 -4.5) (size 0.5 0.5) (property pad_prop_bga) (layers "F.Cu" "F.Paste" "F.Mask") (tstamp a07323c0-f0a4-4e1d-9453-4c11371663ed))
  (pad "H1" smd circle (at -10.5 -3.5) (size 0.5 0.5) (property pad_prop_bga) (layers "F.Cu" "F.Paste" "F.Mask") (tstamp 904c6fd8-dd41-4f8d-95ab-bcbe32945308))
  (pad "H2" smd circle (at -9.5 -3.5) (size 0.5 0.5) (property pad_prop_bga) (layers "F.Cu" "F.Paste" "F.Mask") (tstamp 4b9d12ee-c967-4d65-ab17-0072bfd8e06e))
  (pad "H3" smd circle (at -8.5 -3.5) (size 0.5 0.5) (property pad_prop_bga) (layers "F.Cu" "F.Paste" "F.Mask") (tstamp 78196a75-2d80-4ce9-a3bc-35df5a921267))
  (pad "H4" smd circle (at -7.5 -3.5) (size 0.5 0.5) (property pad_prop_bga) (layers "F.Cu" "F.Paste" "F.Mask") (tstamp 04e98349-7fc0-4629-8a42-933b8176ed9c))
  (pad "H5" smd circle (at -6.5 -3.5) (size 0.5 0.5) (property pad_prop_bga) (layers "F.Cu" "F.Paste" "F.Mask") (tstamp 177f7897-5f69-48aa-8592-eb57f88d798a))
  (pad "H6" smd circle (at -5.5 -3.5) (size 0.5 0.5) (property pad_prop_bga) (layers "F.Cu" "F.Paste" "F.Mask") (tstamp ed33f479-78d9-46d3-bc7d-0ef5df528fde))
  (pad "H7" smd circle (at -4.5 -3.5) (size 0.5 0.5) (property pad_prop_bga) (layers "F.Cu" "F.Paste" "F.Mask") (tstamp 986121f5-1de0-40c6-ad06-603d2732a1a6))
  (pad "H8" smd circle (at -3.5 -3.5) (size 0.5 0.5) (property pad_prop_bga) (layers "F.Cu" "F.Paste" "F.Mask") (tstamp 7cd900aa-42c2-4b29-8e46-4f59ad72d2b6))
  (pad "H9" smd circle (at -2.5 -3.5) (size 0.5 0.5) (property pad_prop_bga) (layers "F.Cu" "F.Paste" "F.Mask") (tstamp 2a2f0482-f271-4b1f-94eb-66bf9bcc92ae))
  (pad "H10" smd circle (at -1.5 -3.5) (size 0.5 0.5) (property pad_prop_bga) (layers "F.Cu" "F.Paste" "F.Mask") (tstamp 3bd2c6b3-9d0f-42c1-a28b-a8b2e64fd5ae))
  (pad "H11" smd circle (at -0.5 -3.5) (size 0.5 0.5) (property pad_prop_bga) (layers "F.Cu" "F.Paste" "F.Mask") (tstamp 6884f6ef-1fb2-40c1-9f0a-2775d038f00b))
  (pad "H12" smd circle (at 0.5 -3.5) (size 0.5 0.5) (property pad_prop_bga) (layers "F.Cu" "F.Paste" "F.Mask") (tstamp 17771248-aa11-4f1f-ae23-ef5e21a27735))
  (pad "H13" smd circle (at 1.5 -3.5) (size 0.5 0.5) (property pad_prop_bga) (layers "F.Cu" "F.Paste" "F.Mask") (tstamp 3bb77d82-3717-4dd4-9158-e1120f6cc26c))
  (pad "H14" smd circle (at 2.5 -3.5) (size 0.5 0.5) (property pad_prop_bga) (layers "F.Cu" "F.Paste" "F.Mask") (tstamp d33613ed-90a3-4759-87d8-d595c6b054f0))
  (pad "H15" smd circle (at 3.5 -3.5) (size 0.5 0.5) (property pad_prop_bga) (layers "F.Cu" "F.Paste" "F.Mask") (tstamp 0017941c-ecb4-4ff4-b134-3d1a5bd50767))
  (pad "H16" smd circle (at 4.5 -3.5) (size 0.5 0.5) (property pad_prop_bga) (layers "F.Cu" "F.Paste" "F.Mask") (tstamp c07c98e5-7d02-4388-b165-bc25767dbef2))
  (pad "H17" smd circle (at 5.5 -3.5) (size 0.5 0.5) (property pad_prop_bga) (layers "F.Cu" "F.Paste" "F.Mask") (tstamp 812f6ba0-bdaf-490e-ada3-8c484d806776))
  (pad "H18" smd circle (at 6.5 -3.5) (size 0.5 0.5) (property pad_prop_bga) (layers "F.Cu" "F.Paste" "F.Mask") (tstamp ac5270a3-82df-4106-ae09-4ad489a787e1))
  (pad "H19" smd circle (at 7.5 -3.5) (size 0.5 0.5) (property pad_prop_bga) (layers "F.Cu" "F.Paste" "F.Mask") (tstamp 54400315-54bb-4fb3-9b9f-9ef16b6be188))
  (pad "H20" smd circle (at 8.5 -3.5) (size 0.5 0.5) (property pad_prop_bga) (layers "F.Cu" "F.Paste" "F.Mask") (tstamp b7458165-f305-4690-bb5a-94920fcf5a98))
  (pad "H21" smd circle (at 9.5 -3.5) (size 0.5 0.5) (property pad_prop_bga) (layers "F.Cu" "F.Paste" "F.Mask") (tstamp ac94c43a-8043-429e-b61b-e604ae556718))
  (pad "H22" smd circle (at 10.5 -3.5) (size 0.5 0.5) (property pad_prop_bga) (layers "F.Cu" "F.Paste" "F.Mask") (tstamp d9d7ade7-2c8c-4871-b074-6ad0e1cb7039))
  (pad "J1" smd circle (at -10.5 -2.5) (size 0.5 0.5) (property pad_prop_bga) (layers "F.Cu" "F.Paste" "F.Mask") (tstamp 0576c857-2935-4942-afd1-eec57abcff71))
  (pad "J2" smd circle (at -9.5 -2.5) (size 0.5 0.5) (property pad_prop_bga) (layers "F.Cu" "F.Paste" "F.Mask") (tstamp 98c5a2d6-3eb7-4b99-a633-395e1322aa40))
  (pad "J3" smd circle (at -8.5 -2.5) (size 0.5 0.5) (property pad_prop_bga) (layers "F.Cu" "F.Paste" "F.Mask") (tstamp 6df9ed8c-0e82-40fa-842d-53deee8607c2))
  (pad "J4" smd circle (at -7.5 -2.5) (size 0.5 0.5) (property pad_prop_bga) (layers "F.Cu" "F.Paste" "F.Mask") (tstamp d3f7b80c-d8ed-49c7-b43d-03a017a7832f))
  (pad "J5" smd circle (at -6.5 -2.5) (size 0.5 0.5) (property pad_prop_bga) (layers "F.Cu" "F.Paste" "F.Mask") (tstamp f1471024-2a79-49ab-863a-78eab70323d3))
  (pad "J6" smd circle (at -5.5 -2.5) (size 0.5 0.5) (property pad_prop_bga) (layers "F.Cu" "F.Paste" "F.Mask") (tstamp 5d79ff4e-f3f9-4a8d-a42c-9289d2418fd7))
  (pad "J7" smd circle (at -4.5 -2.5) (size 0.5 0.5) (property pad_prop_bga) (layers "F.Cu" "F.Paste" "F.Mask") (tstamp ec9cd3ee-ff3d-4860-b690-6d2103416e7e))
  (pad "J8" smd circle (at -3.5 -2.5) (size 0.5 0.5) (property pad_prop_bga) (layers "F.Cu" "F.Paste" "F.Mask") (tstamp c16f6437-1190-446d-b2cb-2f46c3ac240a))
  (pad "J9" smd circle (at -2.5 -2.5) (size 0.5 0.5) (property pad_prop_bga) (layers "F.Cu" "F.Paste" "F.Mask") (tstamp 5ac3cd83-17f4-455b-8491-4af460b2894a))
  (pad "J10" smd circle (at -1.5 -2.5) (size 0.5 0.5) (property pad_prop_bga) (layers "F.Cu" "F.Paste" "F.Mask") (tstamp 735da2ec-aca6-4629-b2c6-e84157876370))
  (pad "J11" smd circle (at -0.5 -2.5) (size 0.5 0.5) (property pad_prop_bga) (layers "F.Cu" "F.Paste" "F.Mask") (tstamp 752645a7-bf70-4d7d-a92d-2e368b9019e3))
  (pad "J12" smd circle (at 0.5 -2.5) (size 0.5 0.5) (property pad_prop_bga) (layers "F.Cu" "F.Paste" "F.Mask") (tstamp 2e1895e9-1a1a-4ec9-8cb2-6c4d9f942787))
  (pad "J13" smd circle (at 1.5 -2.5) (size 0.5 0.5) (property pad_prop_bga) (layers "F.Cu" "F.Paste" "F.Mask") (tstamp ea6cb273-1cad-4a0c-8237-59284cf5b25d))
  (pad "J14" smd circle (at 2.5 -2.5) (size 0.5 0.5) (property pad_prop_bga) (layers "F.Cu" "F.Paste" "F.Mask") (tstamp 5f11b015-9a3e-44b3-b714-e7227105ce66))
  (pad "J15" smd circle (at 3.5 -2.5) (size 0.5 0.5) (property pad_prop_bga) (layers "F.Cu" "F.Paste" "F.Mask") (tstamp b022fcfa-1009-4e1e-a498-77037ab569a8))
  (pad "J16" smd circle (at 4.5 -2.5) (size 0.5 0.5) (property pad_prop_bga) (layers "F.Cu" "F.Paste" "F.Mask") (tstamp 4626de7e-034a-44eb-8fa8-1a2913f35be6))
  (pad "J17" smd circle (at 5.5 -2.5) (size 0.5 0.5) (property pad_prop_bga) (layers "F.Cu" "F.Paste" "F.Mask") (tstamp 906d125b-7379-4d14-9bd4-c2fa8dca4b54))
  (pad "J18" smd circle (at 6.5 -2.5) (size 0.5 0.5) (property pad_prop_bga) (layers "F.Cu" "F.Paste" "F.Mask") (tstamp 349c6e88-4245-4a43-9155-4c359cec6543))
  (pad "J19" smd circle (at 7.5 -2.5) (size 0.5 0.5) (property pad_prop_bga) (layers "F.Cu" "F.Paste" "F.Mask") (tstamp 37bd8fbc-7fc1-4fbc-a42c-9c943e5cfa09))
  (pad "J20" smd circle (at 8.5 -2.5) (size 0.5 0.5) (property pad_prop_bga) (layers "F.Cu" "F.Paste" "F.Mask") (tstamp 2ea421e7-e2f3-45df-996f-8988abddf0d5))
  (pad "J21" smd circle (at 9.5 -2.5) (size 0.5 0.5) (property pad_prop_bga) (layers "F.Cu" "F.Paste" "F.Mask") (tstamp d67d572b-d8f3-45cc-9281-97d8cd1d6faa))
  (pad "J22" smd circle (at 10.5 -2.5) (size 0.5 0.5) (property pad_prop_bga) (layers "F.Cu" "F.Paste" "F.Mask") (tstamp 31c3f1fb-b4d6-4fc3-9d3e-2beeeb451cb8))
  (pad "K1" smd circle (at -10.5 -1.5) (size 0.5 0.5) (property pad_prop_bga) (layers "F.Cu" "F.Paste" "F.Mask") (tstamp c6b2da5c-9aaa-46e7-a35e-3da20c64761f))
  (pad "K2" smd circle (at -9.5 -1.5) (size 0.5 0.5) (property pad_prop_bga) (layers "F.Cu" "F.Paste" "F.Mask") (tstamp 0098f5f8-7029-47f2-87da-b12924565818))
  (pad "K3" smd circle (at -8.5 -1.5) (size 0.5 0.5) (property pad_prop_bga) (layers "F.Cu" "F.Paste" "F.Mask") (tstamp e7ac4c76-1f92-47a7-a717-0d219b1c5cdc))
  (pad "K4" smd circle (at -7.5 -1.5) (size 0.5 0.5) (property pad_prop_bga) (layers "F.Cu" "F.Paste" "F.Mask") (tstamp ea0e9a83-159d-4b70-a29b-6d06b33e9e9a))
  (pad "K5" smd circle (at -6.5 -1.5) (size 0.5 0.5) (property pad_prop_bga) (layers "F.Cu" "F.Paste" "F.Mask") (tstamp 4ff56021-00a2-446b-9751-7e79ac07f49d))
  (pad "K6" smd circle (at -5.5 -1.5) (size 0.5 0.5) (property pad_prop_bga) (layers "F.Cu" "F.Paste" "F.Mask") (tstamp 8070046f-2a40-4033-a870-5cbbe40c929a))
  (pad "K7" smd circle (at -4.5 -1.5) (size 0.5 0.5) (property pad_prop_bga) (layers "F.Cu" "F.Paste" "F.Mask") (tstamp b7e2f714-11d4-4199-82c2-c4c0a173974c))
  (pad "K8" smd circle (at -3.5 -1.5) (size 0.5 0.5) (property pad_prop_bga) (layers "F.Cu" "F.Paste" "F.Mask") (tstamp 43d4a854-1c53-4ae1-8189-058fb2e72b47))
  (pad "K9" smd circle (at -2.5 -1.5) (size 0.5 0.5) (property pad_prop_bga) (layers "F.Cu" "F.Paste" "F.Mask") (tstamp 628fa972-d6a0-4fe2-ac32-c37ff23843be))
  (pad "K10" smd circle (at -1.5 -1.5) (size 0.5 0.5) (property pad_prop_bga) (layers "F.Cu" "F.Paste" "F.Mask") (tstamp 1e2cf107-b134-4368-a2cb-4c708d571f90))
  (pad "K11" smd circle (at -0.5 -1.5) (size 0.5 0.5) (property pad_prop_bga) (layers "F.Cu" "F.Paste" "F.Mask") (tstamp 4b17ab53-acff-42d8-abb8-04c7f6cbe7e0))
  (pad "K12" smd circle (at 0.5 -1.5) (size 0.5 0.5) (property pad_prop_bga) (layers "F.Cu" "F.Paste" "F.Mask") (tstamp 42d9a31b-b2c1-488c-a02c-bc7be5bc11f0))
  (pad "K13" smd circle (at 1.5 -1.5) (size 0.5 0.5) (property pad_prop_bga) (layers "F.Cu" "F.Paste" "F.Mask") (tstamp 2d1b65ff-359e-494e-89e2-9eadc0ea0ebd))
  (pad "K14" smd circle (at 2.5 -1.5) (size 0.5 0.5) (property pad_prop_bga) (layers "F.Cu" "F.Paste" "F.Mask") (tstamp c6a9e4b6-d324-489b-b30e-948c81777873))
  (pad "K15" smd circle (at 3.5 -1.5) (size 0.5 0.5) (property pad_prop_bga) (layers "F.Cu" "F.Paste" "F.Mask") (tstamp cf104ab2-6ee0-4e0c-a031-93b8e5f5f898))
  (pad "K16" smd circle (at 4.5 -1.5) (size 0.5 0.5) (property pad_prop_bga) (layers "F.Cu" "F.Paste" "F.Mask") (tstamp 6c47c710-e64b-4461-ad53-10194c024b89))
  (pad "K17" smd circle (at 5.5 -1.5) (size 0.5 0.5) (property pad_prop_bga) (layers "F.Cu" "F.Paste" "F.Mask") (tstamp bde7d089-2e16-4007-841f-d6573c9dbf9d))
  (pad "K18" smd circle (at 6.5 -1.5) (size 0.5 0.5) (property pad_prop_bga) (layers "F.Cu" "F.Paste" "F.Mask") (tstamp 283fa4e1-77bb-4a40-a57a-e5cb9e784a51))
  (pad "K19" smd circle (at 7.5 -1.5) (size 0.5 0.5) (property pad_prop_bga) (layers "F.Cu" "F.Paste" "F.Mask") (tstamp da4edba0-3153-436d-a344-4663bf1f622e))
  (pad "K20" smd circle (at 8.5 -1.5) (size 0.5 0.5) (property pad_prop_bga) (layers "F.Cu" "F.Paste" "F.Mask") (tstamp df69aecb-846f-4d4b-a6d4-423a1882baf1))
  (pad "K21" smd circle (at 9.5 -1.5) (size 0.5 0.5) (property pad_prop_bga) (layers "F.Cu" "F.Paste" "F.Mask") (tstamp 88f236f9-cfb1-4fe6-9489-7bb822b6e1e5))
  (pad "K22" smd circle (at 10.5 -1.5) (size 0.5 0.5) (property pad_prop_bga) (layers "F.Cu" "F.Paste" "F.Mask") (tstamp 0d8e5d66-7772-4402-9c52-7fe7e7fc8eee))
  (pad "L1" smd circle (at -10.5 -0.5) (size 0.5 0.5) (property pad_prop_bga) (layers "F.Cu" "F.Paste" "F.Mask") (tstamp abf55bc1-c1d8-4ceb-a190-09e023618c14))
  (pad "L2" smd circle (at -9.5 -0.5) (size 0.5 0.5) (property pad_prop_bga) (layers "F.Cu" "F.Paste" "F.Mask") (tstamp 1a4fb2bf-2377-4822-9ec2-34a91606e651))
  (pad "L3" smd circle (at -8.5 -0.5) (size 0.5 0.5) (property pad_prop_bga) (layers "F.Cu" "F.Paste" "F.Mask") (tstamp 24de2ea3-7a62-4c12-912b-b3c641ee876c))
  (pad "L4" smd circle (at -7.5 -0.5) (size 0.5 0.5) (property pad_prop_bga) (layers "F.Cu" "F.Paste" "F.Mask") (tstamp 6b4b0270-67b2-4e7b-98dc-93cdcf855a6a))
  (pad "L5" smd circle (at -6.5 -0.5) (size 0.5 0.5) (property pad_prop_bga) (layers "F.Cu" "F.Paste" "F.Mask") (tstamp 0e0f4248-a139-46ce-b60c-670f95ea6c38))
  (pad "L6" smd circle (at -5.5 -0.5) (size 0.5 0.5) (property pad_prop_bga) (layers "F.Cu" "F.Paste" "F.Mask") (tstamp 17e2b946-a9d5-47d6-9084-f73940be848a))
  (pad "L7" smd circle (at -4.5 -0.5) (size 0.5 0.5) (property pad_prop_bga) (layers "F.Cu" "F.Paste" "F.Mask") (tstamp b0223ccf-1709-4de7-ac92-726ff7867f65))
  (pad "L8" smd circle (at -3.5 -0.5) (size 0.5 0.5) (property pad_prop_bga) (layers "F.Cu" "F.Paste" "F.Mask") (tstamp d52772e7-2c50-4c11-98b9-488880faaa34))
  (pad "L9" smd circle (at -2.5 -0.5) (size 0.5 0.5) (property pad_prop_bga) (layers "F.Cu" "F.Paste" "F.Mask") (tstamp 824c77c1-ac18-46ad-a172-99c9267c2f09))
  (pad "L10" smd circle (at -1.5 -0.5) (size 0.5 0.5) (property pad_prop_bga) (layers "F.Cu" "F.Paste" "F.Mask") (tstamp 1af0332d-dc28-4437-aa69-521c4cf9ebea))
  (pad "L11" smd circle (at -0.5 -0.5) (size 0.5 0.5) (property pad_prop_bga) (layers "F.Cu" "F.Paste" "F.Mask") (tstamp 91518a58-b58f-4c93-8682-010549ad0c67))
  (pad "L12" smd circle (at 0.5 -0.5) (size 0.5 0.5) (property pad_prop_bga) (layers "F.Cu" "F.Paste" "F.Mask") (tstamp 660a502e-e5ac-4ef3-84c5-2562ab4d5cf7))
  (pad "L13" smd circle (at 1.5 -0.5) (size 0.5 0.5) (property pad_prop_bga) (layers "F.Cu" "F.Paste" "F.Mask") (tstamp 53539bc4-c0fd-40b5-87f3-777c4ffb0d23))
  (pad "L14" smd circle (at 2.5 -0.5) (size 0.5 0.5) (property pad_prop_bga) (layers "F.Cu" "F.Paste" "F.Mask") (tstamp 8a9091b0-7bc6-4b11-a0a7-05771f9103fa))
  (pad "L15" smd circle (at 3.5 -0.5) (size 0.5 0.5) (property pad_prop_bga) (layers "F.Cu" "F.Paste" "F.Mask") (tstamp 42ce0e86-e9c8-40a3-bfba-83f458e27f27))
  (pad "L16" smd circle (at 4.5 -0.5) (size 0.5 0.5) (property pad_prop_bga) (layers "F.Cu" "F.Paste" "F.Mask") (tstamp 207da4c5-24b8-464e-8680-64f633f743a3))
  (pad "L17" smd circle (at 5.5 -0.5) (size 0.5 0.5) (property pad_prop_bga) (layers "F.Cu" "F.Paste" "F.Mask") (tstamp ccf602f6-8e88-4764-b2ca-703af69f5119))
  (pad "L18" smd circle (at 6.5 -0.5) (size 0.5 0.5) (property pad_prop_bga) (layers "F.Cu" "F.Paste" "F.Mask") (tstamp 553ac0ef-e995-4e07-bbef-aa1661c2d2d9))
  (pad "L19" smd circle (at 7.5 -0.5) (size 0.5 0.5) (property pad_prop_bga) (layers "F.Cu" "F.Paste" "F.Mask") (tstamp e129533a-efd0-415f-a9d9-45bbdd04ede7))
  (pad "L20" smd circle (at 8.5 -0.5) (size 0.5 0.5) (property pad_prop_bga) (layers "F.Cu" "F.Paste" "F.Mask") (tstamp 0dd54d12-de22-4818-a671-2d0f24e80b78))
  (pad "L21" smd circle (at 9.5 -0.5) (size 0.5 0.5) (property pad_prop_bga) (layers "F.Cu" "F.Paste" "F.Mask") (tstamp 9844d25a-f0f0-4dcc-920a-f7bb65add073))
  (pad "L22" smd circle (at 10.5 -0.5) (size 0.5 0.5) (property pad_prop_bga) (layers "F.Cu" "F.Paste" "F.Mask") (tstamp 52c57736-492d-467e-80ce-79fef4c0b6a1))
  (pad "M1" smd circle (at -10.5 0.5) (size 0.5 0.5) (property pad_prop_bga) (layers "F.Cu" "F.Paste" "F.Mask") (tstamp 10a49149-e1e2-4b74-936d-224313df5693))
  (pad "M2" smd circle (at -9.5 0.5) (size 0.5 0.5) (property pad_prop_bga) (layers "F.Cu" "F.Paste" "F.Mask") (tstamp ce53bb3c-ff0c-43ea-acfb-30608dd203cc))
  (pad "M3" smd circle (at -8.5 0.5) (size 0.5 0.5) (property pad_prop_bga) (layers "F.Cu" "F.Paste" "F.Mask") (tstamp 268793b4-ed28-4acc-934b-47595c3849b2))
  (pad "M4" smd circle (at -7.5 0.5) (size 0.5 0.5) (property pad_prop_bga) (layers "F.Cu" "F.Paste" "F.Mask") (tstamp 96ef51ef-7f71-4b72-8ca7-c0c971afa946))
  (pad "M5" smd circle (at -6.5 0.5) (size 0.5 0.5) (property pad_prop_bga) (layers "F.Cu" "F.Paste" "F.Mask") (tstamp 638e488a-00f4-4aa8-8095-9156a1662aad))
  (pad "M6" smd circle (at -5.5 0.5) (size 0.5 0.5) (property pad_prop_bga) (layers "F.Cu" "F.Paste" "F.Mask") (tstamp 7df18b66-7150-4cb3-980c-988d6b281c09))
  (pad "M7" smd circle (at -4.5 0.5) (size 0.5 0.5) (property pad_prop_bga) (layers "F.Cu" "F.Paste" "F.Mask") (tstamp 7cf1ca4a-fe95-4250-8f01-4140839e7d18))
  (pad "M8" smd circle (at -3.5 0.5) (size 0.5 0.5) (property pad_prop_bga) (layers "F.Cu" "F.Paste" "F.Mask") (tstamp ffbdc10f-33ce-4371-9f91-f020c001d292))
  (pad "M9" smd circle (at -2.5 0.5) (size 0.5 0.5) (property pad_prop_bga) (layers "F.Cu" "F.Paste" "F.Mask") (tstamp 3d7cb1f1-76dc-4268-bd21-86d406adf367))
  (pad "M10" smd circle (at -1.5 0.5) (size 0.5 0.5) (property pad_prop_bga) (layers "F.Cu" "F.Paste" "F.Mask") (tstamp c9d23819-9b47-4573-9c91-1c5ceaa17899))
  (pad "M11" smd circle (at -0.5 0.5) (size 0.5 0.5) (property pad_prop_bga) (layers "F.Cu" "F.Paste" "F.Mask") (tstamp f6bbc0a7-8f75-43b7-a59b-115384f7d98d))
  (pad "M12" smd circle (at 0.5 0.5) (size 0.5 0.5) (property pad_prop_bga) (layers "F.Cu" "F.Paste" "F.Mask") (tstamp 33e09895-672f-4f5c-8f6b-4dad159ae71e))
  (pad "M13" smd circle (at 1.5 0.5) (size 0.5 0.5) (property pad_prop_bga) (layers "F.Cu" "F.Paste" "F.Mask") (tstamp cfc4c9f8-5d66-4553-a82d-0cadd6cee50d))
  (pad "M14" smd circle (at 2.5 0.5) (size 0.5 0.5) (property pad_prop_bga) (layers "F.Cu" "F.Paste" "F.Mask") (tstamp 6ee5b8b2-ec28-4569-ab46-797cc44213bb))
  (pad "M15" smd circle (at 3.5 0.5) (size 0.5 0.5) (property pad_prop_bga) (layers "F.Cu" "F.Paste" "F.Mask") (tstamp e79a372a-5c20-4aad-8d0e-f1de45f48dc3))
  (pad "M16" smd circle (at 4.5 0.5) (size 0.5 0.5) (property pad_prop_bga) (layers "F.Cu" "F.Paste" "F.Mask") (tstamp 8d86e8ba-ea6e-4716-b704-26976ea6e1c3))
  (pad "M17" smd circle (at 5.5 0.5) (size 0.5 0.5) (property pad_prop_bga) (layers "F.Cu" "F.Paste" "F.Mask") (tstamp 49353737-8100-4824-9cf2-cbfc01207642))
  (pad "M18" smd circle (at 6.5 0.5) (size 0.5 0.5) (property pad_prop_bga) (layers "F.Cu" "F.Paste" "F.Mask") (tstamp 30c8d9f5-c728-43d0-9d2e-27a155ec5257))
  (pad "M19" smd circle (at 7.5 0.5) (size 0.5 0.5) (property pad_prop_bga) (layers "F.Cu" "F.Paste" "F.Mask") (tstamp 851a9575-9d7e-49dc-8f5b-efdae31f243e))
  (pad "M20" smd circle (at 8.5 0.5) (size 0.5 0.5) (property pad_prop_bga) (layers "F.Cu" "F.Paste" "F.Mask") (tstamp 08c310ce-bb3d-4432-b1a6-fc8799d8f64f))
  (pad "M21" smd circle (at 9.5 0.5) (size 0.5 0.5) (property pad_prop_bga) (layers "F.Cu" "F.Paste" "F.Mask") (tstamp f14aeee5-0313-49a6-b5b7-867425d1f6f7))
  (pad "M22" smd circle (at 10.5 0.5) (size 0.5 0.5) (property pad_prop_bga) (layers "F.Cu" "F.Paste" "F.Mask") (tstamp bf365cdc-efcc-4e4b-941c-f8ecd72e5613))
  (pad "N1" smd circle (at -10.5 1.5) (size 0.5 0.5) (property pad_prop_bga) (layers "F.Cu" "F.Paste" "F.Mask") (tstamp 2462c671-eece-4268-8e2e-e77cebc96dd6))
  (pad "N2" smd circle (at -9.5 1.5) (size 0.5 0.5) (property pad_prop_bga) (layers "F.Cu" "F.Paste" "F.Mask") (tstamp d6ea0aae-699a-4009-b95c-37aff2ddeb59))
  (pad "N3" smd circle (at -8.5 1.5) (size 0.5 0.5) (property pad_prop_bga) (layers "F.Cu" "F.Paste" "F.Mask") (tstamp 4e5e475e-33aa-499c-a8dd-5868c504ff2b))
  (pad "N4" smd circle (at -7.5 1.5) (size 0.5 0.5) (property pad_prop_bga) (layers "F.Cu" "F.Paste" "F.Mask") (tstamp 2a7eb9bc-c03c-4c82-b126-e83ed529e9d7))
  (pad "N5" smd circle (at -6.5 1.5) (size 0.5 0.5) (property pad_prop_bga) (layers "F.Cu" "F.Paste" "F.Mask") (tstamp 2e84ebec-678f-4e1e-bb2e-8093d843b9ec))
  (pad "N6" smd circle (at -5.5 1.5) (size 0.5 0.5) (property pad_prop_bga) (layers "F.Cu" "F.Paste" "F.Mask") (tstamp e78190ee-21b3-4bca-9dd3-f06e3d670a86))
  (pad "N7" smd circle (at -4.5 1.5) (size 0.5 0.5) (property pad_prop_bga) (layers "F.Cu" "F.Paste" "F.Mask") (tstamp d15fc2d0-3108-4b75-8437-b4dbe19ae137))
  (pad "N8" smd circle (at -3.5 1.5) (size 0.5 0.5) (property pad_prop_bga) (layers "F.Cu" "F.Paste" "F.Mask") (tstamp 96bf85d5-073d-4c74-8776-d64dba9213dd))
  (pad "N9" smd circle (at -2.5 1.5) (size 0.5 0.5) (property pad_prop_bga) (layers "F.Cu" "F.Paste" "F.Mask") (tstamp 36e41443-955f-4829-907f-2d74fcb1ac4d))
  (pad "N10" smd circle (at -1.5 1.5) (size 0.5 0.5) (property pad_prop_bga) (layers "F.Cu" "F.Paste" "F.Mask") (tstamp aa6b6574-8aa2-4a23-8c92-ae5d710b8c62))
  (pad "N11" smd circle (at -0.5 1.5) (size 0.5 0.5) (property pad_prop_bga) (layers "F.Cu" "F.Paste" "F.Mask") (tstamp f34842c7-0cb7-4fea-a56f-ef4228a7de07))
  (pad "N12" smd circle (at 0.5 1.5) (size 0.5 0.5) (property pad_prop_bga) (layers "F.Cu" "F.Paste" "F.Mask") (tstamp 2c3e7db5-4679-4291-a779-91e52c3e663e))
  (pad "N13" smd circle (at 1.5 1.5) (size 0.5 0.5) (property pad_prop_bga) (layers "F.Cu" "F.Paste" "F.Mask") (tstamp 04a39746-63be-4894-aee5-5619a4c4015a))
  (pad "N14" smd circle (at 2.5 1.5) (size 0.5 0.5) (property pad_prop_bga) (layers "F.Cu" "F.Paste" "F.Mask") (tstamp 124482fb-c873-412b-abf1-e715ccb7307a))
  (pad "N15" smd circle (at 3.5 1.5) (size 0.5 0.5) (property pad_prop_bga) (layers "F.Cu" "F.Paste" "F.Mask") (tstamp 77cf5f8a-a97b-4c64-90e8-36714b295e87))
  (pad "N16" smd circle (at 4.5 1.5) (size 0.5 0.5) (property pad_prop_bga) (layers "F.Cu" "F.Paste" "F.Mask") (tstamp 12406ebb-bd65-4c1b-a578-774589485c30))
  (pad "N17" smd circle (at 5.5 1.5) (size 0.5 0.5) (property pad_prop_bga) (layers "F.Cu" "F.Paste" "F.Mask") (tstamp 7f8f186f-26fc-4916-bf7b-33a90aaeb626))
  (pad "N18" smd circle (at 6.5 1.5) (size 0.5 0.5) (property pad_prop_bga) (layers "F.Cu" "F.Paste" "F.Mask") (tstamp b8837b60-4f97-4e8e-a6ac-eb0742a2d30c))
  (pad "N19" smd circle (at 7.5 1.5) (size 0.5 0.5) (property pad_prop_bga) (layers "F.Cu" "F.Paste" "F.Mask") (tstamp 7f4fcb19-3351-46b2-a652-e02dcfa79511))
  (pad "N20" smd circle (at 8.5 1.5) (size 0.5 0.5) (property pad_prop_bga) (layers "F.Cu" "F.Paste" "F.Mask") (tstamp e635e103-5038-4ebc-aadd-ed7cfe76935a))
  (pad "N21" smd circle (at 9.5 1.5) (size 0.5 0.5) (property pad_prop_bga) (layers "F.Cu" "F.Paste" "F.Mask") (tstamp 610d9d76-fffa-4fd0-b61e-6d579f47d326))
  (pad "N22" smd circle (at 10.5 1.5) (size 0.5 0.5) (property pad_prop_bga) (layers "F.Cu" "F.Paste" "F.Mask") (tstamp 082440bc-25c0-4391-a2f7-e68693bb9a64))
  (pad "P1" smd circle (at -10.5 2.5) (size 0.5 0.5) (property pad_prop_bga) (layers "F.Cu" "F.Paste" "F.Mask") (tstamp 79b67ee5-8fe1-4b12-af11-1ce719ea2292))
  (pad "P2" smd circle (at -9.5 2.5) (size 0.5 0.5) (property pad_prop_bga) (layers "F.Cu" "F.Paste" "F.Mask") (tstamp c446a42e-93fc-4761-98ac-f0aab8066e3e))
  (pad "P3" smd circle (at -8.5 2.5) (size 0.5 0.5) (property pad_prop_bga) (layers "F.Cu" "F.Paste" "F.Mask") (tstamp e83aac61-19ad-4e80-9c8b-791b2823553d))
  (pad "P4" smd circle (at -7.5 2.5) (size 0.5 0.5) (property pad_prop_bga) (layers "F.Cu" "F.Paste" "F.Mask") (tstamp 1cf236a6-ccf8-4d09-b612-9a6e234a246a))
  (pad "P5" smd circle (at -6.5 2.5) (size 0.5 0.5) (property pad_prop_bga) (layers "F.Cu" "F.Paste" "F.Mask") (tstamp be61deb9-ee46-4fb6-8a02-e56467a0230c))
  (pad "P6" smd circle (at -5.5 2.5) (size 0.5 0.5) (property pad_prop_bga) (layers "F.Cu" "F.Paste" "F.Mask") (tstamp fa336f60-b318-4c39-b897-37ef510a8017))
  (pad "P7" smd circle (at -4.5 2.5) (size 0.5 0.5) (property pad_prop_bga) (layers "F.Cu" "F.Paste" "F.Mask") (tstamp 0cfac602-97f0-4961-b33a-647d2c485eb9))
  (pad "P8" smd circle (at -3.5 2.5) (size 0.5 0.5) (property pad_prop_bga) (layers "F.Cu" "F.Paste" "F.Mask") (tstamp 960ad8b9-6ac8-46dc-b569-57051d2a10e6))
  (pad "P9" smd circle (at -2.5 2.5) (size 0.5 0.5) (property pad_prop_bga) (layers "F.Cu" "F.Paste" "F.Mask") (tstamp 63a52a9c-187d-484b-ba5c-e5167fa93dca))
  (pad "P10" smd circle (at -1.5 2.5) (size 0.5 0.5) (property pad_prop_bga) (layers "F.Cu" "F.Paste" "F.Mask") (tstamp a491aba3-771e-4d1f-b3f7-1ec5ced736a4))
  (pad "P11" smd circle (at -0.5 2.5) (size 0.5 0.5) (property pad_prop_bga) (layers "F.Cu" "F.Paste" "F.Mask") (tstamp 69523950-e422-486c-ade7-43770a44acbf))
  (pad "P12" smd circle (at 0.5 2.5) (size 0.5 0.5) (property pad_prop_bga) (layers "F.Cu" "F.Paste" "F.Mask") (tstamp 493ad6c0-0e7f-4650-9ee0-e26372b3d0e9))
  (pad "P13" smd circle (at 1.5 2.5) (size 0.5 0.5) (property pad_prop_bga) (layers "F.Cu" "F.Paste" "F.Mask") (tstamp 855dccac-9f75-4b80-b4c3-3042f0ba7449))
  (pad "P14" smd circle (at 2.5 2.5) (size 0.5 0.5) (property pad_prop_bga) (layers "F.Cu" "F.Paste" "F.Mask") (tstamp bf284310-a3af-43d2-8b0c-76f0e4c5bfaf))
  (pad "P15" smd circle (at 3.5 2.5) (size 0.5 0.5) (property pad_prop_bga) (layers "F.Cu" "F.Paste" "F.Mask") (tstamp 6e811d28-837d-4a6b-aa70-399155b163d4))
  (pad "P16" smd circle (at 4.5 2.5) (size 0.5 0.5) (property pad_prop_bga) (layers "F.Cu" "F.Paste" "F.Mask") (tstamp 33b3b7f2-50b3-49fe-8389-e573bad6dfbb))
  (pad "P17" smd circle (at 5.5 2.5) (size 0.5 0.5) (property pad_prop_bga) (layers "F.Cu" "F.Paste" "F.Mask") (tstamp 3c68a5f0-49fe-4bba-8d2c-887e4711e94a))
  (pad "P18" smd circle (at 6.5 2.5) (size 0.5 0.5) (property pad_prop_bga) (layers "F.Cu" "F.Paste" "F.Mask") (tstamp 694c44d8-abc4-4617-a20f-381e0df22ce5))
  (pad "P19" smd circle (at 7.5 2.5) (size 0.5 0.5) (property pad_prop_bga) (layers "F.Cu" "F.Paste" "F.Mask") (tstamp a4748887-5e98-4aa5-86dc-42c211847b69))
  (pad "P20" smd circle (at 8.5 2.5) (size 0.5 0.5) (property pad_prop_bga) (layers "F.Cu" "F.Paste" "F.Mask") (tstamp 8d6417be-4191-4113-985e-e14cd824f1f9))
  (pad "P21" smd circle (at 9.5 2.5) (size 0.5 0.5) (property pad_prop_bga) (layers "F.Cu" "F.Paste" "F.Mask") (tstamp f79e7f06-9e30-46a0-8bc1-abb44b45d04e))
  (pad "P22" smd circle (at 10.5 2.5) (size 0.5 0.5) (property pad_prop_bga) (layers "F.Cu" "F.Paste" "F.Mask") (tstamp f6eb1e64-6918-481c-8e7a-3ff293f6b4ab))
  (pad "R1" smd circle (at -10.5 3.5) (size 0.5 0.5) (property pad_prop_bga) (layers "F.Cu" "F.Paste" "F.Mask") (tstamp e40626a6-25e6-4573-b600-bbaa20b8eeda))
  (pad "R2" smd circle (at -9.5 3.5) (size 0.5 0.5) (property pad_prop_bga) (layers "F.Cu" "F.Paste" "F.Mask") (tstamp 464c7004-bf05-41d4-85d2-24f3c7715d24))
  (pad "R3" smd circle (at -8.5 3.5) (size 0.5 0.5) (property pad_prop_bga) (layers "F.Cu" "F.Paste" "F.Mask") (tstamp de4252ec-9e22-4fb0-9a97-b074d88f09de))
  (pad "R4" smd circle (at -7.5 3.5) (size 0.5 0.5) (property pad_prop_bga) (layers "F.Cu" "F.Paste" "F.Mask") (tstamp 23e6e029-cb74-463e-93da-fc5e8e0e5a62))
  (pad "R5" smd circle (at -6.5 3.5) (size 0.5 0.5) (property pad_prop_bga) (layers "F.Cu" "F.Paste" "F.Mask") (tstamp a1498cce-ccfd-4820-9e53-457ee5c1d281))
  (pad "R6" smd circle (at -5.5 3.5) (size 0.5 0.5) (property pad_prop_bga) (layers "F.Cu" "F.Paste" "F.Mask") (tstamp df706379-b248-442f-9c2e-9fb9489e6e2d))
  (pad "R7" smd circle (at -4.5 3.5) (size 0.5 0.5) (property pad_prop_bga) (layers "F.Cu" "F.Paste" "F.Mask") (tstamp 27cfa402-0aae-4ec7-8a05-be77de896c5b))
  (pad "R8" smd circle (at -3.5 3.5) (size 0.5 0.5) (property pad_prop_bga) (layers "F.Cu" "F.Paste" "F.Mask") (tstamp 76e81218-fd0f-466a-89d9-ac1bb76f6702))
  (pad "R9" smd circle (at -2.5 3.5) (size 0.5 0.5) (property pad_prop_bga) (layers "F.Cu" "F.Paste" "F.Mask") (tstamp a1de9cfe-004a-4856-b2d2-f6c816f907bd))
  (pad "R10" smd circle (at -1.5 3.5) (size 0.5 0.5) (property pad_prop_bga) (layers "F.Cu" "F.Paste" "F.Mask") (tstamp 51b2ba4f-eb12-421e-ba91-547f6b7aef42))
  (pad "R11" smd circle (at -0.5 3.5) (size 0.5 0.5) (property pad_prop_bga) (layers "F.Cu" "F.Paste" "F.Mask") (tstamp ca7daf8e-11e1-46d4-8326-c59b72cd5091))
  (pad "R12" smd circle (at 0.5 3.5) (size 0.5 0.5) (property pad_prop_bga) (layers "F.Cu" "F.Paste" "F.Mask") (tstamp 257c0b20-ec65-45e4-8542-d0a3ea2a20c7))
  (pad "R13" smd circle (at 1.5 3.5) (size 0.5 0.5) (property pad_prop_bga) (layers "F.Cu" "F.Paste" "F.Mask") (tstamp 5369845b-c839-41d5-bd2c-a54a30c994d1))
  (pad "R14" smd circle (at 2.5 3.5) (size 0.5 0.5) (property pad_prop_bga) (layers "F.Cu" "F.Paste" "F.Mask") (tstamp f39f4b90-1e8e-4d40-9068-79798d602d0c))
  (pad "R15" smd circle (at 3.5 3.5) (size 0.5 0.5) (property pad_prop_bga) (layers "F.Cu" "F.Paste" "F.Mask") (tstamp 1ef5d985-9def-45ba-86bd-4780f256be25))
  (pad "R16" smd circle (at 4.5 3.5) (size 0.5 0.5) (property pad_prop_bga) (layers "F.Cu" "F.Paste" "F.Mask") (tstamp b7e924e9-b699-4366-b76a-93d942877589))
  (pad "R17" smd circle (at 5.5 3.5) (size 0.5 0.5) (property pad_prop_bga) (layers "F.Cu" "F.Paste" "F.Mask") (tstamp 45a84494-98b1-4373-89c7-ac673a30d144))
  (pad "R18" smd circle (at 6.5 3.5) (size 0.5 0.5) (property pad_prop_bga) (layers "F.Cu" "F.Paste" "F.Mask") (tstamp 12e05c67-7ae4-4e22-8e33-52fd72b0d661))
  (pad "R19" smd circle (at 7.5 3.5) (size 0.5 0.5) (property pad_prop_bga) (layers "F.Cu" "F.Paste" "F.Mask") (tstamp 0fb9b26c-1125-4844-9232-396b404b6406))
  (pad "R20" smd circle (at 8.5 3.5) (size 0.5 0.5) (property pad_prop_bga) (layers "F.Cu" "F.Paste" "F.Mask") (tstamp 6fe25572-f2d4-418f-812e-b03a1b779969))
  (pad "R21" smd circle (at 9.5 3.5) (size 0.5 0.5) (property pad_prop_bga) (layers "F.Cu" "F.Paste" "F.Mask") (tstamp 5e80ff9d-81a3-43fd-b0a2-ba089eaa3cc2))
  (pad "R22" smd circle (at 10.5 3.5) (size 0.5 0.5) (property pad_prop_bga) (layers "F.Cu" "F.Paste" "F.Mask") (tstamp d2243a41-1689-4f52-be73-b0531deaa786))
  (pad "T1" smd circle (at -10.5 4.5) (size 0.5 0.5) (property pad_prop_bga) (layers "F.Cu" "F.Paste" "F.Mask") (tstamp ee9c0236-af52-49fa-b50a-d5a3ec427d54))
  (pad "T2" smd circle (at -9.5 4.5) (size 0.5 0.5) (property pad_prop_bga) (layers "F.Cu" "F.Paste" "F.Mask") (tstamp 00eb8bd8-274b-42b3-b168-e4d09fbe7b52))
  (pad "T3" smd circle (at -8.5 4.5) (size 0.5 0.5) (property pad_prop_bga) (layers "F.Cu" "F.Paste" "F.Mask") (tstamp 254ead61-9121-4392-bfd7-205d67da7a73))
  (pad "T4" smd circle (at -7.5 4.5) (size 0.5 0.5) (property pad_prop_bga) (layers "F.Cu" "F.Paste" "F.Mask") (tstamp 573b60f6-5fb9-45d5-a421-574db98f8337))
  (pad "T5" smd circle (at -6.5 4.5) (size 0.5 0.5) (property pad_prop_bga) (layers "F.Cu" "F.Paste" "F.Mask") (tstamp 9b052b09-4aaa-47c9-aba7-55e599b81ec9))
  (pad "T6" smd circle (at -5.5 4.5) (size 0.5 0.5) (property pad_prop_bga) (layers "F.Cu" "F.Paste" "F.Mask") (tstamp 19943a40-29df-4d25-9f18-c73b0b97c65a))
  (pad "T7" smd circle (at -4.5 4.5) (size 0.5 0.5) (property pad_prop_bga) (layers "F.Cu" "F.Paste" "F.Mask") (tstamp 63aaad77-ebbd-4857-8b46-8fc485f512e6))
  (pad "T8" smd circle (at -3.5 4.5) (size 0.5 0.5) (property pad_prop_bga) (layers "F.Cu" "F.Paste" "F.Mask") (tstamp 1666f4ab-6348-40f8-acef-6a2ec9df295a))
  (pad "T9" smd circle (at -2.5 4.5) (size 0.5 0.5) (property pad_prop_bga) (layers "F.Cu" "F.Paste" "F.Mask") (tstamp 7bf8de08-7f4f-46dc-8479-dd1af4b4f276))
  (pad "T10" smd circle (at -1.5 4.5) (size 0.5 0.5) (property pad_prop_bga) (layers "F.Cu" "F.Paste" "F.Mask") (tstamp 9ea48557-7441-4eb1-981b-7aabe3488044))
  (pad "T11" smd circle (at -0.5 4.5) (size 0.5 0.5) (property pad_prop_bga) (layers "F.Cu" "F.Paste" "F.Mask") (tstamp a40d362d-91a7-4fdb-b451-181307f997ed))
  (pad "T12" smd circle (at 0.5 4.5) (size 0.5 0.5) (property pad_prop_bga) (layers "F.Cu" "F.Paste" "F.Mask") (tstamp 4a8c5306-ed7a-41aa-a401-869a501c4eb3))
  (pad "T13" smd circle (at 1.5 4.5) (size 0.5 0.5) (property pad_prop_bga) (layers "F.Cu" "F.Paste" "F.Mask") (tstamp 9cc7e0e5-0426-4e36-9a53-255354e07b6f))
  (pad "T14" smd circle (at 2.5 4.5) (size 0.5 0.5) (property pad_prop_bga) (layers "F.Cu" "F.Paste" "F.Mask") (tstamp 8a03295e-b400-4f34-af7c-54f48747a4cd))
  (pad "T15" smd circle (at 3.5 4.5) (size 0.5 0.5) (property pad_prop_bga) (layers "F.Cu" "F.Paste" "F.Mask") (tstamp e5b4883e-5a6c-43c5-b252-078afec5b753))
  (pad "T16" smd circle (at 4.5 4.5) (size 0.5 0.5) (property pad_prop_bga) (layers "F.Cu" "F.Paste" "F.Mask") (tstamp 80adcc45-7704-4919-80c9-57383e0d84b0))
  (pad "T17" smd circle (at 5.5 4.5) (size 0.5 0.5) (property pad_prop_bga) (layers "F.Cu" "F.Paste" "F.Mask") (tstamp 3efce900-650f-408e-96f7-32c1f6371fe2))
  (pad "T18" smd circle (at 6.5 4.5) (size 0.5 0.5) (property pad_prop_bga) (layers "F.Cu" "F.Paste" "F.Mask") (tstamp f45be8d5-afae-4745-8a6c-9dacbb87e646))
  (pad "T19" smd circle (at 7.5 4.5) (size 0.5 0.5) (property pad_prop_bga) (layers "F.Cu" "F.Paste" "F.Mask") (tstamp 8cac7975-612d-4326-a087-7a8bc4409d67))
  (pad "T20" smd circle (at 8.5 4.5) (size 0.5 0.5) (property pad_prop_bga) (layers "F.Cu" "F.Paste" "F.Mask") (tstamp 1f93e8f4-4d11-4863-8445-50e4e4c13aa4))
  (pad "T21" smd circle (at 9.5 4.5) (size 0.5 0.5) (property pad_prop_bga) (layers "F.Cu" "F.Paste" "F.Mask") (tstamp d4cad82f-1114-4321-a606-7faba230e116))
  (pad "T22" smd circle (at 10.5 4.5) (size 0.5 0.5) (property pad_prop_bga) (layers "F.Cu" "F.Paste" "F.Mask") (tstamp dd6b544a-47b8-47ec-bfe7-92777f64c019))
  (pad "U1" smd circle (at -10.5 5.5) (size 0.5 0.5) (property pad_prop_bga) (layers "F.Cu" "F.Paste" "F.Mask") (tstamp 9ef87b74-ab9a-47fc-b7fa-5b7c35dfd2db))
  (pad "U2" smd circle (at -9.5 5.5) (size 0.5 0.5) (property pad_prop_bga) (layers "F.Cu" "F.Paste" "F.Mask") (tstamp 86d8878a-5820-4b74-b727-81028d062788))
  (pad "U3" smd circle (at -8.5 5.5) (size 0.5 0.5) (property pad_prop_bga) (layers "F.Cu" "F.Paste" "F.Mask") (tstamp 3f757c99-8b70-4de8-b532-482fc8aa8388))
  (pad "U4" smd circle (at -7.5 5.5) (size 0.5 0.5) (property pad_prop_bga) (layers "F.Cu" "F.Paste" "F.Mask") (tstamp ceb3e5c7-8337-4813-9b76-9bbf69c5d7e4))
  (pad "U5" smd circle (at -6.5 5.5) (size 0.5 0.5) (property pad_prop_bga) (layers "F.Cu" "F.Paste" "F.Mask") (tstamp 74c4f499-742f-4470-897b-35d0556fcc9d))
  (pad "U6" smd circle (at -5.5 5.5) (size 0.5 0.5) (property pad_prop_bga) (layers "F.Cu" "F.Paste" "F.Mask") (tstamp 983d0d8b-3891-4113-8370-34a1e15df771))
  (pad "U7" smd circle (at -4.5 5.5) (size 0.5 0.5) (property pad_prop_bga) (layers "F.Cu" "F.Paste" "F.Mask") (tstamp 7e1dff27-4e34-478e-892a-960c3e0c2d77))
  (pad "U8" smd circle (at -3.5 5.5) (size 0.5 0.5) (property pad_prop_bga) (layers "F.Cu" "F.Paste" "F.Mask") (tstamp c6ed71af-e63d-49b2-b9fc-b5bc80d3f7ea))
  (pad "U9" smd circle (at -2.5 5.5) (size 0.5 0.5) (property pad_prop_bga) (layers "F.Cu" "F.Paste" "F.Mask") (tstamp 692fb799-da52-4e7d-9993-51706392632a))
  (pad "U10" smd circle (at -1.5 5.5) (size 0.5 0.5) (property pad_prop_bga) (layers "F.Cu" "F.Paste" "F.Mask") (tstamp 24f0dcb4-62d3-45bf-a75e-529f9407c480))
  (pad "U11" smd circle (at -0.5 5.5) (size 0.5 0.5) (property pad_prop_bga) (layers "F.Cu" "F.Paste" "F.Mask") (tstamp 6895f387-4f8d-474d-bd25-87e44a836a9c))
  (pad "U12" smd circle (at 0.5 5.5) (size 0.5 0.5) (property pad_prop_bga) (layers "F.Cu" "F.Paste" "F.Mask") (tstamp aeb925d8-93f1-4969-995f-a8143b356b39))
  (pad "U13" smd circle (at 1.5 5.5) (size 0.5 0.5) (property pad_prop_bga) (layers "F.Cu" "F.Paste" "F.Mask") (tstamp 72dcf07a-cfbd-4888-b0a5-8113f7aa3d0b))
  (pad "U14" smd circle (at 2.5 5.5) (size 0.5 0.5) (property pad_prop_bga) (layers "F.Cu" "F.Paste" "F.Mask") (tstamp beb9d968-de10-448b-9068-eef89fddfffe))
  (pad "U15" smd circle (at 3.5 5.5) (size 0.5 0.5) (property pad_prop_bga) (layers "F.Cu" "F.Paste" "F.Mask") (tstamp f5b36611-311d-4f2e-915d-021de20d5d2f))
  (pad "U16" smd circle (at 4.5 5.5) (size 0.5 0.5) (property pad_prop_bga) (layers "F.Cu" "F.Paste" "F.Mask") (tstamp 5eef7143-bc25-42a6-a522-653d4f35cd9c))
  (pad "U17" smd circle (at 5.5 5.5) (size 0.5 0.5) (property pad_prop_bga) (layers "F.Cu" "F.Paste" "F.Mask") (tstamp ba833fb5-cfd1-411f-87c5-edeff6856aac))
  (pad "U18" smd circle (at 6.5 5.5) (size 0.5 0.5) (property pad_prop_bga) (layers "F.Cu" "F.Paste" "F.Mask") (tstamp 23900233-86d4-423d-9cb9-2d62eb96047e))
  (pad "U19" smd circle (at 7.5 5.5) (size 0.5 0.5) (property pad_prop_bga) (layers "F.Cu" "F.Paste" "F.Mask") (tstamp 95de1bef-f5e3-4d7c-a954-4fa15b60f125))
  (pad "U20" smd circle (at 8.5 5.5) (size 0.5 0.5) (property pad_prop_bga) (layers "F.Cu" "F.Paste" "F.Mask") (tstamp 1cb79504-5d73-4cff-954b-fd1b7143d69d))
  (pad "U21" smd circle (at 9.5 5.5) (size 0.5 0.5) (property pad_prop_bga) (layers "F.Cu" "F.Paste" "F.Mask") (tstamp 84b441c6-0f1b-460e-9c4c-870185714395))
  (pad "U22" smd circle (at 10.5 5.5) (size 0.5 0.5) (property pad_prop_bga) (layers "F.Cu" "F.Paste" "F.Mask") (tstamp 10a075c3-dc84-4012-8d6e-a2be9f132d41))
  (pad "V1" smd circle (at -10.5 6.5) (size 0.5 0.5) (property pad_prop_bga) (layers "F.Cu" "F.Paste" "F.Mask") (tstamp 0a33509c-842e-494c-a3db-798ad9c6d5df))
  (pad "V2" smd circle (at -9.5 6.5) (size 0.5 0.5) (property pad_prop_bga) (layers "F.Cu" "F.Paste" "F.Mask") (tstamp 1f275fae-530d-4774-afed-aed9bb1fac05))
  (pad "V3" smd circle (at -8.5 6.5) (size 0.5 0.5) (property pad_prop_bga) (layers "F.Cu" "F.Paste" "F.Mask") (tstamp 922fbb0b-49b0-469a-bd3c-7e5689a8273e))
  (pad "V4" smd circle (at -7.5 6.5) (size 0.5 0.5) (property pad_prop_bga) (layers "F.Cu" "F.Paste" "F.Mask") (tstamp 79aab010-cb6e-4900-8ff4-b6e595f90d83))
  (pad "V5" smd circle (at -6.5 6.5) (size 0.5 0.5) (property pad_prop_bga) (layers "F.Cu" "F.Paste" "F.Mask") (tstamp 0371c561-bff0-4f98-81c3-de0bf74d8f7e))
  (pad "V6" smd circle (at -5.5 6.5) (size 0.5 0.5) (property pad_prop_bga) (layers "F.Cu" "F.Paste" "F.Mask") (tstamp a773c272-2bca-4ee0-94a4-b2548187c27d))
  (pad "V7" smd circle (at -4.5 6.5) (size 0.5 0.5) (property pad_prop_bga) (layers "F.Cu" "F.Paste" "F.Mask") (tstamp 059dde50-f4ac-43f9-9ac5-0acf4b3f0c1e))
  (pad "V8" smd circle (at -3.5 6.5) (size 0.5 0.5) (property pad_prop_bga) (layers "F.Cu" "F.Paste" "F.Mask") (tstamp 0db6f3e8-41d1-439a-b69a-06e3736d00d2))
  (pad "V9" smd circle (at -2.5 6.5) (size 0.5 0.5) (property pad_prop_bga) (layers "F.Cu" "F.Paste" "F.Mask") (tstamp 10a3eaff-113b-4dff-81e8-6ccaed540e33))
  (pad "V10" smd circle (at -1.5 6.5) (size 0.5 0.5) (property pad_prop_bga) (layers "F.Cu" "F.Paste" "F.Mask") (tstamp fbd938ad-e620-4f57-9ebf-6ecd93741987))
  (pad "V11" smd circle (at -0.5 6.5) (size 0.5 0.5) (property pad_prop_bga) (layers "F.Cu" "F.Paste" "F.Mask") (tstamp a3662801-6fa7-4598-a8c4-8dbe40cb0e44))
  (pad "V12" smd circle (at 0.5 6.5) (size 0.5 0.5) (property pad_prop_bga) (layers "F.Cu" "F.Paste" "F.Mask") (tstamp 69c0f199-f2ba-4cc2-8914-8c496558830f))
  (pad "V13" smd circle (at 1.5 6.5) (size 0.5 0.5) (property pad_prop_bga) (layers "F.Cu" "F.Paste" "F.Mask") (tstamp bb699185-c517-4657-8171-e65742df56c9))
  (pad "V14" smd circle (at 2.5 6.5) (size 0.5 0.5) (property pad_prop_bga) (layers "F.Cu" "F.Paste" "F.Mask") (tstamp 6535af43-3fb5-4461-9083-5191a680dc12))
  (pad "V15" smd circle (at 3.5 6.5) (size 0.5 0.5) (property pad_prop_bga) (layers "F.Cu" "F.Paste" "F.Mask") (tstamp c6349f79-4f4a-4e07-96d2-63d5f4a9b621))
  (pad "V16" smd circle (at 4.5 6.5) (size 0.5 0.5) (property pad_prop_bga) (layers "F.Cu" "F.Paste" "F.Mask") (tstamp 69091c75-010f-48ea-b7a3-238a7cce6ae9))
  (pad "V17" smd circle (at 5.5 6.5) (size 0.5 0.5) (property pad_prop_bga) (layers "F.Cu" "F.Paste" "F.Mask") (tstamp e0fa308e-8a59-4422-a311-e79e092cf3f6))
  (pad "V18" smd circle (at 6.5 6.5) (size 0.5 0.5) (property pad_prop_bga) (layers "F.Cu" "F.Paste" "F.Mask") (tstamp bbb802c4-9b56-4f99-b635-6521bd7b1779))
  (pad "V19" smd circle (at 7.5 6.5) (size 0.5 0.5) (property pad_prop_bga) (layers "F.Cu" "F.Paste" "F.Mask") (tstamp 1c47d761-f673-4ef9-8ad2-a3896f0cf39c))
  (pad "V20" smd circle (at 8.5 6.5) (size 0.5 0.5) (property pad_prop_bga) (layers "F.Cu" "F.Paste" "F.Mask") (tstamp ca0c45f8-dfcc-4b7c-9e83-5642819240c2))
  (pad "V21" smd circle (at 9.5 6.5) (size 0.5 0.5) (property pad_prop_bga) (layers "F.Cu" "F.Paste" "F.Mask") (tstamp 8df48532-1b60-444d-b53b-9497ec6bbd73))
  (pad "V22" smd circle (at 10.5 6.5) (size 0.5 0.5) (property pad_prop_bga) (layers "F.Cu" "F.Paste" "F.Mask") (tstamp b184f03b-9bd8-4a1f-987e-0e945845e205))
  (pad "W1" smd circle (at -10.5 7.5) (size 0.5 0.5) (property pad_prop_bga) (layers "F.Cu" "F.Paste" "F.Mask") (tstamp dbd7fd3b-a5a3-40e4-be8a-f36bb9d8deaf))
  (pad "W2" smd circle (at -9.5 7.5) (size 0.5 0.5) (property pad_prop_bga) (layers "F.Cu" "F.Paste" "F.Mask") (tstamp f7574ace-47df-491f-b655-45c8cb43be20))
  (pad "W3" smd circle (at -8.5 7.5) (size 0.5 0.5) (property pad_prop_bga) (layers "F.Cu" "F.Paste" "F.Mask") (tstamp e8c232e6-bc6c-4147-85d5-b1f2915417f0))
  (pad "W4" smd circle (at -7.5 7.5) (size 0.5 0.5) (property pad_prop_bga) (layers "F.Cu" "F.Paste" "F.Mask") (tstamp 0db43fd1-207a-4d51-b653-eb640f081d73))
  (pad "W5" smd circle (at -6.5 7.5) (size 0.5 0.5) (property pad_prop_bga) (layers "F.Cu" "F.Paste" "F.Mask") (tstamp b97b5cbc-1283-45f2-b5d8-f15ddeabc7fd))
  (pad "W6" smd circle (at -5.5 7.5) (size 0.5 0.5) (property pad_prop_bga) (layers "F.Cu" "F.Paste" "F.Mask") (tstamp 0b890dce-9165-42c9-bbe9-329830e6ee43))
  (pad "W7" smd circle (at -4.5 7.5) (size 0.5 0.5) (property pad_prop_bga) (layers "F.Cu" "F.Paste" "F.Mask") (tstamp 0a7a1a4e-aa18-4619-bc96-7c709bdbe44d))
  (pad "W8" smd circle (at -3.5 7.5) (size 0.5 0.5) (property pad_prop_bga) (layers "F.Cu" "F.Paste" "F.Mask") (tstamp 69ea0334-854d-4617-afe2-0591386e4403))
  (pad "W9" smd circle (at -2.5 7.5) (size 0.5 0.5) (property pad_prop_bga) (layers "F.Cu" "F.Paste" "F.Mask") (tstamp c9444d68-fa6a-47d7-93b7-5877c18f7556))
  (pad "W10" smd circle (at -1.5 7.5) (size 0.5 0.5) (property pad_prop_bga) (layers "F.Cu" "F.Paste" "F.Mask") (tstamp 6f0290bc-9d51-4f14-a9eb-e6a02ce5a328))
  (pad "W11" smd circle (at -0.5 7.5) (size 0.5 0.5) (property pad_prop_bga) (layers "F.Cu" "F.Paste" "F.Mask") (tstamp e49fcee2-d973-4e42-900a-1f1066b31d67))
  (pad "W12" smd circle (at 0.5 7.5) (size 0.5 0.5) (property pad_prop_bga) (layers "F.Cu" "F.Paste" "F.Mask") (tstamp 4ad5ebf0-f9a2-42b3-9005-4078d2c942b5))
  (pad "W13" smd circle (at 1.5 7.5) (size 0.5 0.5) (property pad_prop_bga) (layers "F.Cu" "F.Paste" "F.Mask") (tstamp ddde0f40-4386-47db-ac94-6883221905f8))
  (pad "W14" smd circle (at 2.5 7.5) (size 0.5 0.5) (property pad_prop_bga) (layers "F.Cu" "F.Paste" "F.Mask") (tstamp 96f67c2d-fb91-4710-b589-ad4ba413f426))
  (pad "W15" smd circle (at 3.5 7.5) (size 0.5 0.5) (property pad_prop_bga) (layers "F.Cu" "F.Paste" "F.Mask") (tstamp 936e826f-3bd2-402e-b2a5-86b9485d226b))
  (pad "W16" smd circle (at 4.5 7.5) (size 0.5 0.5) (property pad_prop_bga) (layers "F.Cu" "F.Paste" "F.Mask") (tstamp b5cb4e44-6de1-43e4-a0c7-07b205751e9e))
  (pad "W17" smd circle (at 5.5 7.5) (size 0.5 0.5) (property pad_prop_bga) (layers "F.Cu" "F.Paste" "F.Mask") (tstamp df7bc632-1487-453b-b7dd-c7fec1576865))
  (pad "W18" smd circle (at 6.5 7.5) (size 0.5 0.5) (property pad_prop_bga) (layers "F.Cu" "F.Paste" "F.Mask") (tstamp 71fcb509-e3d0-44dd-b5b8-617890a1250e))
  (pad "W19" smd circle (at 7.5 7.5) (size 0.5 0.5) (property pad_prop_bga) (layers "F.Cu" "F.Paste" "F.Mask") (tstamp 63f402a2-7324-4dd9-8e4a-71d8144afd83))
  (pad "W20" smd circle (at 8.5 7.5) (size 0.5 0.5) (property pad_prop_bga) (layers "F.Cu" "F.Paste" "F.Mask") (tstamp bb5d0306-c489-489b-b234-1e67a6cc1490))
  (pad "W21" smd circle (at 9.5 7.5) (size 0.5 0.5) (property pad_prop_bga) (layers "F.Cu" "F.Paste" "F.Mask") (tstamp 34f65e29-db06-45bb-a1e7-a579c397214b))
  (pad "W22" smd circle (at 10.5 7.5) (size 0.5 0.5) (property pad_prop_bga) (layers "F.Cu" "F.Paste" "F.Mask") (tstamp 7be1c2a2-f754-4173-838c-2ba3e68bc33e))
  (pad "Y1" smd circle (at -10.5 8.5) (size 0.5 0.5) (property pad_prop_bga) (layers "F.Cu" "F.Paste" "F.Mask") (tstamp 0797c48f-5aea-4919-8995-26963befedcd))
  (pad "Y2" smd circle (at -9.5 8.5) (size 0.5 0.5) (property pad_prop_bga) (layers "F.Cu" "F.Paste" "F.Mask") (tstamp 95dfceaa-6b69-4b3b-9193-03893166d6da))
  (pad "Y3" smd circle (at -8.5 8.5) (size 0.5 0.5) (property pad_prop_bga) (layers "F.Cu" "F.Paste" "F.Mask") (tstamp 7a4fbfac-c9b8-461d-83dd-6b1236c348d1))
  (pad "Y4" smd circle (at -7.5 8.5) (size 0.5 0.5) (property pad_prop_bga) (layers "F.Cu" "F.Paste" "F.Mask") (tstamp 980358a1-6b49-477b-82f2-dd2ba67c05b8))
  (pad "Y5" smd circle (at -6.5 8.5) (size 0.5 0.5) (property pad_prop_bga) (layers "F.Cu" "F.Paste" "F.Mask") (tstamp cab87fa4-b7b9-4851-8c66-c63ce66023fb))
  (pad "Y6" smd circle (at -5.5 8.5) (size 0.5 0.5) (property pad_prop_bga) (layers "F.Cu" "F.Paste" "F.Mask") (tstamp 2af23908-f336-4ca0-b07f-6d2ca047a38a))
  (pad "Y7" smd circle (at -4.5 8.5) (size 0.5 0.5) (property pad_prop_bga) (layers "F.Cu" "F.Paste" "F.Mask") (tstamp 2b4dbff5-0d31-43f6-b898-fe2f55d20545))
  (pad "Y8" smd circle (at -3.5 8.5) (size 0.5 0.5) (property pad_prop_bga) (layers "F.Cu" "F.Paste" "F.Mask") (tstamp ed4c7c4b-2f5e-48e5-95aa-9aa867dbd1a8))
  (pad "Y9" smd circle (at -2.5 8.5) (size 0.5 0.5) (property pad_prop_bga) (layers "F.Cu" "F.Paste" "F.Mask") (tstamp 85ed9551-1619-4017-9422-c81063c109a7))
  (pad "Y10" smd circle (at -1.5 8.5) (size 0.5 0.5) (property pad_prop_bga) (layers "F.Cu" "F.Paste" "F.Mask") (tstamp 192d9166-b3c1-4718-9f12-3a0410c84362))
  (pad "Y11" smd circle (at -0.5 8.5) (size 0.5 0.5) (property pad_prop_bga) (layers "F.Cu" "F.Paste" "F.Mask") (tstamp 0a3b5406-402f-48cb-9e39-4526a0c19099))
  (pad "Y12" smd circle (at 0.5 8.5) (size 0.5 0.5) (property pad_prop_bga) (layers "F.Cu" "F.Paste" "F.Mask") (tstamp e1723489-4860-499e-8cd4-e6a1370d8973))
  (pad "Y13" smd circle (at 1.5 8.5) (size 0.5 0.5) (property pad_prop_bga) (layers "F.Cu" "F.Paste" "F.Mask") (tstamp ab23d987-aa97-42b0-94bf-98bc89dfbafb))
  (pad "Y14" smd circle (at 2.5 8.5) (size 0.5 0.5) (property pad_prop_bga) (layers "F.Cu" "F.Paste" "F.Mask") (tstamp 904fde60-ccab-465e-8a44-d4d5bde894d4))
  (pad "Y15" smd circle (at 3.5 8.5) (size 0.5 0.5) (property pad_prop_bga) (layers "F.Cu" "F.Paste" "F.Mask") (tstamp ee001891-a3c8-4939-a5f1-9d3ce2319c75))
  (pad "Y16" smd circle (at 4.5 8.5) (size 0.5 0.5) (property pad_prop_bga) (layers "F.Cu" "F.Paste" "F.Mask") (tstamp ea770866-1939-4eef-8b70-8a180ef38a1b))
  (pad "Y17" smd circle (at 5.5 8.5) (size 0.5 0.5) (property pad_prop_bga) (layers "F.Cu" "F.Paste" "F.Mask") (tstamp ababf103-e2b4-4859-b303-8abba475c8ef))
  (pad "Y18" smd circle (at 6.5 8.5) (size 0.5 0.5) (property pad_prop_bga) (layers "F.Cu" "F.Paste" "F.Mask") (tstamp 34937ca6-b40a-4b8c-aa58-c436192d4a10))
  (pad "Y19" smd circle (at 7.5 8.5) (size 0.5 0.5) (property pad_prop_bga) (layers "F.Cu" "F.Paste" "F.Mask") (tstamp d79d0ba9-34a3-400c-b497-585543d7afbd))
  (pad "Y20" smd circle (at 8.5 8.5) (size 0.5 0.5) (property pad_prop_bga) (layers "F.Cu" "F.Paste" "F.Mask") (tstamp 36ca21ff-604b-48f8-bf45-1796bc930a3c))
  (pad "Y21" smd circle (at 9.5 8.5) (size 0.5 0.5) (property pad_prop_bga) (layers "F.Cu" "F.Paste" "F.Mask") (tstamp 4e4d7dc6-30cc-415d-ac22-0d5edcb8c0b9))
  (pad "Y22" smd circle (at 10.5 8.5) (size 0.5 0.5) (property pad_prop_bga) (layers "F.Cu" "F.Paste" "F.Mask") (tstamp cf79ab1d-1dee-4953-a5ef-9b4d7b929031))
  (model "${KICAD6_3DMODEL_DIR}/Package_BGA.3dshapes/Xilinx_FGG484.wrl"
    (offset (xyz 0 0 0))
    (scale (xyz 1 1 1))
    (rotate (xyz 0 0 0))
  )
)
