(footprint "Xilinx_FGGA484" (version 20211014) (generator pcbnew)
  (layer "F.Cu")
  (tedit 5CC89574)
  (descr "Spartan-7 BGA, 22x22 grid, 23x23mm package, 1mm pitch; https://www.xilinx.com/support/documentation/user_guides/ug475_7Series_Pkg_Pinout.pdf#page=264, NSMD pad definition Appendix A")
  (tags "BGA 484 1 FGGA484")
  (solder_mask_margin 0.05)
  (attr smd)
  (fp_text reference "REF**" (at 0 -12.5) (layer "F.SilkS")
    (effects (font (size 1 1) (thickness 0.15)))
    (tstamp 0b438ac6-4c4f-451b-be14-ba41513ee0ca)
  )
  (fp_text value "Xilinx_FGGA484" (at 0 12.5) (layer "F.Fab")
    (effects (font (size 1 1) (thickness 0.15)))
    (tstamp f7fd4dc6-cf25-47e6-ac20-70715214545f)
  )
  (fp_text user "${REFERENCE}" (at 0 0) (layer "F.Fab")
    (effects (font (size 1 1) (thickness 0.15)))
    (tstamp a0d79d2e-2684-48e4-bec7-9402425d7482)
  )
  (fp_line (start -10.61 -11.61) (end 11.61 -11.61) (layer "F.SilkS") (width 0.12) (tstamp 0704194c-b003-491e-83b5-19f7f47bc95a))
  (fp_line (start 11.61 11.61) (end -11.61 11.61) (layer "F.SilkS") (width 0.12) (tstamp 728ed0f8-7aac-4df6-9eea-32d038ddc68d))
  (fp_line (start 11.61 -11.61) (end 11.61 11.61) (layer "F.SilkS") (width 0.12) (tstamp 88175e9a-269c-4341-a53a-39d7bdda59ff))
  (fp_line (start -11.61 11.61) (end -11.61 -10.61) (layer "F.SilkS") (width 0.12) (tstamp d3942271-4d7f-4b33-a1a0-f9fd408b8d0f))
  (fp_line (start 12.5 12.5) (end 12.5 -12.5) (layer "F.CrtYd") (width 0.05) (tstamp 65b05dac-eff1-4c2e-ab89-ba39b6270157))
  (fp_line (start 12.5 -12.5) (end -12.5 -12.5) (layer "F.CrtYd") (width 0.05) (tstamp cde9c21c-d71e-49b2-b78b-de4b13d6d511))
  (fp_line (start -12.5 12.5) (end 12.5 12.5) (layer "F.CrtYd") (width 0.05) (tstamp cf84778e-5023-4bb7-9e07-e9fb3c40792b))
  (fp_line (start -12.5 -12.5) (end -12.5 12.5) (layer "F.CrtYd") (width 0.05) (tstamp e295b080-f2b9-463e-a303-0401c647183f))
  (fp_line (start 11.5 11.5) (end -11.5 11.5) (layer "F.Fab") (width 0.1) (tstamp 461f0ee1-71f0-43f7-a386-b0350591139f))
  (fp_line (start 11.5 -11.5) (end 11.5 11.5) (layer "F.Fab") (width 0.1) (tstamp 481b8010-2721-4d74-b47f-ef7473670e46))
  (fp_line (start -11.5 11.5) (end -11.5 -10.5) (layer "F.Fab") (width 0.1) (tstamp 4acdfd35-9804-493f-9640-75c21d6e3a67))
  (fp_line (start -11.5 -10.5) (end -10.5 -11.5) (layer "F.Fab") (width 0.1) (tstamp 8006cb91-4c5d-493b-be1a-d84dd280cfa0))
  (fp_line (start -10.5 -11.5) (end 11.5 -11.5) (layer "F.Fab") (width 0.1) (tstamp 90a53b48-7c09-45dc-a481-5c1369d5ce60))
  (pad "A1" smd circle (at -10.5 -10.5) (size 0.5 0.5) (property pad_prop_bga) (layers "F.Cu" "F.Paste" "F.Mask") (tstamp 3fb713f7-2858-490a-b016-2e5743cc45ec))
  (pad "A2" smd circle (at -9.5 -10.5) (size 0.5 0.5) (property pad_prop_bga) (layers "F.Cu" "F.Paste" "F.Mask") (tstamp 47e70bdd-100e-4154-8078-63f45761e345))
  (pad "A3" smd circle (at -8.5 -10.5) (size 0.5 0.5) (property pad_prop_bga) (layers "F.Cu" "F.Paste" "F.Mask") (tstamp 12774eeb-6390-480f-9bf6-c636accc34ca))
  (pad "A4" smd circle (at -7.5 -10.5) (size 0.5 0.5) (property pad_prop_bga) (layers "F.Cu" "F.Paste" "F.Mask") (tstamp 195ca45e-afb9-45ed-8023-ff052f8600f4))
  (pad "A5" smd circle (at -6.5 -10.5) (size 0.5 0.5) (property pad_prop_bga) (layers "F.Cu" "F.Paste" "F.Mask") (tstamp ba300e6b-05e4-47a6-b05c-354f2016a930))
  (pad "A6" smd circle (at -5.5 -10.5) (size 0.5 0.5) (property pad_prop_bga) (layers "F.Cu" "F.Paste" "F.Mask") (tstamp 34e9c493-528c-4f53-ae41-68b25d3ce09c))
  (pad "A7" smd circle (at -4.5 -10.5) (size 0.5 0.5) (property pad_prop_bga) (layers "F.Cu" "F.Paste" "F.Mask") (tstamp a1cdd971-8cea-43ef-a7fe-94897e6ff7b6))
  (pad "A8" smd circle (at -3.5 -10.5) (size 0.5 0.5) (property pad_prop_bga) (layers "F.Cu" "F.Paste" "F.Mask") (tstamp 6ae048a7-8211-46af-8192-d5a9c6e31aaf))
  (pad "A9" smd circle (at -2.5 -10.5) (size 0.5 0.5) (property pad_prop_bga) (layers "F.Cu" "F.Paste" "F.Mask") (tstamp cc4f526d-1024-4560-becd-216e3743b257))
  (pad "A10" smd circle (at -1.5 -10.5) (size 0.5 0.5) (property pad_prop_bga) (layers "F.Cu" "F.Paste" "F.Mask") (tstamp 00df05c9-383d-4acb-a8a6-2184030f2879))
  (pad "A11" smd circle (at -0.5 -10.5) (size 0.5 0.5) (property pad_prop_bga) (layers "F.Cu" "F.Paste" "F.Mask") (tstamp c59f9731-d327-44c6-9aee-3c72d20dad18))
  (pad "A12" smd circle (at 0.5 -10.5) (size 0.5 0.5) (property pad_prop_bga) (layers "F.Cu" "F.Paste" "F.Mask") (tstamp eba58e96-9950-4633-8f23-53dee606a06b))
  (pad "A13" smd circle (at 1.5 -10.5) (size 0.5 0.5) (property pad_prop_bga) (layers "F.Cu" "F.Paste" "F.Mask") (tstamp de349267-bd3c-43c0-8274-115835974e0f))
  (pad "A14" smd circle (at 2.5 -10.5) (size 0.5 0.5) (property pad_prop_bga) (layers "F.Cu" "F.Paste" "F.Mask") (tstamp 7e917cb1-23ff-45e1-b86b-2af7f68b6b5b))
  (pad "A15" smd circle (at 3.5 -10.5) (size 0.5 0.5) (property pad_prop_bga) (layers "F.Cu" "F.Paste" "F.Mask") (tstamp 352fa027-34ab-4be3-a1a8-f9d549fed531))
  (pad "A16" smd circle (at 4.5 -10.5) (size 0.5 0.5) (property pad_prop_bga) (layers "F.Cu" "F.Paste" "F.Mask") (tstamp c4ca4586-4b79-487f-a3a4-d0801eb6f376))
  (pad "A17" smd circle (at 5.5 -10.5) (size 0.5 0.5) (property pad_prop_bga) (layers "F.Cu" "F.Paste" "F.Mask") (tstamp ba7078cc-0d01-4ff5-a120-48557b512394))
  (pad "A18" smd circle (at 6.5 -10.5) (size 0.5 0.5) (property pad_prop_bga) (layers "F.Cu" "F.Paste" "F.Mask") (tstamp 72a8ff3e-cccb-4d44-a911-e0c6e439ef44))
  (pad "A19" smd circle (at 7.5 -10.5) (size 0.5 0.5) (property pad_prop_bga) (layers "F.Cu" "F.Paste" "F.Mask") (tstamp 7cb7f897-560b-480b-bf67-6e453e152e61))
  (pad "A20" smd circle (at 8.5 -10.5) (size 0.5 0.5) (property pad_prop_bga) (layers "F.Cu" "F.Paste" "F.Mask") (tstamp 3456861a-a818-4bf6-b2ec-0df3e03a8270))
  (pad "A21" smd circle (at 9.5 -10.5) (size 0.5 0.5) (property pad_prop_bga) (layers "F.Cu" "F.Paste" "F.Mask") (tstamp 158ae846-d406-4fd4-8dd3-c24530063764))
  (pad "A22" smd circle (at 10.5 -10.5) (size 0.5 0.5) (property pad_prop_bga) (layers "F.Cu" "F.Paste" "F.Mask") (tstamp bdef468f-068b-4c42-b28b-429386d59d33))
  (pad "AA1" smd circle (at -10.5 9.5) (size 0.5 0.5) (property pad_prop_bga) (layers "F.Cu" "F.Paste" "F.Mask") (tstamp 3d751673-70af-49eb-b0f3-3059024eee69))
  (pad "AA2" smd circle (at -9.5 9.5) (size 0.5 0.5) (property pad_prop_bga) (layers "F.Cu" "F.Paste" "F.Mask") (tstamp 0bcf6f08-ef84-4940-b433-3a771ef20e16))
  (pad "AA3" smd circle (at -8.5 9.5) (size 0.5 0.5) (property pad_prop_bga) (layers "F.Cu" "F.Paste" "F.Mask") (tstamp edb38978-5417-41d1-866b-068f05323b51))
  (pad "AA4" smd circle (at -7.5 9.5) (size 0.5 0.5) (property pad_prop_bga) (layers "F.Cu" "F.Paste" "F.Mask") (tstamp ee7cec37-1509-46c0-aedb-fdce417b85d7))
  (pad "AA5" smd circle (at -6.5 9.5) (size 0.5 0.5) (property pad_prop_bga) (layers "F.Cu" "F.Paste" "F.Mask") (tstamp e5ffff33-bd24-4bc1-9073-c35980a089f4))
  (pad "AA6" smd circle (at -5.5 9.5) (size 0.5 0.5) (property pad_prop_bga) (layers "F.Cu" "F.Paste" "F.Mask") (tstamp 53bc6d63-cc09-4606-9baa-e03487ce98af))
  (pad "AA7" smd circle (at -4.5 9.5) (size 0.5 0.5) (property pad_prop_bga) (layers "F.Cu" "F.Paste" "F.Mask") (tstamp a95e1418-58d2-418a-aea2-64aaf897d4af))
  (pad "AA8" smd circle (at -3.5 9.5) (size 0.5 0.5) (property pad_prop_bga) (layers "F.Cu" "F.Paste" "F.Mask") (tstamp 6920e19d-eb48-4fe0-9f7c-3873832e113d))
  (pad "AA9" smd circle (at -2.5 9.5) (size 0.5 0.5) (property pad_prop_bga) (layers "F.Cu" "F.Paste" "F.Mask") (tstamp 125ce7b6-d562-4741-93ac-ae61f9b2cb2d))
  (pad "AA10" smd circle (at -1.5 9.5) (size 0.5 0.5) (property pad_prop_bga) (layers "F.Cu" "F.Paste" "F.Mask") (tstamp 0647012a-37da-4959-a74a-59e9f543fa55))
  (pad "AA11" smd circle (at -0.5 9.5) (size 0.5 0.5) (property pad_prop_bga) (layers "F.Cu" "F.Paste" "F.Mask") (tstamp 5b427f0b-98be-47cb-9676-ce40c31b4895))
  (pad "AA12" smd circle (at 0.5 9.5) (size 0.5 0.5) (property pad_prop_bga) (layers "F.Cu" "F.Paste" "F.Mask") (tstamp bf0c2abd-6f4b-4e62-8155-a52f147998f4))
  (pad "AA13" smd circle (at 1.5 9.5) (size 0.5 0.5) (property pad_prop_bga) (layers "F.Cu" "F.Paste" "F.Mask") (tstamp 910f2646-bad3-4509-b745-f98b7331175e))
  (pad "AA14" smd circle (at 2.5 9.5) (size 0.5 0.5) (property pad_prop_bga) (layers "F.Cu" "F.Paste" "F.Mask") (tstamp 0eb8a573-ceaf-417b-9c13-c778106d137a))
  (pad "AA15" smd circle (at 3.5 9.5) (size 0.5 0.5) (property pad_prop_bga) (layers "F.Cu" "F.Paste" "F.Mask") (tstamp 8f854a4e-6816-49d3-8a4e-c8661f232116))
  (pad "AA16" smd circle (at 4.5 9.5) (size 0.5 0.5) (property pad_prop_bga) (layers "F.Cu" "F.Paste" "F.Mask") (tstamp 8a0a1ce4-d959-4525-a5b4-d7183606f9db))
  (pad "AA17" smd circle (at 5.5 9.5) (size 0.5 0.5) (property pad_prop_bga) (layers "F.Cu" "F.Paste" "F.Mask") (tstamp f05ab351-4ff3-417b-b8fc-99b4acb6956b))
  (pad "AA18" smd circle (at 6.5 9.5) (size 0.5 0.5) (property pad_prop_bga) (layers "F.Cu" "F.Paste" "F.Mask") (tstamp 6315bf99-d285-4aff-9bf0-babd696ea702))
  (pad "AA19" smd circle (at 7.5 9.5) (size 0.5 0.5) (property pad_prop_bga) (layers "F.Cu" "F.Paste" "F.Mask") (tstamp 699f14fd-6479-480e-ac06-2f24a28c8fd6))
  (pad "AA20" smd circle (at 8.5 9.5) (size 0.5 0.5) (property pad_prop_bga) (layers "F.Cu" "F.Paste" "F.Mask") (tstamp 8feb4708-6500-458d-bffb-4c65945217ee))
  (pad "AA21" smd circle (at 9.5 9.5) (size 0.5 0.5) (property pad_prop_bga) (layers "F.Cu" "F.Paste" "F.Mask") (tstamp d527638f-8519-4b39-b6ce-39fdf3ca82ba))
  (pad "AA22" smd circle (at 10.5 9.5) (size 0.5 0.5) (property pad_prop_bga) (layers "F.Cu" "F.Paste" "F.Mask") (tstamp ad234858-6cc9-485c-b13c-b6c2a1474ef2))
  (pad "AB1" smd circle (at -10.5 10.5) (size 0.5 0.5) (property pad_prop_bga) (layers "F.Cu" "F.Paste" "F.Mask") (tstamp bb90f92d-f565-4937-8eba-8b5f69c64aed))
  (pad "AB2" smd circle (at -9.5 10.5) (size 0.5 0.5) (property pad_prop_bga) (layers "F.Cu" "F.Paste" "F.Mask") (tstamp b87325e1-0860-4cdc-b4ed-2814815ff845))
  (pad "AB3" smd circle (at -8.5 10.5) (size 0.5 0.5) (property pad_prop_bga) (layers "F.Cu" "F.Paste" "F.Mask") (tstamp 0ba35364-b5a7-4f36-9ef1-1f6df50980ea))
  (pad "AB4" smd circle (at -7.5 10.5) (size 0.5 0.5) (property pad_prop_bga) (layers "F.Cu" "F.Paste" "F.Mask") (tstamp 3ae1cd00-b08e-406c-a3a9-9653d6863c6e))
  (pad "AB5" smd circle (at -6.5 10.5) (size 0.5 0.5) (property pad_prop_bga) (layers "F.Cu" "F.Paste" "F.Mask") (tstamp d07bb066-a8db-4666-86c2-19c3f2fe8373))
  (pad "AB6" smd circle (at -5.5 10.5) (size 0.5 0.5) (property pad_prop_bga) (layers "F.Cu" "F.Paste" "F.Mask") (tstamp 874310e5-db0a-4324-8e41-725d04aa55d2))
  (pad "AB7" smd circle (at -4.5 10.5) (size 0.5 0.5) (property pad_prop_bga) (layers "F.Cu" "F.Paste" "F.Mask") (tstamp 564e61d1-e521-4a96-885a-558c498c9e6f))
  (pad "AB8" smd circle (at -3.5 10.5) (size 0.5 0.5) (property pad_prop_bga) (layers "F.Cu" "F.Paste" "F.Mask") (tstamp 0585e128-446a-461f-9190-60684bf0012f))
  (pad "AB9" smd circle (at -2.5 10.5) (size 0.5 0.5) (property pad_prop_bga) (layers "F.Cu" "F.Paste" "F.Mask") (tstamp 544d7dec-17bd-483d-8eb5-e3e526443b9b))
  (pad "AB10" smd circle (at -1.5 10.5) (size 0.5 0.5) (property pad_prop_bga) (layers "F.Cu" "F.Paste" "F.Mask") (tstamp fee1ba8a-db5d-4f3e-bac2-f185f147245f))
  (pad "AB11" smd circle (at -0.5 10.5) (size 0.5 0.5) (property pad_prop_bga) (layers "F.Cu" "F.Paste" "F.Mask") (tstamp 60c361b1-af2d-4e42-8eaf-f5664fdd0d27))
  (pad "AB12" smd circle (at 0.5 10.5) (size 0.5 0.5) (property pad_prop_bga) (layers "F.Cu" "F.Paste" "F.Mask") (tstamp 06436b51-4940-4fd3-a52c-a639e8360900))
  (pad "AB13" smd circle (at 1.5 10.5) (size 0.5 0.5) (property pad_prop_bga) (layers "F.Cu" "F.Paste" "F.Mask") (tstamp 923f9502-0f1e-4514-a332-118951eb642f))
  (pad "AB14" smd circle (at 2.5 10.5) (size 0.5 0.5) (property pad_prop_bga) (layers "F.Cu" "F.Paste" "F.Mask") (tstamp ffe8daf6-19c8-43ce-8003-8b0eaab294df))
  (pad "AB15" smd circle (at 3.5 10.5) (size 0.5 0.5) (property pad_prop_bga) (layers "F.Cu" "F.Paste" "F.Mask") (tstamp c586d5f4-1713-4ee5-97e4-25c20203a53d))
  (pad "AB16" smd circle (at 4.5 10.5) (size 0.5 0.5) (property pad_prop_bga) (layers "F.Cu" "F.Paste" "F.Mask") (tstamp 637842aa-ace7-40c2-85cd-61a2e96e0d41))
  (pad "AB17" smd circle (at 5.5 10.5) (size 0.5 0.5) (property pad_prop_bga) (layers "F.Cu" "F.Paste" "F.Mask") (tstamp cf8c9957-3584-466a-aa98-da75c18504b7))
  (pad "AB18" smd circle (at 6.5 10.5) (size 0.5 0.5) (property pad_prop_bga) (layers "F.Cu" "F.Paste" "F.Mask") (tstamp 8a029594-ca04-47cb-915c-5a0e69982530))
  (pad "AB19" smd circle (at 7.5 10.5) (size 0.5 0.5) (property pad_prop_bga) (layers "F.Cu" "F.Paste" "F.Mask") (tstamp 743b06fa-add3-40b5-82e3-da342d24333b))
  (pad "AB20" smd circle (at 8.5 10.5) (size 0.5 0.5) (property pad_prop_bga) (layers "F.Cu" "F.Paste" "F.Mask") (tstamp 2b7bdebd-2289-4e69-9507-ba6989bc90c5))
  (pad "AB21" smd circle (at 9.5 10.5) (size 0.5 0.5) (property pad_prop_bga) (layers "F.Cu" "F.Paste" "F.Mask") (tstamp a376ed3f-4c13-4165-9d55-3defc9bfaa2c))
  (pad "AB22" smd circle (at 10.5 10.5) (size 0.5 0.5) (property pad_prop_bga) (layers "F.Cu" "F.Paste" "F.Mask") (tstamp bb04d670-9aca-4116-a48d-677de6a98e9d))
  (pad "B1" smd circle (at -10.5 -9.5) (size 0.5 0.5) (property pad_prop_bga) (layers "F.Cu" "F.Paste" "F.Mask") (tstamp bda9a000-76c5-4c45-96db-372a6bc36378))
  (pad "B2" smd circle (at -9.5 -9.5) (size 0.5 0.5) (property pad_prop_bga) (layers "F.Cu" "F.Paste" "F.Mask") (tstamp 74d96b3f-fded-455d-b765-0b837feced62))
  (pad "B3" smd circle (at -8.5 -9.5) (size 0.5 0.5) (property pad_prop_bga) (layers "F.Cu" "F.Paste" "F.Mask") (tstamp 2d26a39a-5a33-416a-a908-fb38ef96567d))
  (pad "B4" smd circle (at -7.5 -9.5) (size 0.5 0.5) (property pad_prop_bga) (layers "F.Cu" "F.Paste" "F.Mask") (tstamp ac6f8c9b-5bd2-4f21-b106-03a15b013008))
  (pad "B5" smd circle (at -6.5 -9.5) (size 0.5 0.5) (property pad_prop_bga) (layers "F.Cu" "F.Paste" "F.Mask") (tstamp ba6ff6fb-0f95-4efd-98dd-9fa92e066ca4))
  (pad "B6" smd circle (at -5.5 -9.5) (size 0.5 0.5) (property pad_prop_bga) (layers "F.Cu" "F.Paste" "F.Mask") (tstamp e64a2ab3-baaa-4062-abe3-375dc4907c37))
  (pad "B7" smd circle (at -4.5 -9.5) (size 0.5 0.5) (property pad_prop_bga) (layers "F.Cu" "F.Paste" "F.Mask") (tstamp 962cf2cc-7cdc-4b79-8eb3-6a3261191149))
  (pad "B8" smd circle (at -3.5 -9.5) (size 0.5 0.5) (property pad_prop_bga) (layers "F.Cu" "F.Paste" "F.Mask") (tstamp 479acedb-5a9d-45c4-abab-e770de61c71f))
  (pad "B9" smd circle (at -2.5 -9.5) (size 0.5 0.5) (property pad_prop_bga) (layers "F.Cu" "F.Paste" "F.Mask") (tstamp 01b45a49-9bd3-4769-9f41-2adcd15c83b5))
  (pad "B10" smd circle (at -1.5 -9.5) (size 0.5 0.5) (property pad_prop_bga) (layers "F.Cu" "F.Paste" "F.Mask") (tstamp a6ac90e7-e4c1-42b6-bd77-55fa222a3698))
  (pad "B11" smd circle (at -0.5 -9.5) (size 0.5 0.5) (property pad_prop_bga) (layers "F.Cu" "F.Paste" "F.Mask") (tstamp 5edaa6b7-e9c2-411c-aa12-8acd9a9bc394))
  (pad "B12" smd circle (at 0.5 -9.5) (size 0.5 0.5) (property pad_prop_bga) (layers "F.Cu" "F.Paste" "F.Mask") (tstamp 9cbe69cf-d98c-4436-8c49-a2df83567449))
  (pad "B13" smd circle (at 1.5 -9.5) (size 0.5 0.5) (property pad_prop_bga) (layers "F.Cu" "F.Paste" "F.Mask") (tstamp 7e5b7be8-2a42-4180-bc7f-e8c9989e7439))
  (pad "B14" smd circle (at 2.5 -9.5) (size 0.5 0.5) (property pad_prop_bga) (layers "F.Cu" "F.Paste" "F.Mask") (tstamp a5aa15ee-70e4-4b59-be5a-7db05434fefc))
  (pad "B15" smd circle (at 3.5 -9.5) (size 0.5 0.5) (property pad_prop_bga) (layers "F.Cu" "F.Paste" "F.Mask") (tstamp 04cfed1b-e980-48d4-9397-53de557323b1))
  (pad "B16" smd circle (at 4.5 -9.5) (size 0.5 0.5) (property pad_prop_bga) (layers "F.Cu" "F.Paste" "F.Mask") (tstamp 57f163ea-1679-40ee-8a18-7d32c9b34b66))
  (pad "B17" smd circle (at 5.5 -9.5) (size 0.5 0.5) (property pad_prop_bga) (layers "F.Cu" "F.Paste" "F.Mask") (tstamp b8420458-d015-4fc2-bc88-b59cbdb8b17d))
  (pad "B18" smd circle (at 6.5 -9.5) (size 0.5 0.5) (property pad_prop_bga) (layers "F.Cu" "F.Paste" "F.Mask") (tstamp 737c5f27-1e7d-4e4c-9acd-87d3f95d2b45))
  (pad "B19" smd circle (at 7.5 -9.5) (size 0.5 0.5) (property pad_prop_bga) (layers "F.Cu" "F.Paste" "F.Mask") (tstamp a2530fc2-9db3-4e8a-ae27-6fcfa66f7ed2))
  (pad "B20" smd circle (at 8.5 -9.5) (size 0.5 0.5) (property pad_prop_bga) (layers "F.Cu" "F.Paste" "F.Mask") (tstamp 66d43120-49bc-4026-9790-faa17b5dc044))
  (pad "B21" smd circle (at 9.5 -9.5) (size 0.5 0.5) (property pad_prop_bga) (layers "F.Cu" "F.Paste" "F.Mask") (tstamp 7e2110d6-8664-45c7-9371-534465b6d547))
  (pad "B22" smd circle (at 10.5 -9.5) (size 0.5 0.5) (property pad_prop_bga) (layers "F.Cu" "F.Paste" "F.Mask") (tstamp 6c3b3c64-de69-4098-bec9-be054363b3b8))
  (pad "C1" smd circle (at -10.5 -8.5) (size 0.5 0.5) (property pad_prop_bga) (layers "F.Cu" "F.Paste" "F.Mask") (tstamp 155a509f-a2fe-43d5-be14-40128c7e8f12))
  (pad "C2" smd circle (at -9.5 -8.5) (size 0.5 0.5) (property pad_prop_bga) (layers "F.Cu" "F.Paste" "F.Mask") (tstamp c00c59a9-e077-4eae-8872-ef552a3e7c32))
  (pad "C3" smd circle (at -8.5 -8.5) (size 0.5 0.5) (property pad_prop_bga) (layers "F.Cu" "F.Paste" "F.Mask") (tstamp 008a46ca-ed41-4945-8bae-3f4f59d40d05))
  (pad "C4" smd circle (at -7.5 -8.5) (size 0.5 0.5) (property pad_prop_bga) (layers "F.Cu" "F.Paste" "F.Mask") (tstamp 80d7437e-90d2-4552-be3a-5d3e1af32988))
  (pad "C5" smd circle (at -6.5 -8.5) (size 0.5 0.5) (property pad_prop_bga) (layers "F.Cu" "F.Paste" "F.Mask") (tstamp 0fa455b8-b4e7-4939-85dd-7f0fc84f5bd1))
  (pad "C6" smd circle (at -5.5 -8.5) (size 0.5 0.5) (property pad_prop_bga) (layers "F.Cu" "F.Paste" "F.Mask") (tstamp d3b1f9cf-7b44-4d6b-86a4-106578629c2f))
  (pad "C7" smd circle (at -4.5 -8.5) (size 0.5 0.5) (property pad_prop_bga) (layers "F.Cu" "F.Paste" "F.Mask") (tstamp 687b1782-ea22-45e6-9200-45c3927ebb93))
  (pad "C8" smd circle (at -3.5 -8.5) (size 0.5 0.5) (property pad_prop_bga) (layers "F.Cu" "F.Paste" "F.Mask") (tstamp 2ce0db43-a353-4bed-b189-847590cc58e3))
  (pad "C9" smd circle (at -2.5 -8.5) (size 0.5 0.5) (property pad_prop_bga) (layers "F.Cu" "F.Paste" "F.Mask") (tstamp 787f96b7-e55a-4ac3-b296-7bcd89371d3e))
  (pad "C10" smd circle (at -1.5 -8.5) (size 0.5 0.5) (property pad_prop_bga) (layers "F.Cu" "F.Paste" "F.Mask") (tstamp 6d73ce09-741d-455a-873a-455d86743d4f))
  (pad "C11" smd circle (at -0.5 -8.5) (size 0.5 0.5) (property pad_prop_bga) (layers "F.Cu" "F.Paste" "F.Mask") (tstamp fda3ba58-f287-48a0-ad2d-f0f08a90e93d))
  (pad "C12" smd circle (at 0.5 -8.5) (size 0.5 0.5) (property pad_prop_bga) (layers "F.Cu" "F.Paste" "F.Mask") (tstamp 504796f7-f645-4886-9814-120fa183ddf0))
  (pad "C13" smd circle (at 1.5 -8.5) (size 0.5 0.5) (property pad_prop_bga) (layers "F.Cu" "F.Paste" "F.Mask") (tstamp 5dd26f6e-3fe4-4749-ae46-479fb99a89eb))
  (pad "C14" smd circle (at 2.5 -8.5) (size 0.5 0.5) (property pad_prop_bga) (layers "F.Cu" "F.Paste" "F.Mask") (tstamp 77325842-517b-406f-a8d1-41a8b435ef99))
  (pad "C15" smd circle (at 3.5 -8.5) (size 0.5 0.5) (property pad_prop_bga) (layers "F.Cu" "F.Paste" "F.Mask") (tstamp b6a7554c-00b4-4066-89d1-569e3da70055))
  (pad "C16" smd circle (at 4.5 -8.5) (size 0.5 0.5) (property pad_prop_bga) (layers "F.Cu" "F.Paste" "F.Mask") (tstamp 5256431c-bec3-4dd0-a7f9-6173670e9252))
  (pad "C17" smd circle (at 5.5 -8.5) (size 0.5 0.5) (property pad_prop_bga) (layers "F.Cu" "F.Paste" "F.Mask") (tstamp d7309a71-9918-4392-bb18-ba6d7dfa5cb4))
  (pad "C18" smd circle (at 6.5 -8.5) (size 0.5 0.5) (property pad_prop_bga) (layers "F.Cu" "F.Paste" "F.Mask") (tstamp 8b8231ab-aa89-43de-992f-ad3db90d994c))
  (pad "C19" smd circle (at 7.5 -8.5) (size 0.5 0.5) (property pad_prop_bga) (layers "F.Cu" "F.Paste" "F.Mask") (tstamp 4f61bc16-aa06-49e4-9e94-f3a7861cfcae))
  (pad "C20" smd circle (at 8.5 -8.5) (size 0.5 0.5) (property pad_prop_bga) (layers "F.Cu" "F.Paste" "F.Mask") (tstamp 335bfbed-0cce-42b8-9627-619f934a67d8))
  (pad "C21" smd circle (at 9.5 -8.5) (size 0.5 0.5) (property pad_prop_bga) (layers "F.Cu" "F.Paste" "F.Mask") (tstamp ffc96538-1c4b-4957-842d-eb075b489f6e))
  (pad "C22" smd circle (at 10.5 -8.5) (size 0.5 0.5) (property pad_prop_bga) (layers "F.Cu" "F.Paste" "F.Mask") (tstamp 1e1faca9-edcc-440a-8fcc-ed5dd185002c))
  (pad "D1" smd circle (at -10.5 -7.5) (size 0.5 0.5) (property pad_prop_bga) (layers "F.Cu" "F.Paste" "F.Mask") (tstamp 69eaab83-c16a-43c2-8af9-45856f1b5b69))
  (pad "D2" smd circle (at -9.5 -7.5) (size 0.5 0.5) (property pad_prop_bga) (layers "F.Cu" "F.Paste" "F.Mask") (tstamp 4f200ae1-caaa-44d6-9bfa-7c48ec3b7512))
  (pad "D3" smd circle (at -8.5 -7.5) (size 0.5 0.5) (property pad_prop_bga) (layers "F.Cu" "F.Paste" "F.Mask") (tstamp 422aaa0f-2432-4b41-a6e0-079ffc79a803))
  (pad "D4" smd circle (at -7.5 -7.5) (size 0.5 0.5) (property pad_prop_bga) (layers "F.Cu" "F.Paste" "F.Mask") (tstamp 52fcf294-410b-41c2-b337-3e266235d63b))
  (pad "D5" smd circle (at -6.5 -7.5) (size 0.5 0.5) (property pad_prop_bga) (layers "F.Cu" "F.Paste" "F.Mask") (tstamp d8aa4dff-4dc3-4e89-95cc-b279a9b64572))
  (pad "D6" smd circle (at -5.5 -7.5) (size 0.5 0.5) (property pad_prop_bga) (layers "F.Cu" "F.Paste" "F.Mask") (tstamp f3d03daf-954d-42c7-9037-0b573c732729))
  (pad "D7" smd circle (at -4.5 -7.5) (size 0.5 0.5) (property pad_prop_bga) (layers "F.Cu" "F.Paste" "F.Mask") (tstamp 1d272c00-2ab4-45b6-84c3-4a1d2b4b508c))
  (pad "D8" smd circle (at -3.5 -7.5) (size 0.5 0.5) (property pad_prop_bga) (layers "F.Cu" "F.Paste" "F.Mask") (tstamp 41f92f3c-fc24-42c5-802c-f4a045a287a8))
  (pad "D9" smd circle (at -2.5 -7.5) (size 0.5 0.5) (property pad_prop_bga) (layers "F.Cu" "F.Paste" "F.Mask") (tstamp 6260054a-db70-47e5-91f5-9ed52d8fa809))
  (pad "D10" smd circle (at -1.5 -7.5) (size 0.5 0.5) (property pad_prop_bga) (layers "F.Cu" "F.Paste" "F.Mask") (tstamp b3821ecb-8061-4888-8e46-de00993f2553))
  (pad "D11" smd circle (at -0.5 -7.5) (size 0.5 0.5) (property pad_prop_bga) (layers "F.Cu" "F.Paste" "F.Mask") (tstamp a286fd25-d144-46ba-87e8-e1279a1dcc00))
  (pad "D12" smd circle (at 0.5 -7.5) (size 0.5 0.5) (property pad_prop_bga) (layers "F.Cu" "F.Paste" "F.Mask") (tstamp 7b601a5a-763e-4b6f-aaef-73134d582186))
  (pad "D13" smd circle (at 1.5 -7.5) (size 0.5 0.5) (property pad_prop_bga) (layers "F.Cu" "F.Paste" "F.Mask") (tstamp 70783822-c809-46f3-a7ff-97c580755fbd))
  (pad "D14" smd circle (at 2.5 -7.5) (size 0.5 0.5) (property pad_prop_bga) (layers "F.Cu" "F.Paste" "F.Mask") (tstamp 1bff942c-d1cf-4b0d-aaa0-c5a88a215123))
  (pad "D15" smd circle (at 3.5 -7.5) (size 0.5 0.5) (property pad_prop_bga) (layers "F.Cu" "F.Paste" "F.Mask") (tstamp 6838f2e1-69d8-46aa-a0fa-215fd5ed49cd))
  (pad "D16" smd circle (at 4.5 -7.5) (size 0.5 0.5) (property pad_prop_bga) (layers "F.Cu" "F.Paste" "F.Mask") (tstamp 4076e6c7-0889-46fa-8f43-f3639696081e))
  (pad "D17" smd circle (at 5.5 -7.5) (size 0.5 0.5) (property pad_prop_bga) (layers "F.Cu" "F.Paste" "F.Mask") (tstamp c93ec86e-a7cb-40c7-9e2f-67ebe2d074ff))
  (pad "D18" smd circle (at 6.5 -7.5) (size 0.5 0.5) (property pad_prop_bga) (layers "F.Cu" "F.Paste" "F.Mask") (tstamp d5974cd9-a7b5-4bbc-aad1-3b2577b19020))
  (pad "D19" smd circle (at 7.5 -7.5) (size 0.5 0.5) (property pad_prop_bga) (layers "F.Cu" "F.Paste" "F.Mask") (tstamp d5fd97db-e50d-4580-af58-16fa691b699d))
  (pad "D20" smd circle (at 8.5 -7.5) (size 0.5 0.5) (property pad_prop_bga) (layers "F.Cu" "F.Paste" "F.Mask") (tstamp b1268893-4d2c-4a74-8623-91aee622ab87))
  (pad "D21" smd circle (at 9.5 -7.5) (size 0.5 0.5) (property pad_prop_bga) (layers "F.Cu" "F.Paste" "F.Mask") (tstamp f753e8c5-85bd-4812-9b02-a8a0a93147de))
  (pad "D22" smd circle (at 10.5 -7.5) (size 0.5 0.5) (property pad_prop_bga) (layers "F.Cu" "F.Paste" "F.Mask") (tstamp f27ca068-e317-4e6b-97ab-fa6b9c5b7b04))
  (pad "E1" smd circle (at -10.5 -6.5) (size 0.5 0.5) (property pad_prop_bga) (layers "F.Cu" "F.Paste" "F.Mask") (tstamp 4a1d5eaa-23b7-4d33-990a-739604d9331c))
  (pad "E2" smd circle (at -9.5 -6.5) (size 0.5 0.5) (property pad_prop_bga) (layers "F.Cu" "F.Paste" "F.Mask") (tstamp bcf91b03-f586-4989-950d-7fc2c98c3a3d))
  (pad "E3" smd circle (at -8.5 -6.5) (size 0.5 0.5) (property pad_prop_bga) (layers "F.Cu" "F.Paste" "F.Mask") (tstamp cf0a0e4b-5d16-42d3-9ac2-8fd8468ec5bc))
  (pad "E4" smd circle (at -7.5 -6.5) (size 0.5 0.5) (property pad_prop_bga) (layers "F.Cu" "F.Paste" "F.Mask") (tstamp 4f25b75e-a274-4a0c-9fcf-518ff821296c))
  (pad "E5" smd circle (at -6.5 -6.5) (size 0.5 0.5) (property pad_prop_bga) (layers "F.Cu" "F.Paste" "F.Mask") (tstamp bfca8c71-5944-42c8-a5a4-cbec5d663d46))
  (pad "E6" smd circle (at -5.5 -6.5) (size 0.5 0.5) (property pad_prop_bga) (layers "F.Cu" "F.Paste" "F.Mask") (tstamp c12aecb6-33da-461f-a2e1-a78b1620c54a))
  (pad "E7" smd circle (at -4.5 -6.5) (size 0.5 0.5) (property pad_prop_bga) (layers "F.Cu" "F.Paste" "F.Mask") (tstamp 3c9a443e-d5a3-4dce-95e8-a5276b3c426e))
  (pad "E8" smd circle (at -3.5 -6.5) (size 0.5 0.5) (property pad_prop_bga) (layers "F.Cu" "F.Paste" "F.Mask") (tstamp 47af5355-be6b-4ece-88bb-d5e4e5503801))
  (pad "E9" smd circle (at -2.5 -6.5) (size 0.5 0.5) (property pad_prop_bga) (layers "F.Cu" "F.Paste" "F.Mask") (tstamp a39f1145-e1d3-4f11-8180-529920f2b69f))
  (pad "E10" smd circle (at -1.5 -6.5) (size 0.5 0.5) (property pad_prop_bga) (layers "F.Cu" "F.Paste" "F.Mask") (tstamp 933a53a5-afe2-4137-8c6f-a0521e5007ca))
  (pad "E11" smd circle (at -0.5 -6.5) (size 0.5 0.5) (property pad_prop_bga) (layers "F.Cu" "F.Paste" "F.Mask") (tstamp 5eee4953-0242-43ed-8d90-5ec18de1eab6))
  (pad "E12" smd circle (at 0.5 -6.5) (size 0.5 0.5) (property pad_prop_bga) (layers "F.Cu" "F.Paste" "F.Mask") (tstamp 33278741-bfd5-439f-abfd-43885cffb82d))
  (pad "E13" smd circle (at 1.5 -6.5) (size 0.5 0.5) (property pad_prop_bga) (layers "F.Cu" "F.Paste" "F.Mask") (tstamp e42b79bf-ee2f-4759-948f-5f8da63f3886))
  (pad "E14" smd circle (at 2.5 -6.5) (size 0.5 0.5) (property pad_prop_bga) (layers "F.Cu" "F.Paste" "F.Mask") (tstamp 474dac91-3fb0-47a0-b073-77824b7d68a5))
  (pad "E15" smd circle (at 3.5 -6.5) (size 0.5 0.5) (property pad_prop_bga) (layers "F.Cu" "F.Paste" "F.Mask") (tstamp 84b90670-6ac0-4bd4-8155-63c3fe8f5279))
  (pad "E16" smd circle (at 4.5 -6.5) (size 0.5 0.5) (property pad_prop_bga) (layers "F.Cu" "F.Paste" "F.Mask") (tstamp c98fbbe1-e675-4f72-944b-e0f680ef4734))
  (pad "E17" smd circle (at 5.5 -6.5) (size 0.5 0.5) (property pad_prop_bga) (layers "F.Cu" "F.Paste" "F.Mask") (tstamp 8cddfe4b-c0b7-435d-9d00-a71e23d39e93))
  (pad "E18" smd circle (at 6.5 -6.5) (size 0.5 0.5) (property pad_prop_bga) (layers "F.Cu" "F.Paste" "F.Mask") (tstamp 961ff377-c5d3-4196-89e7-fd3d0805217c))
  (pad "E19" smd circle (at 7.5 -6.5) (size 0.5 0.5) (property pad_prop_bga) (layers "F.Cu" "F.Paste" "F.Mask") (tstamp 774784e8-c4fa-4712-a2ba-1af7b3a26830))
  (pad "E20" smd circle (at 8.5 -6.5) (size 0.5 0.5) (property pad_prop_bga) (layers "F.Cu" "F.Paste" "F.Mask") (tstamp bfbef0e9-898f-4bc3-92dd-be46f67d36dd))
  (pad "E21" smd circle (at 9.5 -6.5) (size 0.5 0.5) (property pad_prop_bga) (layers "F.Cu" "F.Paste" "F.Mask") (tstamp 7f1b5fbb-7dd9-48e5-b462-28635f2a5376))
  (pad "E22" smd circle (at 10.5 -6.5) (size 0.5 0.5) (property pad_prop_bga) (layers "F.Cu" "F.Paste" "F.Mask") (tstamp ef08aab4-11ad-4064-a991-5af9080eb8e6))
  (pad "F1" smd circle (at -10.5 -5.5) (size 0.5 0.5) (property pad_prop_bga) (layers "F.Cu" "F.Paste" "F.Mask") (tstamp d47da7cf-d955-41fe-aa40-ff165c483e4f))
  (pad "F2" smd circle (at -9.5 -5.5) (size 0.5 0.5) (property pad_prop_bga) (layers "F.Cu" "F.Paste" "F.Mask") (tstamp 5335f2ed-14c1-4ecc-b764-94d8ffc42093))
  (pad "F3" smd circle (at -8.5 -5.5) (size 0.5 0.5) (property pad_prop_bga) (layers "F.Cu" "F.Paste" "F.Mask") (tstamp a131b381-e729-41e9-8ee7-0cdc85903d3f))
  (pad "F4" smd circle (at -7.5 -5.5) (size 0.5 0.5) (property pad_prop_bga) (layers "F.Cu" "F.Paste" "F.Mask") (tstamp 9880fada-d7ff-487e-9b04-e7bd92e6bc5d))
  (pad "F5" smd circle (at -6.5 -5.5) (size 0.5 0.5) (property pad_prop_bga) (layers "F.Cu" "F.Paste" "F.Mask") (tstamp a1c324c2-45c3-43b8-a691-ad7f03b22be4))
  (pad "F6" smd circle (at -5.5 -5.5) (size 0.5 0.5) (property pad_prop_bga) (layers "F.Cu" "F.Paste" "F.Mask") (tstamp 7c6f5c20-26b2-49ba-8002-c375385c795a))
  (pad "F7" smd circle (at -4.5 -5.5) (size 0.5 0.5) (property pad_prop_bga) (layers "F.Cu" "F.Paste" "F.Mask") (tstamp b08beff1-0ed1-4078-9c59-b480bb28b9db))
  (pad "F8" smd circle (at -3.5 -5.5) (size 0.5 0.5) (property pad_prop_bga) (layers "F.Cu" "F.Paste" "F.Mask") (tstamp 8f598af0-5a7e-449b-9a21-c90b6a24b155))
  (pad "F9" smd circle (at -2.5 -5.5) (size 0.5 0.5) (property pad_prop_bga) (layers "F.Cu" "F.Paste" "F.Mask") (tstamp 09208a15-9c18-4bef-92f9-ba34010e2df7))
  (pad "F10" smd circle (at -1.5 -5.5) (size 0.5 0.5) (property pad_prop_bga) (layers "F.Cu" "F.Paste" "F.Mask") (tstamp 59324d4f-836d-4b62-9ad2-a05e0dcb5eaf))
  (pad "F11" smd circle (at -0.5 -5.5) (size 0.5 0.5) (property pad_prop_bga) (layers "F.Cu" "F.Paste" "F.Mask") (tstamp 56f9952a-c832-4d75-a3a2-f9d3d77723a2))
  (pad "F12" smd circle (at 0.5 -5.5) (size 0.5 0.5) (property pad_prop_bga) (layers "F.Cu" "F.Paste" "F.Mask") (tstamp bee457a4-9eac-4505-8ec3-c0bf1c0317b8))
  (pad "F13" smd circle (at 1.5 -5.5) (size 0.5 0.5) (property pad_prop_bga) (layers "F.Cu" "F.Paste" "F.Mask") (tstamp 095ed535-3115-4f1c-bbde-8ca39da6f79b))
  (pad "F14" smd circle (at 2.5 -5.5) (size 0.5 0.5) (property pad_prop_bga) (layers "F.Cu" "F.Paste" "F.Mask") (tstamp 21e53378-4828-4304-8d04-03c4f579320c))
  (pad "F15" smd circle (at 3.5 -5.5) (size 0.5 0.5) (property pad_prop_bga) (layers "F.Cu" "F.Paste" "F.Mask") (tstamp df9881bf-3f72-4c35-918e-dab06526058e))
  (pad "F16" smd circle (at 4.5 -5.5) (size 0.5 0.5) (property pad_prop_bga) (layers "F.Cu" "F.Paste" "F.Mask") (tstamp 66fb4e41-12ce-408a-9705-ca3bd6168218))
  (pad "F17" smd circle (at 5.5 -5.5) (size 0.5 0.5) (property pad_prop_bga) (layers "F.Cu" "F.Paste" "F.Mask") (tstamp f02be696-34e6-4f1e-b531-ced3ce1ea859))
  (pad "F18" smd circle (at 6.5 -5.5) (size 0.5 0.5) (property pad_prop_bga) (layers "F.Cu" "F.Paste" "F.Mask") (tstamp 5198899d-9188-430a-9721-3cce0b96d707))
  (pad "F19" smd circle (at 7.5 -5.5) (size 0.5 0.5) (property pad_prop_bga) (layers "F.Cu" "F.Paste" "F.Mask") (tstamp 9c58a931-e5f0-460a-93d1-718520958668))
  (pad "F20" smd circle (at 8.5 -5.5) (size 0.5 0.5) (property pad_prop_bga) (layers "F.Cu" "F.Paste" "F.Mask") (tstamp 2a67124b-c063-4364-b487-f23a20bf0985))
  (pad "F21" smd circle (at 9.5 -5.5) (size 0.5 0.5) (property pad_prop_bga) (layers "F.Cu" "F.Paste" "F.Mask") (tstamp 226ec035-8f07-49fe-9c7e-4a4e05c1e426))
  (pad "F22" smd circle (at 10.5 -5.5) (size 0.5 0.5) (property pad_prop_bga) (layers "F.Cu" "F.Paste" "F.Mask") (tstamp d0efb0b6-c4fc-4a6f-83c1-1b3f8af44bbf))
  (pad "G1" smd circle (at -10.5 -4.5) (size 0.5 0.5) (property pad_prop_bga) (layers "F.Cu" "F.Paste" "F.Mask") (tstamp bd16d76d-f00a-4280-9dac-26ac96e0ef88))
  (pad "G2" smd circle (at -9.5 -4.5) (size 0.5 0.5) (property pad_prop_bga) (layers "F.Cu" "F.Paste" "F.Mask") (tstamp f4affcb2-25c2-45f5-b716-e7ba900fd09b))
  (pad "G3" smd circle (at -8.5 -4.5) (size 0.5 0.5) (property pad_prop_bga) (layers "F.Cu" "F.Paste" "F.Mask") (tstamp 967c95e9-32da-4e5e-ab5f-a73a83995ae3))
  (pad "G4" smd circle (at -7.5 -4.5) (size 0.5 0.5) (property pad_prop_bga) (layers "F.Cu" "F.Paste" "F.Mask") (tstamp c05c4473-db55-4831-b899-85c56291dd3e))
  (pad "G5" smd circle (at -6.5 -4.5) (size 0.5 0.5) (property pad_prop_bga) (layers "F.Cu" "F.Paste" "F.Mask") (tstamp b7772a21-bd95-4e34-9659-e5a17ee68cde))
  (pad "G6" smd circle (at -5.5 -4.5) (size 0.5 0.5) (property pad_prop_bga) (layers "F.Cu" "F.Paste" "F.Mask") (tstamp 2b4ab1f4-8799-49ce-8df7-15be040e299b))
  (pad "G7" smd circle (at -4.5 -4.5) (size 0.5 0.5) (property pad_prop_bga) (layers "F.Cu" "F.Paste" "F.Mask") (tstamp bd67260e-06c3-4db5-9d45-15ef3691cbf7))
  (pad "G8" smd circle (at -3.5 -4.5) (size 0.5 0.5) (property pad_prop_bga) (layers "F.Cu" "F.Paste" "F.Mask") (tstamp fb60ba73-a577-4832-ad89-6c7991ae5957))
  (pad "G9" smd circle (at -2.5 -4.5) (size 0.5 0.5) (property pad_prop_bga) (layers "F.Cu" "F.Paste" "F.Mask") (tstamp be5e5314-2f2e-40e5-ac64-1450fed76ab7))
  (pad "G10" smd circle (at -1.5 -4.5) (size 0.5 0.5) (property pad_prop_bga) (layers "F.Cu" "F.Paste" "F.Mask") (tstamp 8ee3c0bf-9355-4796-8b0e-33b246f29d3c))
  (pad "G11" smd circle (at -0.5 -4.5) (size 0.5 0.5) (property pad_prop_bga) (layers "F.Cu" "F.Paste" "F.Mask") (tstamp 36768432-931a-4741-bb9b-f7371efd61e0))
  (pad "G12" smd circle (at 0.5 -4.5) (size 0.5 0.5) (property pad_prop_bga) (layers "F.Cu" "F.Paste" "F.Mask") (tstamp 5911f21f-f6c4-44bc-89dd-4643de967bf5))
  (pad "G13" smd circle (at 1.5 -4.5) (size 0.5 0.5) (property pad_prop_bga) (layers "F.Cu" "F.Paste" "F.Mask") (tstamp d2013b22-ac0a-40cc-af11-129135934724))
  (pad "G14" smd circle (at 2.5 -4.5) (size 0.5 0.5) (property pad_prop_bga) (layers "F.Cu" "F.Paste" "F.Mask") (tstamp 339277f3-6496-4260-8f30-de88ed8b4466))
  (pad "G15" smd circle (at 3.5 -4.5) (size 0.5 0.5) (property pad_prop_bga) (layers "F.Cu" "F.Paste" "F.Mask") (tstamp a3f44688-fae0-425a-80a8-ab64878edb51))
  (pad "G16" smd circle (at 4.5 -4.5) (size 0.5 0.5) (property pad_prop_bga) (layers "F.Cu" "F.Paste" "F.Mask") (tstamp 226ef01b-f24e-41a8-b84a-f9e404e82193))
  (pad "G17" smd circle (at 5.5 -4.5) (size 0.5 0.5) (property pad_prop_bga) (layers "F.Cu" "F.Paste" "F.Mask") (tstamp e5354186-9e41-4446-b1cd-281a4d8bc43f))
  (pad "G18" smd circle (at 6.5 -4.5) (size 0.5 0.5) (property pad_prop_bga) (layers "F.Cu" "F.Paste" "F.Mask") (tstamp e1172b68-e873-44a6-b522-7c746ab1a49c))
  (pad "G19" smd circle (at 7.5 -4.5) (size 0.5 0.5) (property pad_prop_bga) (layers "F.Cu" "F.Paste" "F.Mask") (tstamp e445a4a5-b7c8-4b25-9ebf-0827bfd7b2a0))
  (pad "G20" smd circle (at 8.5 -4.5) (size 0.5 0.5) (property pad_prop_bga) (layers "F.Cu" "F.Paste" "F.Mask") (tstamp 55cb8aac-a43e-4798-9217-4e55ec9fd86d))
  (pad "G21" smd circle (at 9.5 -4.5) (size 0.5 0.5) (property pad_prop_bga) (layers "F.Cu" "F.Paste" "F.Mask") (tstamp 9a3594ed-6540-4a9c-8984-07cf12ceebf6))
  (pad "G22" smd circle (at 10.5 -4.5) (size 0.5 0.5) (property pad_prop_bga) (layers "F.Cu" "F.Paste" "F.Mask") (tstamp 64cc1244-c76e-4cde-a66f-7ac15ea3cdb1))
  (pad "H1" smd circle (at -10.5 -3.5) (size 0.5 0.5) (property pad_prop_bga) (layers "F.Cu" "F.Paste" "F.Mask") (tstamp d347b3f0-103d-4777-86e5-d175aa6e8907))
  (pad "H2" smd circle (at -9.5 -3.5) (size 0.5 0.5) (property pad_prop_bga) (layers "F.Cu" "F.Paste" "F.Mask") (tstamp b7448576-6ed0-4a7f-93e2-f1dfb30c57dc))
  (pad "H3" smd circle (at -8.5 -3.5) (size 0.5 0.5) (property pad_prop_bga) (layers "F.Cu" "F.Paste" "F.Mask") (tstamp 1eb26f77-8ab5-40dd-8e9f-7144c307ca7f))
  (pad "H4" smd circle (at -7.5 -3.5) (size 0.5 0.5) (property pad_prop_bga) (layers "F.Cu" "F.Paste" "F.Mask") (tstamp e4eced43-7f86-4526-bda4-08ad2019b11a))
  (pad "H5" smd circle (at -6.5 -3.5) (size 0.5 0.5) (property pad_prop_bga) (layers "F.Cu" "F.Paste" "F.Mask") (tstamp e16638b8-434b-4eb4-9724-589c83d37aff))
  (pad "H6" smd circle (at -5.5 -3.5) (size 0.5 0.5) (property pad_prop_bga) (layers "F.Cu" "F.Paste" "F.Mask") (tstamp 05f80f83-96ee-41df-b78e-29af33baa293))
  (pad "H7" smd circle (at -4.5 -3.5) (size 0.5 0.5) (property pad_prop_bga) (layers "F.Cu" "F.Paste" "F.Mask") (tstamp 2b1ca4af-ed69-4ac2-ac9e-c69250c707fe))
  (pad "H8" smd circle (at -3.5 -3.5) (size 0.5 0.5) (property pad_prop_bga) (layers "F.Cu" "F.Paste" "F.Mask") (tstamp 26b2541b-6d44-4ca0-a760-62daff68dd0b))
  (pad "H9" smd circle (at -2.5 -3.5) (size 0.5 0.5) (property pad_prop_bga) (layers "F.Cu" "F.Paste" "F.Mask") (tstamp ad601099-ca46-4255-a74e-3dc02f8cb1b3))
  (pad "H10" smd circle (at -1.5 -3.5) (size 0.5 0.5) (property pad_prop_bga) (layers "F.Cu" "F.Paste" "F.Mask") (tstamp de31edec-4959-4f3d-922c-c8ce32a8f58a))
  (pad "H11" smd circle (at -0.5 -3.5) (size 0.5 0.5) (property pad_prop_bga) (layers "F.Cu" "F.Paste" "F.Mask") (tstamp e9e02cd2-f001-4bef-907a-1b3fb5b8f72f))
  (pad "H12" smd circle (at 0.5 -3.5) (size 0.5 0.5) (property pad_prop_bga) (layers "F.Cu" "F.Paste" "F.Mask") (tstamp 5cbc92b8-88d2-48cf-b6ad-40dd87696ee3))
  (pad "H13" smd circle (at 1.5 -3.5) (size 0.5 0.5) (property pad_prop_bga) (layers "F.Cu" "F.Paste" "F.Mask") (tstamp 0672c427-813e-4661-8421-5f6b892d40ce))
  (pad "H14" smd circle (at 2.5 -3.5) (size 0.5 0.5) (property pad_prop_bga) (layers "F.Cu" "F.Paste" "F.Mask") (tstamp f146b06a-fa1e-4d02-9191-324263a2628c))
  (pad "H15" smd circle (at 3.5 -3.5) (size 0.5 0.5) (property pad_prop_bga) (layers "F.Cu" "F.Paste" "F.Mask") (tstamp e057cdaf-e025-428a-91a5-56db3ed5a89d))
  (pad "H16" smd circle (at 4.5 -3.5) (size 0.5 0.5) (property pad_prop_bga) (layers "F.Cu" "F.Paste" "F.Mask") (tstamp a888d2a4-c526-42d1-9601-2b648ba70f5e))
  (pad "H17" smd circle (at 5.5 -3.5) (size 0.5 0.5) (property pad_prop_bga) (layers "F.Cu" "F.Paste" "F.Mask") (tstamp 14a3068d-7850-4357-95cd-fc75e4b1be5d))
  (pad "H18" smd circle (at 6.5 -3.5) (size 0.5 0.5) (property pad_prop_bga) (layers "F.Cu" "F.Paste" "F.Mask") (tstamp 2efd8f8d-4ae0-4065-94f1-174a291341f2))
  (pad "H19" smd circle (at 7.5 -3.5) (size 0.5 0.5) (property pad_prop_bga) (layers "F.Cu" "F.Paste" "F.Mask") (tstamp 131a6114-279d-4c45-9a37-33b885ed8636))
  (pad "H20" smd circle (at 8.5 -3.5) (size 0.5 0.5) (property pad_prop_bga) (layers "F.Cu" "F.Paste" "F.Mask") (tstamp bf164984-cf53-4879-b2a1-21f8a502263b))
  (pad "H21" smd circle (at 9.5 -3.5) (size 0.5 0.5) (property pad_prop_bga) (layers "F.Cu" "F.Paste" "F.Mask") (tstamp 51c0ed85-0d0d-4ff2-9279-b9cf3c3f74dd))
  (pad "H22" smd circle (at 10.5 -3.5) (size 0.5 0.5) (property pad_prop_bga) (layers "F.Cu" "F.Paste" "F.Mask") (tstamp 78f6ee3c-6e32-4888-b1dc-4b6503377a4a))
  (pad "J1" smd circle (at -10.5 -2.5) (size 0.5 0.5) (property pad_prop_bga) (layers "F.Cu" "F.Paste" "F.Mask") (tstamp fd5cbad2-7748-4bd3-b01c-d27a64848522))
  (pad "J2" smd circle (at -9.5 -2.5) (size 0.5 0.5) (property pad_prop_bga) (layers "F.Cu" "F.Paste" "F.Mask") (tstamp 48130df5-625d-4dc7-9cda-cf450d3097e5))
  (pad "J3" smd circle (at -8.5 -2.5) (size 0.5 0.5) (property pad_prop_bga) (layers "F.Cu" "F.Paste" "F.Mask") (tstamp 6ffe6a63-30ae-482c-bc6f-5715c18fa979))
  (pad "J4" smd circle (at -7.5 -2.5) (size 0.5 0.5) (property pad_prop_bga) (layers "F.Cu" "F.Paste" "F.Mask") (tstamp e12f18d7-4d2a-4c8c-a244-803f5f53c3a5))
  (pad "J5" smd circle (at -6.5 -2.5) (size 0.5 0.5) (property pad_prop_bga) (layers "F.Cu" "F.Paste" "F.Mask") (tstamp 551b762c-ce92-4344-9b9d-d8691bc10c8d))
  (pad "J6" smd circle (at -5.5 -2.5) (size 0.5 0.5) (property pad_prop_bga) (layers "F.Cu" "F.Paste" "F.Mask") (tstamp bcb301a7-2ced-4a07-b382-d79a8b8774d7))
  (pad "J7" smd circle (at -4.5 -2.5) (size 0.5 0.5) (property pad_prop_bga) (layers "F.Cu" "F.Paste" "F.Mask") (tstamp 7ead4123-ac9f-48cb-a88c-34cee500ead2))
  (pad "J8" smd circle (at -3.5 -2.5) (size 0.5 0.5) (property pad_prop_bga) (layers "F.Cu" "F.Paste" "F.Mask") (tstamp f285b3e7-3cef-4464-9fd5-ff8b4a059521))
  (pad "J9" smd circle (at -2.5 -2.5) (size 0.5 0.5) (property pad_prop_bga) (layers "F.Cu" "F.Paste" "F.Mask") (tstamp 504742a3-39ee-490e-bd5b-4480f4c146ec))
  (pad "J10" smd circle (at -1.5 -2.5) (size 0.5 0.5) (property pad_prop_bga) (layers "F.Cu" "F.Paste" "F.Mask") (tstamp 95034b68-716a-4e94-bd0f-ac69d73d4abb))
  (pad "J11" smd circle (at -0.5 -2.5) (size 0.5 0.5) (property pad_prop_bga) (layers "F.Cu" "F.Paste" "F.Mask") (tstamp fcec2f3d-1490-4a9e-a776-74716972682c))
  (pad "J12" smd circle (at 0.5 -2.5) (size 0.5 0.5) (property pad_prop_bga) (layers "F.Cu" "F.Paste" "F.Mask") (tstamp d0639fe3-4469-4d36-a2cd-24a9c8c4bec2))
  (pad "J13" smd circle (at 1.5 -2.5) (size 0.5 0.5) (property pad_prop_bga) (layers "F.Cu" "F.Paste" "F.Mask") (tstamp 364ebb4a-d66f-4950-9fe9-6f43abb600b1))
  (pad "J14" smd circle (at 2.5 -2.5) (size 0.5 0.5) (property pad_prop_bga) (layers "F.Cu" "F.Paste" "F.Mask") (tstamp 78d807dd-536f-436c-8ce9-38f28398c698))
  (pad "J15" smd circle (at 3.5 -2.5) (size 0.5 0.5) (property pad_prop_bga) (layers "F.Cu" "F.Paste" "F.Mask") (tstamp 645c4c6e-ff63-48b1-b288-f4b68cc8bf3b))
  (pad "J16" smd circle (at 4.5 -2.5) (size 0.5 0.5) (property pad_prop_bga) (layers "F.Cu" "F.Paste" "F.Mask") (tstamp 773a662d-76e9-41ad-b13e-60de57e9e541))
  (pad "J17" smd circle (at 5.5 -2.5) (size 0.5 0.5) (property pad_prop_bga) (layers "F.Cu" "F.Paste" "F.Mask") (tstamp fd60d4ed-6d56-4d7e-a961-cbd6eaf1c0e8))
  (pad "J18" smd circle (at 6.5 -2.5) (size 0.5 0.5) (property pad_prop_bga) (layers "F.Cu" "F.Paste" "F.Mask") (tstamp 6ca5ded0-1618-498d-8bf4-c847b8578f1a))
  (pad "J19" smd circle (at 7.5 -2.5) (size 0.5 0.5) (property pad_prop_bga) (layers "F.Cu" "F.Paste" "F.Mask") (tstamp 74843c71-beb2-4eb0-99aa-fd176cbe2826))
  (pad "J20" smd circle (at 8.5 -2.5) (size 0.5 0.5) (property pad_prop_bga) (layers "F.Cu" "F.Paste" "F.Mask") (tstamp 073c7f61-6bd2-48b1-99c9-3768e655aa95))
  (pad "J21" smd circle (at 9.5 -2.5) (size 0.5 0.5) (property pad_prop_bga) (layers "F.Cu" "F.Paste" "F.Mask") (tstamp d05be297-df30-4e43-8f16-77e5fd61ae66))
  (pad "J22" smd circle (at 10.5 -2.5) (size 0.5 0.5) (property pad_prop_bga) (layers "F.Cu" "F.Paste" "F.Mask") (tstamp c91d1104-a5db-4468-bd10-d7a782332371))
  (pad "K1" smd circle (at -10.5 -1.5) (size 0.5 0.5) (property pad_prop_bga) (layers "F.Cu" "F.Paste" "F.Mask") (tstamp ec6a4a77-7049-447e-b347-6b34faa855bb))
  (pad "K2" smd circle (at -9.5 -1.5) (size 0.5 0.5) (property pad_prop_bga) (layers "F.Cu" "F.Paste" "F.Mask") (tstamp 88b2b3cd-4ffc-46e9-8f1a-fb02dd706023))
  (pad "K3" smd circle (at -8.5 -1.5) (size 0.5 0.5) (property pad_prop_bga) (layers "F.Cu" "F.Paste" "F.Mask") (tstamp 5740aeff-a830-48a5-a826-ff672fa1e27a))
  (pad "K4" smd circle (at -7.5 -1.5) (size 0.5 0.5) (property pad_prop_bga) (layers "F.Cu" "F.Paste" "F.Mask") (tstamp c1ecbf6f-dadc-4198-8768-c3ce50c1dade))
  (pad "K5" smd circle (at -6.5 -1.5) (size 0.5 0.5) (property pad_prop_bga) (layers "F.Cu" "F.Paste" "F.Mask") (tstamp e1e57c6d-2e9b-429b-9c19-b6968e0bd1f4))
  (pad "K6" smd circle (at -5.5 -1.5) (size 0.5 0.5) (property pad_prop_bga) (layers "F.Cu" "F.Paste" "F.Mask") (tstamp d7d3b3de-1b43-4501-852e-f3637ebdb450))
  (pad "K7" smd circle (at -4.5 -1.5) (size 0.5 0.5) (property pad_prop_bga) (layers "F.Cu" "F.Paste" "F.Mask") (tstamp bbe0aa14-c593-486c-b7ce-f43f02c084f0))
  (pad "K8" smd circle (at -3.5 -1.5) (size 0.5 0.5) (property pad_prop_bga) (layers "F.Cu" "F.Paste" "F.Mask") (tstamp a8ee85f3-a61e-4579-800e-eabb97330c7e))
  (pad "K9" smd circle (at -2.5 -1.5) (size 0.5 0.5) (property pad_prop_bga) (layers "F.Cu" "F.Paste" "F.Mask") (tstamp a6628657-8879-496c-a8cf-71f383948dd3))
  (pad "K10" smd circle (at -1.5 -1.5) (size 0.5 0.5) (property pad_prop_bga) (layers "F.Cu" "F.Paste" "F.Mask") (tstamp cb49e880-8d10-4176-856a-f0af84d1f477))
  (pad "K11" smd circle (at -0.5 -1.5) (size 0.5 0.5) (property pad_prop_bga) (layers "F.Cu" "F.Paste" "F.Mask") (tstamp 8bdefb0a-ef51-4574-94ec-0281f5a83139))
  (pad "K12" smd circle (at 0.5 -1.5) (size 0.5 0.5) (property pad_prop_bga) (layers "F.Cu" "F.Paste" "F.Mask") (tstamp 55bc7a1a-fb9f-4579-bfe2-ea1de9d5831a))
  (pad "K13" smd circle (at 1.5 -1.5) (size 0.5 0.5) (property pad_prop_bga) (layers "F.Cu" "F.Paste" "F.Mask") (tstamp 54be6c52-3511-4689-b2d6-b8fc78a050fb))
  (pad "K14" smd circle (at 2.5 -1.5) (size 0.5 0.5) (property pad_prop_bga) (layers "F.Cu" "F.Paste" "F.Mask") (tstamp 6c066722-697d-42f9-812a-2fab4709ee41))
  (pad "K15" smd circle (at 3.5 -1.5) (size 0.5 0.5) (property pad_prop_bga) (layers "F.Cu" "F.Paste" "F.Mask") (tstamp a3f9c727-17cb-489a-9c2f-78968368fc6c))
  (pad "K16" smd circle (at 4.5 -1.5) (size 0.5 0.5) (property pad_prop_bga) (layers "F.Cu" "F.Paste" "F.Mask") (tstamp adbe9c21-7532-4f76-8f3d-43a143ef1052))
  (pad "K17" smd circle (at 5.5 -1.5) (size 0.5 0.5) (property pad_prop_bga) (layers "F.Cu" "F.Paste" "F.Mask") (tstamp bbaa376e-ba31-4954-9fbd-934d125c56e6))
  (pad "K18" smd circle (at 6.5 -1.5) (size 0.5 0.5) (property pad_prop_bga) (layers "F.Cu" "F.Paste" "F.Mask") (tstamp 9bece5f1-9d41-4aa2-a639-4e772901fb5a))
  (pad "K19" smd circle (at 7.5 -1.5) (size 0.5 0.5) (property pad_prop_bga) (layers "F.Cu" "F.Paste" "F.Mask") (tstamp 90af7473-8305-4647-bd4e-6bd9f0ec47fb))
  (pad "K20" smd circle (at 8.5 -1.5) (size 0.5 0.5) (property pad_prop_bga) (layers "F.Cu" "F.Paste" "F.Mask") (tstamp ae65f6d8-3304-4ccb-bbbb-b3702540bdaf))
  (pad "K21" smd circle (at 9.5 -1.5) (size 0.5 0.5) (property pad_prop_bga) (layers "F.Cu" "F.Paste" "F.Mask") (tstamp 1b425807-72cd-4134-bb15-bf2094fd6ce8))
  (pad "K22" smd circle (at 10.5 -1.5) (size 0.5 0.5) (property pad_prop_bga) (layers "F.Cu" "F.Paste" "F.Mask") (tstamp 600f3b93-3032-4b60-b2e4-f73e71a39ecf))
  (pad "L1" smd circle (at -10.5 -0.5) (size 0.5 0.5) (property pad_prop_bga) (layers "F.Cu" "F.Paste" "F.Mask") (tstamp f32096f1-016d-4d31-9aa0-88af8f607819))
  (pad "L2" smd circle (at -9.5 -0.5) (size 0.5 0.5) (property pad_prop_bga) (layers "F.Cu" "F.Paste" "F.Mask") (tstamp 268b344d-5837-455f-b223-6e58b0b30244))
  (pad "L3" smd circle (at -8.5 -0.5) (size 0.5 0.5) (property pad_prop_bga) (layers "F.Cu" "F.Paste" "F.Mask") (tstamp 8869c272-c69d-4328-95a5-57604742da53))
  (pad "L4" smd circle (at -7.5 -0.5) (size 0.5 0.5) (property pad_prop_bga) (layers "F.Cu" "F.Paste" "F.Mask") (tstamp 55e2658a-256c-42c9-962a-fb0bfe34df51))
  (pad "L5" smd circle (at -6.5 -0.5) (size 0.5 0.5) (property pad_prop_bga) (layers "F.Cu" "F.Paste" "F.Mask") (tstamp 9aa7b8e1-56fd-47cc-a63f-7e48776a4f8d))
  (pad "L6" smd circle (at -5.5 -0.5) (size 0.5 0.5) (property pad_prop_bga) (layers "F.Cu" "F.Paste" "F.Mask") (tstamp 4bcc6c0a-474a-417b-b6b1-a46c1a300cef))
  (pad "L7" smd circle (at -4.5 -0.5) (size 0.5 0.5) (property pad_prop_bga) (layers "F.Cu" "F.Paste" "F.Mask") (tstamp 9d20c528-195a-469f-9656-0bfecce2381d))
  (pad "L8" smd circle (at -3.5 -0.5) (size 0.5 0.5) (property pad_prop_bga) (layers "F.Cu" "F.Paste" "F.Mask") (tstamp d166e4a4-0c8d-4ab4-9968-a23f73a1d4a4))
  (pad "L9" smd circle (at -2.5 -0.5) (size 0.5 0.5) (property pad_prop_bga) (layers "F.Cu" "F.Paste" "F.Mask") (tstamp 63b57774-655e-483e-81d3-b9c20fe3865e))
  (pad "L10" smd circle (at -1.5 -0.5) (size 0.5 0.5) (property pad_prop_bga) (layers "F.Cu" "F.Paste" "F.Mask") (tstamp b7c7c480-7f0b-4cb4-a3cc-f192108f3364))
  (pad "L11" smd circle (at -0.5 -0.5) (size 0.5 0.5) (property pad_prop_bga) (layers "F.Cu" "F.Paste" "F.Mask") (tstamp 198eec2b-05c0-4389-af3e-811463adcf25))
  (pad "L12" smd circle (at 0.5 -0.5) (size 0.5 0.5) (property pad_prop_bga) (layers "F.Cu" "F.Paste" "F.Mask") (tstamp 54459fc6-54b9-4527-9d27-77ec2a6b1f03))
  (pad "L13" smd circle (at 1.5 -0.5) (size 0.5 0.5) (property pad_prop_bga) (layers "F.Cu" "F.Paste" "F.Mask") (tstamp cdd26bff-6b4d-4e17-8449-36a9ed7102fe))
  (pad "L14" smd circle (at 2.5 -0.5) (size 0.5 0.5) (property pad_prop_bga) (layers "F.Cu" "F.Paste" "F.Mask") (tstamp 8d57ac26-3840-4b7c-a08b-39fc47e9eb5f))
  (pad "L15" smd circle (at 3.5 -0.5) (size 0.5 0.5) (property pad_prop_bga) (layers "F.Cu" "F.Paste" "F.Mask") (tstamp 0ed0d068-9d04-4e23-b288-c7e5ff8a556f))
  (pad "L16" smd circle (at 4.5 -0.5) (size 0.5 0.5) (property pad_prop_bga) (layers "F.Cu" "F.Paste" "F.Mask") (tstamp 83876d51-9a74-4ca8-9746-4e5a9ad9fb4f))
  (pad "L17" smd circle (at 5.5 -0.5) (size 0.5 0.5) (property pad_prop_bga) (layers "F.Cu" "F.Paste" "F.Mask") (tstamp b584a867-d207-45dc-a3a1-3cd6f6aaae01))
  (pad "L18" smd circle (at 6.5 -0.5) (size 0.5 0.5) (property pad_prop_bga) (layers "F.Cu" "F.Paste" "F.Mask") (tstamp 28806145-81b1-40c9-9bc6-25a4cdcc31e3))
  (pad "L19" smd circle (at 7.5 -0.5) (size 0.5 0.5) (property pad_prop_bga) (layers "F.Cu" "F.Paste" "F.Mask") (tstamp 0a6e3359-887a-4594-8f42-3effc0bcb6a0))
  (pad "L20" smd circle (at 8.5 -0.5) (size 0.5 0.5) (property pad_prop_bga) (layers "F.Cu" "F.Paste" "F.Mask") (tstamp 3193c8b8-fd5c-4a9b-8124-dce3dbd15144))
  (pad "L21" smd circle (at 9.5 -0.5) (size 0.5 0.5) (property pad_prop_bga) (layers "F.Cu" "F.Paste" "F.Mask") (tstamp 2de72ebe-3ed6-4c68-8579-e84c31a8459c))
  (pad "L22" smd circle (at 10.5 -0.5) (size 0.5 0.5) (property pad_prop_bga) (layers "F.Cu" "F.Paste" "F.Mask") (tstamp a8b9b8c1-c0c4-460c-a739-120c0cf7112f))
  (pad "M1" smd circle (at -10.5 0.5) (size 0.5 0.5) (property pad_prop_bga) (layers "F.Cu" "F.Paste" "F.Mask") (tstamp c09d5bde-97ff-4198-8e66-7abe302d8c70))
  (pad "M2" smd circle (at -9.5 0.5) (size 0.5 0.5) (property pad_prop_bga) (layers "F.Cu" "F.Paste" "F.Mask") (tstamp 06eb6358-c256-4173-b120-280570db826e))
  (pad "M3" smd circle (at -8.5 0.5) (size 0.5 0.5) (property pad_prop_bga) (layers "F.Cu" "F.Paste" "F.Mask") (tstamp 3c1cfa31-2401-4683-8ac6-8220bb095f81))
  (pad "M4" smd circle (at -7.5 0.5) (size 0.5 0.5) (property pad_prop_bga) (layers "F.Cu" "F.Paste" "F.Mask") (tstamp 5054dba5-2500-429f-bdac-54d991179c83))
  (pad "M5" smd circle (at -6.5 0.5) (size 0.5 0.5) (property pad_prop_bga) (layers "F.Cu" "F.Paste" "F.Mask") (tstamp 9647cf9f-46d9-443c-bf1f-d933d11978aa))
  (pad "M6" smd circle (at -5.5 0.5) (size 0.5 0.5) (property pad_prop_bga) (layers "F.Cu" "F.Paste" "F.Mask") (tstamp 68e83ba1-6bb7-4147-ad60-dd1c47833ae5))
  (pad "M7" smd circle (at -4.5 0.5) (size 0.5 0.5) (property pad_prop_bga) (layers "F.Cu" "F.Paste" "F.Mask") (tstamp 5518db21-b283-4243-8ccd-08bb60dc7136))
  (pad "M8" smd circle (at -3.5 0.5) (size 0.5 0.5) (property pad_prop_bga) (layers "F.Cu" "F.Paste" "F.Mask") (tstamp 456c18df-6e04-4751-9781-5c3ede726ad5))
  (pad "M9" smd circle (at -2.5 0.5) (size 0.5 0.5) (property pad_prop_bga) (layers "F.Cu" "F.Paste" "F.Mask") (tstamp ca04b8c9-ec53-4f2c-98c7-dd3284abfc7c))
  (pad "M10" smd circle (at -1.5 0.5) (size 0.5 0.5) (property pad_prop_bga) (layers "F.Cu" "F.Paste" "F.Mask") (tstamp 029e4607-526e-4ab5-809e-cc2528062ba6))
  (pad "M11" smd circle (at -0.5 0.5) (size 0.5 0.5) (property pad_prop_bga) (layers "F.Cu" "F.Paste" "F.Mask") (tstamp aa430bcb-d49b-4bfa-9076-e8f40d773d11))
  (pad "M12" smd circle (at 0.5 0.5) (size 0.5 0.5) (property pad_prop_bga) (layers "F.Cu" "F.Paste" "F.Mask") (tstamp 10acf42d-e19c-434b-8fef-588d0a2621cf))
  (pad "M13" smd circle (at 1.5 0.5) (size 0.5 0.5) (property pad_prop_bga) (layers "F.Cu" "F.Paste" "F.Mask") (tstamp 3ccc09d7-ac5e-444f-9185-26d384a44d72))
  (pad "M14" smd circle (at 2.5 0.5) (size 0.5 0.5) (property pad_prop_bga) (layers "F.Cu" "F.Paste" "F.Mask") (tstamp d5b26cb3-33ea-4c4e-89fd-fd35c7d4dc3b))
  (pad "M15" smd circle (at 3.5 0.5) (size 0.5 0.5) (property pad_prop_bga) (layers "F.Cu" "F.Paste" "F.Mask") (tstamp 6eef3080-f500-41e4-a29c-e9d85cfbfcb0))
  (pad "M16" smd circle (at 4.5 0.5) (size 0.5 0.5) (property pad_prop_bga) (layers "F.Cu" "F.Paste" "F.Mask") (tstamp 223fc2cc-30dd-45ca-899a-5aae21df35ee))
  (pad "M17" smd circle (at 5.5 0.5) (size 0.5 0.5) (property pad_prop_bga) (layers "F.Cu" "F.Paste" "F.Mask") (tstamp 6ca226a9-2442-49ea-9bc7-a347774468a3))
  (pad "M18" smd circle (at 6.5 0.5) (size 0.5 0.5) (property pad_prop_bga) (layers "F.Cu" "F.Paste" "F.Mask") (tstamp 52a7a43c-1e23-4734-8534-f98b84103deb))
  (pad "M19" smd circle (at 7.5 0.5) (size 0.5 0.5) (property pad_prop_bga) (layers "F.Cu" "F.Paste" "F.Mask") (tstamp b35d5acb-2a26-42ef-a356-6d82ee9b0cca))
  (pad "M20" smd circle (at 8.5 0.5) (size 0.5 0.5) (property pad_prop_bga) (layers "F.Cu" "F.Paste" "F.Mask") (tstamp 2e4fa422-ac01-45a7-a8a9-0937686e0f09))
  (pad "M21" smd circle (at 9.5 0.5) (size 0.5 0.5) (property pad_prop_bga) (layers "F.Cu" "F.Paste" "F.Mask") (tstamp 410c4f4a-5913-46e4-8c59-32aac7e4a151))
  (pad "M22" smd circle (at 10.5 0.5) (size 0.5 0.5) (property pad_prop_bga) (layers "F.Cu" "F.Paste" "F.Mask") (tstamp 32ce1f2b-2847-4e29-a97d-7786da87ff73))
  (pad "N1" smd circle (at -10.5 1.5) (size 0.5 0.5) (property pad_prop_bga) (layers "F.Cu" "F.Paste" "F.Mask") (tstamp 06846726-0477-4bda-bdd6-a21116a707e2))
  (pad "N2" smd circle (at -9.5 1.5) (size 0.5 0.5) (property pad_prop_bga) (layers "F.Cu" "F.Paste" "F.Mask") (tstamp 86fa7675-b1c1-481f-8303-830a9c3b262c))
  (pad "N3" smd circle (at -8.5 1.5) (size 0.5 0.5) (property pad_prop_bga) (layers "F.Cu" "F.Paste" "F.Mask") (tstamp 3bc7b07a-abe1-47d9-9647-7da16542d14c))
  (pad "N4" smd circle (at -7.5 1.5) (size 0.5 0.5) (property pad_prop_bga) (layers "F.Cu" "F.Paste" "F.Mask") (tstamp 0573d166-fe39-4963-b213-321414d11f19))
  (pad "N5" smd circle (at -6.5 1.5) (size 0.5 0.5) (property pad_prop_bga) (layers "F.Cu" "F.Paste" "F.Mask") (tstamp 6f773094-a0b7-47af-b360-8dcd3b5cccae))
  (pad "N6" smd circle (at -5.5 1.5) (size 0.5 0.5) (property pad_prop_bga) (layers "F.Cu" "F.Paste" "F.Mask") (tstamp b48d7da5-2314-46d8-8f7e-37a273a8b6bc))
  (pad "N7" smd circle (at -4.5 1.5) (size 0.5 0.5) (property pad_prop_bga) (layers "F.Cu" "F.Paste" "F.Mask") (tstamp bd8ed59a-f038-41bb-ae7e-b782d5cd59de))
  (pad "N8" smd circle (at -3.5 1.5) (size 0.5 0.5) (property pad_prop_bga) (layers "F.Cu" "F.Paste" "F.Mask") (tstamp 023eacb6-1e6d-4400-b825-96645d8b4d17))
  (pad "N9" smd circle (at -2.5 1.5) (size 0.5 0.5) (property pad_prop_bga) (layers "F.Cu" "F.Paste" "F.Mask") (tstamp 289fd615-a9bb-45ab-b192-30fc79e188a6))
  (pad "N10" smd circle (at -1.5 1.5) (size 0.5 0.5) (property pad_prop_bga) (layers "F.Cu" "F.Paste" "F.Mask") (tstamp 1dfccd76-3c9e-4f3d-9715-d67bf2ff744d))
  (pad "N11" smd circle (at -0.5 1.5) (size 0.5 0.5) (property pad_prop_bga) (layers "F.Cu" "F.Paste" "F.Mask") (tstamp ccd50598-ffee-4bbb-9771-c49a298186ca))
  (pad "N12" smd circle (at 0.5 1.5) (size 0.5 0.5) (property pad_prop_bga) (layers "F.Cu" "F.Paste" "F.Mask") (tstamp 920c896c-a9f0-4499-a3b9-07ebde872525))
  (pad "N13" smd circle (at 1.5 1.5) (size 0.5 0.5) (property pad_prop_bga) (layers "F.Cu" "F.Paste" "F.Mask") (tstamp 8ff48a32-acfb-412e-ab73-48e698876fd4))
  (pad "N14" smd circle (at 2.5 1.5) (size 0.5 0.5) (property pad_prop_bga) (layers "F.Cu" "F.Paste" "F.Mask") (tstamp 7321567d-a0fe-4f38-a69f-ed2e49b95403))
  (pad "N15" smd circle (at 3.5 1.5) (size 0.5 0.5) (property pad_prop_bga) (layers "F.Cu" "F.Paste" "F.Mask") (tstamp 1e6b1d7d-4092-43f5-b884-c6ac72ed7032))
  (pad "N16" smd circle (at 4.5 1.5) (size 0.5 0.5) (property pad_prop_bga) (layers "F.Cu" "F.Paste" "F.Mask") (tstamp 8168ecdf-d986-4857-bea9-ea2dcb834780))
  (pad "N17" smd circle (at 5.5 1.5) (size 0.5 0.5) (property pad_prop_bga) (layers "F.Cu" "F.Paste" "F.Mask") (tstamp fc15efb4-028c-40a5-ae1a-73532c472f55))
  (pad "N18" smd circle (at 6.5 1.5) (size 0.5 0.5) (property pad_prop_bga) (layers "F.Cu" "F.Paste" "F.Mask") (tstamp 0ead81c6-2790-4752-8db1-6c6179341262))
  (pad "N19" smd circle (at 7.5 1.5) (size 0.5 0.5) (property pad_prop_bga) (layers "F.Cu" "F.Paste" "F.Mask") (tstamp ead6cbdd-b2c1-4a22-b133-eb562aab7fcb))
  (pad "N20" smd circle (at 8.5 1.5) (size 0.5 0.5) (property pad_prop_bga) (layers "F.Cu" "F.Paste" "F.Mask") (tstamp d1617bb4-dc72-415b-be4e-0e74ea1ec24e))
  (pad "N21" smd circle (at 9.5 1.5) (size 0.5 0.5) (property pad_prop_bga) (layers "F.Cu" "F.Paste" "F.Mask") (tstamp 3d330389-2892-4bb2-8f83-25b0e21d888e))
  (pad "N22" smd circle (at 10.5 1.5) (size 0.5 0.5) (property pad_prop_bga) (layers "F.Cu" "F.Paste" "F.Mask") (tstamp 2fff638e-d302-4541-a9fc-ff295d46ef46))
  (pad "P1" smd circle (at -10.5 2.5) (size 0.5 0.5) (property pad_prop_bga) (layers "F.Cu" "F.Paste" "F.Mask") (tstamp 9360f9af-bbaa-4f97-bd2c-d998bce3816d))
  (pad "P2" smd circle (at -9.5 2.5) (size 0.5 0.5) (property pad_prop_bga) (layers "F.Cu" "F.Paste" "F.Mask") (tstamp 9be937c7-44f8-4754-8b19-dc108a5e5127))
  (pad "P3" smd circle (at -8.5 2.5) (size 0.5 0.5) (property pad_prop_bga) (layers "F.Cu" "F.Paste" "F.Mask") (tstamp c18c0b70-7a0c-4159-ab7c-66a969da6d18))
  (pad "P4" smd circle (at -7.5 2.5) (size 0.5 0.5) (property pad_prop_bga) (layers "F.Cu" "F.Paste" "F.Mask") (tstamp 9b33f927-cd2b-4981-a533-e9c059c71a9b))
  (pad "P5" smd circle (at -6.5 2.5) (size 0.5 0.5) (property pad_prop_bga) (layers "F.Cu" "F.Paste" "F.Mask") (tstamp 474986e3-a37b-42de-a9ec-fbdeedfb7ed6))
  (pad "P6" smd circle (at -5.5 2.5) (size 0.5 0.5) (property pad_prop_bga) (layers "F.Cu" "F.Paste" "F.Mask") (tstamp d191aba1-8172-4bcc-8f75-3cfad933d85f))
  (pad "P7" smd circle (at -4.5 2.5) (size 0.5 0.5) (property pad_prop_bga) (layers "F.Cu" "F.Paste" "F.Mask") (tstamp 5cf5ff4d-6ea8-45a6-a0e5-a84a1ea42ed9))
  (pad "P8" smd circle (at -3.5 2.5) (size 0.5 0.5) (property pad_prop_bga) (layers "F.Cu" "F.Paste" "F.Mask") (tstamp b202295d-e586-43ec-aa18-415e91b9ef5f))
  (pad "P9" smd circle (at -2.5 2.5) (size 0.5 0.5) (property pad_prop_bga) (layers "F.Cu" "F.Paste" "F.Mask") (tstamp c844d401-be9e-463c-9ede-d061d46d613b))
  (pad "P10" smd circle (at -1.5 2.5) (size 0.5 0.5) (property pad_prop_bga) (layers "F.Cu" "F.Paste" "F.Mask") (tstamp 27dc411a-2ebf-4204-b8fd-fe4038829cbc))
  (pad "P11" smd circle (at -0.5 2.5) (size 0.5 0.5) (property pad_prop_bga) (layers "F.Cu" "F.Paste" "F.Mask") (tstamp 90d2643e-d91d-4ec7-8881-57d477a8b96d))
  (pad "P12" smd circle (at 0.5 2.5) (size 0.5 0.5) (property pad_prop_bga) (layers "F.Cu" "F.Paste" "F.Mask") (tstamp 6d844096-da07-4f23-9804-2134827e1a6a))
  (pad "P13" smd circle (at 1.5 2.5) (size 0.5 0.5) (property pad_prop_bga) (layers "F.Cu" "F.Paste" "F.Mask") (tstamp f44b13f7-2c18-47b6-b3ba-c7c1ea669c6f))
  (pad "P14" smd circle (at 2.5 2.5) (size 0.5 0.5) (property pad_prop_bga) (layers "F.Cu" "F.Paste" "F.Mask") (tstamp 151bd3df-c575-4778-9747-345b22fe6e1f))
  (pad "P15" smd circle (at 3.5 2.5) (size 0.5 0.5) (property pad_prop_bga) (layers "F.Cu" "F.Paste" "F.Mask") (tstamp 181d42ab-fe7e-4134-801f-0a6cbf070db1))
  (pad "P16" smd circle (at 4.5 2.5) (size 0.5 0.5) (property pad_prop_bga) (layers "F.Cu" "F.Paste" "F.Mask") (tstamp 52bb9a43-c20c-464a-aaad-c716721634b2))
  (pad "P17" smd circle (at 5.5 2.5) (size 0.5 0.5) (property pad_prop_bga) (layers "F.Cu" "F.Paste" "F.Mask") (tstamp 25586761-67c5-4eea-b3ff-f76670abcf7e))
  (pad "P18" smd circle (at 6.5 2.5) (size 0.5 0.5) (property pad_prop_bga) (layers "F.Cu" "F.Paste" "F.Mask") (tstamp 0aa9ae97-7b38-435b-93fe-eb6b5d690678))
  (pad "P19" smd circle (at 7.5 2.5) (size 0.5 0.5) (property pad_prop_bga) (layers "F.Cu" "F.Paste" "F.Mask") (tstamp db6c604f-8e88-404d-a6db-c53ab13ebb97))
  (pad "P20" smd circle (at 8.5 2.5) (size 0.5 0.5) (property pad_prop_bga) (layers "F.Cu" "F.Paste" "F.Mask") (tstamp 0495d348-a4b9-4c76-a77d-cc0957b66e3e))
  (pad "P21" smd circle (at 9.5 2.5) (size 0.5 0.5) (property pad_prop_bga) (layers "F.Cu" "F.Paste" "F.Mask") (tstamp 7d749d06-b3e9-45e6-9abd-7a52f7b38777))
  (pad "P22" smd circle (at 10.5 2.5) (size 0.5 0.5) (property pad_prop_bga) (layers "F.Cu" "F.Paste" "F.Mask") (tstamp 55d1a322-d7c9-428f-a7f0-448bb8757496))
  (pad "R1" smd circle (at -10.5 3.5) (size 0.5 0.5) (property pad_prop_bga) (layers "F.Cu" "F.Paste" "F.Mask") (tstamp 530a521c-6cf9-4802-8197-dea61a992f2e))
  (pad "R2" smd circle (at -9.5 3.5) (size 0.5 0.5) (property pad_prop_bga) (layers "F.Cu" "F.Paste" "F.Mask") (tstamp df31e0d5-24cb-4c5a-8029-77866aa1c5cd))
  (pad "R3" smd circle (at -8.5 3.5) (size 0.5 0.5) (property pad_prop_bga) (layers "F.Cu" "F.Paste" "F.Mask") (tstamp edd82e0a-d3cc-4916-b736-60441ccc8326))
  (pad "R4" smd circle (at -7.5 3.5) (size 0.5 0.5) (property pad_prop_bga) (layers "F.Cu" "F.Paste" "F.Mask") (tstamp d6bc11b8-e0e8-48ff-8dab-02ca383250aa))
  (pad "R5" smd circle (at -6.5 3.5) (size 0.5 0.5) (property pad_prop_bga) (layers "F.Cu" "F.Paste" "F.Mask") (tstamp 8c4cca42-3710-43cc-af14-38efe9e53690))
  (pad "R6" smd circle (at -5.5 3.5) (size 0.5 0.5) (property pad_prop_bga) (layers "F.Cu" "F.Paste" "F.Mask") (tstamp 327bc7a7-8377-454a-822b-9f4b60dd32e6))
  (pad "R7" smd circle (at -4.5 3.5) (size 0.5 0.5) (property pad_prop_bga) (layers "F.Cu" "F.Paste" "F.Mask") (tstamp d81e312c-a4f7-4ede-a779-b02fdc4c6a64))
  (pad "R8" smd circle (at -3.5 3.5) (size 0.5 0.5) (property pad_prop_bga) (layers "F.Cu" "F.Paste" "F.Mask") (tstamp 31ff82ea-c370-4aa7-b3d1-e8ccf72e91e2))
  (pad "R9" smd circle (at -2.5 3.5) (size 0.5 0.5) (property pad_prop_bga) (layers "F.Cu" "F.Paste" "F.Mask") (tstamp 7782d385-b090-42ed-a50c-3f6e5fe32b7f))
  (pad "R10" smd circle (at -1.5 3.5) (size 0.5 0.5) (property pad_prop_bga) (layers "F.Cu" "F.Paste" "F.Mask") (tstamp a4fa0056-2148-49a0-951c-f000f4441ce1))
  (pad "R11" smd circle (at -0.5 3.5) (size 0.5 0.5) (property pad_prop_bga) (layers "F.Cu" "F.Paste" "F.Mask") (tstamp b25371fe-1316-45d4-ad8c-9f80e4bf12f4))
  (pad "R12" smd circle (at 0.5 3.5) (size 0.5 0.5) (property pad_prop_bga) (layers "F.Cu" "F.Paste" "F.Mask") (tstamp a66863c4-87d7-4b18-8e31-981518b07119))
  (pad "R13" smd circle (at 1.5 3.5) (size 0.5 0.5) (property pad_prop_bga) (layers "F.Cu" "F.Paste" "F.Mask") (tstamp 20f10083-769b-47e3-86fd-3be8c3f482b1))
  (pad "R14" smd circle (at 2.5 3.5) (size 0.5 0.5) (property pad_prop_bga) (layers "F.Cu" "F.Paste" "F.Mask") (tstamp 1e43fe8e-3cbf-49e6-9c16-b287d892e354))
  (pad "R15" smd circle (at 3.5 3.5) (size 0.5 0.5) (property pad_prop_bga) (layers "F.Cu" "F.Paste" "F.Mask") (tstamp dcd326ef-5a11-45b3-b1f7-87e500f6e7d3))
  (pad "R16" smd circle (at 4.5 3.5) (size 0.5 0.5) (property pad_prop_bga) (layers "F.Cu" "F.Paste" "F.Mask") (tstamp 1159ffd6-ffba-46d5-a950-14f74815e6c1))
  (pad "R17" smd circle (at 5.5 3.5) (size 0.5 0.5) (property pad_prop_bga) (layers "F.Cu" "F.Paste" "F.Mask") (tstamp 83b22b65-5e1a-48d2-868b-fec1de4dcca9))
  (pad "R18" smd circle (at 6.5 3.5) (size 0.5 0.5) (property pad_prop_bga) (layers "F.Cu" "F.Paste" "F.Mask") (tstamp 8742543e-75d3-4fe5-968c-6b8d7f11dc56))
  (pad "R19" smd circle (at 7.5 3.5) (size 0.5 0.5) (property pad_prop_bga) (layers "F.Cu" "F.Paste" "F.Mask") (tstamp 37c1be83-7734-418a-b3e6-a1c80076b901))
  (pad "R20" smd circle (at 8.5 3.5) (size 0.5 0.5) (property pad_prop_bga) (layers "F.Cu" "F.Paste" "F.Mask") (tstamp e7c435ca-2117-4f26-8a13-57cbb11451f4))
  (pad "R21" smd circle (at 9.5 3.5) (size 0.5 0.5) (property pad_prop_bga) (layers "F.Cu" "F.Paste" "F.Mask") (tstamp ebfa8752-aa08-47a3-b1d3-b79311bc4c86))
  (pad "R22" smd circle (at 10.5 3.5) (size 0.5 0.5) (property pad_prop_bga) (layers "F.Cu" "F.Paste" "F.Mask") (tstamp 81f26725-1d01-467e-a700-0f0a47a5d4a6))
  (pad "T1" smd circle (at -10.5 4.5) (size 0.5 0.5) (property pad_prop_bga) (layers "F.Cu" "F.Paste" "F.Mask") (tstamp 056f2c28-d787-4d52-8634-43c7e41d07dc))
  (pad "T2" smd circle (at -9.5 4.5) (size 0.5 0.5) (property pad_prop_bga) (layers "F.Cu" "F.Paste" "F.Mask") (tstamp 4acc4675-1533-4e2e-ad2e-897c5f021a54))
  (pad "T3" smd circle (at -8.5 4.5) (size 0.5 0.5) (property pad_prop_bga) (layers "F.Cu" "F.Paste" "F.Mask") (tstamp 3e5b22eb-3768-48f8-8299-fb563d7f56c3))
  (pad "T4" smd circle (at -7.5 4.5) (size 0.5 0.5) (property pad_prop_bga) (layers "F.Cu" "F.Paste" "F.Mask") (tstamp bf95b33f-b3cb-44b5-9097-b9b34fbee9ac))
  (pad "T5" smd circle (at -6.5 4.5) (size 0.5 0.5) (property pad_prop_bga) (layers "F.Cu" "F.Paste" "F.Mask") (tstamp 63c72787-56d9-4b15-b92b-c048fa44c251))
  (pad "T6" smd circle (at -5.5 4.5) (size 0.5 0.5) (property pad_prop_bga) (layers "F.Cu" "F.Paste" "F.Mask") (tstamp 182fb025-b331-4bb8-8384-cd9265b8c8a9))
  (pad "T7" smd circle (at -4.5 4.5) (size 0.5 0.5) (property pad_prop_bga) (layers "F.Cu" "F.Paste" "F.Mask") (tstamp 64d247b1-9d5e-48ce-89f3-fdd64728df57))
  (pad "T8" smd circle (at -3.5 4.5) (size 0.5 0.5) (property pad_prop_bga) (layers "F.Cu" "F.Paste" "F.Mask") (tstamp 0b382d0f-23fb-495b-9eef-6f91e528703c))
  (pad "T9" smd circle (at -2.5 4.5) (size 0.5 0.5) (property pad_prop_bga) (layers "F.Cu" "F.Paste" "F.Mask") (tstamp 68861d03-f5b6-45e6-bc05-ba1844e96a18))
  (pad "T10" smd circle (at -1.5 4.5) (size 0.5 0.5) (property pad_prop_bga) (layers "F.Cu" "F.Paste" "F.Mask") (tstamp c96e5ab3-7e9f-44a8-9b49-e6fcfde7efa6))
  (pad "T11" smd circle (at -0.5 4.5) (size 0.5 0.5) (property pad_prop_bga) (layers "F.Cu" "F.Paste" "F.Mask") (tstamp 7939d4c8-2601-4799-b463-72284deacdd8))
  (pad "T12" smd circle (at 0.5 4.5) (size 0.5 0.5) (property pad_prop_bga) (layers "F.Cu" "F.Paste" "F.Mask") (tstamp 26ddcf56-e015-4141-af5f-b427664f29bf))
  (pad "T13" smd circle (at 1.5 4.5) (size 0.5 0.5) (property pad_prop_bga) (layers "F.Cu" "F.Paste" "F.Mask") (tstamp 6f0030a6-4f05-44be-96e0-028b8a91f16a))
  (pad "T14" smd circle (at 2.5 4.5) (size 0.5 0.5) (property pad_prop_bga) (layers "F.Cu" "F.Paste" "F.Mask") (tstamp e8fc8221-1af5-4484-8e57-a0e52b4bc464))
  (pad "T15" smd circle (at 3.5 4.5) (size 0.5 0.5) (property pad_prop_bga) (layers "F.Cu" "F.Paste" "F.Mask") (tstamp c9c066f4-ca4a-473f-a1e1-0cd9d6132663))
  (pad "T16" smd circle (at 4.5 4.5) (size 0.5 0.5) (property pad_prop_bga) (layers "F.Cu" "F.Paste" "F.Mask") (tstamp 61a371ea-9156-4ae8-b353-47a45a943515))
  (pad "T17" smd circle (at 5.5 4.5) (size 0.5 0.5) (property pad_prop_bga) (layers "F.Cu" "F.Paste" "F.Mask") (tstamp 7e4ebead-6228-4a63-8bc6-b2a520f96333))
  (pad "T18" smd circle (at 6.5 4.5) (size 0.5 0.5) (property pad_prop_bga) (layers "F.Cu" "F.Paste" "F.Mask") (tstamp 079e06de-bb5f-46b5-986d-f75b8b27f41a))
  (pad "T19" smd circle (at 7.5 4.5) (size 0.5 0.5) (property pad_prop_bga) (layers "F.Cu" "F.Paste" "F.Mask") (tstamp 0260e4b2-6ad1-4d52-93da-61eb97ed64df))
  (pad "T20" smd circle (at 8.5 4.5) (size 0.5 0.5) (property pad_prop_bga) (layers "F.Cu" "F.Paste" "F.Mask") (tstamp 65584254-aefa-400e-9d8c-321c176cc964))
  (pad "T21" smd circle (at 9.5 4.5) (size 0.5 0.5) (property pad_prop_bga) (layers "F.Cu" "F.Paste" "F.Mask") (tstamp 9adf7eb5-3eb8-4ce5-9d58-35040631789b))
  (pad "T22" smd circle (at 10.5 4.5) (size 0.5 0.5) (property pad_prop_bga) (layers "F.Cu" "F.Paste" "F.Mask") (tstamp 03d8997f-bf63-4e24-a19e-8ac6e9ca2a9d))
  (pad "U1" smd circle (at -10.5 5.5) (size 0.5 0.5) (property pad_prop_bga) (layers "F.Cu" "F.Paste" "F.Mask") (tstamp 0d6bc345-6cf0-4cae-9f78-8ba750b1d898))
  (pad "U2" smd circle (at -9.5 5.5) (size 0.5 0.5) (property pad_prop_bga) (layers "F.Cu" "F.Paste" "F.Mask") (tstamp c8388144-f698-4916-885d-d225001daf7e))
  (pad "U3" smd circle (at -8.5 5.5) (size 0.5 0.5) (property pad_prop_bga) (layers "F.Cu" "F.Paste" "F.Mask") (tstamp c2f7237e-6f9b-4efe-a3b6-c1e1f81ecc11))
  (pad "U4" smd circle (at -7.5 5.5) (size 0.5 0.5) (property pad_prop_bga) (layers "F.Cu" "F.Paste" "F.Mask") (tstamp 374aa554-5de6-4b23-a886-b8cf574ca3c9))
  (pad "U5" smd circle (at -6.5 5.5) (size 0.5 0.5) (property pad_prop_bga) (layers "F.Cu" "F.Paste" "F.Mask") (tstamp 4d32c893-9847-43a4-86f1-d04b46ad64a2))
  (pad "U6" smd circle (at -5.5 5.5) (size 0.5 0.5) (property pad_prop_bga) (layers "F.Cu" "F.Paste" "F.Mask") (tstamp 40b41f39-7e07-4b1a-a75a-a1cc9f08f492))
  (pad "U7" smd circle (at -4.5 5.5) (size 0.5 0.5) (property pad_prop_bga) (layers "F.Cu" "F.Paste" "F.Mask") (tstamp 0ef75659-21bd-4adf-a89d-284399524525))
  (pad "U8" smd circle (at -3.5 5.5) (size 0.5 0.5) (property pad_prop_bga) (layers "F.Cu" "F.Paste" "F.Mask") (tstamp 7d17d952-1661-4280-9089-eb7432966fb1))
  (pad "U9" smd circle (at -2.5 5.5) (size 0.5 0.5) (property pad_prop_bga) (layers "F.Cu" "F.Paste" "F.Mask") (tstamp a795e2cb-5ac6-49c8-8606-2e9ca9761d16))
  (pad "U10" smd circle (at -1.5 5.5) (size 0.5 0.5) (property pad_prop_bga) (layers "F.Cu" "F.Paste" "F.Mask") (tstamp a8e259c2-9bf0-4424-95fa-259e8b2246ea))
  (pad "U11" smd circle (at -0.5 5.5) (size 0.5 0.5) (property pad_prop_bga) (layers "F.Cu" "F.Paste" "F.Mask") (tstamp 96dd97f4-b237-46a4-9c55-80921701d771))
  (pad "U12" smd circle (at 0.5 5.5) (size 0.5 0.5) (property pad_prop_bga) (layers "F.Cu" "F.Paste" "F.Mask") (tstamp dec35d95-19cf-46e8-920f-c4bbd5f8eedc))
  (pad "U13" smd circle (at 1.5 5.5) (size 0.5 0.5) (property pad_prop_bga) (layers "F.Cu" "F.Paste" "F.Mask") (tstamp 97b97854-ac4f-45ee-839b-e8538955ad55))
  (pad "U14" smd circle (at 2.5 5.5) (size 0.5 0.5) (property pad_prop_bga) (layers "F.Cu" "F.Paste" "F.Mask") (tstamp 8547ba58-16ac-4a06-aae7-59e6e56e95bb))
  (pad "U15" smd circle (at 3.5 5.5) (size 0.5 0.5) (property pad_prop_bga) (layers "F.Cu" "F.Paste" "F.Mask") (tstamp 5da66bf9-1a1d-4410-be03-e98ab255ba57))
  (pad "U16" smd circle (at 4.5 5.5) (size 0.5 0.5) (property pad_prop_bga) (layers "F.Cu" "F.Paste" "F.Mask") (tstamp 04875d0a-45a0-4f5f-9c89-fb3714be9954))
  (pad "U17" smd circle (at 5.5 5.5) (size 0.5 0.5) (property pad_prop_bga) (layers "F.Cu" "F.Paste" "F.Mask") (tstamp c0298d64-1199-4416-b244-0320a0edcb3c))
  (pad "U18" smd circle (at 6.5 5.5) (size 0.5 0.5) (property pad_prop_bga) (layers "F.Cu" "F.Paste" "F.Mask") (tstamp 1f03f86c-dfd0-4402-b030-fa2016d9397b))
  (pad "U19" smd circle (at 7.5 5.5) (size 0.5 0.5) (property pad_prop_bga) (layers "F.Cu" "F.Paste" "F.Mask") (tstamp 7d0e1a01-b015-478b-b947-7f1645c78309))
  (pad "U20" smd circle (at 8.5 5.5) (size 0.5 0.5) (property pad_prop_bga) (layers "F.Cu" "F.Paste" "F.Mask") (tstamp d99cb436-9391-4da5-9f6a-6d9135d409e5))
  (pad "U21" smd circle (at 9.5 5.5) (size 0.5 0.5) (property pad_prop_bga) (layers "F.Cu" "F.Paste" "F.Mask") (tstamp df929324-3368-46ff-a7e1-92daf132cba6))
  (pad "U22" smd circle (at 10.5 5.5) (size 0.5 0.5) (property pad_prop_bga) (layers "F.Cu" "F.Paste" "F.Mask") (tstamp 658b2d0b-ab64-4c42-971b-9f8bcb6f0294))
  (pad "V1" smd circle (at -10.5 6.5) (size 0.5 0.5) (property pad_prop_bga) (layers "F.Cu" "F.Paste" "F.Mask") (tstamp 2a7f4fcf-07dc-40ee-869d-ec59be831f4f))
  (pad "V2" smd circle (at -9.5 6.5) (size 0.5 0.5) (property pad_prop_bga) (layers "F.Cu" "F.Paste" "F.Mask") (tstamp f991d3b9-82dd-4880-8515-9fbe62695f6c))
  (pad "V3" smd circle (at -8.5 6.5) (size 0.5 0.5) (property pad_prop_bga) (layers "F.Cu" "F.Paste" "F.Mask") (tstamp 3ee7971b-46ee-4d1a-be4b-6e3f2d8ee0ac))
  (pad "V4" smd circle (at -7.5 6.5) (size 0.5 0.5) (property pad_prop_bga) (layers "F.Cu" "F.Paste" "F.Mask") (tstamp 3ce9233b-b99b-44ba-925d-80b5d3fb9ce2))
  (pad "V5" smd circle (at -6.5 6.5) (size 0.5 0.5) (property pad_prop_bga) (layers "F.Cu" "F.Paste" "F.Mask") (tstamp 07e52736-1e45-4c67-b871-2513f60515f2))
  (pad "V6" smd circle (at -5.5 6.5) (size 0.5 0.5) (property pad_prop_bga) (layers "F.Cu" "F.Paste" "F.Mask") (tstamp 07f3d522-1ab2-4f56-b9a4-378f9b793c9f))
  (pad "V7" smd circle (at -4.5 6.5) (size 0.5 0.5) (property pad_prop_bga) (layers "F.Cu" "F.Paste" "F.Mask") (tstamp c2b559c7-31d6-4252-97f0-d2e34b1c8cc6))
  (pad "V8" smd circle (at -3.5 6.5) (size 0.5 0.5) (property pad_prop_bga) (layers "F.Cu" "F.Paste" "F.Mask") (tstamp 4e544b05-a2c6-4374-b4d4-f3ddeb329a5b))
  (pad "V9" smd circle (at -2.5 6.5) (size 0.5 0.5) (property pad_prop_bga) (layers "F.Cu" "F.Paste" "F.Mask") (tstamp 3f48a1e6-14b7-4ef1-a5c1-9708794e7194))
  (pad "V10" smd circle (at -1.5 6.5) (size 0.5 0.5) (property pad_prop_bga) (layers "F.Cu" "F.Paste" "F.Mask") (tstamp 8b40641b-3268-4399-a310-b8cfaf17e9a1))
  (pad "V11" smd circle (at -0.5 6.5) (size 0.5 0.5) (property pad_prop_bga) (layers "F.Cu" "F.Paste" "F.Mask") (tstamp a0b90839-bc76-4569-a8a5-4c29e0e7a46f))
  (pad "V12" smd circle (at 0.5 6.5) (size 0.5 0.5) (property pad_prop_bga) (layers "F.Cu" "F.Paste" "F.Mask") (tstamp f9db6e97-b5eb-4f22-b25f-f8315b8fc939))
  (pad "V13" smd circle (at 1.5 6.5) (size 0.5 0.5) (property pad_prop_bga) (layers "F.Cu" "F.Paste" "F.Mask") (tstamp 990fc014-66d4-44aa-b19b-085310e09f8e))
  (pad "V14" smd circle (at 2.5 6.5) (size 0.5 0.5) (property pad_prop_bga) (layers "F.Cu" "F.Paste" "F.Mask") (tstamp d19b4037-ca6c-4549-b332-a4867bb08b9d))
  (pad "V15" smd circle (at 3.5 6.5) (size 0.5 0.5) (property pad_prop_bga) (layers "F.Cu" "F.Paste" "F.Mask") (tstamp 25eef10a-43af-456a-8914-987500b6b090))
  (pad "V16" smd circle (at 4.5 6.5) (size 0.5 0.5) (property pad_prop_bga) (layers "F.Cu" "F.Paste" "F.Mask") (tstamp 325225cd-8a57-4623-b981-3cf025e0ad4f))
  (pad "V17" smd circle (at 5.5 6.5) (size 0.5 0.5) (property pad_prop_bga) (layers "F.Cu" "F.Paste" "F.Mask") (tstamp 0dc750f9-15d0-4dd8-84e4-b491256b8dc1))
  (pad "V18" smd circle (at 6.5 6.5) (size 0.5 0.5) (property pad_prop_bga) (layers "F.Cu" "F.Paste" "F.Mask") (tstamp 97ef0656-d81c-4eb0-9983-84bf1d231bf8))
  (pad "V19" smd circle (at 7.5 6.5) (size 0.5 0.5) (property pad_prop_bga) (layers "F.Cu" "F.Paste" "F.Mask") (tstamp 038bf444-3833-4d95-9104-074e15bb4413))
  (pad "V20" smd circle (at 8.5 6.5) (size 0.5 0.5) (property pad_prop_bga) (layers "F.Cu" "F.Paste" "F.Mask") (tstamp 3083b2bf-354d-4922-8712-f8829671f0ca))
  (pad "V21" smd circle (at 9.5 6.5) (size 0.5 0.5) (property pad_prop_bga) (layers "F.Cu" "F.Paste" "F.Mask") (tstamp c7ec37cb-5149-45e4-a548-aaf0826b9418))
  (pad "V22" smd circle (at 10.5 6.5) (size 0.5 0.5) (property pad_prop_bga) (layers "F.Cu" "F.Paste" "F.Mask") (tstamp 38921f36-cd3f-43fd-93dd-8c59ed04862c))
  (pad "W1" smd circle (at -10.5 7.5) (size 0.5 0.5) (property pad_prop_bga) (layers "F.Cu" "F.Paste" "F.Mask") (tstamp a8cca5ca-044e-4500-af57-e75af93a5b13))
  (pad "W2" smd circle (at -9.5 7.5) (size 0.5 0.5) (property pad_prop_bga) (layers "F.Cu" "F.Paste" "F.Mask") (tstamp 4fe20e9b-7377-49ef-8931-4f8d3f2305ac))
  (pad "W3" smd circle (at -8.5 7.5) (size 0.5 0.5) (property pad_prop_bga) (layers "F.Cu" "F.Paste" "F.Mask") (tstamp 3f9762fe-6f33-4755-85dd-a452518bf666))
  (pad "W4" smd circle (at -7.5 7.5) (size 0.5 0.5) (property pad_prop_bga) (layers "F.Cu" "F.Paste" "F.Mask") (tstamp 5440e06d-57a0-42ba-bf30-a3e9a83f201b))
  (pad "W5" smd circle (at -6.5 7.5) (size 0.5 0.5) (property pad_prop_bga) (layers "F.Cu" "F.Paste" "F.Mask") (tstamp e0b8cfb1-d9c2-4c59-b654-4ffb97185049))
  (pad "W6" smd circle (at -5.5 7.5) (size 0.5 0.5) (property pad_prop_bga) (layers "F.Cu" "F.Paste" "F.Mask") (tstamp b0371ec4-1577-4b02-8f6d-ad838a191724))
  (pad "W7" smd circle (at -4.5 7.5) (size 0.5 0.5) (property pad_prop_bga) (layers "F.Cu" "F.Paste" "F.Mask") (tstamp a91c45bb-8a5d-44ae-a4e5-5071f6a6d2a9))
  (pad "W8" smd circle (at -3.5 7.5) (size 0.5 0.5) (property pad_prop_bga) (layers "F.Cu" "F.Paste" "F.Mask") (tstamp 05f57258-843d-4817-adaa-44895b0e331c))
  (pad "W9" smd circle (at -2.5 7.5) (size 0.5 0.5) (property pad_prop_bga) (layers "F.Cu" "F.Paste" "F.Mask") (tstamp b6bad010-2245-4239-baab-c97e52c585c6))
  (pad "W10" smd circle (at -1.5 7.5) (size 0.5 0.5) (property pad_prop_bga) (layers "F.Cu" "F.Paste" "F.Mask") (tstamp 6a7af369-929f-45e2-9099-7007609f38d4))
  (pad "W11" smd circle (at -0.5 7.5) (size 0.5 0.5) (property pad_prop_bga) (layers "F.Cu" "F.Paste" "F.Mask") (tstamp cab21bac-c5f7-48d6-a8ed-646c68ef131a))
  (pad "W12" smd circle (at 0.5 7.5) (size 0.5 0.5) (property pad_prop_bga) (layers "F.Cu" "F.Paste" "F.Mask") (tstamp f0ef950c-c044-47ab-acf5-9775302c842d))
  (pad "W13" smd circle (at 1.5 7.5) (size 0.5 0.5) (property pad_prop_bga) (layers "F.Cu" "F.Paste" "F.Mask") (tstamp aef38678-3df4-4cd8-bb3c-e4e0cb590025))
  (pad "W14" smd circle (at 2.5 7.5) (size 0.5 0.5) (property pad_prop_bga) (layers "F.Cu" "F.Paste" "F.Mask") (tstamp 723f470f-9d2d-4139-a7b7-a73f47bb424f))
  (pad "W15" smd circle (at 3.5 7.5) (size 0.5 0.5) (property pad_prop_bga) (layers "F.Cu" "F.Paste" "F.Mask") (tstamp e0e84889-e952-4528-b307-69a7709bf6f6))
  (pad "W16" smd circle (at 4.5 7.5) (size 0.5 0.5) (property pad_prop_bga) (layers "F.Cu" "F.Paste" "F.Mask") (tstamp f780e7f7-9442-4266-9448-1ccc30b05815))
  (pad "W17" smd circle (at 5.5 7.5) (size 0.5 0.5) (property pad_prop_bga) (layers "F.Cu" "F.Paste" "F.Mask") (tstamp 00dd1a99-d059-4ab7-a363-b53aad3d6fa6))
  (pad "W18" smd circle (at 6.5 7.5) (size 0.5 0.5) (property pad_prop_bga) (layers "F.Cu" "F.Paste" "F.Mask") (tstamp c4efb3fb-fd2b-4741-b8b2-e0e598cc376f))
  (pad "W19" smd circle (at 7.5 7.5) (size 0.5 0.5) (property pad_prop_bga) (layers "F.Cu" "F.Paste" "F.Mask") (tstamp 5b47ee0c-ff84-4429-a815-731b3a887206))
  (pad "W20" smd circle (at 8.5 7.5) (size 0.5 0.5) (property pad_prop_bga) (layers "F.Cu" "F.Paste" "F.Mask") (tstamp 34d835e5-9ff2-47f5-8dca-81d368b260a8))
  (pad "W21" smd circle (at 9.5 7.5) (size 0.5 0.5) (property pad_prop_bga) (layers "F.Cu" "F.Paste" "F.Mask") (tstamp 3f2ca14d-aa0b-4161-89aa-5af5acdbc17b))
  (pad "W22" smd circle (at 10.5 7.5) (size 0.5 0.5) (property pad_prop_bga) (layers "F.Cu" "F.Paste" "F.Mask") (tstamp 25b462f5-8aca-4a86-adff-584b59981f93))
  (pad "Y1" smd circle (at -10.5 8.5) (size 0.5 0.5) (property pad_prop_bga) (layers "F.Cu" "F.Paste" "F.Mask") (tstamp d5c42dc1-f598-44f1-befa-cf4f282585ea))
  (pad "Y2" smd circle (at -9.5 8.5) (size 0.5 0.5) (property pad_prop_bga) (layers "F.Cu" "F.Paste" "F.Mask") (tstamp d663838c-8d29-4b39-b87d-0444ec4ca9a5))
  (pad "Y3" smd circle (at -8.5 8.5) (size 0.5 0.5) (property pad_prop_bga) (layers "F.Cu" "F.Paste" "F.Mask") (tstamp 4dc6fd9d-69af-475d-8189-b5674f6688e2))
  (pad "Y4" smd circle (at -7.5 8.5) (size 0.5 0.5) (property pad_prop_bga) (layers "F.Cu" "F.Paste" "F.Mask") (tstamp ee0539a8-3a4f-4920-ac4b-135a63822abe))
  (pad "Y5" smd circle (at -6.5 8.5) (size 0.5 0.5) (property pad_prop_bga) (layers "F.Cu" "F.Paste" "F.Mask") (tstamp 5dfc0f7b-6fe4-4ae3-94a0-f1f1d2353553))
  (pad "Y6" smd circle (at -5.5 8.5) (size 0.5 0.5) (property pad_prop_bga) (layers "F.Cu" "F.Paste" "F.Mask") (tstamp 24d6a54a-5636-4547-af2c-4e9a8f7992e2))
  (pad "Y7" smd circle (at -4.5 8.5) (size 0.5 0.5) (property pad_prop_bga) (layers "F.Cu" "F.Paste" "F.Mask") (tstamp 7b494f06-0272-412e-83ee-d77b263de448))
  (pad "Y8" smd circle (at -3.5 8.5) (size 0.5 0.5) (property pad_prop_bga) (layers "F.Cu" "F.Paste" "F.Mask") (tstamp df5b5c1e-43ce-40a6-a0d6-75880be2b8b8))
  (pad "Y9" smd circle (at -2.5 8.5) (size 0.5 0.5) (property pad_prop_bga) (layers "F.Cu" "F.Paste" "F.Mask") (tstamp 2641c059-978b-43f3-88c4-e06fb67564e8))
  (pad "Y10" smd circle (at -1.5 8.5) (size 0.5 0.5) (property pad_prop_bga) (layers "F.Cu" "F.Paste" "F.Mask") (tstamp 818aa0db-8252-4bad-93f9-e13f8c0a7fdb))
  (pad "Y11" smd circle (at -0.5 8.5) (size 0.5 0.5) (property pad_prop_bga) (layers "F.Cu" "F.Paste" "F.Mask") (tstamp 8f17d6db-0889-4d65-b269-8484410bb427))
  (pad "Y12" smd circle (at 0.5 8.5) (size 0.5 0.5) (property pad_prop_bga) (layers "F.Cu" "F.Paste" "F.Mask") (tstamp fe0212f0-7cbe-4b91-9c52-22db451836e5))
  (pad "Y13" smd circle (at 1.5 8.5) (size 0.5 0.5) (property pad_prop_bga) (layers "F.Cu" "F.Paste" "F.Mask") (tstamp fcba011a-6664-443f-95ab-4e358053a0b7))
  (pad "Y14" smd circle (at 2.5 8.5) (size 0.5 0.5) (property pad_prop_bga) (layers "F.Cu" "F.Paste" "F.Mask") (tstamp ff641c11-2d13-4707-aeaa-55b554e53d3e))
  (pad "Y15" smd circle (at 3.5 8.5) (size 0.5 0.5) (property pad_prop_bga) (layers "F.Cu" "F.Paste" "F.Mask") (tstamp 9817e048-bf16-4557-b062-377135d9f7b9))
  (pad "Y16" smd circle (at 4.5 8.5) (size 0.5 0.5) (property pad_prop_bga) (layers "F.Cu" "F.Paste" "F.Mask") (tstamp 220a334d-e284-45be-a257-c27a9cb63629))
  (pad "Y17" smd circle (at 5.5 8.5) (size 0.5 0.5) (property pad_prop_bga) (layers "F.Cu" "F.Paste" "F.Mask") (tstamp 5fd33196-8e56-4186-b8e9-ed8c92868774))
  (pad "Y18" smd circle (at 6.5 8.5) (size 0.5 0.5) (property pad_prop_bga) (layers "F.Cu" "F.Paste" "F.Mask") (tstamp ee7b413d-0305-4143-a498-ea1003684978))
  (pad "Y19" smd circle (at 7.5 8.5) (size 0.5 0.5) (property pad_prop_bga) (layers "F.Cu" "F.Paste" "F.Mask") (tstamp 6c7f440e-ff10-4873-931f-f510d17f4a70))
  (pad "Y20" smd circle (at 8.5 8.5) (size 0.5 0.5) (property pad_prop_bga) (layers "F.Cu" "F.Paste" "F.Mask") (tstamp 38f12610-ca0d-4c85-b0f4-bd1d58f522d2))
  (pad "Y21" smd circle (at 9.5 8.5) (size 0.5 0.5) (property pad_prop_bga) (layers "F.Cu" "F.Paste" "F.Mask") (tstamp ba25ae2b-7894-41c7-9f81-a2d2a9de6762))
  (pad "Y22" smd circle (at 10.5 8.5) (size 0.5 0.5) (property pad_prop_bga) (layers "F.Cu" "F.Paste" "F.Mask") (tstamp bd1cfa87-f5b1-4d1a-bd2b-d6495c55e7ce))
  (model "${KICAD6_3DMODEL_DIR}/Package_BGA.3dshapes/Xilinx_FGGA484.wrl"
    (offset (xyz 0 0 0))
    (scale (xyz 1 1 1))
    (rotate (xyz 0 0 0))
  )
)
