(footprint "Xilinx_FBG484" (version 20211014) (generator pcbnew)
  (layer "F.Cu")
  (tedit 5CDADFA9)
  (descr "Artix-7, Kintex-7 and Zynq-7000 BGA, 22x22 grid, 23x23mm package, 1mm pitch; https://www.xilinx.com/support/documentation/user_guides/ug475_7Series_Pkg_Pinout.pdf#page=271, ttps://www.xilinx.com/support/documentation/user_guides/ug475_7Series_Pkg_Pinout.pdf#page=281, https://www.xilinx.com/support/documentation/user_guides/ug865-Zynq-7000-Pkg-Pinout.pdf#page=82, NSMD pad definition Appendix A")
  (tags "BGA 484 1 FB484 FBG484 FBV484")
  (solder_mask_margin 0.05)
  (attr smd)
  (fp_text reference "REF**" (at 0 -12.5) (layer "F.SilkS")
    (effects (font (size 1 1) (thickness 0.15)))
    (tstamp 8ddc5653-77f5-46cd-a1c6-b0eb8bacec96)
  )
  (fp_text value "Xilinx_FBG484" (at 0 12.5) (layer "F.Fab")
    (effects (font (size 1 1) (thickness 0.15)))
    (tstamp 66ff57c7-b26f-4cbf-8322-155e11a2d950)
  )
  (fp_text user "${REFERENCE}" (at 0 0) (layer "F.Fab")
    (effects (font (size 1 1) (thickness 0.15)))
    (tstamp f6ea6ea0-0ed9-4464-9c9c-501e231b24c5)
  )
  (fp_line (start 11.61 11.61) (end -11.61 11.61) (layer "F.SilkS") (width 0.12) (tstamp 180cdeaa-d257-48ea-a36c-f7a73f138f3e))
  (fp_line (start -10.61 -11.61) (end 11.61 -11.61) (layer "F.SilkS") (width 0.12) (tstamp 4fca8ddd-01cc-4093-b461-23e5c8bd0bd8))
  (fp_line (start 11.61 -11.61) (end 11.61 11.61) (layer "F.SilkS") (width 0.12) (tstamp 51c1a8b8-0c91-4e5a-a3e6-0871fb33f56c))
  (fp_line (start -11.61 11.61) (end -11.61 -10.61) (layer "F.SilkS") (width 0.12) (tstamp 6ec4d5b1-0462-45d1-b24b-40b6d4275f52))
  (fp_line (start 12.5 12.5) (end 12.5 -12.5) (layer "F.CrtYd") (width 0.05) (tstamp 4a817671-af58-4d08-a722-bb724b4641b8))
  (fp_line (start -12.5 12.5) (end 12.5 12.5) (layer "F.CrtYd") (width 0.05) (tstamp bb087d6f-bd6d-4ed1-ab09-2119280994f0))
  (fp_line (start 12.5 -12.5) (end -12.5 -12.5) (layer "F.CrtYd") (width 0.05) (tstamp c98da5a0-8318-429b-b182-b2e5ca368b50))
  (fp_line (start -12.5 -12.5) (end -12.5 12.5) (layer "F.CrtYd") (width 0.05) (tstamp e40c9394-8272-403b-bbeb-2cd904c83db6))
  (fp_line (start 11.5 11.5) (end -11.5 11.5) (layer "F.Fab") (width 0.1) (tstamp 3ec1e30c-c9a0-46ff-99db-192d9a078e3f))
  (fp_line (start -11.5 -10.5) (end -10.5 -11.5) (layer "F.Fab") (width 0.1) (tstamp 42d21f40-f8a2-4a28-83e1-252054971f46))
  (fp_line (start -10.5 -11.5) (end 11.5 -11.5) (layer "F.Fab") (width 0.1) (tstamp 985f6b84-9669-4b32-a542-20d076a6069a))
  (fp_line (start 11.5 -11.5) (end 11.5 11.5) (layer "F.Fab") (width 0.1) (tstamp 9be96a19-f13d-4923-aeee-d678ce0e3cb1))
  (fp_line (start -11.5 11.5) (end -11.5 -10.5) (layer "F.Fab") (width 0.1) (tstamp b3519aeb-c066-4d90-aa45-fb6749868c8a))
  (pad "A1" smd circle (at -10.5 -10.5) (size 0.53 0.53) (property pad_prop_bga) (layers "F.Cu" "F.Paste" "F.Mask") (tstamp d83d3215-e2ee-4676-bbec-37f380cd3df9))
  (pad "A2" smd circle (at -9.5 -10.5) (size 0.53 0.53) (property pad_prop_bga) (layers "F.Cu" "F.Paste" "F.Mask") (tstamp 5ef1779d-29c3-4e38-8507-8cd626ec8a7f))
  (pad "A3" smd circle (at -8.5 -10.5) (size 0.53 0.53) (property pad_prop_bga) (layers "F.Cu" "F.Paste" "F.Mask") (tstamp c6697afb-dca0-48c8-b6b6-69ccc73e95bb))
  (pad "A4" smd circle (at -7.5 -10.5) (size 0.53 0.53) (property pad_prop_bga) (layers "F.Cu" "F.Paste" "F.Mask") (tstamp e2fcbc0f-f59a-48fc-8d37-76ba0d713dd4))
  (pad "A5" smd circle (at -6.5 -10.5) (size 0.53 0.53) (property pad_prop_bga) (layers "F.Cu" "F.Paste" "F.Mask") (tstamp 2b75662e-d540-4bda-80d1-795b00a446e4))
  (pad "A6" smd circle (at -5.5 -10.5) (size 0.53 0.53) (property pad_prop_bga) (layers "F.Cu" "F.Paste" "F.Mask") (tstamp 5605eb2e-e936-4967-a4fe-ad641de08b1e))
  (pad "A7" smd circle (at -4.5 -10.5) (size 0.53 0.53) (property pad_prop_bga) (layers "F.Cu" "F.Paste" "F.Mask") (tstamp 6a77d54f-6b24-4e36-9813-4e0375966b31))
  (pad "A8" smd circle (at -3.5 -10.5) (size 0.53 0.53) (property pad_prop_bga) (layers "F.Cu" "F.Paste" "F.Mask") (tstamp b92b5be9-9ae5-466c-8364-e2e677fc3bbe))
  (pad "A9" smd circle (at -2.5 -10.5) (size 0.53 0.53) (property pad_prop_bga) (layers "F.Cu" "F.Paste" "F.Mask") (tstamp e4af0f42-bb8f-4169-a888-c6179360cb29))
  (pad "A10" smd circle (at -1.5 -10.5) (size 0.53 0.53) (property pad_prop_bga) (layers "F.Cu" "F.Paste" "F.Mask") (tstamp ed7185bf-3200-493b-a06c-43ad1a492e7c))
  (pad "A11" smd circle (at -0.5 -10.5) (size 0.53 0.53) (property pad_prop_bga) (layers "F.Cu" "F.Paste" "F.Mask") (tstamp a56eab5c-eea6-4d7b-a0a4-0f9213ba78ec))
  (pad "A12" smd circle (at 0.5 -10.5) (size 0.53 0.53) (property pad_prop_bga) (layers "F.Cu" "F.Paste" "F.Mask") (tstamp a93adff2-2ac9-414e-a53e-4d147e29531a))
  (pad "A13" smd circle (at 1.5 -10.5) (size 0.53 0.53) (property pad_prop_bga) (layers "F.Cu" "F.Paste" "F.Mask") (tstamp 422995fe-404e-416e-8d3b-39d796431114))
  (pad "A14" smd circle (at 2.5 -10.5) (size 0.53 0.53) (property pad_prop_bga) (layers "F.Cu" "F.Paste" "F.Mask") (tstamp 35274966-1543-4607-9bbb-d7372c3c33dc))
  (pad "A15" smd circle (at 3.5 -10.5) (size 0.53 0.53) (property pad_prop_bga) (layers "F.Cu" "F.Paste" "F.Mask") (tstamp cb511b95-2a1b-4d6c-9357-dc10607cac50))
  (pad "A16" smd circle (at 4.5 -10.5) (size 0.53 0.53) (property pad_prop_bga) (layers "F.Cu" "F.Paste" "F.Mask") (tstamp 40a3c90e-f23b-4ec4-a5ee-01e94d5fc68e))
  (pad "A17" smd circle (at 5.5 -10.5) (size 0.53 0.53) (property pad_prop_bga) (layers "F.Cu" "F.Paste" "F.Mask") (tstamp f8414903-2d9c-4fc7-b00b-30e33a02027c))
  (pad "A18" smd circle (at 6.5 -10.5) (size 0.53 0.53) (property pad_prop_bga) (layers "F.Cu" "F.Paste" "F.Mask") (tstamp afae9d1d-67f7-49c5-863c-b94446e35d3d))
  (pad "A19" smd circle (at 7.5 -10.5) (size 0.53 0.53) (property pad_prop_bga) (layers "F.Cu" "F.Paste" "F.Mask") (tstamp 86aded78-2ede-40f1-b45c-033b5bf8cbb6))
  (pad "A20" smd circle (at 8.5 -10.5) (size 0.53 0.53) (property pad_prop_bga) (layers "F.Cu" "F.Paste" "F.Mask") (tstamp 710fe63e-ca1e-4441-8a59-b50b845ca0d1))
  (pad "A21" smd circle (at 9.5 -10.5) (size 0.53 0.53) (property pad_prop_bga) (layers "F.Cu" "F.Paste" "F.Mask") (tstamp 6eb78c63-15b8-4bc8-ad3e-29d36fb01cf8))
  (pad "A22" smd circle (at 10.5 -10.5) (size 0.53 0.53) (property pad_prop_bga) (layers "F.Cu" "F.Paste" "F.Mask") (tstamp 65e0fb35-1d08-45c6-b971-fc2076cd4ef9))
  (pad "AA1" smd circle (at -10.5 9.5) (size 0.53 0.53) (property pad_prop_bga) (layers "F.Cu" "F.Paste" "F.Mask") (tstamp a4801a21-7663-4f18-8eab-021b25796845))
  (pad "AA2" smd circle (at -9.5 9.5) (size 0.53 0.53) (property pad_prop_bga) (layers "F.Cu" "F.Paste" "F.Mask") (tstamp 0fac5aaf-b063-419b-ae55-034a0f3e70a9))
  (pad "AA3" smd circle (at -8.5 9.5) (size 0.53 0.53) (property pad_prop_bga) (layers "F.Cu" "F.Paste" "F.Mask") (tstamp f2bd35c3-cfa8-45bc-aa15-e603f7e99eb0))
  (pad "AA4" smd circle (at -7.5 9.5) (size 0.53 0.53) (property pad_prop_bga) (layers "F.Cu" "F.Paste" "F.Mask") (tstamp 2c3d8fe3-0b5e-4d1d-a9b0-fa3665a943a0))
  (pad "AA5" smd circle (at -6.5 9.5) (size 0.53 0.53) (property pad_prop_bga) (layers "F.Cu" "F.Paste" "F.Mask") (tstamp 53d9b459-555a-43c6-8654-872ecae8f41c))
  (pad "AA6" smd circle (at -5.5 9.5) (size 0.53 0.53) (property pad_prop_bga) (layers "F.Cu" "F.Paste" "F.Mask") (tstamp 4e188079-19fe-423c-80ce-7b9fb29d2ebc))
  (pad "AA7" smd circle (at -4.5 9.5) (size 0.53 0.53) (property pad_prop_bga) (layers "F.Cu" "F.Paste" "F.Mask") (tstamp 4876a2fe-c540-408d-8b0c-f21fc38126bc))
  (pad "AA8" smd circle (at -3.5 9.5) (size 0.53 0.53) (property pad_prop_bga) (layers "F.Cu" "F.Paste" "F.Mask") (tstamp 9886822c-3825-4212-8d5c-efe41b1a8295))
  (pad "AA9" smd circle (at -2.5 9.5) (size 0.53 0.53) (property pad_prop_bga) (layers "F.Cu" "F.Paste" "F.Mask") (tstamp 56548367-b36f-4d82-bf72-9ccfd9169a6c))
  (pad "AA10" smd circle (at -1.5 9.5) (size 0.53 0.53) (property pad_prop_bga) (layers "F.Cu" "F.Paste" "F.Mask") (tstamp f8b2e926-47f7-43ab-8efe-cb6de617481e))
  (pad "AA11" smd circle (at -0.5 9.5) (size 0.53 0.53) (property pad_prop_bga) (layers "F.Cu" "F.Paste" "F.Mask") (tstamp 8ea4e7ff-6056-4287-86c4-9baf5106ba49))
  (pad "AA12" smd circle (at 0.5 9.5) (size 0.53 0.53) (property pad_prop_bga) (layers "F.Cu" "F.Paste" "F.Mask") (tstamp cfe9f8fc-e305-4870-bbfe-98ae62d65f22))
  (pad "AA13" smd circle (at 1.5 9.5) (size 0.53 0.53) (property pad_prop_bga) (layers "F.Cu" "F.Paste" "F.Mask") (tstamp 342e86fc-4fc2-4abe-ac2a-518ce939da61))
  (pad "AA14" smd circle (at 2.5 9.5) (size 0.53 0.53) (property pad_prop_bga) (layers "F.Cu" "F.Paste" "F.Mask") (tstamp 347e6992-7a84-48a7-9061-73c4fab54c34))
  (pad "AA15" smd circle (at 3.5 9.5) (size 0.53 0.53) (property pad_prop_bga) (layers "F.Cu" "F.Paste" "F.Mask") (tstamp c2a7ad85-0cfb-471f-b1ac-d2b3c90f7c4d))
  (pad "AA16" smd circle (at 4.5 9.5) (size 0.53 0.53) (property pad_prop_bga) (layers "F.Cu" "F.Paste" "F.Mask") (tstamp c7953aae-ca53-475e-91db-836909238eb7))
  (pad "AA17" smd circle (at 5.5 9.5) (size 0.53 0.53) (property pad_prop_bga) (layers "F.Cu" "F.Paste" "F.Mask") (tstamp 76d77ff5-c600-4e69-bbcd-d1cd588533db))
  (pad "AA18" smd circle (at 6.5 9.5) (size 0.53 0.53) (property pad_prop_bga) (layers "F.Cu" "F.Paste" "F.Mask") (tstamp d6804231-5525-4249-add5-7c029d20616d))
  (pad "AA19" smd circle (at 7.5 9.5) (size 0.53 0.53) (property pad_prop_bga) (layers "F.Cu" "F.Paste" "F.Mask") (tstamp 78b893fa-3daf-41ab-ab66-b96f60955e99))
  (pad "AA20" smd circle (at 8.5 9.5) (size 0.53 0.53) (property pad_prop_bga) (layers "F.Cu" "F.Paste" "F.Mask") (tstamp 226400f5-3950-4316-9c02-f1fbaf1c1f4b))
  (pad "AA21" smd circle (at 9.5 9.5) (size 0.53 0.53) (property pad_prop_bga) (layers "F.Cu" "F.Paste" "F.Mask") (tstamp 6a52768c-e82c-48ac-8deb-8f9365436c11))
  (pad "AA22" smd circle (at 10.5 9.5) (size 0.53 0.53) (property pad_prop_bga) (layers "F.Cu" "F.Paste" "F.Mask") (tstamp b0987007-a969-4a1c-bba1-cde5f57b74dc))
  (pad "AB1" smd circle (at -10.5 10.5) (size 0.53 0.53) (property pad_prop_bga) (layers "F.Cu" "F.Paste" "F.Mask") (tstamp 96737360-6937-421e-a548-a46b3f86ba21))
  (pad "AB2" smd circle (at -9.5 10.5) (size 0.53 0.53) (property pad_prop_bga) (layers "F.Cu" "F.Paste" "F.Mask") (tstamp ba419700-3a27-4688-8711-7aca0e077d2a))
  (pad "AB3" smd circle (at -8.5 10.5) (size 0.53 0.53) (property pad_prop_bga) (layers "F.Cu" "F.Paste" "F.Mask") (tstamp 74d10038-7c85-426c-8de2-e9458583caed))
  (pad "AB4" smd circle (at -7.5 10.5) (size 0.53 0.53) (property pad_prop_bga) (layers "F.Cu" "F.Paste" "F.Mask") (tstamp 6f88c406-44b8-47b4-8251-33c676c9e660))
  (pad "AB5" smd circle (at -6.5 10.5) (size 0.53 0.53) (property pad_prop_bga) (layers "F.Cu" "F.Paste" "F.Mask") (tstamp 9cf6b779-5dfa-46f4-b50f-d97060723cc4))
  (pad "AB6" smd circle (at -5.5 10.5) (size 0.53 0.53) (property pad_prop_bga) (layers "F.Cu" "F.Paste" "F.Mask") (tstamp 0bef9b48-7f86-4516-862c-cf82dd00d0f0))
  (pad "AB7" smd circle (at -4.5 10.5) (size 0.53 0.53) (property pad_prop_bga) (layers "F.Cu" "F.Paste" "F.Mask") (tstamp 43fca5f4-b183-4486-9727-a32d7027b144))
  (pad "AB8" smd circle (at -3.5 10.5) (size 0.53 0.53) (property pad_prop_bga) (layers "F.Cu" "F.Paste" "F.Mask") (tstamp 5c6ce868-5ff5-491c-82b9-f3d1e37e72b8))
  (pad "AB9" smd circle (at -2.5 10.5) (size 0.53 0.53) (property pad_prop_bga) (layers "F.Cu" "F.Paste" "F.Mask") (tstamp 01c20448-954e-403f-ae70-3e67625126dc))
  (pad "AB10" smd circle (at -1.5 10.5) (size 0.53 0.53) (property pad_prop_bga) (layers "F.Cu" "F.Paste" "F.Mask") (tstamp a00ba437-0ec8-4f8d-bf07-3ab4333b729f))
  (pad "AB11" smd circle (at -0.5 10.5) (size 0.53 0.53) (property pad_prop_bga) (layers "F.Cu" "F.Paste" "F.Mask") (tstamp cd76d9a0-6dac-4b8a-bc60-65328b3e6543))
  (pad "AB12" smd circle (at 0.5 10.5) (size 0.53 0.53) (property pad_prop_bga) (layers "F.Cu" "F.Paste" "F.Mask") (tstamp a6287b20-ff21-4c98-ba60-6d04604f85b3))
  (pad "AB13" smd circle (at 1.5 10.5) (size 0.53 0.53) (property pad_prop_bga) (layers "F.Cu" "F.Paste" "F.Mask") (tstamp 8176295f-f23a-4928-bd20-37647155b144))
  (pad "AB14" smd circle (at 2.5 10.5) (size 0.53 0.53) (property pad_prop_bga) (layers "F.Cu" "F.Paste" "F.Mask") (tstamp a2df97b3-9ff7-4c86-8841-dcccefd601dc))
  (pad "AB15" smd circle (at 3.5 10.5) (size 0.53 0.53) (property pad_prop_bga) (layers "F.Cu" "F.Paste" "F.Mask") (tstamp f51709bc-8fc6-43f1-9212-6da317544d0e))
  (pad "AB16" smd circle (at 4.5 10.5) (size 0.53 0.53) (property pad_prop_bga) (layers "F.Cu" "F.Paste" "F.Mask") (tstamp 85121e11-3ad0-447f-8e59-a9eb5432cce5))
  (pad "AB17" smd circle (at 5.5 10.5) (size 0.53 0.53) (property pad_prop_bga) (layers "F.Cu" "F.Paste" "F.Mask") (tstamp 7169217e-76ed-4862-8834-926baf287c2c))
  (pad "AB18" smd circle (at 6.5 10.5) (size 0.53 0.53) (property pad_prop_bga) (layers "F.Cu" "F.Paste" "F.Mask") (tstamp 6bde3ac9-6f1b-4adc-b42c-32f7cd070ab8))
  (pad "AB19" smd circle (at 7.5 10.5) (size 0.53 0.53) (property pad_prop_bga) (layers "F.Cu" "F.Paste" "F.Mask") (tstamp c68e606c-484f-4b1b-bd80-612f65a0742e))
  (pad "AB20" smd circle (at 8.5 10.5) (size 0.53 0.53) (property pad_prop_bga) (layers "F.Cu" "F.Paste" "F.Mask") (tstamp 1932639a-5a2d-4675-ba22-d48e553d1123))
  (pad "AB21" smd circle (at 9.5 10.5) (size 0.53 0.53) (property pad_prop_bga) (layers "F.Cu" "F.Paste" "F.Mask") (tstamp 6567a403-2fd9-43c8-8f71-a319461d2456))
  (pad "AB22" smd circle (at 10.5 10.5) (size 0.53 0.53) (property pad_prop_bga) (layers "F.Cu" "F.Paste" "F.Mask") (tstamp 365998cf-d012-46c4-820b-b60e6ee4ec76))
  (pad "B1" smd circle (at -10.5 -9.5) (size 0.53 0.53) (property pad_prop_bga) (layers "F.Cu" "F.Paste" "F.Mask") (tstamp e9862082-65e1-4e27-9b21-8d05ec738698))
  (pad "B2" smd circle (at -9.5 -9.5) (size 0.53 0.53) (property pad_prop_bga) (layers "F.Cu" "F.Paste" "F.Mask") (tstamp a77d5eca-f86f-415f-9c40-6b8b9d3c7f68))
  (pad "B3" smd circle (at -8.5 -9.5) (size 0.53 0.53) (property pad_prop_bga) (layers "F.Cu" "F.Paste" "F.Mask") (tstamp 24ea7a56-c260-40e8-8034-af541f457df4))
  (pad "B4" smd circle (at -7.5 -9.5) (size 0.53 0.53) (property pad_prop_bga) (layers "F.Cu" "F.Paste" "F.Mask") (tstamp 93d5f3d2-0ae8-4f66-add3-cce2fa78a74f))
  (pad "B5" smd circle (at -6.5 -9.5) (size 0.53 0.53) (property pad_prop_bga) (layers "F.Cu" "F.Paste" "F.Mask") (tstamp fe333dd6-531a-4aab-961d-261edd718011))
  (pad "B6" smd circle (at -5.5 -9.5) (size 0.53 0.53) (property pad_prop_bga) (layers "F.Cu" "F.Paste" "F.Mask") (tstamp 182df4a8-24d3-4224-9670-cf98a0e9795a))
  (pad "B7" smd circle (at -4.5 -9.5) (size 0.53 0.53) (property pad_prop_bga) (layers "F.Cu" "F.Paste" "F.Mask") (tstamp 4f8f7477-fe87-4fbc-9df7-f7d0c4482e11))
  (pad "B8" smd circle (at -3.5 -9.5) (size 0.53 0.53) (property pad_prop_bga) (layers "F.Cu" "F.Paste" "F.Mask") (tstamp de52fc6c-fed4-479c-8abb-b7c6ea1b78c5))
  (pad "B9" smd circle (at -2.5 -9.5) (size 0.53 0.53) (property pad_prop_bga) (layers "F.Cu" "F.Paste" "F.Mask") (tstamp 3ad97de4-9605-4490-864a-4fe2d70a7d99))
  (pad "B10" smd circle (at -1.5 -9.5) (size 0.53 0.53) (property pad_prop_bga) (layers "F.Cu" "F.Paste" "F.Mask") (tstamp ce783625-67a2-4fdd-8702-e5331e3fcb9b))
  (pad "B11" smd circle (at -0.5 -9.5) (size 0.53 0.53) (property pad_prop_bga) (layers "F.Cu" "F.Paste" "F.Mask") (tstamp 0405e97e-6be2-4916-9008-234fa3208ee2))
  (pad "B12" smd circle (at 0.5 -9.5) (size 0.53 0.53) (property pad_prop_bga) (layers "F.Cu" "F.Paste" "F.Mask") (tstamp 7d0c2c8e-0f70-4331-ac66-b46f6aa6ccc4))
  (pad "B13" smd circle (at 1.5 -9.5) (size 0.53 0.53) (property pad_prop_bga) (layers "F.Cu" "F.Paste" "F.Mask") (tstamp c861fea5-74e0-4d55-8cbf-27518dad18cb))
  (pad "B14" smd circle (at 2.5 -9.5) (size 0.53 0.53) (property pad_prop_bga) (layers "F.Cu" "F.Paste" "F.Mask") (tstamp b46931f7-2a58-4995-96f1-6f3012195a28))
  (pad "B15" smd circle (at 3.5 -9.5) (size 0.53 0.53) (property pad_prop_bga) (layers "F.Cu" "F.Paste" "F.Mask") (tstamp 7d4d21f3-5c06-482e-9049-0f89c7da0057))
  (pad "B16" smd circle (at 4.5 -9.5) (size 0.53 0.53) (property pad_prop_bga) (layers "F.Cu" "F.Paste" "F.Mask") (tstamp 47c93963-b646-4b72-b61f-09876956b021))
  (pad "B17" smd circle (at 5.5 -9.5) (size 0.53 0.53) (property pad_prop_bga) (layers "F.Cu" "F.Paste" "F.Mask") (tstamp 211599bc-08e5-43c2-9a36-1b038ea323f1))
  (pad "B18" smd circle (at 6.5 -9.5) (size 0.53 0.53) (property pad_prop_bga) (layers "F.Cu" "F.Paste" "F.Mask") (tstamp d1c127c2-4f00-4809-be49-7866f8be9903))
  (pad "B19" smd circle (at 7.5 -9.5) (size 0.53 0.53) (property pad_prop_bga) (layers "F.Cu" "F.Paste" "F.Mask") (tstamp acc61d7c-4954-434b-9384-c1448eb18167))
  (pad "B20" smd circle (at 8.5 -9.5) (size 0.53 0.53) (property pad_prop_bga) (layers "F.Cu" "F.Paste" "F.Mask") (tstamp 2525accb-b542-4c26-93ba-824d86e491e8))
  (pad "B21" smd circle (at 9.5 -9.5) (size 0.53 0.53) (property pad_prop_bga) (layers "F.Cu" "F.Paste" "F.Mask") (tstamp ce5c289c-23cd-4a17-90c3-bb9add9310a8))
  (pad "B22" smd circle (at 10.5 -9.5) (size 0.53 0.53) (property pad_prop_bga) (layers "F.Cu" "F.Paste" "F.Mask") (tstamp 02fbcc99-cadb-44ca-af5c-22d02c0bb76e))
  (pad "C1" smd circle (at -10.5 -8.5) (size 0.53 0.53) (property pad_prop_bga) (layers "F.Cu" "F.Paste" "F.Mask") (tstamp 47a745d1-e44a-487e-9ed3-f634d212a635))
  (pad "C2" smd circle (at -9.5 -8.5) (size 0.53 0.53) (property pad_prop_bga) (layers "F.Cu" "F.Paste" "F.Mask") (tstamp 4b2baf1e-ee57-41dd-badb-95bfd3a62411))
  (pad "C3" smd circle (at -8.5 -8.5) (size 0.53 0.53) (property pad_prop_bga) (layers "F.Cu" "F.Paste" "F.Mask") (tstamp 0bfe420b-e186-41d6-88f5-df8bf561e215))
  (pad "C4" smd circle (at -7.5 -8.5) (size 0.53 0.53) (property pad_prop_bga) (layers "F.Cu" "F.Paste" "F.Mask") (tstamp 5ff325be-c453-4ce0-8454-cfbabc97cea6))
  (pad "C5" smd circle (at -6.5 -8.5) (size 0.53 0.53) (property pad_prop_bga) (layers "F.Cu" "F.Paste" "F.Mask") (tstamp 74f50bff-52b5-4184-98e6-51853ec8f361))
  (pad "C6" smd circle (at -5.5 -8.5) (size 0.53 0.53) (property pad_prop_bga) (layers "F.Cu" "F.Paste" "F.Mask") (tstamp a54ace28-c805-4e42-b05b-991df4862897))
  (pad "C7" smd circle (at -4.5 -8.5) (size 0.53 0.53) (property pad_prop_bga) (layers "F.Cu" "F.Paste" "F.Mask") (tstamp 9841a9f0-ea96-41ad-a0bc-247cef32402e))
  (pad "C8" smd circle (at -3.5 -8.5) (size 0.53 0.53) (property pad_prop_bga) (layers "F.Cu" "F.Paste" "F.Mask") (tstamp d19ee9af-9a32-4492-b29d-b58f5e26471f))
  (pad "C9" smd circle (at -2.5 -8.5) (size 0.53 0.53) (property pad_prop_bga) (layers "F.Cu" "F.Paste" "F.Mask") (tstamp da543bb5-90da-4809-b355-200a5c312783))
  (pad "C10" smd circle (at -1.5 -8.5) (size 0.53 0.53) (property pad_prop_bga) (layers "F.Cu" "F.Paste" "F.Mask") (tstamp 76c6a85e-502b-465c-903a-db906b7e5e92))
  (pad "C11" smd circle (at -0.5 -8.5) (size 0.53 0.53) (property pad_prop_bga) (layers "F.Cu" "F.Paste" "F.Mask") (tstamp a6aefc6f-e82f-449f-a641-10267c7a484a))
  (pad "C12" smd circle (at 0.5 -8.5) (size 0.53 0.53) (property pad_prop_bga) (layers "F.Cu" "F.Paste" "F.Mask") (tstamp 431c81b3-3c4b-44a1-ba1b-514393d1c104))
  (pad "C13" smd circle (at 1.5 -8.5) (size 0.53 0.53) (property pad_prop_bga) (layers "F.Cu" "F.Paste" "F.Mask") (tstamp 5acd76f9-5f66-4ad5-a4ec-235a3fec4b2a))
  (pad "C14" smd circle (at 2.5 -8.5) (size 0.53 0.53) (property pad_prop_bga) (layers "F.Cu" "F.Paste" "F.Mask") (tstamp 6659cc60-66cd-48fe-bef4-d4ae659453ae))
  (pad "C15" smd circle (at 3.5 -8.5) (size 0.53 0.53) (property pad_prop_bga) (layers "F.Cu" "F.Paste" "F.Mask") (tstamp cda0d8af-2dee-4825-bbfa-4449e4a942c9))
  (pad "C16" smd circle (at 4.5 -8.5) (size 0.53 0.53) (property pad_prop_bga) (layers "F.Cu" "F.Paste" "F.Mask") (tstamp 8d3de1cb-bfa9-408e-a0fa-ddfaca1eb78f))
  (pad "C17" smd circle (at 5.5 -8.5) (size 0.53 0.53) (property pad_prop_bga) (layers "F.Cu" "F.Paste" "F.Mask") (tstamp 0e18a269-140d-4e69-83c4-d2c3dc7bc497))
  (pad "C18" smd circle (at 6.5 -8.5) (size 0.53 0.53) (property pad_prop_bga) (layers "F.Cu" "F.Paste" "F.Mask") (tstamp 7e00b354-35c6-4d76-866d-c6e4307154aa))
  (pad "C19" smd circle (at 7.5 -8.5) (size 0.53 0.53) (property pad_prop_bga) (layers "F.Cu" "F.Paste" "F.Mask") (tstamp 822939df-6975-45d7-aad9-6a1d296229c4))
  (pad "C20" smd circle (at 8.5 -8.5) (size 0.53 0.53) (property pad_prop_bga) (layers "F.Cu" "F.Paste" "F.Mask") (tstamp 26a94a94-d78a-4a1e-a570-021fc4deb3a0))
  (pad "C21" smd circle (at 9.5 -8.5) (size 0.53 0.53) (property pad_prop_bga) (layers "F.Cu" "F.Paste" "F.Mask") (tstamp 8616591d-1c7d-483f-a9cd-8faa1c35c05b))
  (pad "C22" smd circle (at 10.5 -8.5) (size 0.53 0.53) (property pad_prop_bga) (layers "F.Cu" "F.Paste" "F.Mask") (tstamp 1b7e8b18-0b65-43d0-b590-2010bb591973))
  (pad "D1" smd circle (at -10.5 -7.5) (size 0.53 0.53) (property pad_prop_bga) (layers "F.Cu" "F.Paste" "F.Mask") (tstamp 1f3b7a89-6d96-41bc-ba62-633a376480d3))
  (pad "D2" smd circle (at -9.5 -7.5) (size 0.53 0.53) (property pad_prop_bga) (layers "F.Cu" "F.Paste" "F.Mask") (tstamp fe3a88fb-8169-4ce2-a18b-be928ddadab2))
  (pad "D3" smd circle (at -8.5 -7.5) (size 0.53 0.53) (property pad_prop_bga) (layers "F.Cu" "F.Paste" "F.Mask") (tstamp 5e36c9f5-15dc-4813-9836-d4e58fec45cf))
  (pad "D4" smd circle (at -7.5 -7.5) (size 0.53 0.53) (property pad_prop_bga) (layers "F.Cu" "F.Paste" "F.Mask") (tstamp 3859b9c9-fbb4-449b-b47f-3f86c065b3fc))
  (pad "D5" smd circle (at -6.5 -7.5) (size 0.53 0.53) (property pad_prop_bga) (layers "F.Cu" "F.Paste" "F.Mask") (tstamp 50ceaf08-af8f-4dae-946f-65bc990ff809))
  (pad "D6" smd circle (at -5.5 -7.5) (size 0.53 0.53) (property pad_prop_bga) (layers "F.Cu" "F.Paste" "F.Mask") (tstamp 22758e0d-c59e-4017-945e-5794c4121e78))
  (pad "D7" smd circle (at -4.5 -7.5) (size 0.53 0.53) (property pad_prop_bga) (layers "F.Cu" "F.Paste" "F.Mask") (tstamp 934f7edc-b568-42f1-8ab1-9477c096923e))
  (pad "D8" smd circle (at -3.5 -7.5) (size 0.53 0.53) (property pad_prop_bga) (layers "F.Cu" "F.Paste" "F.Mask") (tstamp 86f964e6-924e-4a9b-a49f-888f53193e81))
  (pad "D9" smd circle (at -2.5 -7.5) (size 0.53 0.53) (property pad_prop_bga) (layers "F.Cu" "F.Paste" "F.Mask") (tstamp a3a1b2fa-56e2-4671-9b3d-d99bef2f655c))
  (pad "D10" smd circle (at -1.5 -7.5) (size 0.53 0.53) (property pad_prop_bga) (layers "F.Cu" "F.Paste" "F.Mask") (tstamp 66020eed-3f00-4baf-81e7-91709cfd65b9))
  (pad "D11" smd circle (at -0.5 -7.5) (size 0.53 0.53) (property pad_prop_bga) (layers "F.Cu" "F.Paste" "F.Mask") (tstamp 3aa24d16-ae63-403b-a88b-f9c6cccd9245))
  (pad "D12" smd circle (at 0.5 -7.5) (size 0.53 0.53) (property pad_prop_bga) (layers "F.Cu" "F.Paste" "F.Mask") (tstamp 2adc659d-ccdd-45c6-a433-30890008e874))
  (pad "D13" smd circle (at 1.5 -7.5) (size 0.53 0.53) (property pad_prop_bga) (layers "F.Cu" "F.Paste" "F.Mask") (tstamp 7dbf274f-21e5-483e-b562-6b154c93a63b))
  (pad "D14" smd circle (at 2.5 -7.5) (size 0.53 0.53) (property pad_prop_bga) (layers "F.Cu" "F.Paste" "F.Mask") (tstamp 182c4f48-5b55-4c4f-9597-e2f30f953f3f))
  (pad "D15" smd circle (at 3.5 -7.5) (size 0.53 0.53) (property pad_prop_bga) (layers "F.Cu" "F.Paste" "F.Mask") (tstamp 16a37262-2ae3-42bc-886d-281f5de8f3e2))
  (pad "D16" smd circle (at 4.5 -7.5) (size 0.53 0.53) (property pad_prop_bga) (layers "F.Cu" "F.Paste" "F.Mask") (tstamp 5e15bf8d-1918-45a2-a609-cbb0a5a85eb5))
  (pad "D17" smd circle (at 5.5 -7.5) (size 0.53 0.53) (property pad_prop_bga) (layers "F.Cu" "F.Paste" "F.Mask") (tstamp e9552d92-a26a-4c56-895c-d444b1b32672))
  (pad "D18" smd circle (at 6.5 -7.5) (size 0.53 0.53) (property pad_prop_bga) (layers "F.Cu" "F.Paste" "F.Mask") (tstamp 8f90ec2d-8340-4772-bbbf-f04d91f6a51a))
  (pad "D19" smd circle (at 7.5 -7.5) (size 0.53 0.53) (property pad_prop_bga) (layers "F.Cu" "F.Paste" "F.Mask") (tstamp 9465dffe-cde8-47c7-a936-3aef43260043))
  (pad "D20" smd circle (at 8.5 -7.5) (size 0.53 0.53) (property pad_prop_bga) (layers "F.Cu" "F.Paste" "F.Mask") (tstamp d2b98bd9-f0fd-4212-81ea-971a858849d2))
  (pad "D21" smd circle (at 9.5 -7.5) (size 0.53 0.53) (property pad_prop_bga) (layers "F.Cu" "F.Paste" "F.Mask") (tstamp 4ec1060d-172a-465b-92e0-e44e8b0abf6e))
  (pad "D22" smd circle (at 10.5 -7.5) (size 0.53 0.53) (property pad_prop_bga) (layers "F.Cu" "F.Paste" "F.Mask") (tstamp 3ae9bcaa-b6cb-4917-a61b-21fbf237dc14))
  (pad "E1" smd circle (at -10.5 -6.5) (size 0.53 0.53) (property pad_prop_bga) (layers "F.Cu" "F.Paste" "F.Mask") (tstamp 1e14c16d-add7-4e99-87cd-0681f386cd60))
  (pad "E2" smd circle (at -9.5 -6.5) (size 0.53 0.53) (property pad_prop_bga) (layers "F.Cu" "F.Paste" "F.Mask") (tstamp 9a60bd25-1ca6-4596-bed4-9aadbdf4ace4))
  (pad "E3" smd circle (at -8.5 -6.5) (size 0.53 0.53) (property pad_prop_bga) (layers "F.Cu" "F.Paste" "F.Mask") (tstamp 922949aa-b16c-485c-a918-01be2df21bff))
  (pad "E4" smd circle (at -7.5 -6.5) (size 0.53 0.53) (property pad_prop_bga) (layers "F.Cu" "F.Paste" "F.Mask") (tstamp ff1bf6b2-c7a2-425d-b4a3-3104685c4977))
  (pad "E5" smd circle (at -6.5 -6.5) (size 0.53 0.53) (property pad_prop_bga) (layers "F.Cu" "F.Paste" "F.Mask") (tstamp 5f1f3c58-caae-4a4e-b5e8-5141b2fb40b5))
  (pad "E6" smd circle (at -5.5 -6.5) (size 0.53 0.53) (property pad_prop_bga) (layers "F.Cu" "F.Paste" "F.Mask") (tstamp fecc40fc-78b6-4d9d-8aa6-f7c654d59cc2))
  (pad "E7" smd circle (at -4.5 -6.5) (size 0.53 0.53) (property pad_prop_bga) (layers "F.Cu" "F.Paste" "F.Mask") (tstamp 82ecc0f2-1f38-4536-b66e-c72bce1e97d3))
  (pad "E8" smd circle (at -3.5 -6.5) (size 0.53 0.53) (property pad_prop_bga) (layers "F.Cu" "F.Paste" "F.Mask") (tstamp e37a938e-9812-4f17-aad7-af6e0052e584))
  (pad "E9" smd circle (at -2.5 -6.5) (size 0.53 0.53) (property pad_prop_bga) (layers "F.Cu" "F.Paste" "F.Mask") (tstamp 2ed222d4-b75b-4559-8720-dc2007c6dc2b))
  (pad "E10" smd circle (at -1.5 -6.5) (size 0.53 0.53) (property pad_prop_bga) (layers "F.Cu" "F.Paste" "F.Mask") (tstamp 45239189-d9e5-420e-be73-1d553f3dc71c))
  (pad "E11" smd circle (at -0.5 -6.5) (size 0.53 0.53) (property pad_prop_bga) (layers "F.Cu" "F.Paste" "F.Mask") (tstamp 173780e7-8bd5-4772-b765-8828c8175031))
  (pad "E12" smd circle (at 0.5 -6.5) (size 0.53 0.53) (property pad_prop_bga) (layers "F.Cu" "F.Paste" "F.Mask") (tstamp 4b5df712-f5a3-4196-8a4e-93dd3ea30e54))
  (pad "E13" smd circle (at 1.5 -6.5) (size 0.53 0.53) (property pad_prop_bga) (layers "F.Cu" "F.Paste" "F.Mask") (tstamp a822b854-6345-436f-9e43-0a96a4a0747e))
  (pad "E14" smd circle (at 2.5 -6.5) (size 0.53 0.53) (property pad_prop_bga) (layers "F.Cu" "F.Paste" "F.Mask") (tstamp 4930248f-b52d-4c63-8e20-0171e3249dfb))
  (pad "E15" smd circle (at 3.5 -6.5) (size 0.53 0.53) (property pad_prop_bga) (layers "F.Cu" "F.Paste" "F.Mask") (tstamp 86f57642-72ae-4d8a-b31b-641072257993))
  (pad "E16" smd circle (at 4.5 -6.5) (size 0.53 0.53) (property pad_prop_bga) (layers "F.Cu" "F.Paste" "F.Mask") (tstamp 66c40cea-0812-4280-8264-82197cf73589))
  (pad "E17" smd circle (at 5.5 -6.5) (size 0.53 0.53) (property pad_prop_bga) (layers "F.Cu" "F.Paste" "F.Mask") (tstamp 8da2c968-f3ef-4654-8bd6-a06f7c0470b7))
  (pad "E18" smd circle (at 6.5 -6.5) (size 0.53 0.53) (property pad_prop_bga) (layers "F.Cu" "F.Paste" "F.Mask") (tstamp 29605996-af66-423a-ab3f-fc16f5e593cb))
  (pad "E19" smd circle (at 7.5 -6.5) (size 0.53 0.53) (property pad_prop_bga) (layers "F.Cu" "F.Paste" "F.Mask") (tstamp da499d0f-584a-473c-8607-963c19bf46c6))
  (pad "E20" smd circle (at 8.5 -6.5) (size 0.53 0.53) (property pad_prop_bga) (layers "F.Cu" "F.Paste" "F.Mask") (tstamp bff47974-1fc2-4bbb-baa7-ddd80bbc3954))
  (pad "E21" smd circle (at 9.5 -6.5) (size 0.53 0.53) (property pad_prop_bga) (layers "F.Cu" "F.Paste" "F.Mask") (tstamp 4a709eb8-fa69-4542-90cb-7b088650ab32))
  (pad "E22" smd circle (at 10.5 -6.5) (size 0.53 0.53) (property pad_prop_bga) (layers "F.Cu" "F.Paste" "F.Mask") (tstamp 4828a639-6437-493d-b65b-3157e4a64114))
  (pad "F1" smd circle (at -10.5 -5.5) (size 0.53 0.53) (property pad_prop_bga) (layers "F.Cu" "F.Paste" "F.Mask") (tstamp 717075e2-589c-4e8a-bdf6-5abbbea9be46))
  (pad "F2" smd circle (at -9.5 -5.5) (size 0.53 0.53) (property pad_prop_bga) (layers "F.Cu" "F.Paste" "F.Mask") (tstamp dada7d03-dc96-4968-950d-fa373ee51646))
  (pad "F3" smd circle (at -8.5 -5.5) (size 0.53 0.53) (property pad_prop_bga) (layers "F.Cu" "F.Paste" "F.Mask") (tstamp fde57ed8-3874-40d7-b615-d90fe06f6db6))
  (pad "F4" smd circle (at -7.5 -5.5) (size 0.53 0.53) (property pad_prop_bga) (layers "F.Cu" "F.Paste" "F.Mask") (tstamp b79598cc-b101-4c43-aa1e-446fa7aecde0))
  (pad "F5" smd circle (at -6.5 -5.5) (size 0.53 0.53) (property pad_prop_bga) (layers "F.Cu" "F.Paste" "F.Mask") (tstamp b87487d0-e301-4a56-91b7-2371206ed99a))
  (pad "F6" smd circle (at -5.5 -5.5) (size 0.53 0.53) (property pad_prop_bga) (layers "F.Cu" "F.Paste" "F.Mask") (tstamp 240ed51a-00d3-48df-b6cb-5e0ce595f20c))
  (pad "F7" smd circle (at -4.5 -5.5) (size 0.53 0.53) (property pad_prop_bga) (layers "F.Cu" "F.Paste" "F.Mask") (tstamp b406f0b6-7b4e-4c5c-8900-533515fb6f33))
  (pad "F8" smd circle (at -3.5 -5.5) (size 0.53 0.53) (property pad_prop_bga) (layers "F.Cu" "F.Paste" "F.Mask") (tstamp e94b4a94-0462-4d26-b3da-7a33efe2da19))
  (pad "F9" smd circle (at -2.5 -5.5) (size 0.53 0.53) (property pad_prop_bga) (layers "F.Cu" "F.Paste" "F.Mask") (tstamp 4c860435-e98b-4736-ad5e-60c3fec17928))
  (pad "F10" smd circle (at -1.5 -5.5) (size 0.53 0.53) (property pad_prop_bga) (layers "F.Cu" "F.Paste" "F.Mask") (tstamp cdce4fe8-974b-422e-a72f-aac5125a30ec))
  (pad "F11" smd circle (at -0.5 -5.5) (size 0.53 0.53) (property pad_prop_bga) (layers "F.Cu" "F.Paste" "F.Mask") (tstamp 89ff17b9-469b-4ccd-a731-b0678324686d))
  (pad "F12" smd circle (at 0.5 -5.5) (size 0.53 0.53) (property pad_prop_bga) (layers "F.Cu" "F.Paste" "F.Mask") (tstamp eb667b5a-1463-4be6-8f0c-c03b2b2bb44a))
  (pad "F13" smd circle (at 1.5 -5.5) (size 0.53 0.53) (property pad_prop_bga) (layers "F.Cu" "F.Paste" "F.Mask") (tstamp 746e9fe1-64ad-4c01-b515-9114826b45d1))
  (pad "F14" smd circle (at 2.5 -5.5) (size 0.53 0.53) (property pad_prop_bga) (layers "F.Cu" "F.Paste" "F.Mask") (tstamp 66a21f72-5098-4c66-bf64-ec1a3065edad))
  (pad "F15" smd circle (at 3.5 -5.5) (size 0.53 0.53) (property pad_prop_bga) (layers "F.Cu" "F.Paste" "F.Mask") (tstamp 1b2ad039-1771-407b-9a7c-617eb9909213))
  (pad "F16" smd circle (at 4.5 -5.5) (size 0.53 0.53) (property pad_prop_bga) (layers "F.Cu" "F.Paste" "F.Mask") (tstamp 16198ddc-f75c-4410-9377-e0ef2d8d2082))
  (pad "F17" smd circle (at 5.5 -5.5) (size 0.53 0.53) (property pad_prop_bga) (layers "F.Cu" "F.Paste" "F.Mask") (tstamp 4e1d3b80-042c-4f0a-a031-acbb4c76afca))
  (pad "F18" smd circle (at 6.5 -5.5) (size 0.53 0.53) (property pad_prop_bga) (layers "F.Cu" "F.Paste" "F.Mask") (tstamp 1d1c014d-6c44-4fa7-a1de-fdf0d2ead9eb))
  (pad "F19" smd circle (at 7.5 -5.5) (size 0.53 0.53) (property pad_prop_bga) (layers "F.Cu" "F.Paste" "F.Mask") (tstamp 18463ef1-fa36-43b6-9101-2db718010cf6))
  (pad "F20" smd circle (at 8.5 -5.5) (size 0.53 0.53) (property pad_prop_bga) (layers "F.Cu" "F.Paste" "F.Mask") (tstamp d9b63670-0fc5-4c93-9eb5-eec83eb09dd1))
  (pad "F21" smd circle (at 9.5 -5.5) (size 0.53 0.53) (property pad_prop_bga) (layers "F.Cu" "F.Paste" "F.Mask") (tstamp 99108160-48c0-4b48-99e8-ff1eeecb1fbd))
  (pad "F22" smd circle (at 10.5 -5.5) (size 0.53 0.53) (property pad_prop_bga) (layers "F.Cu" "F.Paste" "F.Mask") (tstamp a731779a-47f3-4ae3-a300-1dbba804a4fc))
  (pad "G1" smd circle (at -10.5 -4.5) (size 0.53 0.53) (property pad_prop_bga) (layers "F.Cu" "F.Paste" "F.Mask") (tstamp 24054bc9-7328-49f0-b75e-fb231c8653d1))
  (pad "G2" smd circle (at -9.5 -4.5) (size 0.53 0.53) (property pad_prop_bga) (layers "F.Cu" "F.Paste" "F.Mask") (tstamp 16a30d15-80ab-42c0-b825-9b48e44bb23e))
  (pad "G3" smd circle (at -8.5 -4.5) (size 0.53 0.53) (property pad_prop_bga) (layers "F.Cu" "F.Paste" "F.Mask") (tstamp 1f2e5e8d-993d-470d-8d45-858a7f11ec51))
  (pad "G4" smd circle (at -7.5 -4.5) (size 0.53 0.53) (property pad_prop_bga) (layers "F.Cu" "F.Paste" "F.Mask") (tstamp 403c8a23-512c-41cc-a099-1e2dc47fb149))
  (pad "G5" smd circle (at -6.5 -4.5) (size 0.53 0.53) (property pad_prop_bga) (layers "F.Cu" "F.Paste" "F.Mask") (tstamp e24bddc2-8a4e-44ac-b58a-a99a01b1faa4))
  (pad "G6" smd circle (at -5.5 -4.5) (size 0.53 0.53) (property pad_prop_bga) (layers "F.Cu" "F.Paste" "F.Mask") (tstamp 09d5e91a-ed89-41fa-be73-827676c55c6a))
  (pad "G7" smd circle (at -4.5 -4.5) (size 0.53 0.53) (property pad_prop_bga) (layers "F.Cu" "F.Paste" "F.Mask") (tstamp 2372ad22-4e7d-4dab-8626-cdbf0f163ad1))
  (pad "G8" smd circle (at -3.5 -4.5) (size 0.53 0.53) (property pad_prop_bga) (layers "F.Cu" "F.Paste" "F.Mask") (tstamp f334552f-2fe9-47c3-8d32-c363e3e3d680))
  (pad "G9" smd circle (at -2.5 -4.5) (size 0.53 0.53) (property pad_prop_bga) (layers "F.Cu" "F.Paste" "F.Mask") (tstamp 20a5bba6-e0dd-4b14-a8c6-ecf93f1dc2dc))
  (pad "G10" smd circle (at -1.5 -4.5) (size 0.53 0.53) (property pad_prop_bga) (layers "F.Cu" "F.Paste" "F.Mask") (tstamp 66686b1e-9143-4144-8f11-50be947ff66e))
  (pad "G11" smd circle (at -0.5 -4.5) (size 0.53 0.53) (property pad_prop_bga) (layers "F.Cu" "F.Paste" "F.Mask") (tstamp ebd9ecc3-3212-44d6-9166-54a083cb19f1))
  (pad "G12" smd circle (at 0.5 -4.5) (size 0.53 0.53) (property pad_prop_bga) (layers "F.Cu" "F.Paste" "F.Mask") (tstamp 9a0b23d3-6939-459f-a127-e63ac289f62a))
  (pad "G13" smd circle (at 1.5 -4.5) (size 0.53 0.53) (property pad_prop_bga) (layers "F.Cu" "F.Paste" "F.Mask") (tstamp e790bcf9-7461-4429-aeb2-5dff7921f0ac))
  (pad "G14" smd circle (at 2.5 -4.5) (size 0.53 0.53) (property pad_prop_bga) (layers "F.Cu" "F.Paste" "F.Mask") (tstamp 64976d19-d457-4eb8-a87f-06da4212fdc4))
  (pad "G15" smd circle (at 3.5 -4.5) (size 0.53 0.53) (property pad_prop_bga) (layers "F.Cu" "F.Paste" "F.Mask") (tstamp 7061f471-2032-4c6a-b79d-6a34f91166d5))
  (pad "G16" smd circle (at 4.5 -4.5) (size 0.53 0.53) (property pad_prop_bga) (layers "F.Cu" "F.Paste" "F.Mask") (tstamp 5fb49df2-656b-4642-80f3-adbce3d10509))
  (pad "G17" smd circle (at 5.5 -4.5) (size 0.53 0.53) (property pad_prop_bga) (layers "F.Cu" "F.Paste" "F.Mask") (tstamp d3b60d83-684d-4662-bcf2-0f062e3714ee))
  (pad "G18" smd circle (at 6.5 -4.5) (size 0.53 0.53) (property pad_prop_bga) (layers "F.Cu" "F.Paste" "F.Mask") (tstamp 2df77a4c-b6f2-4c40-8e7f-8c1d482e938e))
  (pad "G19" smd circle (at 7.5 -4.5) (size 0.53 0.53) (property pad_prop_bga) (layers "F.Cu" "F.Paste" "F.Mask") (tstamp a532699b-1d36-483b-8cb9-6d264c951deb))
  (pad "G20" smd circle (at 8.5 -4.5) (size 0.53 0.53) (property pad_prop_bga) (layers "F.Cu" "F.Paste" "F.Mask") (tstamp 68344eb8-c39f-4edb-a972-fd90e422f165))
  (pad "G21" smd circle (at 9.5 -4.5) (size 0.53 0.53) (property pad_prop_bga) (layers "F.Cu" "F.Paste" "F.Mask") (tstamp 309ea3e4-d949-4952-92c3-3a16ddf3187e))
  (pad "G22" smd circle (at 10.5 -4.5) (size 0.53 0.53) (property pad_prop_bga) (layers "F.Cu" "F.Paste" "F.Mask") (tstamp 6eb558af-7eb1-4da5-88b4-4a235fd5806e))
  (pad "H1" smd circle (at -10.5 -3.5) (size 0.53 0.53) (property pad_prop_bga) (layers "F.Cu" "F.Paste" "F.Mask") (tstamp d96d57f1-9672-449a-8d95-3710d709930a))
  (pad "H2" smd circle (at -9.5 -3.5) (size 0.53 0.53) (property pad_prop_bga) (layers "F.Cu" "F.Paste" "F.Mask") (tstamp c843e052-56a0-4f87-96e9-af6dc870d141))
  (pad "H3" smd circle (at -8.5 -3.5) (size 0.53 0.53) (property pad_prop_bga) (layers "F.Cu" "F.Paste" "F.Mask") (tstamp 905af523-084d-42d1-a82c-c9c83feae359))
  (pad "H4" smd circle (at -7.5 -3.5) (size 0.53 0.53) (property pad_prop_bga) (layers "F.Cu" "F.Paste" "F.Mask") (tstamp 0a781212-6e58-45fa-bb74-a75ba3929aef))
  (pad "H5" smd circle (at -6.5 -3.5) (size 0.53 0.53) (property pad_prop_bga) (layers "F.Cu" "F.Paste" "F.Mask") (tstamp 8d7651cc-b145-439c-9082-1763fdd483bc))
  (pad "H6" smd circle (at -5.5 -3.5) (size 0.53 0.53) (property pad_prop_bga) (layers "F.Cu" "F.Paste" "F.Mask") (tstamp 5b927d42-9649-4179-a0b9-376a241f469d))
  (pad "H7" smd circle (at -4.5 -3.5) (size 0.53 0.53) (property pad_prop_bga) (layers "F.Cu" "F.Paste" "F.Mask") (tstamp 3f619502-910a-446f-bd37-3775e6e098cd))
  (pad "H8" smd circle (at -3.5 -3.5) (size 0.53 0.53) (property pad_prop_bga) (layers "F.Cu" "F.Paste" "F.Mask") (tstamp 3eec53e3-af70-4f7f-87b3-e0932d035191))
  (pad "H9" smd circle (at -2.5 -3.5) (size 0.53 0.53) (property pad_prop_bga) (layers "F.Cu" "F.Paste" "F.Mask") (tstamp 9bdb6d3c-715b-4323-9fe8-423bd27446ea))
  (pad "H10" smd circle (at -1.5 -3.5) (size 0.53 0.53) (property pad_prop_bga) (layers "F.Cu" "F.Paste" "F.Mask") (tstamp 6126d652-3a98-465f-8716-cfb433438533))
  (pad "H11" smd circle (at -0.5 -3.5) (size 0.53 0.53) (property pad_prop_bga) (layers "F.Cu" "F.Paste" "F.Mask") (tstamp d3661f70-4f41-4f9e-ac21-66959606d08e))
  (pad "H12" smd circle (at 0.5 -3.5) (size 0.53 0.53) (property pad_prop_bga) (layers "F.Cu" "F.Paste" "F.Mask") (tstamp 2ed29740-e9c2-49c4-84af-a7a50a2f9785))
  (pad "H13" smd circle (at 1.5 -3.5) (size 0.53 0.53) (property pad_prop_bga) (layers "F.Cu" "F.Paste" "F.Mask") (tstamp 1dc71409-f686-4643-a3b7-44d57a074071))
  (pad "H14" smd circle (at 2.5 -3.5) (size 0.53 0.53) (property pad_prop_bga) (layers "F.Cu" "F.Paste" "F.Mask") (tstamp b29317c7-bec6-4caf-9386-fa13e1615ea5))
  (pad "H15" smd circle (at 3.5 -3.5) (size 0.53 0.53) (property pad_prop_bga) (layers "F.Cu" "F.Paste" "F.Mask") (tstamp 7753f525-25a1-4c1b-80ba-ed707f4d3920))
  (pad "H16" smd circle (at 4.5 -3.5) (size 0.53 0.53) (property pad_prop_bga) (layers "F.Cu" "F.Paste" "F.Mask") (tstamp 3790d867-2de2-4b18-b86b-69c57e1fa40b))
  (pad "H17" smd circle (at 5.5 -3.5) (size 0.53 0.53) (property pad_prop_bga) (layers "F.Cu" "F.Paste" "F.Mask") (tstamp a1a58e62-c9ae-447a-85a4-d1db0da9b715))
  (pad "H18" smd circle (at 6.5 -3.5) (size 0.53 0.53) (property pad_prop_bga) (layers "F.Cu" "F.Paste" "F.Mask") (tstamp f22e2fbe-c597-4dab-8382-8a70e224be44))
  (pad "H19" smd circle (at 7.5 -3.5) (size 0.53 0.53) (property pad_prop_bga) (layers "F.Cu" "F.Paste" "F.Mask") (tstamp cf82af60-8f55-44b0-a73a-aaee27ac2c8f))
  (pad "H20" smd circle (at 8.5 -3.5) (size 0.53 0.53) (property pad_prop_bga) (layers "F.Cu" "F.Paste" "F.Mask") (tstamp c1b174bf-0614-4a09-93e7-705f8700aebe))
  (pad "H21" smd circle (at 9.5 -3.5) (size 0.53 0.53) (property pad_prop_bga) (layers "F.Cu" "F.Paste" "F.Mask") (tstamp 4d104d49-ec5c-4eb8-8a93-b843d8a3c762))
  (pad "H22" smd circle (at 10.5 -3.5) (size 0.53 0.53) (property pad_prop_bga) (layers "F.Cu" "F.Paste" "F.Mask") (tstamp d7b1ebd0-f848-4e5c-b4e6-8a82140015dc))
  (pad "J1" smd circle (at -10.5 -2.5) (size 0.53 0.53) (property pad_prop_bga) (layers "F.Cu" "F.Paste" "F.Mask") (tstamp a0ab400d-6546-4a07-83d2-83e7ae9a9b31))
  (pad "J2" smd circle (at -9.5 -2.5) (size 0.53 0.53) (property pad_prop_bga) (layers "F.Cu" "F.Paste" "F.Mask") (tstamp c76d21d0-cdbc-4271-9220-663ebff7cce7))
  (pad "J3" smd circle (at -8.5 -2.5) (size 0.53 0.53) (property pad_prop_bga) (layers "F.Cu" "F.Paste" "F.Mask") (tstamp 3bf21c90-835c-45dd-b378-4ee802352622))
  (pad "J4" smd circle (at -7.5 -2.5) (size 0.53 0.53) (property pad_prop_bga) (layers "F.Cu" "F.Paste" "F.Mask") (tstamp 33f3acc9-c36d-4261-b0c6-8aaa296f735f))
  (pad "J5" smd circle (at -6.5 -2.5) (size 0.53 0.53) (property pad_prop_bga) (layers "F.Cu" "F.Paste" "F.Mask") (tstamp 298a9e58-e59b-43c4-b9c5-c9dfe88240ff))
  (pad "J6" smd circle (at -5.5 -2.5) (size 0.53 0.53) (property pad_prop_bga) (layers "F.Cu" "F.Paste" "F.Mask") (tstamp 5935cccd-7159-406a-b547-870a82541842))
  (pad "J7" smd circle (at -4.5 -2.5) (size 0.53 0.53) (property pad_prop_bga) (layers "F.Cu" "F.Paste" "F.Mask") (tstamp 9a906f30-2f7d-4c65-8ee2-d5e1447e58a7))
  (pad "J8" smd circle (at -3.5 -2.5) (size 0.53 0.53) (property pad_prop_bga) (layers "F.Cu" "F.Paste" "F.Mask") (tstamp 16b3bab3-2b5f-4dde-83e4-ec4b6d4ee7b3))
  (pad "J9" smd circle (at -2.5 -2.5) (size 0.53 0.53) (property pad_prop_bga) (layers "F.Cu" "F.Paste" "F.Mask") (tstamp 3196b3fa-efae-41c1-a204-229a39297abf))
  (pad "J10" smd circle (at -1.5 -2.5) (size 0.53 0.53) (property pad_prop_bga) (layers "F.Cu" "F.Paste" "F.Mask") (tstamp b089e5db-e818-42f4-8ce9-10e14c51298b))
  (pad "J11" smd circle (at -0.5 -2.5) (size 0.53 0.53) (property pad_prop_bga) (layers "F.Cu" "F.Paste" "F.Mask") (tstamp f0478889-fc16-4c36-b7cd-8ea8c257ea9d))
  (pad "J12" smd circle (at 0.5 -2.5) (size 0.53 0.53) (property pad_prop_bga) (layers "F.Cu" "F.Paste" "F.Mask") (tstamp 3eb347ea-4b9f-4d3c-a3ed-d6a45475e35f))
  (pad "J13" smd circle (at 1.5 -2.5) (size 0.53 0.53) (property pad_prop_bga) (layers "F.Cu" "F.Paste" "F.Mask") (tstamp f47bef4b-0423-4546-b5ee-f63307422a7c))
  (pad "J14" smd circle (at 2.5 -2.5) (size 0.53 0.53) (property pad_prop_bga) (layers "F.Cu" "F.Paste" "F.Mask") (tstamp 06a49afa-a301-4b66-a68e-090d8f8b0511))
  (pad "J15" smd circle (at 3.5 -2.5) (size 0.53 0.53) (property pad_prop_bga) (layers "F.Cu" "F.Paste" "F.Mask") (tstamp 4deb77ef-3280-4b0c-be67-4c730091d2a9))
  (pad "J16" smd circle (at 4.5 -2.5) (size 0.53 0.53) (property pad_prop_bga) (layers "F.Cu" "F.Paste" "F.Mask") (tstamp 6437bfcd-621f-4689-baaa-d7cb33cd2f30))
  (pad "J17" smd circle (at 5.5 -2.5) (size 0.53 0.53) (property pad_prop_bga) (layers "F.Cu" "F.Paste" "F.Mask") (tstamp 4fb66808-19b8-483b-bf4f-529347c65956))
  (pad "J18" smd circle (at 6.5 -2.5) (size 0.53 0.53) (property pad_prop_bga) (layers "F.Cu" "F.Paste" "F.Mask") (tstamp 583f61be-a31c-4a48-b5af-21e70d4df689))
  (pad "J19" smd circle (at 7.5 -2.5) (size 0.53 0.53) (property pad_prop_bga) (layers "F.Cu" "F.Paste" "F.Mask") (tstamp e5f13e40-f222-4dde-875a-16ede6cb0a77))
  (pad "J20" smd circle (at 8.5 -2.5) (size 0.53 0.53) (property pad_prop_bga) (layers "F.Cu" "F.Paste" "F.Mask") (tstamp ec65ac78-d3c2-4eb8-8414-0ee45f6d968c))
  (pad "J21" smd circle (at 9.5 -2.5) (size 0.53 0.53) (property pad_prop_bga) (layers "F.Cu" "F.Paste" "F.Mask") (tstamp e56bee64-9a78-4c57-92c9-ea4bc0038381))
  (pad "J22" smd circle (at 10.5 -2.5) (size 0.53 0.53) (property pad_prop_bga) (layers "F.Cu" "F.Paste" "F.Mask") (tstamp 41762c4b-dcdf-4b3e-aee7-c0294b1f54f1))
  (pad "K1" smd circle (at -10.5 -1.5) (size 0.53 0.53) (property pad_prop_bga) (layers "F.Cu" "F.Paste" "F.Mask") (tstamp e72fea15-b86e-472a-9795-6fb0cd18b3d9))
  (pad "K2" smd circle (at -9.5 -1.5) (size 0.53 0.53) (property pad_prop_bga) (layers "F.Cu" "F.Paste" "F.Mask") (tstamp 8d1be5c5-d665-469b-bf4b-ead10e5a7bf0))
  (pad "K3" smd circle (at -8.5 -1.5) (size 0.53 0.53) (property pad_prop_bga) (layers "F.Cu" "F.Paste" "F.Mask") (tstamp 60b0d236-da43-4f34-bc2a-5cfd6e195966))
  (pad "K4" smd circle (at -7.5 -1.5) (size 0.53 0.53) (property pad_prop_bga) (layers "F.Cu" "F.Paste" "F.Mask") (tstamp 18c039db-64b6-4dc6-abba-a94096d8128c))
  (pad "K5" smd circle (at -6.5 -1.5) (size 0.53 0.53) (property pad_prop_bga) (layers "F.Cu" "F.Paste" "F.Mask") (tstamp ebed0be3-d5f3-4cb3-b8ee-2aad4e9fa1e6))
  (pad "K6" smd circle (at -5.5 -1.5) (size 0.53 0.53) (property pad_prop_bga) (layers "F.Cu" "F.Paste" "F.Mask") (tstamp 5d6255ab-4ad1-4553-b796-65659442df0a))
  (pad "K7" smd circle (at -4.5 -1.5) (size 0.53 0.53) (property pad_prop_bga) (layers "F.Cu" "F.Paste" "F.Mask") (tstamp 97aeb30b-cc6f-4487-aced-9b4d7aa387c2))
  (pad "K8" smd circle (at -3.5 -1.5) (size 0.53 0.53) (property pad_prop_bga) (layers "F.Cu" "F.Paste" "F.Mask") (tstamp d4de5f94-9f6b-4c4f-8d33-e58e3a104099))
  (pad "K9" smd circle (at -2.5 -1.5) (size 0.53 0.53) (property pad_prop_bga) (layers "F.Cu" "F.Paste" "F.Mask") (tstamp 577feeae-9c76-465d-84bd-7b11d38ae5b3))
  (pad "K10" smd circle (at -1.5 -1.5) (size 0.53 0.53) (property pad_prop_bga) (layers "F.Cu" "F.Paste" "F.Mask") (tstamp 042a43e0-aa60-48a8-b786-c8b6ecf074cd))
  (pad "K11" smd circle (at -0.5 -1.5) (size 0.53 0.53) (property pad_prop_bga) (layers "F.Cu" "F.Paste" "F.Mask") (tstamp f51e6efd-8f0e-41be-a3c3-c7d52678655e))
  (pad "K12" smd circle (at 0.5 -1.5) (size 0.53 0.53) (property pad_prop_bga) (layers "F.Cu" "F.Paste" "F.Mask") (tstamp fb9bf7d6-0aac-4367-af3d-0f50f09b92ae))
  (pad "K13" smd circle (at 1.5 -1.5) (size 0.53 0.53) (property pad_prop_bga) (layers "F.Cu" "F.Paste" "F.Mask") (tstamp 8e8704eb-619e-48fb-953f-50a522dcff74))
  (pad "K14" smd circle (at 2.5 -1.5) (size 0.53 0.53) (property pad_prop_bga) (layers "F.Cu" "F.Paste" "F.Mask") (tstamp 25e5f482-805e-4c4f-a417-3ca65f4eb205))
  (pad "K15" smd circle (at 3.5 -1.5) (size 0.53 0.53) (property pad_prop_bga) (layers "F.Cu" "F.Paste" "F.Mask") (tstamp 59fa4bcc-8406-4dc0-9d72-faf720289ebe))
  (pad "K16" smd circle (at 4.5 -1.5) (size 0.53 0.53) (property pad_prop_bga) (layers "F.Cu" "F.Paste" "F.Mask") (tstamp 57d089d4-230a-41ec-ae55-44a9df921749))
  (pad "K17" smd circle (at 5.5 -1.5) (size 0.53 0.53) (property pad_prop_bga) (layers "F.Cu" "F.Paste" "F.Mask") (tstamp 4c816ee6-3a11-477c-9848-3b52a24021aa))
  (pad "K18" smd circle (at 6.5 -1.5) (size 0.53 0.53) (property pad_prop_bga) (layers "F.Cu" "F.Paste" "F.Mask") (tstamp 1cfe16b0-bb69-4493-ae29-83976e95653c))
  (pad "K19" smd circle (at 7.5 -1.5) (size 0.53 0.53) (property pad_prop_bga) (layers "F.Cu" "F.Paste" "F.Mask") (tstamp 45f3541e-bae5-4345-a6d0-30edb1af0840))
  (pad "K20" smd circle (at 8.5 -1.5) (size 0.53 0.53) (property pad_prop_bga) (layers "F.Cu" "F.Paste" "F.Mask") (tstamp 35763ed9-cfd1-4666-b29c-81ac13b15bba))
  (pad "K21" smd circle (at 9.5 -1.5) (size 0.53 0.53) (property pad_prop_bga) (layers "F.Cu" "F.Paste" "F.Mask") (tstamp 10f32844-3d1d-4c72-852d-927be1a7efe1))
  (pad "K22" smd circle (at 10.5 -1.5) (size 0.53 0.53) (property pad_prop_bga) (layers "F.Cu" "F.Paste" "F.Mask") (tstamp f75968c2-a14d-45b2-be48-0041afc34e36))
  (pad "L1" smd circle (at -10.5 -0.5) (size 0.53 0.53) (property pad_prop_bga) (layers "F.Cu" "F.Paste" "F.Mask") (tstamp ac9b2352-cf9d-4817-b128-543dbfd3dce4))
  (pad "L2" smd circle (at -9.5 -0.5) (size 0.53 0.53) (property pad_prop_bga) (layers "F.Cu" "F.Paste" "F.Mask") (tstamp 545451be-17bf-4424-a612-cef6697b2f43))
  (pad "L3" smd circle (at -8.5 -0.5) (size 0.53 0.53) (property pad_prop_bga) (layers "F.Cu" "F.Paste" "F.Mask") (tstamp 1360a3fc-4f37-4c7f-8e1b-2aa023ffd5f5))
  (pad "L4" smd circle (at -7.5 -0.5) (size 0.53 0.53) (property pad_prop_bga) (layers "F.Cu" "F.Paste" "F.Mask") (tstamp 60f7e101-2543-4709-8574-c9e19d7cf049))
  (pad "L5" smd circle (at -6.5 -0.5) (size 0.53 0.53) (property pad_prop_bga) (layers "F.Cu" "F.Paste" "F.Mask") (tstamp cf4d9011-b711-44e0-b9e9-836fd07ce14e))
  (pad "L6" smd circle (at -5.5 -0.5) (size 0.53 0.53) (property pad_prop_bga) (layers "F.Cu" "F.Paste" "F.Mask") (tstamp 43f6db54-cbc2-4348-b5c4-cb56244d6178))
  (pad "L7" smd circle (at -4.5 -0.5) (size 0.53 0.53) (property pad_prop_bga) (layers "F.Cu" "F.Paste" "F.Mask") (tstamp f20eccc7-12df-4a53-a85b-3366fc405e8f))
  (pad "L8" smd circle (at -3.5 -0.5) (size 0.53 0.53) (property pad_prop_bga) (layers "F.Cu" "F.Paste" "F.Mask") (tstamp 65b80697-0177-4023-b95d-c5c9bdc42c37))
  (pad "L9" smd circle (at -2.5 -0.5) (size 0.53 0.53) (property pad_prop_bga) (layers "F.Cu" "F.Paste" "F.Mask") (tstamp 5f568330-7ac1-4380-86f7-c30855cbf851))
  (pad "L10" smd circle (at -1.5 -0.5) (size 0.53 0.53) (property pad_prop_bga) (layers "F.Cu" "F.Paste" "F.Mask") (tstamp 0f99f057-4372-4530-8304-a31e6c98dea0))
  (pad "L11" smd circle (at -0.5 -0.5) (size 0.53 0.53) (property pad_prop_bga) (layers "F.Cu" "F.Paste" "F.Mask") (tstamp 7b851542-f4e4-40d6-8160-7cec98635151))
  (pad "L12" smd circle (at 0.5 -0.5) (size 0.53 0.53) (property pad_prop_bga) (layers "F.Cu" "F.Paste" "F.Mask") (tstamp 9b8c61cf-2034-4bce-bed8-f33b66c85a0d))
  (pad "L13" smd circle (at 1.5 -0.5) (size 0.53 0.53) (property pad_prop_bga) (layers "F.Cu" "F.Paste" "F.Mask") (tstamp d5e71209-bb20-49fa-924f-5efa02da0b9b))
  (pad "L14" smd circle (at 2.5 -0.5) (size 0.53 0.53) (property pad_prop_bga) (layers "F.Cu" "F.Paste" "F.Mask") (tstamp 247f099e-f146-4c20-9315-3c405e882dab))
  (pad "L15" smd circle (at 3.5 -0.5) (size 0.53 0.53) (property pad_prop_bga) (layers "F.Cu" "F.Paste" "F.Mask") (tstamp 4ac44171-18c2-42dd-9500-0b706da87653))
  (pad "L16" smd circle (at 4.5 -0.5) (size 0.53 0.53) (property pad_prop_bga) (layers "F.Cu" "F.Paste" "F.Mask") (tstamp 4b80d9c2-5b43-4437-a3c8-23216222d82c))
  (pad "L17" smd circle (at 5.5 -0.5) (size 0.53 0.53) (property pad_prop_bga) (layers "F.Cu" "F.Paste" "F.Mask") (tstamp 6b08f57d-6ee0-4426-8d6f-05c84dd54aad))
  (pad "L18" smd circle (at 6.5 -0.5) (size 0.53 0.53) (property pad_prop_bga) (layers "F.Cu" "F.Paste" "F.Mask") (tstamp 6504415b-e5c0-46c1-8db0-33cef9fb8a77))
  (pad "L19" smd circle (at 7.5 -0.5) (size 0.53 0.53) (property pad_prop_bga) (layers "F.Cu" "F.Paste" "F.Mask") (tstamp 622335f9-f62c-4209-9f91-3a6c36651170))
  (pad "L20" smd circle (at 8.5 -0.5) (size 0.53 0.53) (property pad_prop_bga) (layers "F.Cu" "F.Paste" "F.Mask") (tstamp 5bd1905a-23af-4e8a-81bf-3e7042d38870))
  (pad "L21" smd circle (at 9.5 -0.5) (size 0.53 0.53) (property pad_prop_bga) (layers "F.Cu" "F.Paste" "F.Mask") (tstamp e2cea11f-4142-4dfb-965b-0f883f2ae8a5))
  (pad "L22" smd circle (at 10.5 -0.5) (size 0.53 0.53) (property pad_prop_bga) (layers "F.Cu" "F.Paste" "F.Mask") (tstamp 165b88c5-c2ca-4add-8814-b6f301371877))
  (pad "M1" smd circle (at -10.5 0.5) (size 0.53 0.53) (property pad_prop_bga) (layers "F.Cu" "F.Paste" "F.Mask") (tstamp 73d7f520-5fca-4a2a-a9b4-f71b687ec3fd))
  (pad "M2" smd circle (at -9.5 0.5) (size 0.53 0.53) (property pad_prop_bga) (layers "F.Cu" "F.Paste" "F.Mask") (tstamp 29c8c3b5-d622-477a-9d97-3ae8217fe4a2))
  (pad "M3" smd circle (at -8.5 0.5) (size 0.53 0.53) (property pad_prop_bga) (layers "F.Cu" "F.Paste" "F.Mask") (tstamp ecbdd687-70c1-4648-855e-005998449145))
  (pad "M4" smd circle (at -7.5 0.5) (size 0.53 0.53) (property pad_prop_bga) (layers "F.Cu" "F.Paste" "F.Mask") (tstamp 89a88a7a-e9fa-450f-8845-3b6ea1b721e7))
  (pad "M5" smd circle (at -6.5 0.5) (size 0.53 0.53) (property pad_prop_bga) (layers "F.Cu" "F.Paste" "F.Mask") (tstamp a74064b2-5a8a-4e85-83fa-c5782e615bbf))
  (pad "M6" smd circle (at -5.5 0.5) (size 0.53 0.53) (property pad_prop_bga) (layers "F.Cu" "F.Paste" "F.Mask") (tstamp e187a25b-2fa9-483c-ad6e-1265268c3037))
  (pad "M7" smd circle (at -4.5 0.5) (size 0.53 0.53) (property pad_prop_bga) (layers "F.Cu" "F.Paste" "F.Mask") (tstamp ae310518-6442-4dfa-b8be-c7b2e28401c3))
  (pad "M8" smd circle (at -3.5 0.5) (size 0.53 0.53) (property pad_prop_bga) (layers "F.Cu" "F.Paste" "F.Mask") (tstamp 7b362f87-e533-432d-baf9-4b10e88ee2bf))
  (pad "M9" smd circle (at -2.5 0.5) (size 0.53 0.53) (property pad_prop_bga) (layers "F.Cu" "F.Paste" "F.Mask") (tstamp df00fb95-fee6-4419-9ee8-efeba602bcf8))
  (pad "M10" smd circle (at -1.5 0.5) (size 0.53 0.53) (property pad_prop_bga) (layers "F.Cu" "F.Paste" "F.Mask") (tstamp e526b842-f8b4-4b4c-a704-7c1fc76b4ca8))
  (pad "M11" smd circle (at -0.5 0.5) (size 0.53 0.53) (property pad_prop_bga) (layers "F.Cu" "F.Paste" "F.Mask") (tstamp d1288279-241d-4ee2-b3de-e17d6f61a1b8))
  (pad "M12" smd circle (at 0.5 0.5) (size 0.53 0.53) (property pad_prop_bga) (layers "F.Cu" "F.Paste" "F.Mask") (tstamp de02bd93-6092-474d-af9b-2390bfad1c1b))
  (pad "M13" smd circle (at 1.5 0.5) (size 0.53 0.53) (property pad_prop_bga) (layers "F.Cu" "F.Paste" "F.Mask") (tstamp 66490fe0-14bd-4348-8cb2-54b39739e15c))
  (pad "M14" smd circle (at 2.5 0.5) (size 0.53 0.53) (property pad_prop_bga) (layers "F.Cu" "F.Paste" "F.Mask") (tstamp 6373bcd5-2852-4dba-91bd-9ec1a99e5f6d))
  (pad "M15" smd circle (at 3.5 0.5) (size 0.53 0.53) (property pad_prop_bga) (layers "F.Cu" "F.Paste" "F.Mask") (tstamp b71d2291-376b-42cb-bd82-e00a640ee73c))
  (pad "M16" smd circle (at 4.5 0.5) (size 0.53 0.53) (property pad_prop_bga) (layers "F.Cu" "F.Paste" "F.Mask") (tstamp fcda2f09-8750-487d-b370-03a5a0e4ee10))
  (pad "M17" smd circle (at 5.5 0.5) (size 0.53 0.53) (property pad_prop_bga) (layers "F.Cu" "F.Paste" "F.Mask") (tstamp 30a1e3a2-82d0-49b5-a13b-97a4f04c89aa))
  (pad "M18" smd circle (at 6.5 0.5) (size 0.53 0.53) (property pad_prop_bga) (layers "F.Cu" "F.Paste" "F.Mask") (tstamp b1f1c4fa-6df2-4b3b-95df-88abca9c7617))
  (pad "M19" smd circle (at 7.5 0.5) (size 0.53 0.53) (property pad_prop_bga) (layers "F.Cu" "F.Paste" "F.Mask") (tstamp c29b897a-2a9a-472d-8ae8-c2047095750d))
  (pad "M20" smd circle (at 8.5 0.5) (size 0.53 0.53) (property pad_prop_bga) (layers "F.Cu" "F.Paste" "F.Mask") (tstamp c6a965ad-fa2d-4dba-87f2-75edba539e80))
  (pad "M21" smd circle (at 9.5 0.5) (size 0.53 0.53) (property pad_prop_bga) (layers "F.Cu" "F.Paste" "F.Mask") (tstamp 91841ebc-7af5-4bb0-bea5-66850ec2c8a9))
  (pad "M22" smd circle (at 10.5 0.5) (size 0.53 0.53) (property pad_prop_bga) (layers "F.Cu" "F.Paste" "F.Mask") (tstamp f7bbe9d0-7730-4cc1-9a1e-ca36811c8f63))
  (pad "N1" smd circle (at -10.5 1.5) (size 0.53 0.53) (property pad_prop_bga) (layers "F.Cu" "F.Paste" "F.Mask") (tstamp 06949c7b-c32a-4690-a7be-253c9bdbb250))
  (pad "N2" smd circle (at -9.5 1.5) (size 0.53 0.53) (property pad_prop_bga) (layers "F.Cu" "F.Paste" "F.Mask") (tstamp 2eb62a3a-4143-49fa-93ff-58f0e7e77906))
  (pad "N3" smd circle (at -8.5 1.5) (size 0.53 0.53) (property pad_prop_bga) (layers "F.Cu" "F.Paste" "F.Mask") (tstamp 39313d48-a597-47fd-80f9-73c745a00610))
  (pad "N4" smd circle (at -7.5 1.5) (size 0.53 0.53) (property pad_prop_bga) (layers "F.Cu" "F.Paste" "F.Mask") (tstamp 585f2a14-4905-45ef-8880-20ddabc00b51))
  (pad "N5" smd circle (at -6.5 1.5) (size 0.53 0.53) (property pad_prop_bga) (layers "F.Cu" "F.Paste" "F.Mask") (tstamp 7bd8f772-b1be-48ed-bef6-c090c3930336))
  (pad "N6" smd circle (at -5.5 1.5) (size 0.53 0.53) (property pad_prop_bga) (layers "F.Cu" "F.Paste" "F.Mask") (tstamp 4f79a74f-1dc2-4b5a-b4cb-e589e44f763a))
  (pad "N7" smd circle (at -4.5 1.5) (size 0.53 0.53) (property pad_prop_bga) (layers "F.Cu" "F.Paste" "F.Mask") (tstamp 7708101c-ebc1-433f-b8ef-83ef97222269))
  (pad "N8" smd circle (at -3.5 1.5) (size 0.53 0.53) (property pad_prop_bga) (layers "F.Cu" "F.Paste" "F.Mask") (tstamp 29699683-47de-416e-9fe7-431f44836413))
  (pad "N9" smd circle (at -2.5 1.5) (size 0.53 0.53) (property pad_prop_bga) (layers "F.Cu" "F.Paste" "F.Mask") (tstamp effec379-e3d4-4d6f-9404-1351cecf8f42))
  (pad "N10" smd circle (at -1.5 1.5) (size 0.53 0.53) (property pad_prop_bga) (layers "F.Cu" "F.Paste" "F.Mask") (tstamp c8dc8801-7749-4b15-8d36-eeab1d7d8766))
  (pad "N11" smd circle (at -0.5 1.5) (size 0.53 0.53) (property pad_prop_bga) (layers "F.Cu" "F.Paste" "F.Mask") (tstamp d10f8476-0b89-4e10-80dc-f22d4505c2a2))
  (pad "N12" smd circle (at 0.5 1.5) (size 0.53 0.53) (property pad_prop_bga) (layers "F.Cu" "F.Paste" "F.Mask") (tstamp c410fd66-7229-4491-bde0-a2287d36fd4e))
  (pad "N13" smd circle (at 1.5 1.5) (size 0.53 0.53) (property pad_prop_bga) (layers "F.Cu" "F.Paste" "F.Mask") (tstamp a1e9dbb2-bb8c-4554-a7bc-dce6b8259bbf))
  (pad "N14" smd circle (at 2.5 1.5) (size 0.53 0.53) (property pad_prop_bga) (layers "F.Cu" "F.Paste" "F.Mask") (tstamp 93fa78c8-01db-4ed7-b4b9-fdbbb339cd63))
  (pad "N15" smd circle (at 3.5 1.5) (size 0.53 0.53) (property pad_prop_bga) (layers "F.Cu" "F.Paste" "F.Mask") (tstamp d659c323-3544-450a-b7a5-f3d72c77b9e9))
  (pad "N16" smd circle (at 4.5 1.5) (size 0.53 0.53) (property pad_prop_bga) (layers "F.Cu" "F.Paste" "F.Mask") (tstamp 59f3e55a-3b1c-45be-87b5-f6d67bde500a))
  (pad "N17" smd circle (at 5.5 1.5) (size 0.53 0.53) (property pad_prop_bga) (layers "F.Cu" "F.Paste" "F.Mask") (tstamp f02ee502-3286-412e-82e8-13b381fec135))
  (pad "N18" smd circle (at 6.5 1.5) (size 0.53 0.53) (property pad_prop_bga) (layers "F.Cu" "F.Paste" "F.Mask") (tstamp 1729a965-8ede-490a-a8a6-6d0e68cbd3cf))
  (pad "N19" smd circle (at 7.5 1.5) (size 0.53 0.53) (property pad_prop_bga) (layers "F.Cu" "F.Paste" "F.Mask") (tstamp df91a12f-5168-48cc-bcfd-cf5439ef5b8b))
  (pad "N20" smd circle (at 8.5 1.5) (size 0.53 0.53) (property pad_prop_bga) (layers "F.Cu" "F.Paste" "F.Mask") (tstamp 1b1e0bbf-6b6b-4760-b557-140218bb5eb9))
  (pad "N21" smd circle (at 9.5 1.5) (size 0.53 0.53) (property pad_prop_bga) (layers "F.Cu" "F.Paste" "F.Mask") (tstamp e34008ed-2c30-4261-862c-d3a9942c075a))
  (pad "N22" smd circle (at 10.5 1.5) (size 0.53 0.53) (property pad_prop_bga) (layers "F.Cu" "F.Paste" "F.Mask") (tstamp feda98f9-a7e8-4ddd-a9ee-9d4be6f2018d))
  (pad "P1" smd circle (at -10.5 2.5) (size 0.53 0.53) (property pad_prop_bga) (layers "F.Cu" "F.Paste" "F.Mask") (tstamp 1bad808b-f36f-48df-bd76-c9f275967d47))
  (pad "P2" smd circle (at -9.5 2.5) (size 0.53 0.53) (property pad_prop_bga) (layers "F.Cu" "F.Paste" "F.Mask") (tstamp df26c83d-3c33-46cf-a8c4-b6ef56949ee1))
  (pad "P3" smd circle (at -8.5 2.5) (size 0.53 0.53) (property pad_prop_bga) (layers "F.Cu" "F.Paste" "F.Mask") (tstamp 5f96aeaa-a7aa-4149-acd4-c40cbfe836f8))
  (pad "P4" smd circle (at -7.5 2.5) (size 0.53 0.53) (property pad_prop_bga) (layers "F.Cu" "F.Paste" "F.Mask") (tstamp f0c2b181-bf6f-4197-96c8-ca19cb3624e3))
  (pad "P5" smd circle (at -6.5 2.5) (size 0.53 0.53) (property pad_prop_bga) (layers "F.Cu" "F.Paste" "F.Mask") (tstamp ff2a6b5c-710e-4811-8d27-4d4eb83feb00))
  (pad "P6" smd circle (at -5.5 2.5) (size 0.53 0.53) (property pad_prop_bga) (layers "F.Cu" "F.Paste" "F.Mask") (tstamp 98c8ee79-5540-4571-8544-849995b22f7f))
  (pad "P7" smd circle (at -4.5 2.5) (size 0.53 0.53) (property pad_prop_bga) (layers "F.Cu" "F.Paste" "F.Mask") (tstamp eff5e560-a6c6-4f42-b3b8-c594d4684a3e))
  (pad "P8" smd circle (at -3.5 2.5) (size 0.53 0.53) (property pad_prop_bga) (layers "F.Cu" "F.Paste" "F.Mask") (tstamp 577479ed-abac-441b-b2f0-76e63cbe35c7))
  (pad "P9" smd circle (at -2.5 2.5) (size 0.53 0.53) (property pad_prop_bga) (layers "F.Cu" "F.Paste" "F.Mask") (tstamp 63dcbb58-2767-42b7-b41a-182389cfd412))
  (pad "P10" smd circle (at -1.5 2.5) (size 0.53 0.53) (property pad_prop_bga) (layers "F.Cu" "F.Paste" "F.Mask") (tstamp 1382fac7-32e8-433f-b46e-b70fff261e1b))
  (pad "P11" smd circle (at -0.5 2.5) (size 0.53 0.53) (property pad_prop_bga) (layers "F.Cu" "F.Paste" "F.Mask") (tstamp 0ea94aa4-0200-41b8-8700-a5b896f0ac98))
  (pad "P12" smd circle (at 0.5 2.5) (size 0.53 0.53) (property pad_prop_bga) (layers "F.Cu" "F.Paste" "F.Mask") (tstamp 2914ca73-ea8b-4e71-951f-1318ee584808))
  (pad "P13" smd circle (at 1.5 2.5) (size 0.53 0.53) (property pad_prop_bga) (layers "F.Cu" "F.Paste" "F.Mask") (tstamp af5376a5-04fa-4845-869b-8d6fa1d43d56))
  (pad "P14" smd circle (at 2.5 2.5) (size 0.53 0.53) (property pad_prop_bga) (layers "F.Cu" "F.Paste" "F.Mask") (tstamp e74aa3b1-faef-4a75-b478-4d149c860752))
  (pad "P15" smd circle (at 3.5 2.5) (size 0.53 0.53) (property pad_prop_bga) (layers "F.Cu" "F.Paste" "F.Mask") (tstamp 82a33979-ebc7-4516-b592-18938336153f))
  (pad "P16" smd circle (at 4.5 2.5) (size 0.53 0.53) (property pad_prop_bga) (layers "F.Cu" "F.Paste" "F.Mask") (tstamp 66974ba0-9106-414b-be9d-f2915f19ec97))
  (pad "P17" smd circle (at 5.5 2.5) (size 0.53 0.53) (property pad_prop_bga) (layers "F.Cu" "F.Paste" "F.Mask") (tstamp cd064fdc-fd36-4727-b185-22c64f903410))
  (pad "P18" smd circle (at 6.5 2.5) (size 0.53 0.53) (property pad_prop_bga) (layers "F.Cu" "F.Paste" "F.Mask") (tstamp 40e76e02-99c3-4e13-a113-06244349085d))
  (pad "P19" smd circle (at 7.5 2.5) (size 0.53 0.53) (property pad_prop_bga) (layers "F.Cu" "F.Paste" "F.Mask") (tstamp f5fdc3a5-86f0-40ce-8761-c7ed4375d470))
  (pad "P20" smd circle (at 8.5 2.5) (size 0.53 0.53) (property pad_prop_bga) (layers "F.Cu" "F.Paste" "F.Mask") (tstamp f8246f94-7f8c-426f-aa65-fbbabcb5ce57))
  (pad "P21" smd circle (at 9.5 2.5) (size 0.53 0.53) (property pad_prop_bga) (layers "F.Cu" "F.Paste" "F.Mask") (tstamp 1ef31e59-0115-4814-b0e0-b10fb0fa95ee))
  (pad "P22" smd circle (at 10.5 2.5) (size 0.53 0.53) (property pad_prop_bga) (layers "F.Cu" "F.Paste" "F.Mask") (tstamp 59091ea0-f1af-4b1a-b506-e55814b64d5f))
  (pad "R1" smd circle (at -10.5 3.5) (size 0.53 0.53) (property pad_prop_bga) (layers "F.Cu" "F.Paste" "F.Mask") (tstamp c552e099-a177-4c09-b033-26c38da4a790))
  (pad "R2" smd circle (at -9.5 3.5) (size 0.53 0.53) (property pad_prop_bga) (layers "F.Cu" "F.Paste" "F.Mask") (tstamp 7b1b251f-4ea5-42ba-b9df-21fd98d8bfdd))
  (pad "R3" smd circle (at -8.5 3.5) (size 0.53 0.53) (property pad_prop_bga) (layers "F.Cu" "F.Paste" "F.Mask") (tstamp 94487f6c-613b-4873-a34f-8b77ebc5fc59))
  (pad "R4" smd circle (at -7.5 3.5) (size 0.53 0.53) (property pad_prop_bga) (layers "F.Cu" "F.Paste" "F.Mask") (tstamp 33fe2217-e05a-4e81-b88b-24e169e54fcc))
  (pad "R5" smd circle (at -6.5 3.5) (size 0.53 0.53) (property pad_prop_bga) (layers "F.Cu" "F.Paste" "F.Mask") (tstamp 8b397bb2-d60a-4433-a291-da388802c092))
  (pad "R6" smd circle (at -5.5 3.5) (size 0.53 0.53) (property pad_prop_bga) (layers "F.Cu" "F.Paste" "F.Mask") (tstamp 5eff0930-97e4-4892-9b0e-91a8dbe3a422))
  (pad "R7" smd circle (at -4.5 3.5) (size 0.53 0.53) (property pad_prop_bga) (layers "F.Cu" "F.Paste" "F.Mask") (tstamp b0d4f5b9-546b-40be-95a9-a7d0d95bcc88))
  (pad "R8" smd circle (at -3.5 3.5) (size 0.53 0.53) (property pad_prop_bga) (layers "F.Cu" "F.Paste" "F.Mask") (tstamp d1235135-b14e-4ac5-a981-224cdbf47deb))
  (pad "R9" smd circle (at -2.5 3.5) (size 0.53 0.53) (property pad_prop_bga) (layers "F.Cu" "F.Paste" "F.Mask") (tstamp 8b5a4f8b-445f-4d4d-977f-25eb2f63e8d2))
  (pad "R10" smd circle (at -1.5 3.5) (size 0.53 0.53) (property pad_prop_bga) (layers "F.Cu" "F.Paste" "F.Mask") (tstamp 3584049a-d63e-4810-a145-c1f049515b66))
  (pad "R11" smd circle (at -0.5 3.5) (size 0.53 0.53) (property pad_prop_bga) (layers "F.Cu" "F.Paste" "F.Mask") (tstamp 2dcd308f-726b-4a17-8d80-e0c7ce92c854))
  (pad "R12" smd circle (at 0.5 3.5) (size 0.53 0.53) (property pad_prop_bga) (layers "F.Cu" "F.Paste" "F.Mask") (tstamp f819581f-1c6d-46e7-8e1d-6c9a373c41ee))
  (pad "R13" smd circle (at 1.5 3.5) (size 0.53 0.53) (property pad_prop_bga) (layers "F.Cu" "F.Paste" "F.Mask") (tstamp 966a1cf2-c916-4ca9-b6a3-30a00593a035))
  (pad "R14" smd circle (at 2.5 3.5) (size 0.53 0.53) (property pad_prop_bga) (layers "F.Cu" "F.Paste" "F.Mask") (tstamp 4e49a8fb-458b-4016-aa56-aa9d2fae9c80))
  (pad "R15" smd circle (at 3.5 3.5) (size 0.53 0.53) (property pad_prop_bga) (layers "F.Cu" "F.Paste" "F.Mask") (tstamp 46143209-d747-4971-88b0-934eb30edc50))
  (pad "R16" smd circle (at 4.5 3.5) (size 0.53 0.53) (property pad_prop_bga) (layers "F.Cu" "F.Paste" "F.Mask") (tstamp f19c37db-85b6-4f5b-a042-d9eab5e78a41))
  (pad "R17" smd circle (at 5.5 3.5) (size 0.53 0.53) (property pad_prop_bga) (layers "F.Cu" "F.Paste" "F.Mask") (tstamp a3db2c6c-9746-4a3b-bbce-8c45e0fa19aa))
  (pad "R18" smd circle (at 6.5 3.5) (size 0.53 0.53) (property pad_prop_bga) (layers "F.Cu" "F.Paste" "F.Mask") (tstamp 5c487069-b495-495f-891f-217dcbaa952c))
  (pad "R19" smd circle (at 7.5 3.5) (size 0.53 0.53) (property pad_prop_bga) (layers "F.Cu" "F.Paste" "F.Mask") (tstamp 31bdd9a6-3b02-497a-a679-988c071204d3))
  (pad "R20" smd circle (at 8.5 3.5) (size 0.53 0.53) (property pad_prop_bga) (layers "F.Cu" "F.Paste" "F.Mask") (tstamp 7fba10fc-f758-4b7a-8c4d-d4fbea8652ed))
  (pad "R21" smd circle (at 9.5 3.5) (size 0.53 0.53) (property pad_prop_bga) (layers "F.Cu" "F.Paste" "F.Mask") (tstamp f745eb30-2686-4f9f-9182-e9ed46975ef7))
  (pad "R22" smd circle (at 10.5 3.5) (size 0.53 0.53) (property pad_prop_bga) (layers "F.Cu" "F.Paste" "F.Mask") (tstamp 42c4c861-2599-4dd7-8377-c48e938ffc0b))
  (pad "T1" smd circle (at -10.5 4.5) (size 0.53 0.53) (property pad_prop_bga) (layers "F.Cu" "F.Paste" "F.Mask") (tstamp 5285d6e2-c22c-4ba2-b333-c99cf45eef09))
  (pad "T2" smd circle (at -9.5 4.5) (size 0.53 0.53) (property pad_prop_bga) (layers "F.Cu" "F.Paste" "F.Mask") (tstamp 49dada85-0561-4d96-a620-4b9fbf82d4db))
  (pad "T3" smd circle (at -8.5 4.5) (size 0.53 0.53) (property pad_prop_bga) (layers "F.Cu" "F.Paste" "F.Mask") (tstamp 53b85b18-c47d-4168-a026-3fb5f0cf278a))
  (pad "T4" smd circle (at -7.5 4.5) (size 0.53 0.53) (property pad_prop_bga) (layers "F.Cu" "F.Paste" "F.Mask") (tstamp bde53cb0-3408-42be-ab7d-4e07819a4bd0))
  (pad "T5" smd circle (at -6.5 4.5) (size 0.53 0.53) (property pad_prop_bga) (layers "F.Cu" "F.Paste" "F.Mask") (tstamp 1815feda-a757-45f0-a4b7-a377407b297b))
  (pad "T6" smd circle (at -5.5 4.5) (size 0.53 0.53) (property pad_prop_bga) (layers "F.Cu" "F.Paste" "F.Mask") (tstamp 87d2dffd-3c1e-4fa5-97e8-bf11597dde09))
  (pad "T7" smd circle (at -4.5 4.5) (size 0.53 0.53) (property pad_prop_bga) (layers "F.Cu" "F.Paste" "F.Mask") (tstamp eaecd259-0147-4a38-84cc-de0b22e2dc4a))
  (pad "T8" smd circle (at -3.5 4.5) (size 0.53 0.53) (property pad_prop_bga) (layers "F.Cu" "F.Paste" "F.Mask") (tstamp e807079e-3f13-4dc1-84e1-dcc638e01479))
  (pad "T9" smd circle (at -2.5 4.5) (size 0.53 0.53) (property pad_prop_bga) (layers "F.Cu" "F.Paste" "F.Mask") (tstamp 5ffc862d-fa90-4687-918d-13ea739ae2ce))
  (pad "T10" smd circle (at -1.5 4.5) (size 0.53 0.53) (property pad_prop_bga) (layers "F.Cu" "F.Paste" "F.Mask") (tstamp 232f27c5-beb6-4565-a44b-05490c1c4aa6))
  (pad "T11" smd circle (at -0.5 4.5) (size 0.53 0.53) (property pad_prop_bga) (layers "F.Cu" "F.Paste" "F.Mask") (tstamp e252abe9-5682-4aa6-905f-95145b035f09))
  (pad "T12" smd circle (at 0.5 4.5) (size 0.53 0.53) (property pad_prop_bga) (layers "F.Cu" "F.Paste" "F.Mask") (tstamp 1ab3bc93-0cca-4c44-8604-65cd735cafef))
  (pad "T13" smd circle (at 1.5 4.5) (size 0.53 0.53) (property pad_prop_bga) (layers "F.Cu" "F.Paste" "F.Mask") (tstamp 217fef07-3de1-47ee-aec3-501ab605681d))
  (pad "T14" smd circle (at 2.5 4.5) (size 0.53 0.53) (property pad_prop_bga) (layers "F.Cu" "F.Paste" "F.Mask") (tstamp f1404566-fdcf-40dd-b522-25f7f93b6b49))
  (pad "T15" smd circle (at 3.5 4.5) (size 0.53 0.53) (property pad_prop_bga) (layers "F.Cu" "F.Paste" "F.Mask") (tstamp b49d0431-d286-4de2-b7e9-002bbaf87984))
  (pad "T16" smd circle (at 4.5 4.5) (size 0.53 0.53) (property pad_prop_bga) (layers "F.Cu" "F.Paste" "F.Mask") (tstamp 9002ae78-5966-4b7b-ae53-efcd37178ee7))
  (pad "T17" smd circle (at 5.5 4.5) (size 0.53 0.53) (property pad_prop_bga) (layers "F.Cu" "F.Paste" "F.Mask") (tstamp cff289f0-0572-48f5-a02e-6280d76afb82))
  (pad "T18" smd circle (at 6.5 4.5) (size 0.53 0.53) (property pad_prop_bga) (layers "F.Cu" "F.Paste" "F.Mask") (tstamp b47ad93b-e0d1-45e0-8eb9-40aa72a3ef6b))
  (pad "T19" smd circle (at 7.5 4.5) (size 0.53 0.53) (property pad_prop_bga) (layers "F.Cu" "F.Paste" "F.Mask") (tstamp e7de6754-e637-4fe2-9fd1-8050cf78e5b5))
  (pad "T20" smd circle (at 8.5 4.5) (size 0.53 0.53) (property pad_prop_bga) (layers "F.Cu" "F.Paste" "F.Mask") (tstamp 310f9e09-488b-47d6-b71a-275af9b63193))
  (pad "T21" smd circle (at 9.5 4.5) (size 0.53 0.53) (property pad_prop_bga) (layers "F.Cu" "F.Paste" "F.Mask") (tstamp 79b199e2-456c-4a83-a1c6-09aea77d013a))
  (pad "T22" smd circle (at 10.5 4.5) (size 0.53 0.53) (property pad_prop_bga) (layers "F.Cu" "F.Paste" "F.Mask") (tstamp 42e8d9c2-2095-4315-bf08-deb7da9660a7))
  (pad "U1" smd circle (at -10.5 5.5) (size 0.53 0.53) (property pad_prop_bga) (layers "F.Cu" "F.Paste" "F.Mask") (tstamp 5376f90c-f34a-4808-9d1a-f05bd84a2335))
  (pad "U2" smd circle (at -9.5 5.5) (size 0.53 0.53) (property pad_prop_bga) (layers "F.Cu" "F.Paste" "F.Mask") (tstamp 7e1f3352-efe0-4d60-8c6e-dce4b1049071))
  (pad "U3" smd circle (at -8.5 5.5) (size 0.53 0.53) (property pad_prop_bga) (layers "F.Cu" "F.Paste" "F.Mask") (tstamp 5607442e-7657-40db-8c30-a4818a382cfd))
  (pad "U4" smd circle (at -7.5 5.5) (size 0.53 0.53) (property pad_prop_bga) (layers "F.Cu" "F.Paste" "F.Mask") (tstamp b262b943-77c3-43b6-af84-039c5c85c275))
  (pad "U5" smd circle (at -6.5 5.5) (size 0.53 0.53) (property pad_prop_bga) (layers "F.Cu" "F.Paste" "F.Mask") (tstamp b9499730-1c29-4bd8-a404-17aa71ac7f28))
  (pad "U6" smd circle (at -5.5 5.5) (size 0.53 0.53) (property pad_prop_bga) (layers "F.Cu" "F.Paste" "F.Mask") (tstamp 6691d961-6ea1-411e-b905-da94d5dff1dc))
  (pad "U7" smd circle (at -4.5 5.5) (size 0.53 0.53) (property pad_prop_bga) (layers "F.Cu" "F.Paste" "F.Mask") (tstamp 8aece71e-7dba-4bb5-8031-7ac8455858e2))
  (pad "U8" smd circle (at -3.5 5.5) (size 0.53 0.53) (property pad_prop_bga) (layers "F.Cu" "F.Paste" "F.Mask") (tstamp e15ddf42-d00b-4bc7-b508-9b50f63c41c7))
  (pad "U9" smd circle (at -2.5 5.5) (size 0.53 0.53) (property pad_prop_bga) (layers "F.Cu" "F.Paste" "F.Mask") (tstamp 7df0d7c5-250b-46ac-8fc2-8f04696e365f))
  (pad "U10" smd circle (at -1.5 5.5) (size 0.53 0.53) (property pad_prop_bga) (layers "F.Cu" "F.Paste" "F.Mask") (tstamp a2379e03-0ed5-48a9-a0aa-ab57fb25b9dd))
  (pad "U11" smd circle (at -0.5 5.5) (size 0.53 0.53) (property pad_prop_bga) (layers "F.Cu" "F.Paste" "F.Mask") (tstamp 5cd37da1-711c-47aa-a184-cbaad38c25c3))
  (pad "U12" smd circle (at 0.5 5.5) (size 0.53 0.53) (property pad_prop_bga) (layers "F.Cu" "F.Paste" "F.Mask") (tstamp b3eed5aa-0beb-4633-af29-ac439f6558f6))
  (pad "U13" smd circle (at 1.5 5.5) (size 0.53 0.53) (property pad_prop_bga) (layers "F.Cu" "F.Paste" "F.Mask") (tstamp 4c81dc14-950a-45c1-9868-00cd829a70a2))
  (pad "U14" smd circle (at 2.5 5.5) (size 0.53 0.53) (property pad_prop_bga) (layers "F.Cu" "F.Paste" "F.Mask") (tstamp 7c3703f2-cb06-4574-9edc-4347a201dcc9))
  (pad "U15" smd circle (at 3.5 5.5) (size 0.53 0.53) (property pad_prop_bga) (layers "F.Cu" "F.Paste" "F.Mask") (tstamp eec4765e-b5c7-4171-a05b-65c78752011f))
  (pad "U16" smd circle (at 4.5 5.5) (size 0.53 0.53) (property pad_prop_bga) (layers "F.Cu" "F.Paste" "F.Mask") (tstamp 9eb9ae40-87b1-4885-b782-eb6a8ba37265))
  (pad "U17" smd circle (at 5.5 5.5) (size 0.53 0.53) (property pad_prop_bga) (layers "F.Cu" "F.Paste" "F.Mask") (tstamp 78ef6839-08c4-4323-81ac-e1e0854a8d14))
  (pad "U18" smd circle (at 6.5 5.5) (size 0.53 0.53) (property pad_prop_bga) (layers "F.Cu" "F.Paste" "F.Mask") (tstamp 50d491bc-a8ea-4f5f-bc30-009e8b8af1c1))
  (pad "U19" smd circle (at 7.5 5.5) (size 0.53 0.53) (property pad_prop_bga) (layers "F.Cu" "F.Paste" "F.Mask") (tstamp 908b3fc0-cc8c-43ce-b096-79573b41cd8f))
  (pad "U20" smd circle (at 8.5 5.5) (size 0.53 0.53) (property pad_prop_bga) (layers "F.Cu" "F.Paste" "F.Mask") (tstamp b0c7dab4-5e08-45cb-9f61-1ef6327b7f6f))
  (pad "U21" smd circle (at 9.5 5.5) (size 0.53 0.53) (property pad_prop_bga) (layers "F.Cu" "F.Paste" "F.Mask") (tstamp b35a69df-8a47-4fb6-bc3a-a0c8a45a0479))
  (pad "U22" smd circle (at 10.5 5.5) (size 0.53 0.53) (property pad_prop_bga) (layers "F.Cu" "F.Paste" "F.Mask") (tstamp f3dbd3d8-d5cf-4955-86e2-46ee62ef6ce1))
  (pad "V1" smd circle (at -10.5 6.5) (size 0.53 0.53) (property pad_prop_bga) (layers "F.Cu" "F.Paste" "F.Mask") (tstamp d440bf4d-a9d8-4757-a014-ed8b7a7a9030))
  (pad "V2" smd circle (at -9.5 6.5) (size 0.53 0.53) (property pad_prop_bga) (layers "F.Cu" "F.Paste" "F.Mask") (tstamp 8b69729f-2965-48c3-b6fe-504c287f75eb))
  (pad "V3" smd circle (at -8.5 6.5) (size 0.53 0.53) (property pad_prop_bga) (layers "F.Cu" "F.Paste" "F.Mask") (tstamp 98c89385-98b5-4805-8498-ba7d987781e4))
  (pad "V4" smd circle (at -7.5 6.5) (size 0.53 0.53) (property pad_prop_bga) (layers "F.Cu" "F.Paste" "F.Mask") (tstamp 749c7998-4ce4-40f7-8b5d-dd7836983fb3))
  (pad "V5" smd circle (at -6.5 6.5) (size 0.53 0.53) (property pad_prop_bga) (layers "F.Cu" "F.Paste" "F.Mask") (tstamp 415ddede-0fdc-4143-8d8d-9c8b556b695e))
  (pad "V6" smd circle (at -5.5 6.5) (size 0.53 0.53) (property pad_prop_bga) (layers "F.Cu" "F.Paste" "F.Mask") (tstamp 8e5bb0a3-9710-4021-b30d-1ee3a410120f))
  (pad "V7" smd circle (at -4.5 6.5) (size 0.53 0.53) (property pad_prop_bga) (layers "F.Cu" "F.Paste" "F.Mask") (tstamp 41d40b11-f9b1-4cd0-9b18-e0006944ec20))
  (pad "V8" smd circle (at -3.5 6.5) (size 0.53 0.53) (property pad_prop_bga) (layers "F.Cu" "F.Paste" "F.Mask") (tstamp 44acba56-9965-48ce-9bd2-abcf8fcb1bcc))
  (pad "V9" smd circle (at -2.5 6.5) (size 0.53 0.53) (property pad_prop_bga) (layers "F.Cu" "F.Paste" "F.Mask") (tstamp 335e3877-9940-4e76-87f9-f2072795c999))
  (pad "V10" smd circle (at -1.5 6.5) (size 0.53 0.53) (property pad_prop_bga) (layers "F.Cu" "F.Paste" "F.Mask") (tstamp b461a75a-7c73-47af-a8c8-7208213b96ba))
  (pad "V11" smd circle (at -0.5 6.5) (size 0.53 0.53) (property pad_prop_bga) (layers "F.Cu" "F.Paste" "F.Mask") (tstamp f5e83f0e-de2b-47eb-b659-53d9e3175d12))
  (pad "V12" smd circle (at 0.5 6.5) (size 0.53 0.53) (property pad_prop_bga) (layers "F.Cu" "F.Paste" "F.Mask") (tstamp bdc0696a-888b-4f3b-8dca-c53106ae0040))
  (pad "V13" smd circle (at 1.5 6.5) (size 0.53 0.53) (property pad_prop_bga) (layers "F.Cu" "F.Paste" "F.Mask") (tstamp d0895946-f6e4-4ab5-9742-7514edd58b48))
  (pad "V14" smd circle (at 2.5 6.5) (size 0.53 0.53) (property pad_prop_bga) (layers "F.Cu" "F.Paste" "F.Mask") (tstamp 6dda8be1-3eda-4817-a85e-fcac46f6c7ef))
  (pad "V15" smd circle (at 3.5 6.5) (size 0.53 0.53) (property pad_prop_bga) (layers "F.Cu" "F.Paste" "F.Mask") (tstamp 9df4b669-6f4f-4507-9e6e-d3539b2e3454))
  (pad "V16" smd circle (at 4.5 6.5) (size 0.53 0.53) (property pad_prop_bga) (layers "F.Cu" "F.Paste" "F.Mask") (tstamp 6778b035-8aae-4b5f-9c18-bc860702e28c))
  (pad "V17" smd circle (at 5.5 6.5) (size 0.53 0.53) (property pad_prop_bga) (layers "F.Cu" "F.Paste" "F.Mask") (tstamp 57009621-3627-4316-be3a-f1cdd0220044))
  (pad "V18" smd circle (at 6.5 6.5) (size 0.53 0.53) (property pad_prop_bga) (layers "F.Cu" "F.Paste" "F.Mask") (tstamp 13632829-8168-42e8-b203-4a9c8df4ff08))
  (pad "V19" smd circle (at 7.5 6.5) (size 0.53 0.53) (property pad_prop_bga) (layers "F.Cu" "F.Paste" "F.Mask") (tstamp dc1fbb02-1b37-4652-a8fa-032bff89c888))
  (pad "V20" smd circle (at 8.5 6.5) (size 0.53 0.53) (property pad_prop_bga) (layers "F.Cu" "F.Paste" "F.Mask") (tstamp 3fdeb668-6095-48fe-8b76-6a12cfe7c683))
  (pad "V21" smd circle (at 9.5 6.5) (size 0.53 0.53) (property pad_prop_bga) (layers "F.Cu" "F.Paste" "F.Mask") (tstamp 14cc5137-6460-48d3-9aea-ddc465f393e9))
  (pad "V22" smd circle (at 10.5 6.5) (size 0.53 0.53) (property pad_prop_bga) (layers "F.Cu" "F.Paste" "F.Mask") (tstamp 627840db-4956-4a12-b27e-03f5204f1a80))
  (pad "W1" smd circle (at -10.5 7.5) (size 0.53 0.53) (property pad_prop_bga) (layers "F.Cu" "F.Paste" "F.Mask") (tstamp 0634d114-8e9c-4573-9746-af0e42bde7a2))
  (pad "W2" smd circle (at -9.5 7.5) (size 0.53 0.53) (property pad_prop_bga) (layers "F.Cu" "F.Paste" "F.Mask") (tstamp fa7f8e4e-304c-4def-afe6-27dbff03b5a8))
  (pad "W3" smd circle (at -8.5 7.5) (size 0.53 0.53) (property pad_prop_bga) (layers "F.Cu" "F.Paste" "F.Mask") (tstamp 0489549c-b706-4ce3-8c74-45889ee7a27e))
  (pad "W4" smd circle (at -7.5 7.5) (size 0.53 0.53) (property pad_prop_bga) (layers "F.Cu" "F.Paste" "F.Mask") (tstamp cc9e01ff-df2a-44e1-af42-3e3cc4e5870e))
  (pad "W5" smd circle (at -6.5 7.5) (size 0.53 0.53) (property pad_prop_bga) (layers "F.Cu" "F.Paste" "F.Mask") (tstamp 802eb97e-b5d7-49e0-9214-19fe20392639))
  (pad "W6" smd circle (at -5.5 7.5) (size 0.53 0.53) (property pad_prop_bga) (layers "F.Cu" "F.Paste" "F.Mask") (tstamp c6cfb365-c9b7-41ff-a618-dbf9141cc3ec))
  (pad "W7" smd circle (at -4.5 7.5) (size 0.53 0.53) (property pad_prop_bga) (layers "F.Cu" "F.Paste" "F.Mask") (tstamp db7422d6-3eb4-4928-a546-12987d227744))
  (pad "W8" smd circle (at -3.5 7.5) (size 0.53 0.53) (property pad_prop_bga) (layers "F.Cu" "F.Paste" "F.Mask") (tstamp 5f2cf071-5884-4431-bc81-a498b9a4b20b))
  (pad "W9" smd circle (at -2.5 7.5) (size 0.53 0.53) (property pad_prop_bga) (layers "F.Cu" "F.Paste" "F.Mask") (tstamp 4d582c48-bc8f-4c43-9b6b-0f025bfed31c))
  (pad "W10" smd circle (at -1.5 7.5) (size 0.53 0.53) (property pad_prop_bga) (layers "F.Cu" "F.Paste" "F.Mask") (tstamp ff81c87a-2eb3-4094-be8e-276ada3754d5))
  (pad "W11" smd circle (at -0.5 7.5) (size 0.53 0.53) (property pad_prop_bga) (layers "F.Cu" "F.Paste" "F.Mask") (tstamp 20df7851-1028-4646-8e6a-dacc71680a7c))
  (pad "W12" smd circle (at 0.5 7.5) (size 0.53 0.53) (property pad_prop_bga) (layers "F.Cu" "F.Paste" "F.Mask") (tstamp 0fce2787-fd82-4b4b-8d03-0297c3f6bce4))
  (pad "W13" smd circle (at 1.5 7.5) (size 0.53 0.53) (property pad_prop_bga) (layers "F.Cu" "F.Paste" "F.Mask") (tstamp 25372eb4-bc9c-46a4-bd59-73c25732acb4))
  (pad "W14" smd circle (at 2.5 7.5) (size 0.53 0.53) (property pad_prop_bga) (layers "F.Cu" "F.Paste" "F.Mask") (tstamp 2efab65c-7694-42ba-a292-1c2583252aeb))
  (pad "W15" smd circle (at 3.5 7.5) (size 0.53 0.53) (property pad_prop_bga) (layers "F.Cu" "F.Paste" "F.Mask") (tstamp e2a2e457-e922-48f8-a092-8b51613a8352))
  (pad "W16" smd circle (at 4.5 7.5) (size 0.53 0.53) (property pad_prop_bga) (layers "F.Cu" "F.Paste" "F.Mask") (tstamp fdf5789b-113e-4c17-abb1-5625fec65083))
  (pad "W17" smd circle (at 5.5 7.5) (size 0.53 0.53) (property pad_prop_bga) (layers "F.Cu" "F.Paste" "F.Mask") (tstamp 12b080ab-dd3e-4527-8b79-2451dc4348ca))
  (pad "W18" smd circle (at 6.5 7.5) (size 0.53 0.53) (property pad_prop_bga) (layers "F.Cu" "F.Paste" "F.Mask") (tstamp 3db19337-4e22-4fe5-b817-4b4236d3adae))
  (pad "W19" smd circle (at 7.5 7.5) (size 0.53 0.53) (property pad_prop_bga) (layers "F.Cu" "F.Paste" "F.Mask") (tstamp 82c2adcb-6b8a-48c9-ba79-e9d95cddbf47))
  (pad "W20" smd circle (at 8.5 7.5) (size 0.53 0.53) (property pad_prop_bga) (layers "F.Cu" "F.Paste" "F.Mask") (tstamp 9393439d-fde4-44d7-b1a5-83e708c3bb53))
  (pad "W21" smd circle (at 9.5 7.5) (size 0.53 0.53) (property pad_prop_bga) (layers "F.Cu" "F.Paste" "F.Mask") (tstamp 3abceded-add4-4b14-80db-c2d121eabfeb))
  (pad "W22" smd circle (at 10.5 7.5) (size 0.53 0.53) (property pad_prop_bga) (layers "F.Cu" "F.Paste" "F.Mask") (tstamp 9cda900d-5175-4319-9909-cc315d0e4e25))
  (pad "Y1" smd circle (at -10.5 8.5) (size 0.53 0.53) (property pad_prop_bga) (layers "F.Cu" "F.Paste" "F.Mask") (tstamp 9f7456d9-c3f6-49ca-b169-6a4b654402a7))
  (pad "Y2" smd circle (at -9.5 8.5) (size 0.53 0.53) (property pad_prop_bga) (layers "F.Cu" "F.Paste" "F.Mask") (tstamp c9399c08-e2e9-46da-a128-2a3b1e6086b1))
  (pad "Y3" smd circle (at -8.5 8.5) (size 0.53 0.53) (property pad_prop_bga) (layers "F.Cu" "F.Paste" "F.Mask") (tstamp d4d92f27-2449-4813-8987-4981bfc55ad2))
  (pad "Y4" smd circle (at -7.5 8.5) (size 0.53 0.53) (property pad_prop_bga) (layers "F.Cu" "F.Paste" "F.Mask") (tstamp 05399de6-f94c-4d1f-b855-68a2b1d8583d))
  (pad "Y5" smd circle (at -6.5 8.5) (size 0.53 0.53) (property pad_prop_bga) (layers "F.Cu" "F.Paste" "F.Mask") (tstamp 5022df32-1104-45a2-a871-7e04db332231))
  (pad "Y6" smd circle (at -5.5 8.5) (size 0.53 0.53) (property pad_prop_bga) (layers "F.Cu" "F.Paste" "F.Mask") (tstamp f0a98b74-eebf-4aed-b6a9-143853621460))
  (pad "Y7" smd circle (at -4.5 8.5) (size 0.53 0.53) (property pad_prop_bga) (layers "F.Cu" "F.Paste" "F.Mask") (tstamp 217f43a2-5aff-42fd-9678-81f5e5595090))
  (pad "Y8" smd circle (at -3.5 8.5) (size 0.53 0.53) (property pad_prop_bga) (layers "F.Cu" "F.Paste" "F.Mask") (tstamp f329a30a-9f25-4051-941b-3a21fe97cf5f))
  (pad "Y9" smd circle (at -2.5 8.5) (size 0.53 0.53) (property pad_prop_bga) (layers "F.Cu" "F.Paste" "F.Mask") (tstamp 0aecc73f-ade7-4578-9561-101f6ee55f2c))
  (pad "Y10" smd circle (at -1.5 8.5) (size 0.53 0.53) (property pad_prop_bga) (layers "F.Cu" "F.Paste" "F.Mask") (tstamp 7b082210-0564-4199-b686-e5de1ed07969))
  (pad "Y11" smd circle (at -0.5 8.5) (size 0.53 0.53) (property pad_prop_bga) (layers "F.Cu" "F.Paste" "F.Mask") (tstamp 4d55fe74-d4c7-435e-bfeb-9375c53ce75d))
  (pad "Y12" smd circle (at 0.5 8.5) (size 0.53 0.53) (property pad_prop_bga) (layers "F.Cu" "F.Paste" "F.Mask") (tstamp 12e31529-2be5-472f-af31-75fcdaf3952c))
  (pad "Y13" smd circle (at 1.5 8.5) (size 0.53 0.53) (property pad_prop_bga) (layers "F.Cu" "F.Paste" "F.Mask") (tstamp 54393bc0-a513-45e5-a9a8-aad14f71003f))
  (pad "Y14" smd circle (at 2.5 8.5) (size 0.53 0.53) (property pad_prop_bga) (layers "F.Cu" "F.Paste" "F.Mask") (tstamp 284b29d1-3599-442a-9a99-9634a0e1f2a2))
  (pad "Y15" smd circle (at 3.5 8.5) (size 0.53 0.53) (property pad_prop_bga) (layers "F.Cu" "F.Paste" "F.Mask") (tstamp 63d3e49b-a0cc-4a1e-ab21-e0861580bc33))
  (pad "Y16" smd circle (at 4.5 8.5) (size 0.53 0.53) (property pad_prop_bga) (layers "F.Cu" "F.Paste" "F.Mask") (tstamp 4732a640-62f4-43f6-af6d-f8d8c7aade93))
  (pad "Y17" smd circle (at 5.5 8.5) (size 0.53 0.53) (property pad_prop_bga) (layers "F.Cu" "F.Paste" "F.Mask") (tstamp f1b148cd-6e74-4baa-9ab6-2e862fd1a4c4))
  (pad "Y18" smd circle (at 6.5 8.5) (size 0.53 0.53) (property pad_prop_bga) (layers "F.Cu" "F.Paste" "F.Mask") (tstamp ce21da75-1bf8-43ac-be3b-1ac31e134749))
  (pad "Y19" smd circle (at 7.5 8.5) (size 0.53 0.53) (property pad_prop_bga) (layers "F.Cu" "F.Paste" "F.Mask") (tstamp db8a1fc5-2c21-4948-8f54-79dd21b65558))
  (pad "Y20" smd circle (at 8.5 8.5) (size 0.53 0.53) (property pad_prop_bga) (layers "F.Cu" "F.Paste" "F.Mask") (tstamp 5c9024bf-b277-4592-9258-1d61b4491542))
  (pad "Y21" smd circle (at 9.5 8.5) (size 0.53 0.53) (property pad_prop_bga) (layers "F.Cu" "F.Paste" "F.Mask") (tstamp 0dd8a938-b13a-4fba-a77a-65f59798195f))
  (pad "Y22" smd circle (at 10.5 8.5) (size 0.53 0.53) (property pad_prop_bga) (layers "F.Cu" "F.Paste" "F.Mask") (tstamp 58988db1-7891-4c79-9596-9f79a5f986b9))
  (model "${KICAD6_3DMODEL_DIR}/Package_BGA.3dshapes/Xilinx_FBG484.wrl"
    (offset (xyz 0 0 0))
    (scale (xyz 1 1 1))
    (rotate (xyz 0 0 0))
  )
)
