(footprint "Xilinx_CLG484_CLG485" (version 20211014) (generator pcbnew)
  (layer "F.Cu")
  (tedit 5CDADFA9)
  (descr "Zynq-7000 BGA, 22x22 grid, 19x19mm package, 0.8mm pitch; https://www.xilinx.com/support/documentation/user_guides/ug865-Zynq-7000-Pkg-Pinout.pdf#page=79, NSMD pad definition Appendix A")
  (tags "BGA 484 0.8 CLG484 CL484 CLG485 CL485")
  (solder_mask_margin 0.05)
  (attr smd)
  (fp_text reference "REF**" (at 0 -10.5) (layer "F.SilkS")
    (effects (font (size 1 1) (thickness 0.15)))
    (tstamp 8380938f-1c88-4cde-a8f4-8192ce845ab9)
  )
  (fp_text value "Xilinx_CLG484_CLG485" (at 0 10.5) (layer "F.Fab")
    (effects (font (size 1 1) (thickness 0.15)))
    (tstamp f6da44ff-2c53-4c05-848c-a7c3fe5c447e)
  )
  (fp_text user "${REFERENCE}" (at 0 0) (layer "F.Fab")
    (effects (font (size 1 1) (thickness 0.15)))
    (tstamp a0a1beec-ed03-4755-becb-074f8c263aa9)
  )
  (fp_line (start -9.61 9.61) (end -9.61 -8.61) (layer "F.SilkS") (width 0.12) (tstamp 6484d959-4adc-4111-8f1a-c48758e38368))
  (fp_line (start -8.61 -9.61) (end 9.61 -9.61) (layer "F.SilkS") (width 0.12) (tstamp 91677608-798d-4b7d-8068-20922a24c8d1))
  (fp_line (start 9.61 9.61) (end -9.61 9.61) (layer "F.SilkS") (width 0.12) (tstamp b7c492ed-f22d-4359-9854-c31da39b0e29))
  (fp_line (start 9.61 -9.61) (end 9.61 9.61) (layer "F.SilkS") (width 0.12) (tstamp f18b5f4c-686d-4ece-9c66-c58d372ca9f0))
  (fp_line (start 10.5 10.5) (end 10.5 -10.5) (layer "F.CrtYd") (width 0.05) (tstamp 0242b6b0-29b3-4dcc-a417-f30a36ab291d))
  (fp_line (start -10.5 -10.5) (end -10.5 10.5) (layer "F.CrtYd") (width 0.05) (tstamp 2e642068-6c37-42e9-9182-912f12541684))
  (fp_line (start 10.5 -10.5) (end -10.5 -10.5) (layer "F.CrtYd") (width 0.05) (tstamp 552babd6-a1e3-440b-b150-3309cc9624f3))
  (fp_line (start -10.5 10.5) (end 10.5 10.5) (layer "F.CrtYd") (width 0.05) (tstamp f480db22-c2bf-4764-b3d0-9b8d16886035))
  (fp_line (start -9.5 -8.5) (end -8.5 -9.5) (layer "F.Fab") (width 0.1) (tstamp 0c255dcf-3081-4acc-8f61-e5ebabfcf059))
  (fp_line (start 9.5 -9.5) (end 9.5 9.5) (layer "F.Fab") (width 0.1) (tstamp 181bb2bb-8455-442e-a443-7f2c6a4e7010))
  (fp_line (start 9.5 9.5) (end -9.5 9.5) (layer "F.Fab") (width 0.1) (tstamp 8379e768-ec89-480e-84c7-956d29919587))
  (fp_line (start -9.5 9.5) (end -9.5 -8.5) (layer "F.Fab") (width 0.1) (tstamp 8dda46a2-26ea-4f9d-acf1-b106c0e033d9))
  (fp_line (start -8.5 -9.5) (end 9.5 -9.5) (layer "F.Fab") (width 0.1) (tstamp fec57a49-cc1d-4922-a3d8-7eef2c843f84))
  (pad "A1" smd circle (at -8.4 -8.4) (size 0.4 0.4) (property pad_prop_bga) (layers "F.Cu" "F.Paste" "F.Mask") (tstamp 52896e94-b1dd-4f7e-be1a-308e509cce98))
  (pad "A2" smd circle (at -7.6 -8.4) (size 0.4 0.4) (property pad_prop_bga) (layers "F.Cu" "F.Paste" "F.Mask") (tstamp ec9f2275-6e7b-4c23-9d87-f32e74f19668))
  (pad "A3" smd circle (at -6.8 -8.4) (size 0.4 0.4) (property pad_prop_bga) (layers "F.Cu" "F.Paste" "F.Mask") (tstamp 6cf91bd7-d5ae-4605-8877-3d1a9f49ad0d))
  (pad "A4" smd circle (at -6 -8.4) (size 0.4 0.4) (property pad_prop_bga) (layers "F.Cu" "F.Paste" "F.Mask") (tstamp 413192fa-cc5f-43fd-9455-5080bbc130dd))
  (pad "A5" smd circle (at -5.2 -8.4) (size 0.4 0.4) (property pad_prop_bga) (layers "F.Cu" "F.Paste" "F.Mask") (tstamp 39b4066e-9f56-4e65-b949-1960857b80bc))
  (pad "A6" smd circle (at -4.4 -8.4) (size 0.4 0.4) (property pad_prop_bga) (layers "F.Cu" "F.Paste" "F.Mask") (tstamp f2cdfbec-f084-4c67-a4e3-85285a1eccf5))
  (pad "A7" smd circle (at -3.6 -8.4) (size 0.4 0.4) (property pad_prop_bga) (layers "F.Cu" "F.Paste" "F.Mask") (tstamp 32c83480-7e07-46d8-a670-9e0a3aa878a8))
  (pad "A8" smd circle (at -2.8 -8.4) (size 0.4 0.4) (property pad_prop_bga) (layers "F.Cu" "F.Paste" "F.Mask") (tstamp a3f08c9f-91c1-4178-880c-52029fdceb4f))
  (pad "A9" smd circle (at -2 -8.4) (size 0.4 0.4) (property pad_prop_bga) (layers "F.Cu" "F.Paste" "F.Mask") (tstamp 5af2e3a1-db70-4b18-8664-a3b7c3f000d6))
  (pad "A10" smd circle (at -1.2 -8.4) (size 0.4 0.4) (property pad_prop_bga) (layers "F.Cu" "F.Paste" "F.Mask") (tstamp 495de9d9-d005-41ae-a620-3be81d6d0505))
  (pad "A11" smd circle (at -0.4 -8.4) (size 0.4 0.4) (property pad_prop_bga) (layers "F.Cu" "F.Paste" "F.Mask") (tstamp 44ddd04b-8990-4af8-8c22-13688979d754))
  (pad "A12" smd circle (at 0.4 -8.4) (size 0.4 0.4) (property pad_prop_bga) (layers "F.Cu" "F.Paste" "F.Mask") (tstamp ee70f7ff-f272-4222-a820-b9b36f0941b7))
  (pad "A13" smd circle (at 1.2 -8.4) (size 0.4 0.4) (property pad_prop_bga) (layers "F.Cu" "F.Paste" "F.Mask") (tstamp 7b5ded14-0d88-462c-bd8f-dc513449bfd2))
  (pad "A14" smd circle (at 2 -8.4) (size 0.4 0.4) (property pad_prop_bga) (layers "F.Cu" "F.Paste" "F.Mask") (tstamp 335aa3ca-d17a-40a3-a4d6-9ff070794a54))
  (pad "A15" smd circle (at 2.8 -8.4) (size 0.4 0.4) (property pad_prop_bga) (layers "F.Cu" "F.Paste" "F.Mask") (tstamp 5de01ac9-fd33-4aec-881f-a35d0fd46b77))
  (pad "A16" smd circle (at 3.6 -8.4) (size 0.4 0.4) (property pad_prop_bga) (layers "F.Cu" "F.Paste" "F.Mask") (tstamp ceab3b85-25d8-4855-8d86-ab8c0aee9792))
  (pad "A17" smd circle (at 4.4 -8.4) (size 0.4 0.4) (property pad_prop_bga) (layers "F.Cu" "F.Paste" "F.Mask") (tstamp 54cffca8-5170-4a82-8e0d-fd4721cf72cd))
  (pad "A18" smd circle (at 5.2 -8.4) (size 0.4 0.4) (property pad_prop_bga) (layers "F.Cu" "F.Paste" "F.Mask") (tstamp 90768c92-2a9f-4a53-8218-4e54babc780e))
  (pad "A19" smd circle (at 6 -8.4) (size 0.4 0.4) (property pad_prop_bga) (layers "F.Cu" "F.Paste" "F.Mask") (tstamp 7fbfc2e8-8e68-4790-b818-bcad2c2acbd3))
  (pad "A20" smd circle (at 6.8 -8.4) (size 0.4 0.4) (property pad_prop_bga) (layers "F.Cu" "F.Paste" "F.Mask") (tstamp 6538ca0f-660c-45ac-bf65-19631275d4ba))
  (pad "A21" smd circle (at 7.6 -8.4) (size 0.4 0.4) (property pad_prop_bga) (layers "F.Cu" "F.Paste" "F.Mask") (tstamp ce56f35d-9281-4101-a9b0-4f971911afcf))
  (pad "A22" smd circle (at 8.4 -8.4) (size 0.4 0.4) (property pad_prop_bga) (layers "F.Cu" "F.Paste" "F.Mask") (tstamp 7ddcbf3f-598a-41e7-8ffb-83f632f87f3d))
  (pad "AA1" smd circle (at -8.4 7.6) (size 0.4 0.4) (property pad_prop_bga) (layers "F.Cu" "F.Paste" "F.Mask") (tstamp 0e06b471-bc09-4e0b-9dc3-016ec10c4b76))
  (pad "AA2" smd circle (at -7.6 7.6) (size 0.4 0.4) (property pad_prop_bga) (layers "F.Cu" "F.Paste" "F.Mask") (tstamp 0f87260c-9c4d-40c9-b532-030b3d9f9219))
  (pad "AA3" smd circle (at -6.8 7.6) (size 0.4 0.4) (property pad_prop_bga) (layers "F.Cu" "F.Paste" "F.Mask") (tstamp b9650dd5-5416-488d-b367-5c0eea621fb3))
  (pad "AA4" smd circle (at -6 7.6) (size 0.4 0.4) (property pad_prop_bga) (layers "F.Cu" "F.Paste" "F.Mask") (tstamp 74019bfd-c726-4f28-9064-d5010ac7589b))
  (pad "AA5" smd circle (at -5.2 7.6) (size 0.4 0.4) (property pad_prop_bga) (layers "F.Cu" "F.Paste" "F.Mask") (tstamp 6cd5dba1-d225-4af8-b940-741dcf8717fc))
  (pad "AA6" smd circle (at -4.4 7.6) (size 0.4 0.4) (property pad_prop_bga) (layers "F.Cu" "F.Paste" "F.Mask") (tstamp b6a4367f-7f90-41ce-a568-a6e161b73322))
  (pad "AA7" smd circle (at -3.6 7.6) (size 0.4 0.4) (property pad_prop_bga) (layers "F.Cu" "F.Paste" "F.Mask") (tstamp e4a036fc-5772-46e2-8b68-1746ee4eb9c9))
  (pad "AA8" smd circle (at -2.8 7.6) (size 0.4 0.4) (property pad_prop_bga) (layers "F.Cu" "F.Paste" "F.Mask") (tstamp bff66083-7247-4cac-a744-e2c1cb078c1a))
  (pad "AA9" smd circle (at -2 7.6) (size 0.4 0.4) (property pad_prop_bga) (layers "F.Cu" "F.Paste" "F.Mask") (tstamp d811795b-bb4a-43ce-9a65-ecf37b996bfc))
  (pad "AA10" smd circle (at -1.2 7.6) (size 0.4 0.4) (property pad_prop_bga) (layers "F.Cu" "F.Paste" "F.Mask") (tstamp c93ae955-124d-47c0-9bb1-9717bc4b301f))
  (pad "AA11" smd circle (at -0.4 7.6) (size 0.4 0.4) (property pad_prop_bga) (layers "F.Cu" "F.Paste" "F.Mask") (tstamp 3264ce15-4d64-4751-bacb-748d4671f7d6))
  (pad "AA12" smd circle (at 0.4 7.6) (size 0.4 0.4) (property pad_prop_bga) (layers "F.Cu" "F.Paste" "F.Mask") (tstamp 85365b71-7494-4b96-9ee6-20bd72d9459a))
  (pad "AA13" smd circle (at 1.2 7.6) (size 0.4 0.4) (property pad_prop_bga) (layers "F.Cu" "F.Paste" "F.Mask") (tstamp 4ff24f68-2d3f-4f18-869d-ae14a9171280))
  (pad "AA14" smd circle (at 2 7.6) (size 0.4 0.4) (property pad_prop_bga) (layers "F.Cu" "F.Paste" "F.Mask") (tstamp f3cadb79-02f6-443d-9833-c5c6d71caee3))
  (pad "AA15" smd circle (at 2.8 7.6) (size 0.4 0.4) (property pad_prop_bga) (layers "F.Cu" "F.Paste" "F.Mask") (tstamp c78d0a89-1e42-4555-9407-0ed0d9877563))
  (pad "AA16" smd circle (at 3.6 7.6) (size 0.4 0.4) (property pad_prop_bga) (layers "F.Cu" "F.Paste" "F.Mask") (tstamp 369230c3-b7a3-4fe0-a90b-f582c550fc06))
  (pad "AA17" smd circle (at 4.4 7.6) (size 0.4 0.4) (property pad_prop_bga) (layers "F.Cu" "F.Paste" "F.Mask") (tstamp 620ae7bb-1c64-4492-9c61-c548919f8ff9))
  (pad "AA18" smd circle (at 5.2 7.6) (size 0.4 0.4) (property pad_prop_bga) (layers "F.Cu" "F.Paste" "F.Mask") (tstamp 9d8c71ef-0ef0-40cd-b10a-a0416f31c06e))
  (pad "AA19" smd circle (at 6 7.6) (size 0.4 0.4) (property pad_prop_bga) (layers "F.Cu" "F.Paste" "F.Mask") (tstamp 07ffccb6-12e9-473f-97cd-e10f72691f41))
  (pad "AA20" smd circle (at 6.8 7.6) (size 0.4 0.4) (property pad_prop_bga) (layers "F.Cu" "F.Paste" "F.Mask") (tstamp 88522dad-93a5-424b-b5fb-2e3590fc7d31))
  (pad "AA21" smd circle (at 7.6 7.6) (size 0.4 0.4) (property pad_prop_bga) (layers "F.Cu" "F.Paste" "F.Mask") (tstamp 14e3a486-fb18-40ac-9735-a8a3ef9cde06))
  (pad "AA22" smd circle (at 8.4 7.6) (size 0.4 0.4) (property pad_prop_bga) (layers "F.Cu" "F.Paste" "F.Mask") (tstamp 1506b9e3-5596-43dc-a60a-8114d4b40996))
  (pad "AB1" smd circle (at -8.4 8.4) (size 0.4 0.4) (property pad_prop_bga) (layers "F.Cu" "F.Paste" "F.Mask") (tstamp e662afad-ba94-4482-9a93-88efc8a375c2))
  (pad "AB2" smd circle (at -7.6 8.4) (size 0.4 0.4) (property pad_prop_bga) (layers "F.Cu" "F.Paste" "F.Mask") (tstamp d752fd39-5d14-46c5-9b70-dde04b18fbc6))
  (pad "AB3" smd circle (at -6.8 8.4) (size 0.4 0.4) (property pad_prop_bga) (layers "F.Cu" "F.Paste" "F.Mask") (tstamp f047a7b5-f707-408e-990a-90e74769dca7))
  (pad "AB4" smd circle (at -6 8.4) (size 0.4 0.4) (property pad_prop_bga) (layers "F.Cu" "F.Paste" "F.Mask") (tstamp 511ab5b7-3608-4ce4-984a-8419bfe27bfb))
  (pad "AB5" smd circle (at -5.2 8.4) (size 0.4 0.4) (property pad_prop_bga) (layers "F.Cu" "F.Paste" "F.Mask") (tstamp 0e3c06fe-87a5-4e33-ab5b-80f1bc2574f4))
  (pad "AB6" smd circle (at -4.4 8.4) (size 0.4 0.4) (property pad_prop_bga) (layers "F.Cu" "F.Paste" "F.Mask") (tstamp 9b79ddca-68c2-42e8-abda-bb523c14b8db))
  (pad "AB7" smd circle (at -3.6 8.4) (size 0.4 0.4) (property pad_prop_bga) (layers "F.Cu" "F.Paste" "F.Mask") (tstamp ed248aca-49a0-45e8-aa5d-32f7684c005e))
  (pad "AB8" smd circle (at -2.8 8.4) (size 0.4 0.4) (property pad_prop_bga) (layers "F.Cu" "F.Paste" "F.Mask") (tstamp fe32e640-9546-4e8a-a687-4323ecd66809))
  (pad "AB9" smd circle (at -2 8.4) (size 0.4 0.4) (property pad_prop_bga) (layers "F.Cu" "F.Paste" "F.Mask") (tstamp af0eb631-df12-4f66-b792-40317ac86a92))
  (pad "AB10" smd circle (at -1.2 8.4) (size 0.4 0.4) (property pad_prop_bga) (layers "F.Cu" "F.Paste" "F.Mask") (tstamp dec80121-1f50-4913-a6bf-8a6f4b6eec22))
  (pad "AB11" smd circle (at -0.4 8.4) (size 0.4 0.4) (property pad_prop_bga) (layers "F.Cu" "F.Paste" "F.Mask") (tstamp e9d4ddab-f7fa-4d55-b3ab-facc6d403366))
  (pad "AB12" smd circle (at 0.4 8.4) (size 0.4 0.4) (property pad_prop_bga) (layers "F.Cu" "F.Paste" "F.Mask") (tstamp c4f2c826-ea6f-488e-ba7f-b3d6d3ee2be6))
  (pad "AB13" smd circle (at 1.2 8.4) (size 0.4 0.4) (property pad_prop_bga) (layers "F.Cu" "F.Paste" "F.Mask") (tstamp 5b023d6c-4059-481e-8f39-0858108075b4))
  (pad "AB14" smd circle (at 2 8.4) (size 0.4 0.4) (property pad_prop_bga) (layers "F.Cu" "F.Paste" "F.Mask") (tstamp f5bf2346-2ea6-49fe-8b96-3c648e6f5c3f))
  (pad "AB15" smd circle (at 2.8 8.4) (size 0.4 0.4) (property pad_prop_bga) (layers "F.Cu" "F.Paste" "F.Mask") (tstamp 18c10364-c5fd-48d2-aa80-13cced1e62cb))
  (pad "AB16" smd circle (at 3.6 8.4) (size 0.4 0.4) (property pad_prop_bga) (layers "F.Cu" "F.Paste" "F.Mask") (tstamp afdfa6b3-36cd-4358-b270-93fd09283bae))
  (pad "AB17" smd circle (at 4.4 8.4) (size 0.4 0.4) (property pad_prop_bga) (layers "F.Cu" "F.Paste" "F.Mask") (tstamp d8a82a40-2d9a-44ec-898a-924d2637365d))
  (pad "AB18" smd circle (at 5.2 8.4) (size 0.4 0.4) (property pad_prop_bga) (layers "F.Cu" "F.Paste" "F.Mask") (tstamp 1c8e90e9-6f69-407f-b64f-d5d93daff90a))
  (pad "AB19" smd circle (at 6 8.4) (size 0.4 0.4) (property pad_prop_bga) (layers "F.Cu" "F.Paste" "F.Mask") (tstamp c69a8dc6-dfcf-4c14-94d7-b27eb9c250eb))
  (pad "AB20" smd circle (at 6.8 8.4) (size 0.4 0.4) (property pad_prop_bga) (layers "F.Cu" "F.Paste" "F.Mask") (tstamp 1d4c8530-a1dc-4cfd-9f07-e9992f743e22))
  (pad "AB21" smd circle (at 7.6 8.4) (size 0.4 0.4) (property pad_prop_bga) (layers "F.Cu" "F.Paste" "F.Mask") (tstamp da2c1fe6-8311-4e68-8320-207526b63ab7))
  (pad "AB22" smd circle (at 8.4 8.4) (size 0.4 0.4) (property pad_prop_bga) (layers "F.Cu" "F.Paste" "F.Mask") (tstamp c328b5ed-3792-4e35-a5d1-aea42902c4f5))
  (pad "B1" smd circle (at -8.4 -7.6) (size 0.4 0.4) (property pad_prop_bga) (layers "F.Cu" "F.Paste" "F.Mask") (tstamp 05d33d63-d427-47d2-9c09-f0d789231137))
  (pad "B2" smd circle (at -7.6 -7.6) (size 0.4 0.4) (property pad_prop_bga) (layers "F.Cu" "F.Paste" "F.Mask") (tstamp a04368a3-b555-4f18-9459-57ca76f8ea5b))
  (pad "B3" smd circle (at -6.8 -7.6) (size 0.4 0.4) (property pad_prop_bga) (layers "F.Cu" "F.Paste" "F.Mask") (tstamp fd1057b5-aed0-47ee-b2f4-413c04d87898))
  (pad "B4" smd circle (at -6 -7.6) (size 0.4 0.4) (property pad_prop_bga) (layers "F.Cu" "F.Paste" "F.Mask") (tstamp 020a18f1-199d-459d-99ea-71bb36d20ce7))
  (pad "B5" smd circle (at -5.2 -7.6) (size 0.4 0.4) (property pad_prop_bga) (layers "F.Cu" "F.Paste" "F.Mask") (tstamp 132fad3e-f3b0-4dbc-a770-1043de0b746d))
  (pad "B6" smd circle (at -4.4 -7.6) (size 0.4 0.4) (property pad_prop_bga) (layers "F.Cu" "F.Paste" "F.Mask") (tstamp 28d58833-9035-4ce1-8a2c-fae5e03563cd))
  (pad "B7" smd circle (at -3.6 -7.6) (size 0.4 0.4) (property pad_prop_bga) (layers "F.Cu" "F.Paste" "F.Mask") (tstamp 7c26ea1c-220c-4401-b6dd-4b2be0f5a135))
  (pad "B8" smd circle (at -2.8 -7.6) (size 0.4 0.4) (property pad_prop_bga) (layers "F.Cu" "F.Paste" "F.Mask") (tstamp 12814828-9740-4e57-96a9-b26efc359e5d))
  (pad "B9" smd circle (at -2 -7.6) (size 0.4 0.4) (property pad_prop_bga) (layers "F.Cu" "F.Paste" "F.Mask") (tstamp 6be164e8-6786-4c24-bd12-e55b4a1be996))
  (pad "B10" smd circle (at -1.2 -7.6) (size 0.4 0.4) (property pad_prop_bga) (layers "F.Cu" "F.Paste" "F.Mask") (tstamp 1b38887a-d53b-4c0a-9f90-a6aafe40682e))
  (pad "B11" smd circle (at -0.4 -7.6) (size 0.4 0.4) (property pad_prop_bga) (layers "F.Cu" "F.Paste" "F.Mask") (tstamp bc195348-684e-45ff-8b48-265f7b0fd43a))
  (pad "B12" smd circle (at 0.4 -7.6) (size 0.4 0.4) (property pad_prop_bga) (layers "F.Cu" "F.Paste" "F.Mask") (tstamp 67eed395-2ce1-4cde-b64a-f258fb6e268a))
  (pad "B13" smd circle (at 1.2 -7.6) (size 0.4 0.4) (property pad_prop_bga) (layers "F.Cu" "F.Paste" "F.Mask") (tstamp aabe4172-028d-413e-ad33-a739a47168ca))
  (pad "B14" smd circle (at 2 -7.6) (size 0.4 0.4) (property pad_prop_bga) (layers "F.Cu" "F.Paste" "F.Mask") (tstamp 1ce0ed15-48cd-46de-be20-f42e9cef4fbc))
  (pad "B15" smd circle (at 2.8 -7.6) (size 0.4 0.4) (property pad_prop_bga) (layers "F.Cu" "F.Paste" "F.Mask") (tstamp 40a69cb1-f9c9-491b-ba2c-1d806bb47c4f))
  (pad "B16" smd circle (at 3.6 -7.6) (size 0.4 0.4) (property pad_prop_bga) (layers "F.Cu" "F.Paste" "F.Mask") (tstamp 5810074e-b82a-4b4a-967a-8d379d533f5b))
  (pad "B17" smd circle (at 4.4 -7.6) (size 0.4 0.4) (property pad_prop_bga) (layers "F.Cu" "F.Paste" "F.Mask") (tstamp 7a389930-54dd-4525-bd40-2533a1d609e5))
  (pad "B18" smd circle (at 5.2 -7.6) (size 0.4 0.4) (property pad_prop_bga) (layers "F.Cu" "F.Paste" "F.Mask") (tstamp f7d7973c-bb83-484c-8597-c919dab3752f))
  (pad "B19" smd circle (at 6 -7.6) (size 0.4 0.4) (property pad_prop_bga) (layers "F.Cu" "F.Paste" "F.Mask") (tstamp dba8ca97-1c12-493b-821e-bb0c65ba3458))
  (pad "B20" smd circle (at 6.8 -7.6) (size 0.4 0.4) (property pad_prop_bga) (layers "F.Cu" "F.Paste" "F.Mask") (tstamp ee522a61-1150-4e1c-9dab-cc52ef5b219d))
  (pad "B21" smd circle (at 7.6 -7.6) (size 0.4 0.4) (property pad_prop_bga) (layers "F.Cu" "F.Paste" "F.Mask") (tstamp cd5f0f0a-5f99-4eb0-8a40-3b8c2f30af12))
  (pad "B22" smd circle (at 8.4 -7.6) (size 0.4 0.4) (property pad_prop_bga) (layers "F.Cu" "F.Paste" "F.Mask") (tstamp e5224d43-69f2-4d6c-8fae-9c150155a852))
  (pad "C1" smd circle (at -8.4 -6.8) (size 0.4 0.4) (property pad_prop_bga) (layers "F.Cu" "F.Paste" "F.Mask") (tstamp 6220e277-f3c0-4957-bcf6-3c37be395bd0))
  (pad "C2" smd circle (at -7.6 -6.8) (size 0.4 0.4) (property pad_prop_bga) (layers "F.Cu" "F.Paste" "F.Mask") (tstamp 81ac5b59-7dc9-4395-a2d9-f68473f40493))
  (pad "C3" smd circle (at -6.8 -6.8) (size 0.4 0.4) (property pad_prop_bga) (layers "F.Cu" "F.Paste" "F.Mask") (tstamp 21ebde4a-544c-4e75-ac61-9c0546893658))
  (pad "C4" smd circle (at -6 -6.8) (size 0.4 0.4) (property pad_prop_bga) (layers "F.Cu" "F.Paste" "F.Mask") (tstamp 1427455d-3558-42b8-b4e7-d3149db040a0))
  (pad "C5" smd circle (at -5.2 -6.8) (size 0.4 0.4) (property pad_prop_bga) (layers "F.Cu" "F.Paste" "F.Mask") (tstamp 0a3641ed-457f-4611-84c6-4ae2e371bfb2))
  (pad "C6" smd circle (at -4.4 -6.8) (size 0.4 0.4) (property pad_prop_bga) (layers "F.Cu" "F.Paste" "F.Mask") (tstamp 393e3057-65c2-462c-bbed-82b014e86d15))
  (pad "C7" smd circle (at -3.6 -6.8) (size 0.4 0.4) (property pad_prop_bga) (layers "F.Cu" "F.Paste" "F.Mask") (tstamp fdf2d454-691c-44cb-803c-90c3c1dea0e6))
  (pad "C8" smd circle (at -2.8 -6.8) (size 0.4 0.4) (property pad_prop_bga) (layers "F.Cu" "F.Paste" "F.Mask") (tstamp d0f5d590-8bb0-482b-a3e2-d6913e0dcb02))
  (pad "C9" smd circle (at -2 -6.8) (size 0.4 0.4) (property pad_prop_bga) (layers "F.Cu" "F.Paste" "F.Mask") (tstamp 18bf8d1f-2f41-4b63-9752-0ed1465f9e4d))
  (pad "C10" smd circle (at -1.2 -6.8) (size 0.4 0.4) (property pad_prop_bga) (layers "F.Cu" "F.Paste" "F.Mask") (tstamp dd14f97e-f22a-497e-b058-3c543584b334))
  (pad "C11" smd circle (at -0.4 -6.8) (size 0.4 0.4) (property pad_prop_bga) (layers "F.Cu" "F.Paste" "F.Mask") (tstamp ab2fafe6-04c7-45b3-bbd4-6fbfae75b177))
  (pad "C12" smd circle (at 0.4 -6.8) (size 0.4 0.4) (property pad_prop_bga) (layers "F.Cu" "F.Paste" "F.Mask") (tstamp 613ccf06-8c80-4aef-ab42-69eabee36198))
  (pad "C13" smd circle (at 1.2 -6.8) (size 0.4 0.4) (property pad_prop_bga) (layers "F.Cu" "F.Paste" "F.Mask") (tstamp d4df8c0e-e1f5-45aa-bc17-e2d3087afe2d))
  (pad "C14" smd circle (at 2 -6.8) (size 0.4 0.4) (property pad_prop_bga) (layers "F.Cu" "F.Paste" "F.Mask") (tstamp 556d2173-e255-4dc7-b2e2-efe071c30ed0))
  (pad "C15" smd circle (at 2.8 -6.8) (size 0.4 0.4) (property pad_prop_bga) (layers "F.Cu" "F.Paste" "F.Mask") (tstamp 26618a37-b9ad-48d1-8a9c-478cdf7b8c2f))
  (pad "C16" smd circle (at 3.6 -6.8) (size 0.4 0.4) (property pad_prop_bga) (layers "F.Cu" "F.Paste" "F.Mask") (tstamp 419d3176-d4b9-4f56-8e64-092c9a023dbc))
  (pad "C17" smd circle (at 4.4 -6.8) (size 0.4 0.4) (property pad_prop_bga) (layers "F.Cu" "F.Paste" "F.Mask") (tstamp 1fa123bd-57c9-4369-945f-3964e8552dad))
  (pad "C18" smd circle (at 5.2 -6.8) (size 0.4 0.4) (property pad_prop_bga) (layers "F.Cu" "F.Paste" "F.Mask") (tstamp d01e9335-cc79-443d-8e4d-6fcfb839273d))
  (pad "C19" smd circle (at 6 -6.8) (size 0.4 0.4) (property pad_prop_bga) (layers "F.Cu" "F.Paste" "F.Mask") (tstamp 5056d803-a12e-4cfa-9814-54c9d75babe0))
  (pad "C20" smd circle (at 6.8 -6.8) (size 0.4 0.4) (property pad_prop_bga) (layers "F.Cu" "F.Paste" "F.Mask") (tstamp a19dd1c1-6bad-4394-9188-bda28883575b))
  (pad "C21" smd circle (at 7.6 -6.8) (size 0.4 0.4) (property pad_prop_bga) (layers "F.Cu" "F.Paste" "F.Mask") (tstamp 8e7cabf8-6b04-4609-9803-feca248149b6))
  (pad "C22" smd circle (at 8.4 -6.8) (size 0.4 0.4) (property pad_prop_bga) (layers "F.Cu" "F.Paste" "F.Mask") (tstamp 2b64bbe4-899c-4c58-ae67-84892f2df770))
  (pad "D1" smd circle (at -8.4 -6) (size 0.4 0.4) (property pad_prop_bga) (layers "F.Cu" "F.Paste" "F.Mask") (tstamp e38d435a-eee7-4979-b7d0-c0443d157457))
  (pad "D2" smd circle (at -7.6 -6) (size 0.4 0.4) (property pad_prop_bga) (layers "F.Cu" "F.Paste" "F.Mask") (tstamp b37859e3-661b-4464-8a88-d0155be08db8))
  (pad "D3" smd circle (at -6.8 -6) (size 0.4 0.4) (property pad_prop_bga) (layers "F.Cu" "F.Paste" "F.Mask") (tstamp 8849d713-6b60-46de-b8c6-491a554cc2d1))
  (pad "D4" smd circle (at -6 -6) (size 0.4 0.4) (property pad_prop_bga) (layers "F.Cu" "F.Paste" "F.Mask") (tstamp 545297bc-8379-4207-b660-e94172679b63))
  (pad "D5" smd circle (at -5.2 -6) (size 0.4 0.4) (property pad_prop_bga) (layers "F.Cu" "F.Paste" "F.Mask") (tstamp e6a6f724-9ee9-4c00-b4fd-973282b6fb78))
  (pad "D6" smd circle (at -4.4 -6) (size 0.4 0.4) (property pad_prop_bga) (layers "F.Cu" "F.Paste" "F.Mask") (tstamp c85934dc-7fbc-45ce-9643-8aab8d64bae4))
  (pad "D7" smd circle (at -3.6 -6) (size 0.4 0.4) (property pad_prop_bga) (layers "F.Cu" "F.Paste" "F.Mask") (tstamp 088608e0-b460-47de-a539-0550e27f3353))
  (pad "D8" smd circle (at -2.8 -6) (size 0.4 0.4) (property pad_prop_bga) (layers "F.Cu" "F.Paste" "F.Mask") (tstamp 522ec891-23a1-4e88-b677-58009aeca0ca))
  (pad "D9" smd circle (at -2 -6) (size 0.4 0.4) (property pad_prop_bga) (layers "F.Cu" "F.Paste" "F.Mask") (tstamp ba1f5301-2751-4020-9575-5385230b1a69))
  (pad "D10" smd circle (at -1.2 -6) (size 0.4 0.4) (property pad_prop_bga) (layers "F.Cu" "F.Paste" "F.Mask") (tstamp a83bec72-42ac-461c-b599-ff5ec4c542e5))
  (pad "D11" smd circle (at -0.4 -6) (size 0.4 0.4) (property pad_prop_bga) (layers "F.Cu" "F.Paste" "F.Mask") (tstamp af0942dd-aa2c-4ecf-9ccf-023d1c2fa4c5))
  (pad "D12" smd circle (at 0.4 -6) (size 0.4 0.4) (property pad_prop_bga) (layers "F.Cu" "F.Paste" "F.Mask") (tstamp d96b8b64-7859-4f2b-b46b-4461cb47ad6c))
  (pad "D13" smd circle (at 1.2 -6) (size 0.4 0.4) (property pad_prop_bga) (layers "F.Cu" "F.Paste" "F.Mask") (tstamp e579badf-6562-4711-ab23-c8f1b7ec2480))
  (pad "D14" smd circle (at 2 -6) (size 0.4 0.4) (property pad_prop_bga) (layers "F.Cu" "F.Paste" "F.Mask") (tstamp 90cfedb8-5ae1-489a-806f-d859675d4afc))
  (pad "D15" smd circle (at 2.8 -6) (size 0.4 0.4) (property pad_prop_bga) (layers "F.Cu" "F.Paste" "F.Mask") (tstamp 189cb7eb-aab7-4f33-b76c-ebbbc04032c4))
  (pad "D16" smd circle (at 3.6 -6) (size 0.4 0.4) (property pad_prop_bga) (layers "F.Cu" "F.Paste" "F.Mask") (tstamp 681d770b-d9e2-4c4b-8aa3-38bcdd086371))
  (pad "D17" smd circle (at 4.4 -6) (size 0.4 0.4) (property pad_prop_bga) (layers "F.Cu" "F.Paste" "F.Mask") (tstamp c206b04f-3a23-4424-8ae4-018c1691524a))
  (pad "D18" smd circle (at 5.2 -6) (size 0.4 0.4) (property pad_prop_bga) (layers "F.Cu" "F.Paste" "F.Mask") (tstamp 893dd29e-e830-41a4-8b35-2ee9f0661bdb))
  (pad "D19" smd circle (at 6 -6) (size 0.4 0.4) (property pad_prop_bga) (layers "F.Cu" "F.Paste" "F.Mask") (tstamp 9d59c21b-a992-41c4-9c90-166b15771206))
  (pad "D20" smd circle (at 6.8 -6) (size 0.4 0.4) (property pad_prop_bga) (layers "F.Cu" "F.Paste" "F.Mask") (tstamp fa5e6b87-7de4-43de-a8b6-76554c908b34))
  (pad "D21" smd circle (at 7.6 -6) (size 0.4 0.4) (property pad_prop_bga) (layers "F.Cu" "F.Paste" "F.Mask") (tstamp 089d64ee-660d-40de-ab7f-744d28e21ed1))
  (pad "D22" smd circle (at 8.4 -6) (size 0.4 0.4) (property pad_prop_bga) (layers "F.Cu" "F.Paste" "F.Mask") (tstamp e9df1a6c-2d74-4325-bc1d-f23dd6384c6b))
  (pad "E1" smd circle (at -8.4 -5.2) (size 0.4 0.4) (property pad_prop_bga) (layers "F.Cu" "F.Paste" "F.Mask") (tstamp 407de936-6d20-4bec-b326-4b4065e6ffff))
  (pad "E2" smd circle (at -7.6 -5.2) (size 0.4 0.4) (property pad_prop_bga) (layers "F.Cu" "F.Paste" "F.Mask") (tstamp 0d3953d0-d0bf-44d8-a50b-1afc74ba3c05))
  (pad "E3" smd circle (at -6.8 -5.2) (size 0.4 0.4) (property pad_prop_bga) (layers "F.Cu" "F.Paste" "F.Mask") (tstamp e7862728-63f3-4bc0-882b-fdcb304615d8))
  (pad "E4" smd circle (at -6 -5.2) (size 0.4 0.4) (property pad_prop_bga) (layers "F.Cu" "F.Paste" "F.Mask") (tstamp d7ccd73b-31eb-4a48-9a05-6544adf9c5c4))
  (pad "E5" smd circle (at -5.2 -5.2) (size 0.4 0.4) (property pad_prop_bga) (layers "F.Cu" "F.Paste" "F.Mask") (tstamp 3cc6ad7a-0358-4b41-b22e-95bc30b41f38))
  (pad "E6" smd circle (at -4.4 -5.2) (size 0.4 0.4) (property pad_prop_bga) (layers "F.Cu" "F.Paste" "F.Mask") (tstamp ff1fa554-c967-455c-9966-efea261cc321))
  (pad "E7" smd circle (at -3.6 -5.2) (size 0.4 0.4) (property pad_prop_bga) (layers "F.Cu" "F.Paste" "F.Mask") (tstamp e3b9290e-8592-40c1-a577-dd1b91341dd7))
  (pad "E8" smd circle (at -2.8 -5.2) (size 0.4 0.4) (property pad_prop_bga) (layers "F.Cu" "F.Paste" "F.Mask") (tstamp 5a0cc134-9c62-4b19-a45b-8a6f29f4ebc4))
  (pad "E9" smd circle (at -2 -5.2) (size 0.4 0.4) (property pad_prop_bga) (layers "F.Cu" "F.Paste" "F.Mask") (tstamp b45479ee-5f9a-44b2-a74e-d5f9e7701605))
  (pad "E10" smd circle (at -1.2 -5.2) (size 0.4 0.4) (property pad_prop_bga) (layers "F.Cu" "F.Paste" "F.Mask") (tstamp cdf243bf-679f-4d3a-85ea-e51f18f3b4e1))
  (pad "E11" smd circle (at -0.4 -5.2) (size 0.4 0.4) (property pad_prop_bga) (layers "F.Cu" "F.Paste" "F.Mask") (tstamp 9fa789db-2a0f-4050-9422-c05640ebc257))
  (pad "E12" smd circle (at 0.4 -5.2) (size 0.4 0.4) (property pad_prop_bga) (layers "F.Cu" "F.Paste" "F.Mask") (tstamp b47bf7ea-56fd-441b-8ebf-8c86cb596b1d))
  (pad "E13" smd circle (at 1.2 -5.2) (size 0.4 0.4) (property pad_prop_bga) (layers "F.Cu" "F.Paste" "F.Mask") (tstamp 6e93679c-ed24-4c8a-8f6b-fb18ca6af233))
  (pad "E14" smd circle (at 2 -5.2) (size 0.4 0.4) (property pad_prop_bga) (layers "F.Cu" "F.Paste" "F.Mask") (tstamp 5834b0e8-abfe-45a1-b9ae-104351b0e3d2))
  (pad "E15" smd circle (at 2.8 -5.2) (size 0.4 0.4) (property pad_prop_bga) (layers "F.Cu" "F.Paste" "F.Mask") (tstamp 68f1df21-e5f2-4fd2-9227-fe7bb5dacb7d))
  (pad "E16" smd circle (at 3.6 -5.2) (size 0.4 0.4) (property pad_prop_bga) (layers "F.Cu" "F.Paste" "F.Mask") (tstamp d4ecbf9e-821f-4dff-8e17-309e05094007))
  (pad "E17" smd circle (at 4.4 -5.2) (size 0.4 0.4) (property pad_prop_bga) (layers "F.Cu" "F.Paste" "F.Mask") (tstamp 24573e7e-f900-4812-8b79-9aa2444ffed3))
  (pad "E18" smd circle (at 5.2 -5.2) (size 0.4 0.4) (property pad_prop_bga) (layers "F.Cu" "F.Paste" "F.Mask") (tstamp deca9d99-6233-478d-b399-c526b07f460b))
  (pad "E19" smd circle (at 6 -5.2) (size 0.4 0.4) (property pad_prop_bga) (layers "F.Cu" "F.Paste" "F.Mask") (tstamp 4d1446c4-6edd-4ea9-83e1-3f04d9516724))
  (pad "E20" smd circle (at 6.8 -5.2) (size 0.4 0.4) (property pad_prop_bga) (layers "F.Cu" "F.Paste" "F.Mask") (tstamp 08e1e227-6024-4361-8be2-c1fb99e92b59))
  (pad "E21" smd circle (at 7.6 -5.2) (size 0.4 0.4) (property pad_prop_bga) (layers "F.Cu" "F.Paste" "F.Mask") (tstamp 030e4bf4-3801-49fb-9d24-7025567c5f86))
  (pad "E22" smd circle (at 8.4 -5.2) (size 0.4 0.4) (property pad_prop_bga) (layers "F.Cu" "F.Paste" "F.Mask") (tstamp 2ec87208-af00-4b23-a135-89efa39d2ef7))
  (pad "F1" smd circle (at -8.4 -4.4) (size 0.4 0.4) (property pad_prop_bga) (layers "F.Cu" "F.Paste" "F.Mask") (tstamp d7db3c4c-f4c0-4da8-9cb4-631eb0f82071))
  (pad "F2" smd circle (at -7.6 -4.4) (size 0.4 0.4) (property pad_prop_bga) (layers "F.Cu" "F.Paste" "F.Mask") (tstamp 0a3108ef-5325-4e7c-a440-c4c27bf5f27d))
  (pad "F3" smd circle (at -6.8 -4.4) (size 0.4 0.4) (property pad_prop_bga) (layers "F.Cu" "F.Paste" "F.Mask") (tstamp 8108ab91-a784-42fe-a360-0d0cb047715e))
  (pad "F4" smd circle (at -6 -4.4) (size 0.4 0.4) (property pad_prop_bga) (layers "F.Cu" "F.Paste" "F.Mask") (tstamp 843bda9f-a49e-41b6-982d-0ef2e5077b7a))
  (pad "F5" smd circle (at -5.2 -4.4) (size 0.4 0.4) (property pad_prop_bga) (layers "F.Cu" "F.Paste" "F.Mask") (tstamp fa7bf6a3-1755-44fe-8e99-4027884a0bc4))
  (pad "F6" smd circle (at -4.4 -4.4) (size 0.4 0.4) (property pad_prop_bga) (layers "F.Cu" "F.Paste" "F.Mask") (tstamp ed11a3b0-d7bb-4c04-a5ed-3c3efb56fe7f))
  (pad "F7" smd circle (at -3.6 -4.4) (size 0.4 0.4) (property pad_prop_bga) (layers "F.Cu" "F.Paste" "F.Mask") (tstamp fd60844b-45f6-4520-8fc9-92f8020f376c))
  (pad "F8" smd circle (at -2.8 -4.4) (size 0.4 0.4) (property pad_prop_bga) (layers "F.Cu" "F.Paste" "F.Mask") (tstamp 871094fa-49fc-4488-8673-c6dbef72ad0d))
  (pad "F9" smd circle (at -2 -4.4) (size 0.4 0.4) (property pad_prop_bga) (layers "F.Cu" "F.Paste" "F.Mask") (tstamp 0ae170cc-632d-4937-95b3-644a6c30ccd0))
  (pad "F10" smd circle (at -1.2 -4.4) (size 0.4 0.4) (property pad_prop_bga) (layers "F.Cu" "F.Paste" "F.Mask") (tstamp ab17109e-5679-4d50-bbd3-4e98d85877a6))
  (pad "F11" smd circle (at -0.4 -4.4) (size 0.4 0.4) (property pad_prop_bga) (layers "F.Cu" "F.Paste" "F.Mask") (tstamp 35c2c8e1-c441-431b-89e6-95a76c0387e6))
  (pad "F12" smd circle (at 0.4 -4.4) (size 0.4 0.4) (property pad_prop_bga) (layers "F.Cu" "F.Paste" "F.Mask") (tstamp 71767aa0-5431-4290-99ce-4ab4619def7d))
  (pad "F13" smd circle (at 1.2 -4.4) (size 0.4 0.4) (property pad_prop_bga) (layers "F.Cu" "F.Paste" "F.Mask") (tstamp b98e0bc7-7404-4c2c-bb5c-3576e00009d9))
  (pad "F14" smd circle (at 2 -4.4) (size 0.4 0.4) (property pad_prop_bga) (layers "F.Cu" "F.Paste" "F.Mask") (tstamp 4164976e-a12f-46cb-aeff-5f6ad4a7e5c1))
  (pad "F15" smd circle (at 2.8 -4.4) (size 0.4 0.4) (property pad_prop_bga) (layers "F.Cu" "F.Paste" "F.Mask") (tstamp b931f990-6aa8-467d-b43f-e272d9c567b0))
  (pad "F16" smd circle (at 3.6 -4.4) (size 0.4 0.4) (property pad_prop_bga) (layers "F.Cu" "F.Paste" "F.Mask") (tstamp 0d2a7a2e-fa4d-4c8c-a145-6d5e112f9a55))
  (pad "F17" smd circle (at 4.4 -4.4) (size 0.4 0.4) (property pad_prop_bga) (layers "F.Cu" "F.Paste" "F.Mask") (tstamp 44e68ba2-5297-462f-a52b-b413db6a43b0))
  (pad "F18" smd circle (at 5.2 -4.4) (size 0.4 0.4) (property pad_prop_bga) (layers "F.Cu" "F.Paste" "F.Mask") (tstamp 0bcdea5c-7e19-4dd8-9a21-d744a4a5b8a3))
  (pad "F19" smd circle (at 6 -4.4) (size 0.4 0.4) (property pad_prop_bga) (layers "F.Cu" "F.Paste" "F.Mask") (tstamp dfc1fef7-7fc9-416f-aab8-ea26c8748855))
  (pad "F20" smd circle (at 6.8 -4.4) (size 0.4 0.4) (property pad_prop_bga) (layers "F.Cu" "F.Paste" "F.Mask") (tstamp d313c9e2-ff2d-4887-a62f-162a8a33a876))
  (pad "F21" smd circle (at 7.6 -4.4) (size 0.4 0.4) (property pad_prop_bga) (layers "F.Cu" "F.Paste" "F.Mask") (tstamp 885cda13-aa18-48c9-b676-4da9bbf60661))
  (pad "F22" smd circle (at 8.4 -4.4) (size 0.4 0.4) (property pad_prop_bga) (layers "F.Cu" "F.Paste" "F.Mask") (tstamp d078e312-b443-41b0-a950-59a49536efe0))
  (pad "G1" smd circle (at -8.4 -3.6) (size 0.4 0.4) (property pad_prop_bga) (layers "F.Cu" "F.Paste" "F.Mask") (tstamp e7d16ff8-6eb1-4870-9707-2f64eb1313fc))
  (pad "G2" smd circle (at -7.6 -3.6) (size 0.4 0.4) (property pad_prop_bga) (layers "F.Cu" "F.Paste" "F.Mask") (tstamp 1e16cd0f-3a5a-49e0-8d50-87b65d9149b6))
  (pad "G3" smd circle (at -6.8 -3.6) (size 0.4 0.4) (property pad_prop_bga) (layers "F.Cu" "F.Paste" "F.Mask") (tstamp 01cd368a-9110-4e11-939f-28c391d5ebae))
  (pad "G4" smd circle (at -6 -3.6) (size 0.4 0.4) (property pad_prop_bga) (layers "F.Cu" "F.Paste" "F.Mask") (tstamp 7bffd7cf-ac1f-42e3-a8c3-1eb9ef16f887))
  (pad "G5" smd circle (at -5.2 -3.6) (size 0.4 0.4) (property pad_prop_bga) (layers "F.Cu" "F.Paste" "F.Mask") (tstamp a1531f3d-8569-464c-88e0-ec7e7efb29bd))
  (pad "G6" smd circle (at -4.4 -3.6) (size 0.4 0.4) (property pad_prop_bga) (layers "F.Cu" "F.Paste" "F.Mask") (tstamp 4a8364d6-dc4d-4adb-8d90-f09e4bc603ae))
  (pad "G7" smd circle (at -3.6 -3.6) (size 0.4 0.4) (property pad_prop_bga) (layers "F.Cu" "F.Paste" "F.Mask") (tstamp ff9777cc-048a-4cc0-b9f0-6b40e8f0672a))
  (pad "G8" smd circle (at -2.8 -3.6) (size 0.4 0.4) (property pad_prop_bga) (layers "F.Cu" "F.Paste" "F.Mask") (tstamp 5fe0545e-8bab-49ef-ab84-1a6fa07e6e5f))
  (pad "G9" smd circle (at -2 -3.6) (size 0.4 0.4) (property pad_prop_bga) (layers "F.Cu" "F.Paste" "F.Mask") (tstamp 7b91eec9-5371-45f7-a0bb-87694e236504))
  (pad "G10" smd circle (at -1.2 -3.6) (size 0.4 0.4) (property pad_prop_bga) (layers "F.Cu" "F.Paste" "F.Mask") (tstamp 1866a62f-e45c-46b9-b9c9-b66c9960a813))
  (pad "G11" smd circle (at -0.4 -3.6) (size 0.4 0.4) (property pad_prop_bga) (layers "F.Cu" "F.Paste" "F.Mask") (tstamp d72003fa-244a-4e79-a1dd-e0617073f322))
  (pad "G12" smd circle (at 0.4 -3.6) (size 0.4 0.4) (property pad_prop_bga) (layers "F.Cu" "F.Paste" "F.Mask") (tstamp 096b4a01-2382-44e3-96f5-5a7e6c6f130b))
  (pad "G13" smd circle (at 1.2 -3.6) (size 0.4 0.4) (property pad_prop_bga) (layers "F.Cu" "F.Paste" "F.Mask") (tstamp 16f63e56-660e-4d06-b832-cb3e7313b4a5))
  (pad "G14" smd circle (at 2 -3.6) (size 0.4 0.4) (property pad_prop_bga) (layers "F.Cu" "F.Paste" "F.Mask") (tstamp 8c57ba45-011e-49b5-a7b9-5800522e6e82))
  (pad "G15" smd circle (at 2.8 -3.6) (size 0.4 0.4) (property pad_prop_bga) (layers "F.Cu" "F.Paste" "F.Mask") (tstamp 4b88cb0b-57eb-4fdb-b0e1-4cd42a10dcb9))
  (pad "G16" smd circle (at 3.6 -3.6) (size 0.4 0.4) (property pad_prop_bga) (layers "F.Cu" "F.Paste" "F.Mask") (tstamp 8e1f482b-65a2-4c4e-905f-7a5dfa1a0bec))
  (pad "G17" smd circle (at 4.4 -3.6) (size 0.4 0.4) (property pad_prop_bga) (layers "F.Cu" "F.Paste" "F.Mask") (tstamp 2689ecce-9d7f-45dc-bb72-94c13c112a74))
  (pad "G18" smd circle (at 5.2 -3.6) (size 0.4 0.4) (property pad_prop_bga) (layers "F.Cu" "F.Paste" "F.Mask") (tstamp 5282e826-4e8a-4d9c-8f45-59e5cc2035d3))
  (pad "G19" smd circle (at 6 -3.6) (size 0.4 0.4) (property pad_prop_bga) (layers "F.Cu" "F.Paste" "F.Mask") (tstamp 6854f0d5-06a3-4206-982e-e7935ccc0cc7))
  (pad "G20" smd circle (at 6.8 -3.6) (size 0.4 0.4) (property pad_prop_bga) (layers "F.Cu" "F.Paste" "F.Mask") (tstamp 1b8f2a35-901d-46f6-bb5d-bca2b8705388))
  (pad "G21" smd circle (at 7.6 -3.6) (size 0.4 0.4) (property pad_prop_bga) (layers "F.Cu" "F.Paste" "F.Mask") (tstamp f15a6d1a-4e4c-406a-931f-944d96501a7c))
  (pad "G22" smd circle (at 8.4 -3.6) (size 0.4 0.4) (property pad_prop_bga) (layers "F.Cu" "F.Paste" "F.Mask") (tstamp b9540726-2953-4177-9708-c804cf27cb12))
  (pad "H1" smd circle (at -8.4 -2.8) (size 0.4 0.4) (property pad_prop_bga) (layers "F.Cu" "F.Paste" "F.Mask") (tstamp ccb0b104-0115-44e4-8103-34b45a9e9e5f))
  (pad "H2" smd circle (at -7.6 -2.8) (size 0.4 0.4) (property pad_prop_bga) (layers "F.Cu" "F.Paste" "F.Mask") (tstamp 52cdcfdf-427e-4526-af91-aa6b5ff1ed0d))
  (pad "H3" smd circle (at -6.8 -2.8) (size 0.4 0.4) (property pad_prop_bga) (layers "F.Cu" "F.Paste" "F.Mask") (tstamp 9ec19d1f-2c2e-45d4-b1e0-6139d20bf80a))
  (pad "H4" smd circle (at -6 -2.8) (size 0.4 0.4) (property pad_prop_bga) (layers "F.Cu" "F.Paste" "F.Mask") (tstamp f99089d9-c183-40c0-9b4a-17b55ec1ff07))
  (pad "H5" smd circle (at -5.2 -2.8) (size 0.4 0.4) (property pad_prop_bga) (layers "F.Cu" "F.Paste" "F.Mask") (tstamp 26e2c918-a392-40c1-971a-121a8c45a2dd))
  (pad "H6" smd circle (at -4.4 -2.8) (size 0.4 0.4) (property pad_prop_bga) (layers "F.Cu" "F.Paste" "F.Mask") (tstamp aa7fabb2-f28d-496f-bda7-0611aff52214))
  (pad "H7" smd circle (at -3.6 -2.8) (size 0.4 0.4) (property pad_prop_bga) (layers "F.Cu" "F.Paste" "F.Mask") (tstamp 49888e8e-2fd5-4943-8b2c-311dbda5c29d))
  (pad "H8" smd circle (at -2.8 -2.8) (size 0.4 0.4) (property pad_prop_bga) (layers "F.Cu" "F.Paste" "F.Mask") (tstamp 71dd9ba8-7108-4ce4-ad36-08d15ea5e040))
  (pad "H9" smd circle (at -2 -2.8) (size 0.4 0.4) (property pad_prop_bga) (layers "F.Cu" "F.Paste" "F.Mask") (tstamp 869687fe-aeb1-4222-8bfc-c4715032b0b2))
  (pad "H10" smd circle (at -1.2 -2.8) (size 0.4 0.4) (property pad_prop_bga) (layers "F.Cu" "F.Paste" "F.Mask") (tstamp cf93d64c-e42b-4eb5-9036-ae94d921e1b2))
  (pad "H11" smd circle (at -0.4 -2.8) (size 0.4 0.4) (property pad_prop_bga) (layers "F.Cu" "F.Paste" "F.Mask") (tstamp 8d425807-f203-4b0a-8c05-dcf45a3c6e0d))
  (pad "H12" smd circle (at 0.4 -2.8) (size 0.4 0.4) (property pad_prop_bga) (layers "F.Cu" "F.Paste" "F.Mask") (tstamp fd7c8855-e0a8-4783-b120-5d2d233c03a2))
  (pad "H13" smd circle (at 1.2 -2.8) (size 0.4 0.4) (property pad_prop_bga) (layers "F.Cu" "F.Paste" "F.Mask") (tstamp 7595ca7b-89b2-4a01-a2d0-75fa3dd5962f))
  (pad "H14" smd circle (at 2 -2.8) (size 0.4 0.4) (property pad_prop_bga) (layers "F.Cu" "F.Paste" "F.Mask") (tstamp 3bd1ef7d-7630-4490-b0b8-7a59b19c64a9))
  (pad "H15" smd circle (at 2.8 -2.8) (size 0.4 0.4) (property pad_prop_bga) (layers "F.Cu" "F.Paste" "F.Mask") (tstamp fd31bc0c-c05a-409f-b0d4-cc450b599340))
  (pad "H16" smd circle (at 3.6 -2.8) (size 0.4 0.4) (property pad_prop_bga) (layers "F.Cu" "F.Paste" "F.Mask") (tstamp 0d9923a9-ab43-4f00-bc63-86757da02c92))
  (pad "H17" smd circle (at 4.4 -2.8) (size 0.4 0.4) (property pad_prop_bga) (layers "F.Cu" "F.Paste" "F.Mask") (tstamp 62a52e0b-3270-42e1-8597-51fcfbabf176))
  (pad "H18" smd circle (at 5.2 -2.8) (size 0.4 0.4) (property pad_prop_bga) (layers "F.Cu" "F.Paste" "F.Mask") (tstamp f09419c5-b8f1-437f-977e-0cf09d27b540))
  (pad "H19" smd circle (at 6 -2.8) (size 0.4 0.4) (property pad_prop_bga) (layers "F.Cu" "F.Paste" "F.Mask") (tstamp c094154a-eb64-4451-acd7-7f21c8a81129))
  (pad "H20" smd circle (at 6.8 -2.8) (size 0.4 0.4) (property pad_prop_bga) (layers "F.Cu" "F.Paste" "F.Mask") (tstamp 36c67a36-a745-4454-9726-289086010c73))
  (pad "H21" smd circle (at 7.6 -2.8) (size 0.4 0.4) (property pad_prop_bga) (layers "F.Cu" "F.Paste" "F.Mask") (tstamp 3358c993-c3db-4adc-a83a-289003927a60))
  (pad "H22" smd circle (at 8.4 -2.8) (size 0.4 0.4) (property pad_prop_bga) (layers "F.Cu" "F.Paste" "F.Mask") (tstamp 05f2a7d7-6b63-4e43-bb5f-ddfd75fd0d04))
  (pad "J1" smd circle (at -8.4 -2) (size 0.4 0.4) (property pad_prop_bga) (layers "F.Cu" "F.Paste" "F.Mask") (tstamp 64286690-1a5c-4d7f-8502-c32c94ab4c27))
  (pad "J2" smd circle (at -7.6 -2) (size 0.4 0.4) (property pad_prop_bga) (layers "F.Cu" "F.Paste" "F.Mask") (tstamp 460d9c3a-1800-4dd7-9faf-915ea3c5a63a))
  (pad "J3" smd circle (at -6.8 -2) (size 0.4 0.4) (property pad_prop_bga) (layers "F.Cu" "F.Paste" "F.Mask") (tstamp 98c4e180-b509-4f64-a30d-7ca67ccbe974))
  (pad "J4" smd circle (at -6 -2) (size 0.4 0.4) (property pad_prop_bga) (layers "F.Cu" "F.Paste" "F.Mask") (tstamp 16e23390-fdbd-4c67-95b1-e010bd6511e7))
  (pad "J5" smd circle (at -5.2 -2) (size 0.4 0.4) (property pad_prop_bga) (layers "F.Cu" "F.Paste" "F.Mask") (tstamp e36a95ea-2b9b-4abb-89fd-a747ba357ca8))
  (pad "J6" smd circle (at -4.4 -2) (size 0.4 0.4) (property pad_prop_bga) (layers "F.Cu" "F.Paste" "F.Mask") (tstamp 03b87c49-72c8-43e3-a902-695be54d8f15))
  (pad "J7" smd circle (at -3.6 -2) (size 0.4 0.4) (property pad_prop_bga) (layers "F.Cu" "F.Paste" "F.Mask") (tstamp c4f6adab-0e57-45f5-8ad0-d7de40c60d53))
  (pad "J8" smd circle (at -2.8 -2) (size 0.4 0.4) (property pad_prop_bga) (layers "F.Cu" "F.Paste" "F.Mask") (tstamp ef3cb898-6fa4-4327-84dc-4ed7e978c9da))
  (pad "J9" smd circle (at -2 -2) (size 0.4 0.4) (property pad_prop_bga) (layers "F.Cu" "F.Paste" "F.Mask") (tstamp 94e646b9-8177-4481-947c-6ab79cccf0d4))
  (pad "J10" smd circle (at -1.2 -2) (size 0.4 0.4) (property pad_prop_bga) (layers "F.Cu" "F.Paste" "F.Mask") (tstamp 138b82bc-da3f-48f8-8f4d-a3e7793585bc))
  (pad "J11" smd circle (at -0.4 -2) (size 0.4 0.4) (property pad_prop_bga) (layers "F.Cu" "F.Paste" "F.Mask") (tstamp 28d65a47-166a-4a24-8c79-75860e5bb271))
  (pad "J12" smd circle (at 0.4 -2) (size 0.4 0.4) (property pad_prop_bga) (layers "F.Cu" "F.Paste" "F.Mask") (tstamp 5061843e-4e24-4122-8084-215b4c4ee72a))
  (pad "J13" smd circle (at 1.2 -2) (size 0.4 0.4) (property pad_prop_bga) (layers "F.Cu" "F.Paste" "F.Mask") (tstamp 8e97cb22-f42c-4869-b45a-f4950190f7af))
  (pad "J14" smd circle (at 2 -2) (size 0.4 0.4) (property pad_prop_bga) (layers "F.Cu" "F.Paste" "F.Mask") (tstamp 432aadf7-3a23-4c4e-8df4-49df7c181615))
  (pad "J15" smd circle (at 2.8 -2) (size 0.4 0.4) (property pad_prop_bga) (layers "F.Cu" "F.Paste" "F.Mask") (tstamp eca8fcb8-175b-40f2-b416-b74e954da9a5))
  (pad "J16" smd circle (at 3.6 -2) (size 0.4 0.4) (property pad_prop_bga) (layers "F.Cu" "F.Paste" "F.Mask") (tstamp bf859084-5629-4fda-85dc-825887b46a53))
  (pad "J17" smd circle (at 4.4 -2) (size 0.4 0.4) (property pad_prop_bga) (layers "F.Cu" "F.Paste" "F.Mask") (tstamp 6441daf4-b2a4-481c-9d1a-5b4f6481b820))
  (pad "J18" smd circle (at 5.2 -2) (size 0.4 0.4) (property pad_prop_bga) (layers "F.Cu" "F.Paste" "F.Mask") (tstamp 8638231b-8e28-4fc4-8739-6a6db60b2dc9))
  (pad "J19" smd circle (at 6 -2) (size 0.4 0.4) (property pad_prop_bga) (layers "F.Cu" "F.Paste" "F.Mask") (tstamp feb3f00a-18e3-4aa9-a3a7-42c3b57afa1a))
  (pad "J20" smd circle (at 6.8 -2) (size 0.4 0.4) (property pad_prop_bga) (layers "F.Cu" "F.Paste" "F.Mask") (tstamp f7085e9a-46a7-4d1e-b7e4-31d9b21b945f))
  (pad "J21" smd circle (at 7.6 -2) (size 0.4 0.4) (property pad_prop_bga) (layers "F.Cu" "F.Paste" "F.Mask") (tstamp b7fb2801-845e-4c9b-b6e1-c14e6490d8fc))
  (pad "J22" smd circle (at 8.4 -2) (size 0.4 0.4) (property pad_prop_bga) (layers "F.Cu" "F.Paste" "F.Mask") (tstamp 2c31474e-d68b-42b3-8b6e-19b9e46deda9))
  (pad "K1" smd circle (at -8.4 -1.2) (size 0.4 0.4) (property pad_prop_bga) (layers "F.Cu" "F.Paste" "F.Mask") (tstamp 0fae3e2d-b8e9-4dfa-8c35-d1fd9850773c))
  (pad "K2" smd circle (at -7.6 -1.2) (size 0.4 0.4) (property pad_prop_bga) (layers "F.Cu" "F.Paste" "F.Mask") (tstamp 201dfdc0-c220-4bf4-ac38-d7ae6bdfd26c))
  (pad "K3" smd circle (at -6.8 -1.2) (size 0.4 0.4) (property pad_prop_bga) (layers "F.Cu" "F.Paste" "F.Mask") (tstamp 503a412d-f100-457b-b179-13bd65355c79))
  (pad "K4" smd circle (at -6 -1.2) (size 0.4 0.4) (property pad_prop_bga) (layers "F.Cu" "F.Paste" "F.Mask") (tstamp 73f94397-de5d-4f65-b58f-ed91c3838d24))
  (pad "K5" smd circle (at -5.2 -1.2) (size 0.4 0.4) (property pad_prop_bga) (layers "F.Cu" "F.Paste" "F.Mask") (tstamp 74b3d440-2f55-49a6-8f01-8fc1451f78f2))
  (pad "K6" smd circle (at -4.4 -1.2) (size 0.4 0.4) (property pad_prop_bga) (layers "F.Cu" "F.Paste" "F.Mask") (tstamp 6fec3e8a-48c8-4aa0-a668-f76f98ffa6e3))
  (pad "K7" smd circle (at -3.6 -1.2) (size 0.4 0.4) (property pad_prop_bga) (layers "F.Cu" "F.Paste" "F.Mask") (tstamp e0e309ae-cf28-482b-8317-5072df2dc42a))
  (pad "K8" smd circle (at -2.8 -1.2) (size 0.4 0.4) (property pad_prop_bga) (layers "F.Cu" "F.Paste" "F.Mask") (tstamp 8279a826-b1a7-4ed0-8267-68e72eb78afc))
  (pad "K9" smd circle (at -2 -1.2) (size 0.4 0.4) (property pad_prop_bga) (layers "F.Cu" "F.Paste" "F.Mask") (tstamp b68b7462-619a-4db1-88d1-d26d6a3314da))
  (pad "K10" smd circle (at -1.2 -1.2) (size 0.4 0.4) (property pad_prop_bga) (layers "F.Cu" "F.Paste" "F.Mask") (tstamp a219773c-da4f-410c-83c9-4d1aea823d55))
  (pad "K11" smd circle (at -0.4 -1.2) (size 0.4 0.4) (property pad_prop_bga) (layers "F.Cu" "F.Paste" "F.Mask") (tstamp 6adf443b-5588-49f9-b963-16fee77dd426))
  (pad "K12" smd circle (at 0.4 -1.2) (size 0.4 0.4) (property pad_prop_bga) (layers "F.Cu" "F.Paste" "F.Mask") (tstamp 1957125c-3840-455c-a3df-fdc00ce3d0d4))
  (pad "K13" smd circle (at 1.2 -1.2) (size 0.4 0.4) (property pad_prop_bga) (layers "F.Cu" "F.Paste" "F.Mask") (tstamp c12bc677-c67c-4a97-a042-d6422f88bf1b))
  (pad "K14" smd circle (at 2 -1.2) (size 0.4 0.4) (property pad_prop_bga) (layers "F.Cu" "F.Paste" "F.Mask") (tstamp 91fe140b-db89-4e5c-970a-e72161a8ee04))
  (pad "K15" smd circle (at 2.8 -1.2) (size 0.4 0.4) (property pad_prop_bga) (layers "F.Cu" "F.Paste" "F.Mask") (tstamp 5009c375-3dc0-4aee-a8a8-df7e3b38300f))
  (pad "K16" smd circle (at 3.6 -1.2) (size 0.4 0.4) (property pad_prop_bga) (layers "F.Cu" "F.Paste" "F.Mask") (tstamp 9c92be7b-acfb-4336-972a-0b138081e781))
  (pad "K17" smd circle (at 4.4 -1.2) (size 0.4 0.4) (property pad_prop_bga) (layers "F.Cu" "F.Paste" "F.Mask") (tstamp 8f8ebe85-4dd8-4ad2-b6f6-240c862bd07a))
  (pad "K18" smd circle (at 5.2 -1.2) (size 0.4 0.4) (property pad_prop_bga) (layers "F.Cu" "F.Paste" "F.Mask") (tstamp dba092c6-580e-4284-a675-04051aa9c523))
  (pad "K19" smd circle (at 6 -1.2) (size 0.4 0.4) (property pad_prop_bga) (layers "F.Cu" "F.Paste" "F.Mask") (tstamp a318513b-c0e7-4158-a99e-5932629c6d18))
  (pad "K20" smd circle (at 6.8 -1.2) (size 0.4 0.4) (property pad_prop_bga) (layers "F.Cu" "F.Paste" "F.Mask") (tstamp 2830507e-e39b-4968-8a30-fdd443fb1e3b))
  (pad "K21" smd circle (at 7.6 -1.2) (size 0.4 0.4) (property pad_prop_bga) (layers "F.Cu" "F.Paste" "F.Mask") (tstamp b31f4b9d-6719-4be5-985d-0013d71468f9))
  (pad "K22" smd circle (at 8.4 -1.2) (size 0.4 0.4) (property pad_prop_bga) (layers "F.Cu" "F.Paste" "F.Mask") (tstamp 48976a0f-98fa-4088-bb89-a6a34eeebdce))
  (pad "L1" smd circle (at -8.4 -0.4) (size 0.4 0.4) (property pad_prop_bga) (layers "F.Cu" "F.Paste" "F.Mask") (tstamp 21392df0-8a63-4846-b015-0dd8baac8e80))
  (pad "L2" smd circle (at -7.6 -0.4) (size 0.4 0.4) (property pad_prop_bga) (layers "F.Cu" "F.Paste" "F.Mask") (tstamp 6061e737-e77f-4f90-902b-4676df32c0fd))
  (pad "L3" smd circle (at -6.8 -0.4) (size 0.4 0.4) (property pad_prop_bga) (layers "F.Cu" "F.Paste" "F.Mask") (tstamp 17301993-3000-44ab-b13d-89466e026f42))
  (pad "L4" smd circle (at -6 -0.4) (size 0.4 0.4) (property pad_prop_bga) (layers "F.Cu" "F.Paste" "F.Mask") (tstamp afa54dae-7ec6-4acc-b3f5-791630e81ca3))
  (pad "L5" smd circle (at -5.2 -0.4) (size 0.4 0.4) (property pad_prop_bga) (layers "F.Cu" "F.Paste" "F.Mask") (tstamp 55a8a8e8-3c8a-4927-977b-913636e87160))
  (pad "L6" smd circle (at -4.4 -0.4) (size 0.4 0.4) (property pad_prop_bga) (layers "F.Cu" "F.Paste" "F.Mask") (tstamp b36a4249-a1ad-4612-9985-f15a4d169698))
  (pad "L7" smd circle (at -3.6 -0.4) (size 0.4 0.4) (property pad_prop_bga) (layers "F.Cu" "F.Paste" "F.Mask") (tstamp 20616378-e10d-46eb-b5ae-511a2472989b))
  (pad "L8" smd circle (at -2.8 -0.4) (size 0.4 0.4) (property pad_prop_bga) (layers "F.Cu" "F.Paste" "F.Mask") (tstamp 752e7d10-273f-44ec-ad22-c99d820fe083))
  (pad "L9" smd circle (at -2 -0.4) (size 0.4 0.4) (property pad_prop_bga) (layers "F.Cu" "F.Paste" "F.Mask") (tstamp c020d931-2997-4dea-b405-686da98ef317))
  (pad "L10" smd circle (at -1.2 -0.4) (size 0.4 0.4) (property pad_prop_bga) (layers "F.Cu" "F.Paste" "F.Mask") (tstamp bfb6a05b-3dbb-4bdf-b63c-a8a1b9e0bf20))
  (pad "L11" smd circle (at -0.4 -0.4) (size 0.4 0.4) (property pad_prop_bga) (layers "F.Cu" "F.Paste" "F.Mask") (tstamp 0bfa15de-ddbc-41d0-9d9d-8f93703fe3d3))
  (pad "L12" smd circle (at 0.4 -0.4) (size 0.4 0.4) (property pad_prop_bga) (layers "F.Cu" "F.Paste" "F.Mask") (tstamp 732e98da-a8d1-4d60-ac18-cb71abdbe17b))
  (pad "L13" smd circle (at 1.2 -0.4) (size 0.4 0.4) (property pad_prop_bga) (layers "F.Cu" "F.Paste" "F.Mask") (tstamp f7ed41e7-7829-49b0-bcd5-c06c35b1d763))
  (pad "L14" smd circle (at 2 -0.4) (size 0.4 0.4) (property pad_prop_bga) (layers "F.Cu" "F.Paste" "F.Mask") (tstamp 1b9457cf-7d65-48f1-b913-389fc6348bc3))
  (pad "L15" smd circle (at 2.8 -0.4) (size 0.4 0.4) (property pad_prop_bga) (layers "F.Cu" "F.Paste" "F.Mask") (tstamp ce8e1f04-230e-4462-ab9e-fb7b6a8e581e))
  (pad "L16" smd circle (at 3.6 -0.4) (size 0.4 0.4) (property pad_prop_bga) (layers "F.Cu" "F.Paste" "F.Mask") (tstamp b5fd88be-b44e-4f2f-acc9-414c393465f0))
  (pad "L17" smd circle (at 4.4 -0.4) (size 0.4 0.4) (property pad_prop_bga) (layers "F.Cu" "F.Paste" "F.Mask") (tstamp 6be462f3-ceda-4328-99c7-3e1cbea089c9))
  (pad "L18" smd circle (at 5.2 -0.4) (size 0.4 0.4) (property pad_prop_bga) (layers "F.Cu" "F.Paste" "F.Mask") (tstamp b53ba3ae-ca88-400e-906a-fbacb2dbe5cb))
  (pad "L19" smd circle (at 6 -0.4) (size 0.4 0.4) (property pad_prop_bga) (layers "F.Cu" "F.Paste" "F.Mask") (tstamp 171d9414-109e-49e4-987c-7e54091ac4cc))
  (pad "L20" smd circle (at 6.8 -0.4) (size 0.4 0.4) (property pad_prop_bga) (layers "F.Cu" "F.Paste" "F.Mask") (tstamp 197215f3-61b5-4a94-8f5c-5daeaf994503))
  (pad "L21" smd circle (at 7.6 -0.4) (size 0.4 0.4) (property pad_prop_bga) (layers "F.Cu" "F.Paste" "F.Mask") (tstamp 96c1f093-276e-444f-8e74-74150d2b6151))
  (pad "L22" smd circle (at 8.4 -0.4) (size 0.4 0.4) (property pad_prop_bga) (layers "F.Cu" "F.Paste" "F.Mask") (tstamp 18c3c185-cf45-4ca0-ac8d-c9dafa28233a))
  (pad "M1" smd circle (at -8.4 0.4) (size 0.4 0.4) (property pad_prop_bga) (layers "F.Cu" "F.Paste" "F.Mask") (tstamp d8fe382a-4fa3-4967-bba1-74f06a928eb8))
  (pad "M2" smd circle (at -7.6 0.4) (size 0.4 0.4) (property pad_prop_bga) (layers "F.Cu" "F.Paste" "F.Mask") (tstamp 629470c2-fc64-4416-a370-0d1f2bc69cb0))
  (pad "M3" smd circle (at -6.8 0.4) (size 0.4 0.4) (property pad_prop_bga) (layers "F.Cu" "F.Paste" "F.Mask") (tstamp 0cd6173a-5f2a-4c6d-a12e-41dc0388eb82))
  (pad "M4" smd circle (at -6 0.4) (size 0.4 0.4) (property pad_prop_bga) (layers "F.Cu" "F.Paste" "F.Mask") (tstamp 1c29182c-9e8d-4e17-a4aa-178046e66538))
  (pad "M5" smd circle (at -5.2 0.4) (size 0.4 0.4) (property pad_prop_bga) (layers "F.Cu" "F.Paste" "F.Mask") (tstamp cf5fe7ab-32e8-4f3c-895a-8e1c15ac7858))
  (pad "M6" smd circle (at -4.4 0.4) (size 0.4 0.4) (property pad_prop_bga) (layers "F.Cu" "F.Paste" "F.Mask") (tstamp b665e369-8d82-45f7-ae4a-5bea1a880e41))
  (pad "M7" smd circle (at -3.6 0.4) (size 0.4 0.4) (property pad_prop_bga) (layers "F.Cu" "F.Paste" "F.Mask") (tstamp b5828024-a520-4dfd-a241-924784ccf700))
  (pad "M8" smd circle (at -2.8 0.4) (size 0.4 0.4) (property pad_prop_bga) (layers "F.Cu" "F.Paste" "F.Mask") (tstamp 1f07b7a7-4793-46b0-a8d7-0352b9ed0dda))
  (pad "M9" smd circle (at -2 0.4) (size 0.4 0.4) (property pad_prop_bga) (layers "F.Cu" "F.Paste" "F.Mask") (tstamp 6187641a-0c07-4731-afce-e68b6d994f95))
  (pad "M10" smd circle (at -1.2 0.4) (size 0.4 0.4) (property pad_prop_bga) (layers "F.Cu" "F.Paste" "F.Mask") (tstamp ae4fee34-0760-498c-98fc-6b183bf13881))
  (pad "M11" smd circle (at -0.4 0.4) (size 0.4 0.4) (property pad_prop_bga) (layers "F.Cu" "F.Paste" "F.Mask") (tstamp 52118528-bfbf-4012-959b-684a5684b184))
  (pad "M12" smd circle (at 0.4 0.4) (size 0.4 0.4) (property pad_prop_bga) (layers "F.Cu" "F.Paste" "F.Mask") (tstamp 30e6d7ae-19bf-434e-a3ba-2d34027e21f0))
  (pad "M13" smd circle (at 1.2 0.4) (size 0.4 0.4) (property pad_prop_bga) (layers "F.Cu" "F.Paste" "F.Mask") (tstamp 50cceca9-ed3e-4872-89f8-1de7b56bc538))
  (pad "M14" smd circle (at 2 0.4) (size 0.4 0.4) (property pad_prop_bga) (layers "F.Cu" "F.Paste" "F.Mask") (tstamp c7e1250f-6561-4c75-92fd-7c25a8cc3319))
  (pad "M15" smd circle (at 2.8 0.4) (size 0.4 0.4) (property pad_prop_bga) (layers "F.Cu" "F.Paste" "F.Mask") (tstamp a610947f-26dd-4c91-950e-6187d3c581ee))
  (pad "M16" smd circle (at 3.6 0.4) (size 0.4 0.4) (property pad_prop_bga) (layers "F.Cu" "F.Paste" "F.Mask") (tstamp 37fcabf7-40fd-4bf0-812c-3a211285dc56))
  (pad "M17" smd circle (at 4.4 0.4) (size 0.4 0.4) (property pad_prop_bga) (layers "F.Cu" "F.Paste" "F.Mask") (tstamp 9092c096-d4ed-410f-83fa-265a27366d30))
  (pad "M18" smd circle (at 5.2 0.4) (size 0.4 0.4) (property pad_prop_bga) (layers "F.Cu" "F.Paste" "F.Mask") (tstamp e9ebfac8-98e5-40a6-8c1d-f7beaf254c4a))
  (pad "M19" smd circle (at 6 0.4) (size 0.4 0.4) (property pad_prop_bga) (layers "F.Cu" "F.Paste" "F.Mask") (tstamp 22ef36f6-8d25-43dd-879a-afb3e6c24697))
  (pad "M20" smd circle (at 6.8 0.4) (size 0.4 0.4) (property pad_prop_bga) (layers "F.Cu" "F.Paste" "F.Mask") (tstamp a66a25d0-ee15-450c-8bb8-7231e9f1994c))
  (pad "M21" smd circle (at 7.6 0.4) (size 0.4 0.4) (property pad_prop_bga) (layers "F.Cu" "F.Paste" "F.Mask") (tstamp 02451640-4f4f-4155-84e2-848ebd289c9a))
  (pad "M22" smd circle (at 8.4 0.4) (size 0.4 0.4) (property pad_prop_bga) (layers "F.Cu" "F.Paste" "F.Mask") (tstamp b0122ada-18f7-43a8-bf70-c02f44d4cefc))
  (pad "N1" smd circle (at -8.4 1.2) (size 0.4 0.4) (property pad_prop_bga) (layers "F.Cu" "F.Paste" "F.Mask") (tstamp db9e3ac1-677d-4807-ad52-a0ee828783fe))
  (pad "N2" smd circle (at -7.6 1.2) (size 0.4 0.4) (property pad_prop_bga) (layers "F.Cu" "F.Paste" "F.Mask") (tstamp e42b5ea6-3f06-4f20-9e3b-e31db11d0237))
  (pad "N3" smd circle (at -6.8 1.2) (size 0.4 0.4) (property pad_prop_bga) (layers "F.Cu" "F.Paste" "F.Mask") (tstamp f9760b70-cb5e-4525-b969-d393c825709a))
  (pad "N4" smd circle (at -6 1.2) (size 0.4 0.4) (property pad_prop_bga) (layers "F.Cu" "F.Paste" "F.Mask") (tstamp 4d6bcef9-7344-412e-843b-3ad2c78dbca9))
  (pad "N5" smd circle (at -5.2 1.2) (size 0.4 0.4) (property pad_prop_bga) (layers "F.Cu" "F.Paste" "F.Mask") (tstamp b69084c8-e0ff-4952-91f9-5090613ee0e3))
  (pad "N6" smd circle (at -4.4 1.2) (size 0.4 0.4) (property pad_prop_bga) (layers "F.Cu" "F.Paste" "F.Mask") (tstamp a5759a5e-bf39-43df-9032-4cb053f78ccd))
  (pad "N7" smd circle (at -3.6 1.2) (size 0.4 0.4) (property pad_prop_bga) (layers "F.Cu" "F.Paste" "F.Mask") (tstamp 511cfdaf-678e-41a3-be6e-084b3f91d390))
  (pad "N8" smd circle (at -2.8 1.2) (size 0.4 0.4) (property pad_prop_bga) (layers "F.Cu" "F.Paste" "F.Mask") (tstamp 8e57012d-5a71-4521-9f79-bca7a2834dbb))
  (pad "N9" smd circle (at -2 1.2) (size 0.4 0.4) (property pad_prop_bga) (layers "F.Cu" "F.Paste" "F.Mask") (tstamp 5a2a2dfd-b58d-4afe-83c5-98691cf0ceb2))
  (pad "N10" smd circle (at -1.2 1.2) (size 0.4 0.4) (property pad_prop_bga) (layers "F.Cu" "F.Paste" "F.Mask") (tstamp c67547bd-391e-4098-b195-0d0ddc8f8a66))
  (pad "N11" smd circle (at -0.4 1.2) (size 0.4 0.4) (property pad_prop_bga) (layers "F.Cu" "F.Paste" "F.Mask") (tstamp 9a2added-c4df-493b-a2d1-254f1cc48d61))
  (pad "N12" smd circle (at 0.4 1.2) (size 0.4 0.4) (property pad_prop_bga) (layers "F.Cu" "F.Paste" "F.Mask") (tstamp cfcca2bc-6743-4f21-99e1-da09241d7240))
  (pad "N13" smd circle (at 1.2 1.2) (size 0.4 0.4) (property pad_prop_bga) (layers "F.Cu" "F.Paste" "F.Mask") (tstamp f3c5aa9e-9de7-40b5-bea0-c29087f34cd4))
  (pad "N14" smd circle (at 2 1.2) (size 0.4 0.4) (property pad_prop_bga) (layers "F.Cu" "F.Paste" "F.Mask") (tstamp 01358566-64e7-4f83-9da9-02d4c1f294f4))
  (pad "N15" smd circle (at 2.8 1.2) (size 0.4 0.4) (property pad_prop_bga) (layers "F.Cu" "F.Paste" "F.Mask") (tstamp 4a1366eb-f81b-4ed6-9d57-abf11de2f9c0))
  (pad "N16" smd circle (at 3.6 1.2) (size 0.4 0.4) (property pad_prop_bga) (layers "F.Cu" "F.Paste" "F.Mask") (tstamp c15c38b6-cd49-4d7b-aa7a-03fc478ec778))
  (pad "N17" smd circle (at 4.4 1.2) (size 0.4 0.4) (property pad_prop_bga) (layers "F.Cu" "F.Paste" "F.Mask") (tstamp 36c1a408-e5b2-498a-92ac-32f54409ee69))
  (pad "N18" smd circle (at 5.2 1.2) (size 0.4 0.4) (property pad_prop_bga) (layers "F.Cu" "F.Paste" "F.Mask") (tstamp 60734e1b-7ed2-43c5-89c3-634f63a2cc11))
  (pad "N19" smd circle (at 6 1.2) (size 0.4 0.4) (property pad_prop_bga) (layers "F.Cu" "F.Paste" "F.Mask") (tstamp f8fe9e41-2733-4ec8-b05f-d02760e0272d))
  (pad "N20" smd circle (at 6.8 1.2) (size 0.4 0.4) (property pad_prop_bga) (layers "F.Cu" "F.Paste" "F.Mask") (tstamp f63f4dc9-0e10-4324-8091-b91a367430a1))
  (pad "N21" smd circle (at 7.6 1.2) (size 0.4 0.4) (property pad_prop_bga) (layers "F.Cu" "F.Paste" "F.Mask") (tstamp 6235ba32-5dcd-4f46-90ac-db3ac306304b))
  (pad "N22" smd circle (at 8.4 1.2) (size 0.4 0.4) (property pad_prop_bga) (layers "F.Cu" "F.Paste" "F.Mask") (tstamp be6e4dc4-9db9-4c61-8266-3a9f4eb69a9e))
  (pad "P1" smd circle (at -8.4 2) (size 0.4 0.4) (property pad_prop_bga) (layers "F.Cu" "F.Paste" "F.Mask") (tstamp a68395a8-2354-4249-95a7-fa11477ef657))
  (pad "P2" smd circle (at -7.6 2) (size 0.4 0.4) (property pad_prop_bga) (layers "F.Cu" "F.Paste" "F.Mask") (tstamp 61918d48-b444-4471-aa56-f0988f6cb7af))
  (pad "P3" smd circle (at -6.8 2) (size 0.4 0.4) (property pad_prop_bga) (layers "F.Cu" "F.Paste" "F.Mask") (tstamp f92305c2-e855-443a-8884-946ddeef19f4))
  (pad "P4" smd circle (at -6 2) (size 0.4 0.4) (property pad_prop_bga) (layers "F.Cu" "F.Paste" "F.Mask") (tstamp 20b6b01d-d0c3-4ffc-8b49-b0bcfb98cfa7))
  (pad "P5" smd circle (at -5.2 2) (size 0.4 0.4) (property pad_prop_bga) (layers "F.Cu" "F.Paste" "F.Mask") (tstamp 49567ff6-ddff-4d74-9a2e-8ba06dbfa888))
  (pad "P6" smd circle (at -4.4 2) (size 0.4 0.4) (property pad_prop_bga) (layers "F.Cu" "F.Paste" "F.Mask") (tstamp 9758bc32-a764-4078-98fe-b0235f4fec2a))
  (pad "P7" smd circle (at -3.6 2) (size 0.4 0.4) (property pad_prop_bga) (layers "F.Cu" "F.Paste" "F.Mask") (tstamp f192cd6e-5d35-46a5-89d0-ccfeb14b8b27))
  (pad "P8" smd circle (at -2.8 2) (size 0.4 0.4) (property pad_prop_bga) (layers "F.Cu" "F.Paste" "F.Mask") (tstamp d6a6542c-50fc-4a2d-83d0-cdc43cd9408f))
  (pad "P9" smd circle (at -2 2) (size 0.4 0.4) (property pad_prop_bga) (layers "F.Cu" "F.Paste" "F.Mask") (tstamp b90d3f89-9647-41ae-83e5-e7622a01f649))
  (pad "P10" smd circle (at -1.2 2) (size 0.4 0.4) (property pad_prop_bga) (layers "F.Cu" "F.Paste" "F.Mask") (tstamp 1a6998cd-e190-47ab-86ba-2a3aa2aedd92))
  (pad "P11" smd circle (at -0.4 2) (size 0.4 0.4) (property pad_prop_bga) (layers "F.Cu" "F.Paste" "F.Mask") (tstamp 5101576b-ff30-4989-9f19-2a921b7c029a))
  (pad "P12" smd circle (at 0.4 2) (size 0.4 0.4) (property pad_prop_bga) (layers "F.Cu" "F.Paste" "F.Mask") (tstamp 54b145b7-5fcf-4d9c-bed8-6ef0c67417b1))
  (pad "P13" smd circle (at 1.2 2) (size 0.4 0.4) (property pad_prop_bga) (layers "F.Cu" "F.Paste" "F.Mask") (tstamp 03a4bc39-57ae-454d-8627-6e63417ccc70))
  (pad "P14" smd circle (at 2 2) (size 0.4 0.4) (property pad_prop_bga) (layers "F.Cu" "F.Paste" "F.Mask") (tstamp 4ad67000-fecb-43cc-b477-a5570cb0fb85))
  (pad "P15" smd circle (at 2.8 2) (size 0.4 0.4) (property pad_prop_bga) (layers "F.Cu" "F.Paste" "F.Mask") (tstamp 2b4e9f96-0d97-42f8-ad12-9ed59c2db5ee))
  (pad "P16" smd circle (at 3.6 2) (size 0.4 0.4) (property pad_prop_bga) (layers "F.Cu" "F.Paste" "F.Mask") (tstamp 0acc6c41-91fb-441f-80bc-760cdae1732b))
  (pad "P17" smd circle (at 4.4 2) (size 0.4 0.4) (property pad_prop_bga) (layers "F.Cu" "F.Paste" "F.Mask") (tstamp 161df65a-24d3-416d-ba34-0b8d25c1d1fb))
  (pad "P18" smd circle (at 5.2 2) (size 0.4 0.4) (property pad_prop_bga) (layers "F.Cu" "F.Paste" "F.Mask") (tstamp fa06ae53-37bb-4fda-ab8a-5627a6269a05))
  (pad "P19" smd circle (at 6 2) (size 0.4 0.4) (property pad_prop_bga) (layers "F.Cu" "F.Paste" "F.Mask") (tstamp c808e1df-e68c-43b6-9946-4b02767b7961))
  (pad "P20" smd circle (at 6.8 2) (size 0.4 0.4) (property pad_prop_bga) (layers "F.Cu" "F.Paste" "F.Mask") (tstamp e16f633a-ca0d-4709-8a86-ead440a8c599))
  (pad "P21" smd circle (at 7.6 2) (size 0.4 0.4) (property pad_prop_bga) (layers "F.Cu" "F.Paste" "F.Mask") (tstamp de3fa994-4c97-45b3-ac0e-43ec6d2cd236))
  (pad "P22" smd circle (at 8.4 2) (size 0.4 0.4) (property pad_prop_bga) (layers "F.Cu" "F.Paste" "F.Mask") (tstamp e20ef5d3-378a-4d65-9b0c-cfc082f98a36))
  (pad "R1" smd circle (at -8.4 2.8) (size 0.4 0.4) (property pad_prop_bga) (layers "F.Cu" "F.Paste" "F.Mask") (tstamp 5487560b-ae16-4988-99b5-939e07208732))
  (pad "R2" smd circle (at -7.6 2.8) (size 0.4 0.4) (property pad_prop_bga) (layers "F.Cu" "F.Paste" "F.Mask") (tstamp 8bdf7c1f-94fe-47e9-9446-413ebeb00822))
  (pad "R3" smd circle (at -6.8 2.8) (size 0.4 0.4) (property pad_prop_bga) (layers "F.Cu" "F.Paste" "F.Mask") (tstamp b7746c4d-0d8e-4c7f-a2ab-fed61f359198))
  (pad "R4" smd circle (at -6 2.8) (size 0.4 0.4) (property pad_prop_bga) (layers "F.Cu" "F.Paste" "F.Mask") (tstamp fd3299ab-32eb-4b79-b843-9d0f2fc150a4))
  (pad "R5" smd circle (at -5.2 2.8) (size 0.4 0.4) (property pad_prop_bga) (layers "F.Cu" "F.Paste" "F.Mask") (tstamp 184d0612-cefd-490d-818f-4c604beb14ce))
  (pad "R6" smd circle (at -4.4 2.8) (size 0.4 0.4) (property pad_prop_bga) (layers "F.Cu" "F.Paste" "F.Mask") (tstamp 04d01483-cf1c-4081-b6d3-7142c5e16d09))
  (pad "R7" smd circle (at -3.6 2.8) (size 0.4 0.4) (property pad_prop_bga) (layers "F.Cu" "F.Paste" "F.Mask") (tstamp ae7b39ac-5dea-4a47-9275-33c263700dbb))
  (pad "R8" smd circle (at -2.8 2.8) (size 0.4 0.4) (property pad_prop_bga) (layers "F.Cu" "F.Paste" "F.Mask") (tstamp 49fdab10-b6fd-4876-8646-a53639cb6ffe))
  (pad "R9" smd circle (at -2 2.8) (size 0.4 0.4) (property pad_prop_bga) (layers "F.Cu" "F.Paste" "F.Mask") (tstamp 669756c6-7d1d-4bfb-bf9f-b3b70da201ae))
  (pad "R10" smd circle (at -1.2 2.8) (size 0.4 0.4) (property pad_prop_bga) (layers "F.Cu" "F.Paste" "F.Mask") (tstamp 09befbe2-e961-4de8-bd2f-c07999f29545))
  (pad "R11" smd circle (at -0.4 2.8) (size 0.4 0.4) (property pad_prop_bga) (layers "F.Cu" "F.Paste" "F.Mask") (tstamp 2de5a9ca-dd33-4bbb-8cf2-f68b5003a9aa))
  (pad "R12" smd circle (at 0.4 2.8) (size 0.4 0.4) (property pad_prop_bga) (layers "F.Cu" "F.Paste" "F.Mask") (tstamp 4756161f-b755-48d2-bb34-6146676dc270))
  (pad "R13" smd circle (at 1.2 2.8) (size 0.4 0.4) (property pad_prop_bga) (layers "F.Cu" "F.Paste" "F.Mask") (tstamp eff2a0ac-026f-4050-a35e-747c94341ef9))
  (pad "R14" smd circle (at 2 2.8) (size 0.4 0.4) (property pad_prop_bga) (layers "F.Cu" "F.Paste" "F.Mask") (tstamp 1443bb2e-a56b-4aae-a935-6a3f6c19707c))
  (pad "R15" smd circle (at 2.8 2.8) (size 0.4 0.4) (property pad_prop_bga) (layers "F.Cu" "F.Paste" "F.Mask") (tstamp 894a7b30-1825-411b-8c60-47adca8d4640))
  (pad "R16" smd circle (at 3.6 2.8) (size 0.4 0.4) (property pad_prop_bga) (layers "F.Cu" "F.Paste" "F.Mask") (tstamp e4616636-7b1b-4523-9463-d20e00b97b52))
  (pad "R17" smd circle (at 4.4 2.8) (size 0.4 0.4) (property pad_prop_bga) (layers "F.Cu" "F.Paste" "F.Mask") (tstamp 5626074c-c60a-445f-b245-36bf30de3304))
  (pad "R18" smd circle (at 5.2 2.8) (size 0.4 0.4) (property pad_prop_bga) (layers "F.Cu" "F.Paste" "F.Mask") (tstamp f3e4c14c-2e14-4399-a68e-348b74418de3))
  (pad "R19" smd circle (at 6 2.8) (size 0.4 0.4) (property pad_prop_bga) (layers "F.Cu" "F.Paste" "F.Mask") (tstamp 5233a026-b3fc-4289-b226-8520d04fb349))
  (pad "R20" smd circle (at 6.8 2.8) (size 0.4 0.4) (property pad_prop_bga) (layers "F.Cu" "F.Paste" "F.Mask") (tstamp 577f5bdf-1062-4baa-90aa-2af50c75a53b))
  (pad "R21" smd circle (at 7.6 2.8) (size 0.4 0.4) (property pad_prop_bga) (layers "F.Cu" "F.Paste" "F.Mask") (tstamp f4717b50-fe1c-4a69-acaa-4b888dc6052c))
  (pad "R22" smd circle (at 8.4 2.8) (size 0.4 0.4) (property pad_prop_bga) (layers "F.Cu" "F.Paste" "F.Mask") (tstamp 92659728-43e6-41f4-99ba-5367d3cc91e1))
  (pad "T1" smd circle (at -8.4 3.6) (size 0.4 0.4) (property pad_prop_bga) (layers "F.Cu" "F.Paste" "F.Mask") (tstamp 7f4b2261-1b4a-4438-9e0c-9fbcd65a1012))
  (pad "T2" smd circle (at -7.6 3.6) (size 0.4 0.4) (property pad_prop_bga) (layers "F.Cu" "F.Paste" "F.Mask") (tstamp 98852a25-57b4-4d09-95d8-63c9363999d3))
  (pad "T3" smd circle (at -6.8 3.6) (size 0.4 0.4) (property pad_prop_bga) (layers "F.Cu" "F.Paste" "F.Mask") (tstamp 65b30c33-5027-4476-b06d-ad0058a4c47e))
  (pad "T4" smd circle (at -6 3.6) (size 0.4 0.4) (property pad_prop_bga) (layers "F.Cu" "F.Paste" "F.Mask") (tstamp ca2f2aac-2e78-4431-8426-7242cfd8fdb8))
  (pad "T5" smd circle (at -5.2 3.6) (size 0.4 0.4) (property pad_prop_bga) (layers "F.Cu" "F.Paste" "F.Mask") (tstamp af90039a-c36d-46af-8dff-0e7c3ef383f4))
  (pad "T6" smd circle (at -4.4 3.6) (size 0.4 0.4) (property pad_prop_bga) (layers "F.Cu" "F.Paste" "F.Mask") (tstamp dd62156c-7ba6-4d2e-827b-77ede4ee2398))
  (pad "T7" smd circle (at -3.6 3.6) (size 0.4 0.4) (property pad_prop_bga) (layers "F.Cu" "F.Paste" "F.Mask") (tstamp 3a78f096-8c41-4dbf-92d4-da0a7cbc35fd))
  (pad "T8" smd circle (at -2.8 3.6) (size 0.4 0.4) (property pad_prop_bga) (layers "F.Cu" "F.Paste" "F.Mask") (tstamp 2e48c926-b105-4ac8-8e9e-ca211a84fbd9))
  (pad "T9" smd circle (at -2 3.6) (size 0.4 0.4) (property pad_prop_bga) (layers "F.Cu" "F.Paste" "F.Mask") (tstamp eb4443a8-1582-4ae6-9761-1ab9691d7fee))
  (pad "T10" smd circle (at -1.2 3.6) (size 0.4 0.4) (property pad_prop_bga) (layers "F.Cu" "F.Paste" "F.Mask") (tstamp e197d133-a75b-40f0-ab81-9ab2da5a7589))
  (pad "T11" smd circle (at -0.4 3.6) (size 0.4 0.4) (property pad_prop_bga) (layers "F.Cu" "F.Paste" "F.Mask") (tstamp 87406c1d-723c-4a5e-948e-dd4cfab4989a))
  (pad "T12" smd circle (at 0.4 3.6) (size 0.4 0.4) (property pad_prop_bga) (layers "F.Cu" "F.Paste" "F.Mask") (tstamp bc90c2d6-2bcf-4caf-9270-e3a2d9662d9c))
  (pad "T13" smd circle (at 1.2 3.6) (size 0.4 0.4) (property pad_prop_bga) (layers "F.Cu" "F.Paste" "F.Mask") (tstamp 9c0c1e26-a934-41a2-bfcd-9b9cad547e0d))
  (pad "T14" smd circle (at 2 3.6) (size 0.4 0.4) (property pad_prop_bga) (layers "F.Cu" "F.Paste" "F.Mask") (tstamp 75311226-9f46-42f3-a029-a7a18d1b4769))
  (pad "T15" smd circle (at 2.8 3.6) (size 0.4 0.4) (property pad_prop_bga) (layers "F.Cu" "F.Paste" "F.Mask") (tstamp ff93a2a2-fe07-4061-860b-4ce5b8397471))
  (pad "T16" smd circle (at 3.6 3.6) (size 0.4 0.4) (property pad_prop_bga) (layers "F.Cu" "F.Paste" "F.Mask") (tstamp be66ae87-3512-4d27-8797-0c9d2b2e1d76))
  (pad "T17" smd circle (at 4.4 3.6) (size 0.4 0.4) (property pad_prop_bga) (layers "F.Cu" "F.Paste" "F.Mask") (tstamp 6b7a4987-baab-472d-ae22-66f28727736b))
  (pad "T18" smd circle (at 5.2 3.6) (size 0.4 0.4) (property pad_prop_bga) (layers "F.Cu" "F.Paste" "F.Mask") (tstamp f1e34b1f-b2b1-4679-81e4-a070506d074f))
  (pad "T19" smd circle (at 6 3.6) (size 0.4 0.4) (property pad_prop_bga) (layers "F.Cu" "F.Paste" "F.Mask") (tstamp 57b7e7b5-ae29-4f2e-9bae-4daa6ee408db))
  (pad "T20" smd circle (at 6.8 3.6) (size 0.4 0.4) (property pad_prop_bga) (layers "F.Cu" "F.Paste" "F.Mask") (tstamp de37fcc8-0ffe-4c95-8d54-a508df69d365))
  (pad "T21" smd circle (at 7.6 3.6) (size 0.4 0.4) (property pad_prop_bga) (layers "F.Cu" "F.Paste" "F.Mask") (tstamp 22ef7590-ad0d-47f9-ba0d-68f0e0349a50))
  (pad "T22" smd circle (at 8.4 3.6) (size 0.4 0.4) (property pad_prop_bga) (layers "F.Cu" "F.Paste" "F.Mask") (tstamp da4a34de-8f19-4345-a61b-6bec688b8c93))
  (pad "U1" smd circle (at -8.4 4.4) (size 0.4 0.4) (property pad_prop_bga) (layers "F.Cu" "F.Paste" "F.Mask") (tstamp de49c899-adb2-4cad-899f-d759404d4e7e))
  (pad "U2" smd circle (at -7.6 4.4) (size 0.4 0.4) (property pad_prop_bga) (layers "F.Cu" "F.Paste" "F.Mask") (tstamp ad229db8-f49e-4f09-9a68-1e04bbaf7ac6))
  (pad "U3" smd circle (at -6.8 4.4) (size 0.4 0.4) (property pad_prop_bga) (layers "F.Cu" "F.Paste" "F.Mask") (tstamp 369881ad-7959-4092-a6a1-9f5deaaa029a))
  (pad "U4" smd circle (at -6 4.4) (size 0.4 0.4) (property pad_prop_bga) (layers "F.Cu" "F.Paste" "F.Mask") (tstamp d879e3cc-b50f-46e2-8d04-40cd0cff4f92))
  (pad "U5" smd circle (at -5.2 4.4) (size 0.4 0.4) (property pad_prop_bga) (layers "F.Cu" "F.Paste" "F.Mask") (tstamp e9bdf84d-c338-4625-ade9-1b87269fec48))
  (pad "U6" smd circle (at -4.4 4.4) (size 0.4 0.4) (property pad_prop_bga) (layers "F.Cu" "F.Paste" "F.Mask") (tstamp a2e633e7-ef75-4ccc-bbd2-e9e4bce83654))
  (pad "U7" smd circle (at -3.6 4.4) (size 0.4 0.4) (property pad_prop_bga) (layers "F.Cu" "F.Paste" "F.Mask") (tstamp 496bdf90-25a0-4fec-8d79-bc09036163d7))
  (pad "U8" smd circle (at -2.8 4.4) (size 0.4 0.4) (property pad_prop_bga) (layers "F.Cu" "F.Paste" "F.Mask") (tstamp 7c82a4aa-9aec-4cda-ac17-31893a224f67))
  (pad "U9" smd circle (at -2 4.4) (size 0.4 0.4) (property pad_prop_bga) (layers "F.Cu" "F.Paste" "F.Mask") (tstamp f86e1d39-5113-4697-b7ae-2658cf1bad53))
  (pad "U10" smd circle (at -1.2 4.4) (size 0.4 0.4) (property pad_prop_bga) (layers "F.Cu" "F.Paste" "F.Mask") (tstamp e56c7fd6-7d71-4973-a5cb-08e3e67f29ff))
  (pad "U11" smd circle (at -0.4 4.4) (size 0.4 0.4) (property pad_prop_bga) (layers "F.Cu" "F.Paste" "F.Mask") (tstamp a2fa419a-a32c-4308-add7-ae0a9a65e0b2))
  (pad "U12" smd circle (at 0.4 4.4) (size 0.4 0.4) (property pad_prop_bga) (layers "F.Cu" "F.Paste" "F.Mask") (tstamp 57d46891-a2a7-4bc5-98b9-4d6beceb9c82))
  (pad "U13" smd circle (at 1.2 4.4) (size 0.4 0.4) (property pad_prop_bga) (layers "F.Cu" "F.Paste" "F.Mask") (tstamp ae93c3ad-0e03-43b0-8828-239e95674dc8))
  (pad "U14" smd circle (at 2 4.4) (size 0.4 0.4) (property pad_prop_bga) (layers "F.Cu" "F.Paste" "F.Mask") (tstamp 72ee1b44-e707-42df-a086-4c61660a8c41))
  (pad "U15" smd circle (at 2.8 4.4) (size 0.4 0.4) (property pad_prop_bga) (layers "F.Cu" "F.Paste" "F.Mask") (tstamp 50ac0d04-c7ad-4074-8f63-4db11cd04e26))
  (pad "U16" smd circle (at 3.6 4.4) (size 0.4 0.4) (property pad_prop_bga) (layers "F.Cu" "F.Paste" "F.Mask") (tstamp 47d88ccf-1514-4cc8-9409-086b99516f7b))
  (pad "U17" smd circle (at 4.4 4.4) (size 0.4 0.4) (property pad_prop_bga) (layers "F.Cu" "F.Paste" "F.Mask") (tstamp 98e5ddb3-33fe-4f42-8766-386e290a27e5))
  (pad "U18" smd circle (at 5.2 4.4) (size 0.4 0.4) (property pad_prop_bga) (layers "F.Cu" "F.Paste" "F.Mask") (tstamp 361ed14a-2f3e-4e2c-86a5-f49065f251b5))
  (pad "U19" smd circle (at 6 4.4) (size 0.4 0.4) (property pad_prop_bga) (layers "F.Cu" "F.Paste" "F.Mask") (tstamp de59333f-b8ef-466e-bb4c-d6b010861ada))
  (pad "U20" smd circle (at 6.8 4.4) (size 0.4 0.4) (property pad_prop_bga) (layers "F.Cu" "F.Paste" "F.Mask") (tstamp bc72135b-df8b-4f23-902f-30b24d7b56d3))
  (pad "U21" smd circle (at 7.6 4.4) (size 0.4 0.4) (property pad_prop_bga) (layers "F.Cu" "F.Paste" "F.Mask") (tstamp 976e7c29-efb3-4c32-abd5-f0159123d6ab))
  (pad "U22" smd circle (at 8.4 4.4) (size 0.4 0.4) (property pad_prop_bga) (layers "F.Cu" "F.Paste" "F.Mask") (tstamp 8cb68632-bdba-4708-a24e-90247819fc6f))
  (pad "V1" smd circle (at -8.4 5.2) (size 0.4 0.4) (property pad_prop_bga) (layers "F.Cu" "F.Paste" "F.Mask") (tstamp 10053fef-ba5e-4edc-bada-02b7bcaac84f))
  (pad "V2" smd circle (at -7.6 5.2) (size 0.4 0.4) (property pad_prop_bga) (layers "F.Cu" "F.Paste" "F.Mask") (tstamp fdb1c7d3-c8e9-41b5-9d5c-7a5947ab40c3))
  (pad "V3" smd circle (at -6.8 5.2) (size 0.4 0.4) (property pad_prop_bga) (layers "F.Cu" "F.Paste" "F.Mask") (tstamp 36438c6c-d8ff-4b5d-b5d0-9cdbf271e568))
  (pad "V4" smd circle (at -6 5.2) (size 0.4 0.4) (property pad_prop_bga) (layers "F.Cu" "F.Paste" "F.Mask") (tstamp 7458c79b-af4e-4790-a17c-95e5d6d9133d))
  (pad "V5" smd circle (at -5.2 5.2) (size 0.4 0.4) (property pad_prop_bga) (layers "F.Cu" "F.Paste" "F.Mask") (tstamp 757263f9-a440-4fb7-9c4d-7d2a97b07af0))
  (pad "V6" smd circle (at -4.4 5.2) (size 0.4 0.4) (property pad_prop_bga) (layers "F.Cu" "F.Paste" "F.Mask") (tstamp e5e473e3-bf6e-4507-85f6-955abfc1d031))
  (pad "V7" smd circle (at -3.6 5.2) (size 0.4 0.4) (property pad_prop_bga) (layers "F.Cu" "F.Paste" "F.Mask") (tstamp 1c6e9a76-62c2-4e17-abbd-a4d5b33f54b9))
  (pad "V8" smd circle (at -2.8 5.2) (size 0.4 0.4) (property pad_prop_bga) (layers "F.Cu" "F.Paste" "F.Mask") (tstamp 90ddd301-302e-4004-b6ed-f8c8c602661a))
  (pad "V9" smd circle (at -2 5.2) (size 0.4 0.4) (property pad_prop_bga) (layers "F.Cu" "F.Paste" "F.Mask") (tstamp 11b3522a-5e60-4601-90a1-be5cbaa9d47b))
  (pad "V10" smd circle (at -1.2 5.2) (size 0.4 0.4) (property pad_prop_bga) (layers "F.Cu" "F.Paste" "F.Mask") (tstamp f2d2603a-53cf-4c1b-8008-0578842b5f36))
  (pad "V11" smd circle (at -0.4 5.2) (size 0.4 0.4) (property pad_prop_bga) (layers "F.Cu" "F.Paste" "F.Mask") (tstamp 12ff5e23-fa68-4a73-9903-7c751ae449c5))
  (pad "V12" smd circle (at 0.4 5.2) (size 0.4 0.4) (property pad_prop_bga) (layers "F.Cu" "F.Paste" "F.Mask") (tstamp d0fa058b-b4b2-4297-a211-953447c1dea6))
  (pad "V13" smd circle (at 1.2 5.2) (size 0.4 0.4) (property pad_prop_bga) (layers "F.Cu" "F.Paste" "F.Mask") (tstamp 00f131b8-e034-4bdb-abc1-451621a4d6ed))
  (pad "V14" smd circle (at 2 5.2) (size 0.4 0.4) (property pad_prop_bga) (layers "F.Cu" "F.Paste" "F.Mask") (tstamp 77315e14-755b-48ab-9ad9-8445bb7bebd2))
  (pad "V15" smd circle (at 2.8 5.2) (size 0.4 0.4) (property pad_prop_bga) (layers "F.Cu" "F.Paste" "F.Mask") (tstamp 17b4ee15-47b3-40ff-a462-7778dc117630))
  (pad "V16" smd circle (at 3.6 5.2) (size 0.4 0.4) (property pad_prop_bga) (layers "F.Cu" "F.Paste" "F.Mask") (tstamp 10ae7c13-3780-4b3d-9b26-805be15c306b))
  (pad "V17" smd circle (at 4.4 5.2) (size 0.4 0.4) (property pad_prop_bga) (layers "F.Cu" "F.Paste" "F.Mask") (tstamp a06bf3c4-dc24-4d49-9102-5963c025b529))
  (pad "V18" smd circle (at 5.2 5.2) (size 0.4 0.4) (property pad_prop_bga) (layers "F.Cu" "F.Paste" "F.Mask") (tstamp abb08897-1426-4198-a075-bbdedf087a46))
  (pad "V19" smd circle (at 6 5.2) (size 0.4 0.4) (property pad_prop_bga) (layers "F.Cu" "F.Paste" "F.Mask") (tstamp c2b20b4a-f3c5-4a14-90c6-6d9d2b1babfa))
  (pad "V20" smd circle (at 6.8 5.2) (size 0.4 0.4) (property pad_prop_bga) (layers "F.Cu" "F.Paste" "F.Mask") (tstamp 5f9d50ed-c006-4e25-91e2-32c35ab05a90))
  (pad "V21" smd circle (at 7.6 5.2) (size 0.4 0.4) (property pad_prop_bga) (layers "F.Cu" "F.Paste" "F.Mask") (tstamp 2285bb92-9cfd-4e39-9fdb-9fc62efaee1a))
  (pad "V22" smd circle (at 8.4 5.2) (size 0.4 0.4) (property pad_prop_bga) (layers "F.Cu" "F.Paste" "F.Mask") (tstamp 98ebc2b7-fb7b-4f7a-a783-bad09a4dcea7))
  (pad "W1" smd circle (at -8.4 6) (size 0.4 0.4) (property pad_prop_bga) (layers "F.Cu" "F.Paste" "F.Mask") (tstamp c1ffbb1d-bfd7-4cd9-b55d-456a295223a6))
  (pad "W2" smd circle (at -7.6 6) (size 0.4 0.4) (property pad_prop_bga) (layers "F.Cu" "F.Paste" "F.Mask") (tstamp 729dc480-99df-41fd-b60c-4d47cfcea311))
  (pad "W3" smd circle (at -6.8 6) (size 0.4 0.4) (property pad_prop_bga) (layers "F.Cu" "F.Paste" "F.Mask") (tstamp 8d11af95-57a8-4d48-820f-d0817a4a7b82))
  (pad "W4" smd circle (at -6 6) (size 0.4 0.4) (property pad_prop_bga) (layers "F.Cu" "F.Paste" "F.Mask") (tstamp 38bd10e2-4a23-4de8-9afa-9c30393114c2))
  (pad "W5" smd circle (at -5.2 6) (size 0.4 0.4) (property pad_prop_bga) (layers "F.Cu" "F.Paste" "F.Mask") (tstamp b11588ed-5bf8-49a4-add1-b422a291e2fd))
  (pad "W6" smd circle (at -4.4 6) (size 0.4 0.4) (property pad_prop_bga) (layers "F.Cu" "F.Paste" "F.Mask") (tstamp de6f5120-d819-42cd-ac25-be50c0641f07))
  (pad "W7" smd circle (at -3.6 6) (size 0.4 0.4) (property pad_prop_bga) (layers "F.Cu" "F.Paste" "F.Mask") (tstamp 44a5c391-d914-465e-93a4-ccfc667fc4ff))
  (pad "W8" smd circle (at -2.8 6) (size 0.4 0.4) (property pad_prop_bga) (layers "F.Cu" "F.Paste" "F.Mask") (tstamp 352a8b25-70bf-4f96-a564-4a84c6219b40))
  (pad "W9" smd circle (at -2 6) (size 0.4 0.4) (property pad_prop_bga) (layers "F.Cu" "F.Paste" "F.Mask") (tstamp 3e5f6b3a-643f-4f6f-b583-e25e652cca76))
  (pad "W10" smd circle (at -1.2 6) (size 0.4 0.4) (property pad_prop_bga) (layers "F.Cu" "F.Paste" "F.Mask") (tstamp 76316a41-83ce-4b5a-8389-efbd6932d22d))
  (pad "W11" smd circle (at -0.4 6) (size 0.4 0.4) (property pad_prop_bga) (layers "F.Cu" "F.Paste" "F.Mask") (tstamp c2fd470c-47e9-46a5-908e-93b634332025))
  (pad "W12" smd circle (at 0.4 6) (size 0.4 0.4) (property pad_prop_bga) (layers "F.Cu" "F.Paste" "F.Mask") (tstamp 2fc84fd8-a8c3-477d-98f4-b45224b428e0))
  (pad "W13" smd circle (at 1.2 6) (size 0.4 0.4) (property pad_prop_bga) (layers "F.Cu" "F.Paste" "F.Mask") (tstamp 0d005de6-fcd3-4b4d-9a2d-b030a2f730fe))
  (pad "W14" smd circle (at 2 6) (size 0.4 0.4) (property pad_prop_bga) (layers "F.Cu" "F.Paste" "F.Mask") (tstamp eebce4a9-72ff-4e43-97f7-06135f4f0360))
  (pad "W15" smd circle (at 2.8 6) (size 0.4 0.4) (property pad_prop_bga) (layers "F.Cu" "F.Paste" "F.Mask") (tstamp 97a8ee63-0217-46ab-ab65-31a34b7f6af2))
  (pad "W16" smd circle (at 3.6 6) (size 0.4 0.4) (property pad_prop_bga) (layers "F.Cu" "F.Paste" "F.Mask") (tstamp f1849a4f-2532-4fa9-9c67-10dd5d1a739f))
  (pad "W17" smd circle (at 4.4 6) (size 0.4 0.4) (property pad_prop_bga) (layers "F.Cu" "F.Paste" "F.Mask") (tstamp ec0492dc-afe9-4322-be34-61b2d72cb8df))
  (pad "W18" smd circle (at 5.2 6) (size 0.4 0.4) (property pad_prop_bga) (layers "F.Cu" "F.Paste" "F.Mask") (tstamp 5fa8c3a7-7714-48aa-832f-14da0e03e46a))
  (pad "W19" smd circle (at 6 6) (size 0.4 0.4) (property pad_prop_bga) (layers "F.Cu" "F.Paste" "F.Mask") (tstamp e473d56d-88bd-4000-ac59-0fd1884575cf))
  (pad "W20" smd circle (at 6.8 6) (size 0.4 0.4) (property pad_prop_bga) (layers "F.Cu" "F.Paste" "F.Mask") (tstamp a7f29c3a-ec00-4caf-bbfb-dfb019cd6e15))
  (pad "W21" smd circle (at 7.6 6) (size 0.4 0.4) (property pad_prop_bga) (layers "F.Cu" "F.Paste" "F.Mask") (tstamp f4691caf-c5c2-4fd6-b034-0945d928e3ee))
  (pad "W22" smd circle (at 8.4 6) (size 0.4 0.4) (property pad_prop_bga) (layers "F.Cu" "F.Paste" "F.Mask") (tstamp 91752e23-ed3d-457e-add2-b8f6baf82aff))
  (pad "Y1" smd circle (at -8.4 6.8) (size 0.4 0.4) (property pad_prop_bga) (layers "F.Cu" "F.Paste" "F.Mask") (tstamp a7298966-8324-4c2d-8595-b60d89cc9838))
  (pad "Y2" smd circle (at -7.6 6.8) (size 0.4 0.4) (property pad_prop_bga) (layers "F.Cu" "F.Paste" "F.Mask") (tstamp 0197c87c-ccb0-4567-ad90-f710f743e5d2))
  (pad "Y3" smd circle (at -6.8 6.8) (size 0.4 0.4) (property pad_prop_bga) (layers "F.Cu" "F.Paste" "F.Mask") (tstamp 5e82d99a-cefe-4e21-b9c8-a80a69bd38e1))
  (pad "Y4" smd circle (at -6 6.8) (size 0.4 0.4) (property pad_prop_bga) (layers "F.Cu" "F.Paste" "F.Mask") (tstamp 5e476cdc-3599-4945-84bc-cf239f937f40))
  (pad "Y5" smd circle (at -5.2 6.8) (size 0.4 0.4) (property pad_prop_bga) (layers "F.Cu" "F.Paste" "F.Mask") (tstamp 19c015f9-d2b0-49f2-afa9-26c8ad16a026))
  (pad "Y6" smd circle (at -4.4 6.8) (size 0.4 0.4) (property pad_prop_bga) (layers "F.Cu" "F.Paste" "F.Mask") (tstamp 4d8bb073-31ee-458c-953b-1f300fb38330))
  (pad "Y7" smd circle (at -3.6 6.8) (size 0.4 0.4) (property pad_prop_bga) (layers "F.Cu" "F.Paste" "F.Mask") (tstamp 7ab6ffc1-3af7-4cfa-8eb1-24b3d602c73c))
  (pad "Y8" smd circle (at -2.8 6.8) (size 0.4 0.4) (property pad_prop_bga) (layers "F.Cu" "F.Paste" "F.Mask") (tstamp 9b7518a3-754c-44ba-8d48-d55402d35eb7))
  (pad "Y9" smd circle (at -2 6.8) (size 0.4 0.4) (property pad_prop_bga) (layers "F.Cu" "F.Paste" "F.Mask") (tstamp 210d25cb-329c-4f39-8655-c8c201c1d023))
  (pad "Y10" smd circle (at -1.2 6.8) (size 0.4 0.4) (property pad_prop_bga) (layers "F.Cu" "F.Paste" "F.Mask") (tstamp 29df11a8-f187-4bd8-a0dd-1d4bf8510638))
  (pad "Y11" smd circle (at -0.4 6.8) (size 0.4 0.4) (property pad_prop_bga) (layers "F.Cu" "F.Paste" "F.Mask") (tstamp 560819af-592b-4ff9-b70f-e29d8bc42023))
  (pad "Y12" smd circle (at 0.4 6.8) (size 0.4 0.4) (property pad_prop_bga) (layers "F.Cu" "F.Paste" "F.Mask") (tstamp d941185a-08ff-4d34-866a-76d5e7aad650))
  (pad "Y13" smd circle (at 1.2 6.8) (size 0.4 0.4) (property pad_prop_bga) (layers "F.Cu" "F.Paste" "F.Mask") (tstamp eec32808-4542-4d27-afc1-5d420332bf93))
  (pad "Y14" smd circle (at 2 6.8) (size 0.4 0.4) (property pad_prop_bga) (layers "F.Cu" "F.Paste" "F.Mask") (tstamp 0349b545-0ecb-4ed2-8de4-7f5fc309a973))
  (pad "Y15" smd circle (at 2.8 6.8) (size 0.4 0.4) (property pad_prop_bga) (layers "F.Cu" "F.Paste" "F.Mask") (tstamp c0a53a75-f41c-42d4-85f3-63b838f6f441))
  (pad "Y16" smd circle (at 3.6 6.8) (size 0.4 0.4) (property pad_prop_bga) (layers "F.Cu" "F.Paste" "F.Mask") (tstamp f1b7f690-3482-427d-927a-ac3caa1f9ac4))
  (pad "Y17" smd circle (at 4.4 6.8) (size 0.4 0.4) (property pad_prop_bga) (layers "F.Cu" "F.Paste" "F.Mask") (tstamp a4574e7b-3ea4-47e6-8200-075f69caa969))
  (pad "Y18" smd circle (at 5.2 6.8) (size 0.4 0.4) (property pad_prop_bga) (layers "F.Cu" "F.Paste" "F.Mask") (tstamp 1690587d-ffb4-4467-a187-6b2dc936dbef))
  (pad "Y19" smd circle (at 6 6.8) (size 0.4 0.4) (property pad_prop_bga) (layers "F.Cu" "F.Paste" "F.Mask") (tstamp bd4f4e35-35ef-4949-a8a5-f231ffde5638))
  (pad "Y20" smd circle (at 6.8 6.8) (size 0.4 0.4) (property pad_prop_bga) (layers "F.Cu" "F.Paste" "F.Mask") (tstamp 4f8a61a2-24b5-4e50-a7b7-0192b76f5456))
  (pad "Y21" smd circle (at 7.6 6.8) (size 0.4 0.4) (property pad_prop_bga) (layers "F.Cu" "F.Paste" "F.Mask") (tstamp 034f0f82-04c6-494d-9eb4-57b7a26cd76a))
  (pad "Y22" smd circle (at 8.4 6.8) (size 0.4 0.4) (property pad_prop_bga) (layers "F.Cu" "F.Paste" "F.Mask") (tstamp 2ab9a860-28c7-4418-9a43-854f6d958693))
  (model "${KICAD6_3DMODEL_DIR}/Package_BGA.3dshapes/Xilinx_CLG484_CLG485.wrl"
    (offset (xyz 0 0 0))
    (scale (xyz 1 1 1))
    (rotate (xyz 0 0 0))
  )
)
