(footprint "Xilinx_FTG256" (version 20211014) (generator pcbnew)
  (layer "F.Cu")
  (tedit 5CC4225E)
  (descr "Artix-7 BGA, 16x16 grid, 17x17mm package, 1mm pitch; https://www.xilinx.com/support/documentation/user_guides/ug475_7Series_Pkg_Pinout.pdf#page=269, NSMD pad definition Appendix A")
  (tags "BGA 256 1 FT256 FTG256")
  (solder_mask_margin 0.05)
  (attr smd)
  (fp_text reference "REF**" (at 0 -9.5) (layer "F.SilkS")
    (effects (font (size 1 1) (thickness 0.15)))
    (tstamp 0e7b6782-889a-4675-a9dd-fb2990d26d38)
  )
  (fp_text value "Xilinx_FTG256" (at 0 9.5) (layer "F.Fab")
    (effects (font (size 1 1) (thickness 0.15)))
    (tstamp f003ddd1-6eb9-4633-b95a-d9a43da08b5c)
  )
  (fp_text user "${REFERENCE}" (at 0 0) (layer "F.Fab")
    (effects (font (size 1 1) (thickness 0.15)))
    (tstamp 991911fb-eda8-4f51-af9e-1888b007722c)
  )
  (fp_line (start 8.61 -8.61) (end 8.61 8.61) (layer "F.SilkS") (width 0.12) (tstamp 03f3b407-88f1-4f4d-94d1-5c8658408f36))
  (fp_line (start 8.61 8.61) (end -8.61 8.61) (layer "F.SilkS") (width 0.12) (tstamp 399961e4-9547-442c-90a1-b55059dd2a21))
  (fp_line (start -7.61 -8.61) (end 8.61 -8.61) (layer "F.SilkS") (width 0.12) (tstamp a849ed89-fa37-4980-a254-c3faa9ddabca))
  (fp_line (start -8.61 8.61) (end -8.61 -7.61) (layer "F.SilkS") (width 0.12) (tstamp ad493d63-250b-4c20-9ba8-ff35882b7852))
  (fp_line (start -9.5 9.5) (end 9.5 9.5) (layer "F.CrtYd") (width 0.05) (tstamp 8e7f2823-a340-4b92-9629-99574f6f2670))
  (fp_line (start 9.5 9.5) (end 9.5 -9.5) (layer "F.CrtYd") (width 0.05) (tstamp afcaea84-8d82-476e-b2d6-75ae944e22cd))
  (fp_line (start 9.5 -9.5) (end -9.5 -9.5) (layer "F.CrtYd") (width 0.05) (tstamp de0c93f2-d1c6-4ad3-914f-9520a5cc50cb))
  (fp_line (start -9.5 -9.5) (end -9.5 9.5) (layer "F.CrtYd") (width 0.05) (tstamp f05117a7-f638-4488-b60a-dfb1772125cf))
  (fp_line (start 8.5 -8.5) (end 8.5 8.5) (layer "F.Fab") (width 0.1) (tstamp 12beec13-e682-4cc4-913f-e5ef00c5aef5))
  (fp_line (start -8.5 -7.5) (end -7.5 -8.5) (layer "F.Fab") (width 0.1) (tstamp ace7090e-5f94-4373-be47-4d088b815ce6))
  (fp_line (start -7.5 -8.5) (end 8.5 -8.5) (layer "F.Fab") (width 0.1) (tstamp baff6d8d-dfd7-4f7a-83af-80ab3830f6d7))
  (fp_line (start 8.5 8.5) (end -8.5 8.5) (layer "F.Fab") (width 0.1) (tstamp ccba1431-0bc9-41c8-bedc-eb40f773e82a))
  (fp_line (start -8.5 8.5) (end -8.5 -7.5) (layer "F.Fab") (width 0.1) (tstamp ed71c627-1802-40d7-9586-8c4b59e44ac1))
  (pad "A1" smd circle (at -7.5 -7.5) (size 0.4 0.4) (property pad_prop_bga) (layers "F.Cu" "F.Paste" "F.Mask") (tstamp 170e3cc9-2b20-48b0-8adb-40d3b10918e6))
  (pad "A2" smd circle (at -6.5 -7.5) (size 0.4 0.4) (property pad_prop_bga) (layers "F.Cu" "F.Paste" "F.Mask") (tstamp c049d791-b532-41cc-9749-777ea6ec1219))
  (pad "A3" smd circle (at -5.5 -7.5) (size 0.4 0.4) (property pad_prop_bga) (layers "F.Cu" "F.Paste" "F.Mask") (tstamp 8178679f-c321-4ee3-bea6-00c5699edb07))
  (pad "A4" smd circle (at -4.5 -7.5) (size 0.4 0.4) (property pad_prop_bga) (layers "F.Cu" "F.Paste" "F.Mask") (tstamp b185c798-9378-4ea5-95fd-4ad02dd99e0c))
  (pad "A5" smd circle (at -3.5 -7.5) (size 0.4 0.4) (property pad_prop_bga) (layers "F.Cu" "F.Paste" "F.Mask") (tstamp b3fb58e3-70a6-4291-affb-966e8be91299))
  (pad "A6" smd circle (at -2.5 -7.5) (size 0.4 0.4) (property pad_prop_bga) (layers "F.Cu" "F.Paste" "F.Mask") (tstamp 1b0e4930-e432-424d-8a14-6f6a91eb04a6))
  (pad "A7" smd circle (at -1.5 -7.5) (size 0.4 0.4) (property pad_prop_bga) (layers "F.Cu" "F.Paste" "F.Mask") (tstamp e3ac951f-7826-494a-bbdf-b1d7fbfba8fc))
  (pad "A8" smd circle (at -0.5 -7.5) (size 0.4 0.4) (property pad_prop_bga) (layers "F.Cu" "F.Paste" "F.Mask") (tstamp 217d78c0-f00c-40bc-bd89-131dc389182d))
  (pad "A9" smd circle (at 0.5 -7.5) (size 0.4 0.4) (property pad_prop_bga) (layers "F.Cu" "F.Paste" "F.Mask") (tstamp ecff2ea3-5d6d-4aa2-a537-2e9a2d717c37))
  (pad "A10" smd circle (at 1.5 -7.5) (size 0.4 0.4) (property pad_prop_bga) (layers "F.Cu" "F.Paste" "F.Mask") (tstamp 01a3b133-3ae0-4364-9222-ec44a6abd574))
  (pad "A11" smd circle (at 2.5 -7.5) (size 0.4 0.4) (property pad_prop_bga) (layers "F.Cu" "F.Paste" "F.Mask") (tstamp 48012051-af19-4707-8ec8-8de49debdbaf))
  (pad "A12" smd circle (at 3.5 -7.5) (size 0.4 0.4) (property pad_prop_bga) (layers "F.Cu" "F.Paste" "F.Mask") (tstamp cae242b4-5ed6-48e6-901a-329f94126ce2))
  (pad "A13" smd circle (at 4.5 -7.5) (size 0.4 0.4) (property pad_prop_bga) (layers "F.Cu" "F.Paste" "F.Mask") (tstamp f6918157-b737-4bd3-a041-76e8812f979d))
  (pad "A14" smd circle (at 5.5 -7.5) (size 0.4 0.4) (property pad_prop_bga) (layers "F.Cu" "F.Paste" "F.Mask") (tstamp 1dd633f7-d04b-422f-8519-2c7a150b617d))
  (pad "A15" smd circle (at 6.5 -7.5) (size 0.4 0.4) (property pad_prop_bga) (layers "F.Cu" "F.Paste" "F.Mask") (tstamp cc6d3c6d-7f32-4004-8a69-30d43392f3d3))
  (pad "A16" smd circle (at 7.5 -7.5) (size 0.4 0.4) (property pad_prop_bga) (layers "F.Cu" "F.Paste" "F.Mask") (tstamp dd2961a3-4f75-451f-a3f1-0bcf1f970be3))
  (pad "B1" smd circle (at -7.5 -6.5) (size 0.4 0.4) (property pad_prop_bga) (layers "F.Cu" "F.Paste" "F.Mask") (tstamp 05122e7b-ad84-4cdf-98cb-718cc0dde7f2))
  (pad "B2" smd circle (at -6.5 -6.5) (size 0.4 0.4) (property pad_prop_bga) (layers "F.Cu" "F.Paste" "F.Mask") (tstamp 08fee819-869a-4684-821e-9dd16583e94a))
  (pad "B3" smd circle (at -5.5 -6.5) (size 0.4 0.4) (property pad_prop_bga) (layers "F.Cu" "F.Paste" "F.Mask") (tstamp c5ba2623-9e69-4cc7-8981-92dad62deb54))
  (pad "B4" smd circle (at -4.5 -6.5) (size 0.4 0.4) (property pad_prop_bga) (layers "F.Cu" "F.Paste" "F.Mask") (tstamp 79195262-98b3-4965-bf89-690cfa4f4809))
  (pad "B5" smd circle (at -3.5 -6.5) (size 0.4 0.4) (property pad_prop_bga) (layers "F.Cu" "F.Paste" "F.Mask") (tstamp ac7feccd-a379-4fd2-9098-682d8f619565))
  (pad "B6" smd circle (at -2.5 -6.5) (size 0.4 0.4) (property pad_prop_bga) (layers "F.Cu" "F.Paste" "F.Mask") (tstamp 35d5e917-a649-40c3-bbf7-61bdddca5d1b))
  (pad "B7" smd circle (at -1.5 -6.5) (size 0.4 0.4) (property pad_prop_bga) (layers "F.Cu" "F.Paste" "F.Mask") (tstamp 07304c55-d5eb-473d-ab5c-8efc1dc7de21))
  (pad "B8" smd circle (at -0.5 -6.5) (size 0.4 0.4) (property pad_prop_bga) (layers "F.Cu" "F.Paste" "F.Mask") (tstamp ef2bd96a-d9fc-4edd-9d24-afea7c90e835))
  (pad "B9" smd circle (at 0.5 -6.5) (size 0.4 0.4) (property pad_prop_bga) (layers "F.Cu" "F.Paste" "F.Mask") (tstamp 4d8a00bd-e16c-4dd4-95a6-87cd937f1bf1))
  (pad "B10" smd circle (at 1.5 -6.5) (size 0.4 0.4) (property pad_prop_bga) (layers "F.Cu" "F.Paste" "F.Mask") (tstamp b3812e95-42cc-482e-a79a-ece4139083bd))
  (pad "B11" smd circle (at 2.5 -6.5) (size 0.4 0.4) (property pad_prop_bga) (layers "F.Cu" "F.Paste" "F.Mask") (tstamp 5fbdfdc7-226a-439d-bf8f-37bdefae518b))
  (pad "B12" smd circle (at 3.5 -6.5) (size 0.4 0.4) (property pad_prop_bga) (layers "F.Cu" "F.Paste" "F.Mask") (tstamp dda37323-567b-4a2d-aaa7-052a6b49a718))
  (pad "B13" smd circle (at 4.5 -6.5) (size 0.4 0.4) (property pad_prop_bga) (layers "F.Cu" "F.Paste" "F.Mask") (tstamp 5b8d75c4-0a40-4f52-9739-d691d6ddb2d8))
  (pad "B14" smd circle (at 5.5 -6.5) (size 0.4 0.4) (property pad_prop_bga) (layers "F.Cu" "F.Paste" "F.Mask") (tstamp 724ec583-2a1f-494e-9153-cf4ada651de1))
  (pad "B15" smd circle (at 6.5 -6.5) (size 0.4 0.4) (property pad_prop_bga) (layers "F.Cu" "F.Paste" "F.Mask") (tstamp 8dc44f16-7796-4306-8206-12b70941c8af))
  (pad "B16" smd circle (at 7.5 -6.5) (size 0.4 0.4) (property pad_prop_bga) (layers "F.Cu" "F.Paste" "F.Mask") (tstamp d225fa93-e72e-4191-aac0-14861624ce13))
  (pad "C1" smd circle (at -7.5 -5.5) (size 0.4 0.4) (property pad_prop_bga) (layers "F.Cu" "F.Paste" "F.Mask") (tstamp 20ae5ab1-4b5e-4577-bddd-32a9234d08f9))
  (pad "C2" smd circle (at -6.5 -5.5) (size 0.4 0.4) (property pad_prop_bga) (layers "F.Cu" "F.Paste" "F.Mask") (tstamp f810a68a-44be-4569-a857-f5614a25fa13))
  (pad "C3" smd circle (at -5.5 -5.5) (size 0.4 0.4) (property pad_prop_bga) (layers "F.Cu" "F.Paste" "F.Mask") (tstamp f0b46023-dda8-4342-b5e6-5d5fffd7be1b))
  (pad "C4" smd circle (at -4.5 -5.5) (size 0.4 0.4) (property pad_prop_bga) (layers "F.Cu" "F.Paste" "F.Mask") (tstamp 273ce6b2-0cb5-4274-af63-25caa290f5f9))
  (pad "C5" smd circle (at -3.5 -5.5) (size 0.4 0.4) (property pad_prop_bga) (layers "F.Cu" "F.Paste" "F.Mask") (tstamp 4d16c833-7de1-4e5b-96cb-eb3a74d24477))
  (pad "C6" smd circle (at -2.5 -5.5) (size 0.4 0.4) (property pad_prop_bga) (layers "F.Cu" "F.Paste" "F.Mask") (tstamp b13a8b8e-76a6-4236-9344-c67608bd7d8c))
  (pad "C7" smd circle (at -1.5 -5.5) (size 0.4 0.4) (property pad_prop_bga) (layers "F.Cu" "F.Paste" "F.Mask") (tstamp 520c64db-deb4-424d-ab0d-3c971c65ea57))
  (pad "C8" smd circle (at -0.5 -5.5) (size 0.4 0.4) (property pad_prop_bga) (layers "F.Cu" "F.Paste" "F.Mask") (tstamp 1a52c1dc-8ed2-45b7-a81c-ed8e7b6025ef))
  (pad "C9" smd circle (at 0.5 -5.5) (size 0.4 0.4) (property pad_prop_bga) (layers "F.Cu" "F.Paste" "F.Mask") (tstamp b81c7a95-3dd1-415f-8c3f-95a97863c997))
  (pad "C10" smd circle (at 1.5 -5.5) (size 0.4 0.4) (property pad_prop_bga) (layers "F.Cu" "F.Paste" "F.Mask") (tstamp 09439c05-5459-47b7-8231-58906b5c73f9))
  (pad "C11" smd circle (at 2.5 -5.5) (size 0.4 0.4) (property pad_prop_bga) (layers "F.Cu" "F.Paste" "F.Mask") (tstamp 122125b7-0794-4e11-a37c-5d8b8ef7809f))
  (pad "C12" smd circle (at 3.5 -5.5) (size 0.4 0.4) (property pad_prop_bga) (layers "F.Cu" "F.Paste" "F.Mask") (tstamp 045e8ace-d031-4df1-bef2-dee6a0d7e2e9))
  (pad "C13" smd circle (at 4.5 -5.5) (size 0.4 0.4) (property pad_prop_bga) (layers "F.Cu" "F.Paste" "F.Mask") (tstamp f11884ce-71e8-4cf6-b7ba-b65276f83950))
  (pad "C14" smd circle (at 5.5 -5.5) (size 0.4 0.4) (property pad_prop_bga) (layers "F.Cu" "F.Paste" "F.Mask") (tstamp edc0df2a-322d-4e4a-95ae-af34be6c3ead))
  (pad "C15" smd circle (at 6.5 -5.5) (size 0.4 0.4) (property pad_prop_bga) (layers "F.Cu" "F.Paste" "F.Mask") (tstamp d7efd1bb-f272-467a-9741-72c0c27c2538))
  (pad "C16" smd circle (at 7.5 -5.5) (size 0.4 0.4) (property pad_prop_bga) (layers "F.Cu" "F.Paste" "F.Mask") (tstamp 5bc7352a-e012-4d5e-a96c-5229853e3717))
  (pad "D1" smd circle (at -7.5 -4.5) (size 0.4 0.4) (property pad_prop_bga) (layers "F.Cu" "F.Paste" "F.Mask") (tstamp d04648e7-21f3-4321-bb37-7c8bb30876bf))
  (pad "D2" smd circle (at -6.5 -4.5) (size 0.4 0.4) (property pad_prop_bga) (layers "F.Cu" "F.Paste" "F.Mask") (tstamp c49ca681-e2b9-4fec-baed-7babf1b34166))
  (pad "D3" smd circle (at -5.5 -4.5) (size 0.4 0.4) (property pad_prop_bga) (layers "F.Cu" "F.Paste" "F.Mask") (tstamp 5fec2dcb-1298-4550-a9a3-bd085c5afb83))
  (pad "D4" smd circle (at -4.5 -4.5) (size 0.4 0.4) (property pad_prop_bga) (layers "F.Cu" "F.Paste" "F.Mask") (tstamp 26e99929-a807-4052-a883-b31632c2efba))
  (pad "D5" smd circle (at -3.5 -4.5) (size 0.4 0.4) (property pad_prop_bga) (layers "F.Cu" "F.Paste" "F.Mask") (tstamp e534b6af-d5d2-40af-bcba-6fa833bac5c8))
  (pad "D6" smd circle (at -2.5 -4.5) (size 0.4 0.4) (property pad_prop_bga) (layers "F.Cu" "F.Paste" "F.Mask") (tstamp adcf0baf-1373-4b56-85a6-4636ab0c9d61))
  (pad "D7" smd circle (at -1.5 -4.5) (size 0.4 0.4) (property pad_prop_bga) (layers "F.Cu" "F.Paste" "F.Mask") (tstamp 01940c5e-ffb6-4f14-8652-ba0eb1b42535))
  (pad "D8" smd circle (at -0.5 -4.5) (size 0.4 0.4) (property pad_prop_bga) (layers "F.Cu" "F.Paste" "F.Mask") (tstamp 9a5bec1a-54f8-44a6-8907-9c2175dfb015))
  (pad "D9" smd circle (at 0.5 -4.5) (size 0.4 0.4) (property pad_prop_bga) (layers "F.Cu" "F.Paste" "F.Mask") (tstamp 169ab638-ccf3-4488-818b-92b108c2e1e0))
  (pad "D10" smd circle (at 1.5 -4.5) (size 0.4 0.4) (property pad_prop_bga) (layers "F.Cu" "F.Paste" "F.Mask") (tstamp bee00b20-2c69-4d81-a310-97f1f76c3c0c))
  (pad "D11" smd circle (at 2.5 -4.5) (size 0.4 0.4) (property pad_prop_bga) (layers "F.Cu" "F.Paste" "F.Mask") (tstamp f8c0af7b-e834-43e6-b6ea-c881e952661f))
  (pad "D12" smd circle (at 3.5 -4.5) (size 0.4 0.4) (property pad_prop_bga) (layers "F.Cu" "F.Paste" "F.Mask") (tstamp 752165df-1e07-4ce8-9ff6-78467a39bb7d))
  (pad "D13" smd circle (at 4.5 -4.5) (size 0.4 0.4) (property pad_prop_bga) (layers "F.Cu" "F.Paste" "F.Mask") (tstamp 469a92ac-2bd2-4360-9bcb-fc6df5632df6))
  (pad "D14" smd circle (at 5.5 -4.5) (size 0.4 0.4) (property pad_prop_bga) (layers "F.Cu" "F.Paste" "F.Mask") (tstamp cbdef3be-daa9-4a92-ba84-dde41af8d6e9))
  (pad "D15" smd circle (at 6.5 -4.5) (size 0.4 0.4) (property pad_prop_bga) (layers "F.Cu" "F.Paste" "F.Mask") (tstamp f3dac498-6acc-420d-a560-0342b1352a7b))
  (pad "D16" smd circle (at 7.5 -4.5) (size 0.4 0.4) (property pad_prop_bga) (layers "F.Cu" "F.Paste" "F.Mask") (tstamp 3e486080-30c4-4307-bc9a-e06ff009099c))
  (pad "E1" smd circle (at -7.5 -3.5) (size 0.4 0.4) (property pad_prop_bga) (layers "F.Cu" "F.Paste" "F.Mask") (tstamp 6363aa77-9846-4d54-a3e3-26974b2c4526))
  (pad "E2" smd circle (at -6.5 -3.5) (size 0.4 0.4) (property pad_prop_bga) (layers "F.Cu" "F.Paste" "F.Mask") (tstamp 0a8d77de-2505-434b-90ab-ec7095412f6c))
  (pad "E3" smd circle (at -5.5 -3.5) (size 0.4 0.4) (property pad_prop_bga) (layers "F.Cu" "F.Paste" "F.Mask") (tstamp 69bc5814-d3cd-462a-88cf-ae40c0df9b07))
  (pad "E4" smd circle (at -4.5 -3.5) (size 0.4 0.4) (property pad_prop_bga) (layers "F.Cu" "F.Paste" "F.Mask") (tstamp d9153088-7c88-4489-821b-2657ebfa1ab2))
  (pad "E5" smd circle (at -3.5 -3.5) (size 0.4 0.4) (property pad_prop_bga) (layers "F.Cu" "F.Paste" "F.Mask") (tstamp 60bebce3-9eea-45a1-8a9e-e035c7ccfcd7))
  (pad "E6" smd circle (at -2.5 -3.5) (size 0.4 0.4) (property pad_prop_bga) (layers "F.Cu" "F.Paste" "F.Mask") (tstamp 12335086-3303-4a20-8cbd-9c4b086574d9))
  (pad "E7" smd circle (at -1.5 -3.5) (size 0.4 0.4) (property pad_prop_bga) (layers "F.Cu" "F.Paste" "F.Mask") (tstamp 3784f688-bda7-4a18-ba16-617a738536cc))
  (pad "E8" smd circle (at -0.5 -3.5) (size 0.4 0.4) (property pad_prop_bga) (layers "F.Cu" "F.Paste" "F.Mask") (tstamp 9c7a82da-1dd6-4c86-86a0-c6e653ef63d1))
  (pad "E9" smd circle (at 0.5 -3.5) (size 0.4 0.4) (property pad_prop_bga) (layers "F.Cu" "F.Paste" "F.Mask") (tstamp 6f1ecfb7-fabe-4bd6-a1f4-583ae1615788))
  (pad "E10" smd circle (at 1.5 -3.5) (size 0.4 0.4) (property pad_prop_bga) (layers "F.Cu" "F.Paste" "F.Mask") (tstamp 608de23a-95e4-4734-8d72-164320d82b8c))
  (pad "E11" smd circle (at 2.5 -3.5) (size 0.4 0.4) (property pad_prop_bga) (layers "F.Cu" "F.Paste" "F.Mask") (tstamp f746a0a0-bdd8-4b80-9283-f51517aa0df2))
  (pad "E12" smd circle (at 3.5 -3.5) (size 0.4 0.4) (property pad_prop_bga) (layers "F.Cu" "F.Paste" "F.Mask") (tstamp ea03fea7-d18c-4b15-aac6-b802001d326b))
  (pad "E13" smd circle (at 4.5 -3.5) (size 0.4 0.4) (property pad_prop_bga) (layers "F.Cu" "F.Paste" "F.Mask") (tstamp 8b714bed-d343-48e0-8953-2e0cfc01bf3f))
  (pad "E14" smd circle (at 5.5 -3.5) (size 0.4 0.4) (property pad_prop_bga) (layers "F.Cu" "F.Paste" "F.Mask") (tstamp b9849927-c4c0-4226-b1ae-a3542fe43b16))
  (pad "E15" smd circle (at 6.5 -3.5) (size 0.4 0.4) (property pad_prop_bga) (layers "F.Cu" "F.Paste" "F.Mask") (tstamp 9b53164a-4aa2-4f0c-befc-9bd40efe22ce))
  (pad "E16" smd circle (at 7.5 -3.5) (size 0.4 0.4) (property pad_prop_bga) (layers "F.Cu" "F.Paste" "F.Mask") (tstamp 3839a948-4c9d-4fe7-b778-be739cbae744))
  (pad "F1" smd circle (at -7.5 -2.5) (size 0.4 0.4) (property pad_prop_bga) (layers "F.Cu" "F.Paste" "F.Mask") (tstamp 0e6e8b0c-aeaa-46f9-bff0-992d330f8dd2))
  (pad "F2" smd circle (at -6.5 -2.5) (size 0.4 0.4) (property pad_prop_bga) (layers "F.Cu" "F.Paste" "F.Mask") (tstamp 43af3480-47f9-495c-9ada-78303a7e5b28))
  (pad "F3" smd circle (at -5.5 -2.5) (size 0.4 0.4) (property pad_prop_bga) (layers "F.Cu" "F.Paste" "F.Mask") (tstamp 267d0a4d-a27c-4de1-aa9b-04b65286497e))
  (pad "F4" smd circle (at -4.5 -2.5) (size 0.4 0.4) (property pad_prop_bga) (layers "F.Cu" "F.Paste" "F.Mask") (tstamp 56820169-9fdf-4873-8915-4b088099685f))
  (pad "F5" smd circle (at -3.5 -2.5) (size 0.4 0.4) (property pad_prop_bga) (layers "F.Cu" "F.Paste" "F.Mask") (tstamp 7d881898-73a7-4802-85a3-e2efa19870ab))
  (pad "F6" smd circle (at -2.5 -2.5) (size 0.4 0.4) (property pad_prop_bga) (layers "F.Cu" "F.Paste" "F.Mask") (tstamp 9c7da556-828c-4f5f-a8bf-1bd58e3ad44e))
  (pad "F7" smd circle (at -1.5 -2.5) (size 0.4 0.4) (property pad_prop_bga) (layers "F.Cu" "F.Paste" "F.Mask") (tstamp 0ea15923-e1fd-4f98-9632-d25c9df1b812))
  (pad "F8" smd circle (at -0.5 -2.5) (size 0.4 0.4) (property pad_prop_bga) (layers "F.Cu" "F.Paste" "F.Mask") (tstamp d4559a32-0ecd-400d-827c-73f68db932b2))
  (pad "F9" smd circle (at 0.5 -2.5) (size 0.4 0.4) (property pad_prop_bga) (layers "F.Cu" "F.Paste" "F.Mask") (tstamp 4ebee6b3-d874-4553-9b35-3f7127c9cada))
  (pad "F10" smd circle (at 1.5 -2.5) (size 0.4 0.4) (property pad_prop_bga) (layers "F.Cu" "F.Paste" "F.Mask") (tstamp ad0099b0-d28d-4b0e-a187-58da04ae336e))
  (pad "F11" smd circle (at 2.5 -2.5) (size 0.4 0.4) (property pad_prop_bga) (layers "F.Cu" "F.Paste" "F.Mask") (tstamp 0d287620-d291-49c2-93d4-de1f142a25ef))
  (pad "F12" smd circle (at 3.5 -2.5) (size 0.4 0.4) (property pad_prop_bga) (layers "F.Cu" "F.Paste" "F.Mask") (tstamp 15d624d0-9aea-44e0-82b1-f6cd50c04e65))
  (pad "F13" smd circle (at 4.5 -2.5) (size 0.4 0.4) (property pad_prop_bga) (layers "F.Cu" "F.Paste" "F.Mask") (tstamp e74c4473-28c0-48f0-9044-74ad5c200cb9))
  (pad "F14" smd circle (at 5.5 -2.5) (size 0.4 0.4) (property pad_prop_bga) (layers "F.Cu" "F.Paste" "F.Mask") (tstamp d8c2ed79-73f6-4586-a9ed-9e7c62850174))
  (pad "F15" smd circle (at 6.5 -2.5) (size 0.4 0.4) (property pad_prop_bga) (layers "F.Cu" "F.Paste" "F.Mask") (tstamp 1f565d6f-5760-471e-bc0d-a954db5ae79e))
  (pad "F16" smd circle (at 7.5 -2.5) (size 0.4 0.4) (property pad_prop_bga) (layers "F.Cu" "F.Paste" "F.Mask") (tstamp 43b1cf5b-a921-47e8-9878-86a0c97ac9c6))
  (pad "G1" smd circle (at -7.5 -1.5) (size 0.4 0.4) (property pad_prop_bga) (layers "F.Cu" "F.Paste" "F.Mask") (tstamp 4244bcd8-b901-4aef-8735-08d9aadb7302))
  (pad "G2" smd circle (at -6.5 -1.5) (size 0.4 0.4) (property pad_prop_bga) (layers "F.Cu" "F.Paste" "F.Mask") (tstamp 5c406b1a-8c82-414f-b36c-e0940aa8a675))
  (pad "G3" smd circle (at -5.5 -1.5) (size 0.4 0.4) (property pad_prop_bga) (layers "F.Cu" "F.Paste" "F.Mask") (tstamp 0d1bb8d0-b14a-4514-afca-4aefa5315307))
  (pad "G4" smd circle (at -4.5 -1.5) (size 0.4 0.4) (property pad_prop_bga) (layers "F.Cu" "F.Paste" "F.Mask") (tstamp c723e090-f69c-480c-8765-488fdb712506))
  (pad "G5" smd circle (at -3.5 -1.5) (size 0.4 0.4) (property pad_prop_bga) (layers "F.Cu" "F.Paste" "F.Mask") (tstamp 6beb57cb-937d-4e71-af01-4c095ddd51e3))
  (pad "G6" smd circle (at -2.5 -1.5) (size 0.4 0.4) (property pad_prop_bga) (layers "F.Cu" "F.Paste" "F.Mask") (tstamp 23e7de12-60bd-4fb9-8d71-86e0ddc2e43a))
  (pad "G7" smd circle (at -1.5 -1.5) (size 0.4 0.4) (property pad_prop_bga) (layers "F.Cu" "F.Paste" "F.Mask") (tstamp 6325bc03-bc14-43f3-a268-6c4ce036240e))
  (pad "G8" smd circle (at -0.5 -1.5) (size 0.4 0.4) (property pad_prop_bga) (layers "F.Cu" "F.Paste" "F.Mask") (tstamp aec8ee8e-dc51-4edc-84ca-959b862063ed))
  (pad "G9" smd circle (at 0.5 -1.5) (size 0.4 0.4) (property pad_prop_bga) (layers "F.Cu" "F.Paste" "F.Mask") (tstamp 79f0cc67-990b-4784-bc48-196653180c47))
  (pad "G10" smd circle (at 1.5 -1.5) (size 0.4 0.4) (property pad_prop_bga) (layers "F.Cu" "F.Paste" "F.Mask") (tstamp 039829f0-ac18-4c31-8047-7ddebc68b591))
  (pad "G11" smd circle (at 2.5 -1.5) (size 0.4 0.4) (property pad_prop_bga) (layers "F.Cu" "F.Paste" "F.Mask") (tstamp 996b7947-1b83-45fa-9d39-276b722b64da))
  (pad "G12" smd circle (at 3.5 -1.5) (size 0.4 0.4) (property pad_prop_bga) (layers "F.Cu" "F.Paste" "F.Mask") (tstamp 13584176-a9cb-41ab-ab3c-6c390474eb58))
  (pad "G13" smd circle (at 4.5 -1.5) (size 0.4 0.4) (property pad_prop_bga) (layers "F.Cu" "F.Paste" "F.Mask") (tstamp 4006a34c-ffff-4686-a824-cc92339772ca))
  (pad "G14" smd circle (at 5.5 -1.5) (size 0.4 0.4) (property pad_prop_bga) (layers "F.Cu" "F.Paste" "F.Mask") (tstamp 3a9fb629-db73-485a-a4d1-406d09037307))
  (pad "G15" smd circle (at 6.5 -1.5) (size 0.4 0.4) (property pad_prop_bga) (layers "F.Cu" "F.Paste" "F.Mask") (tstamp c2ebd9b4-60f2-4355-be4a-2278c91ff668))
  (pad "G16" smd circle (at 7.5 -1.5) (size 0.4 0.4) (property pad_prop_bga) (layers "F.Cu" "F.Paste" "F.Mask") (tstamp 2302a700-005b-48e0-97e9-5b6b2731e7b6))
  (pad "H1" smd circle (at -7.5 -0.5) (size 0.4 0.4) (property pad_prop_bga) (layers "F.Cu" "F.Paste" "F.Mask") (tstamp 42c0452f-1236-4179-aa98-22fd8264fbef))
  (pad "H2" smd circle (at -6.5 -0.5) (size 0.4 0.4) (property pad_prop_bga) (layers "F.Cu" "F.Paste" "F.Mask") (tstamp 9db607ea-461f-4821-95f6-cc85e3fc1807))
  (pad "H3" smd circle (at -5.5 -0.5) (size 0.4 0.4) (property pad_prop_bga) (layers "F.Cu" "F.Paste" "F.Mask") (tstamp ef6ca771-e0f2-4408-9e85-02d4bed14c8b))
  (pad "H4" smd circle (at -4.5 -0.5) (size 0.4 0.4) (property pad_prop_bga) (layers "F.Cu" "F.Paste" "F.Mask") (tstamp 80ea79f0-296b-4121-a53b-75aa534e30d0))
  (pad "H5" smd circle (at -3.5 -0.5) (size 0.4 0.4) (property pad_prop_bga) (layers "F.Cu" "F.Paste" "F.Mask") (tstamp 92a002c0-2add-46b8-bd49-15806255338a))
  (pad "H6" smd circle (at -2.5 -0.5) (size 0.4 0.4) (property pad_prop_bga) (layers "F.Cu" "F.Paste" "F.Mask") (tstamp 78780452-66f1-41de-aec2-195a854df917))
  (pad "H7" smd circle (at -1.5 -0.5) (size 0.4 0.4) (property pad_prop_bga) (layers "F.Cu" "F.Paste" "F.Mask") (tstamp a7377d66-af61-48fe-9f00-040ffbd2b6cc))
  (pad "H8" smd circle (at -0.5 -0.5) (size 0.4 0.4) (property pad_prop_bga) (layers "F.Cu" "F.Paste" "F.Mask") (tstamp 360070b8-d80d-49c8-8e2d-ac268ee118b2))
  (pad "H9" smd circle (at 0.5 -0.5) (size 0.4 0.4) (property pad_prop_bga) (layers "F.Cu" "F.Paste" "F.Mask") (tstamp 3c68aa40-529f-4171-aabd-39c4d9b63c5a))
  (pad "H10" smd circle (at 1.5 -0.5) (size 0.4 0.4) (property pad_prop_bga) (layers "F.Cu" "F.Paste" "F.Mask") (tstamp ddf5ccd8-b774-400b-b104-0e4c22ec78ca))
  (pad "H11" smd circle (at 2.5 -0.5) (size 0.4 0.4) (property pad_prop_bga) (layers "F.Cu" "F.Paste" "F.Mask") (tstamp ca5df95c-f782-4ae2-b810-fbb2dea73805))
  (pad "H12" smd circle (at 3.5 -0.5) (size 0.4 0.4) (property pad_prop_bga) (layers "F.Cu" "F.Paste" "F.Mask") (tstamp 23d9e478-3122-4c47-afdc-7cb5c687bcc6))
  (pad "H13" smd circle (at 4.5 -0.5) (size 0.4 0.4) (property pad_prop_bga) (layers "F.Cu" "F.Paste" "F.Mask") (tstamp 4ae93ff0-a84c-4733-ac0d-df4154d5d78f))
  (pad "H14" smd circle (at 5.5 -0.5) (size 0.4 0.4) (property pad_prop_bga) (layers "F.Cu" "F.Paste" "F.Mask") (tstamp 0e387f54-57a6-4621-8dd8-b4e172bc2810))
  (pad "H15" smd circle (at 6.5 -0.5) (size 0.4 0.4) (property pad_prop_bga) (layers "F.Cu" "F.Paste" "F.Mask") (tstamp 3f85658a-fd9f-499d-9f14-80c6e371ff30))
  (pad "H16" smd circle (at 7.5 -0.5) (size 0.4 0.4) (property pad_prop_bga) (layers "F.Cu" "F.Paste" "F.Mask") (tstamp 72560c9c-d912-4ee0-a569-92c2e37d4a71))
  (pad "J1" smd circle (at -7.5 0.5) (size 0.4 0.4) (property pad_prop_bga) (layers "F.Cu" "F.Paste" "F.Mask") (tstamp 1699ac6a-380b-4b73-8824-45703b8056b6))
  (pad "J2" smd circle (at -6.5 0.5) (size 0.4 0.4) (property pad_prop_bga) (layers "F.Cu" "F.Paste" "F.Mask") (tstamp 28176656-9830-4449-aa5f-c46a1f960d05))
  (pad "J3" smd circle (at -5.5 0.5) (size 0.4 0.4) (property pad_prop_bga) (layers "F.Cu" "F.Paste" "F.Mask") (tstamp cc973abb-338a-4e9b-bb3e-e9802d0246e3))
  (pad "J4" smd circle (at -4.5 0.5) (size 0.4 0.4) (property pad_prop_bga) (layers "F.Cu" "F.Paste" "F.Mask") (tstamp 1670e5ec-b2f3-4a14-8af1-0657358c5495))
  (pad "J5" smd circle (at -3.5 0.5) (size 0.4 0.4) (property pad_prop_bga) (layers "F.Cu" "F.Paste" "F.Mask") (tstamp 446713f6-948f-4751-a17f-70a808a19f38))
  (pad "J6" smd circle (at -2.5 0.5) (size 0.4 0.4) (property pad_prop_bga) (layers "F.Cu" "F.Paste" "F.Mask") (tstamp 9ed43145-7a1d-4348-a0ea-24a5204b153a))
  (pad "J7" smd circle (at -1.5 0.5) (size 0.4 0.4) (property pad_prop_bga) (layers "F.Cu" "F.Paste" "F.Mask") (tstamp 8d17bb24-1d13-457a-a761-62b0ac68075f))
  (pad "J8" smd circle (at -0.5 0.5) (size 0.4 0.4) (property pad_prop_bga) (layers "F.Cu" "F.Paste" "F.Mask") (tstamp e44b5074-886c-4ce7-8e0f-ecd289ea7f05))
  (pad "J9" smd circle (at 0.5 0.5) (size 0.4 0.4) (property pad_prop_bga) (layers "F.Cu" "F.Paste" "F.Mask") (tstamp d0436d67-62a2-49de-a066-a9e92040232c))
  (pad "J10" smd circle (at 1.5 0.5) (size 0.4 0.4) (property pad_prop_bga) (layers "F.Cu" "F.Paste" "F.Mask") (tstamp a297e987-777b-4347-a176-9053c5298616))
  (pad "J11" smd circle (at 2.5 0.5) (size 0.4 0.4) (property pad_prop_bga) (layers "F.Cu" "F.Paste" "F.Mask") (tstamp 2cd46f14-027c-4324-a5ee-73c31e3d5f5f))
  (pad "J12" smd circle (at 3.5 0.5) (size 0.4 0.4) (property pad_prop_bga) (layers "F.Cu" "F.Paste" "F.Mask") (tstamp b5b85450-aca4-4961-9045-f249ad01f3fa))
  (pad "J13" smd circle (at 4.5 0.5) (size 0.4 0.4) (property pad_prop_bga) (layers "F.Cu" "F.Paste" "F.Mask") (tstamp 69f01de8-7a53-4e1e-b743-23c9055dd46d))
  (pad "J14" smd circle (at 5.5 0.5) (size 0.4 0.4) (property pad_prop_bga) (layers "F.Cu" "F.Paste" "F.Mask") (tstamp d58ddac2-0a11-421d-bd55-1426124db5a9))
  (pad "J15" smd circle (at 6.5 0.5) (size 0.4 0.4) (property pad_prop_bga) (layers "F.Cu" "F.Paste" "F.Mask") (tstamp 8786b53b-a494-418c-835f-fb75aadadba1))
  (pad "J16" smd circle (at 7.5 0.5) (size 0.4 0.4) (property pad_prop_bga) (layers "F.Cu" "F.Paste" "F.Mask") (tstamp fe5fec41-87fe-4cb3-884b-5099455ae6e8))
  (pad "K1" smd circle (at -7.5 1.5) (size 0.4 0.4) (property pad_prop_bga) (layers "F.Cu" "F.Paste" "F.Mask") (tstamp e37eba2c-71cf-47b0-9bfa-7f974462932d))
  (pad "K2" smd circle (at -6.5 1.5) (size 0.4 0.4) (property pad_prop_bga) (layers "F.Cu" "F.Paste" "F.Mask") (tstamp 05afe62e-6639-47bb-a99a-cbf2b6c1356c))
  (pad "K3" smd circle (at -5.5 1.5) (size 0.4 0.4) (property pad_prop_bga) (layers "F.Cu" "F.Paste" "F.Mask") (tstamp bed73df0-9085-48f9-9c17-fe92864e8aae))
  (pad "K4" smd circle (at -4.5 1.5) (size 0.4 0.4) (property pad_prop_bga) (layers "F.Cu" "F.Paste" "F.Mask") (tstamp a39ccfd1-d5ad-4384-ae55-18020e64205d))
  (pad "K5" smd circle (at -3.5 1.5) (size 0.4 0.4) (property pad_prop_bga) (layers "F.Cu" "F.Paste" "F.Mask") (tstamp fbe514ab-3ddd-4e64-9a82-3eaa261ec992))
  (pad "K6" smd circle (at -2.5 1.5) (size 0.4 0.4) (property pad_prop_bga) (layers "F.Cu" "F.Paste" "F.Mask") (tstamp 5a76b170-56e8-4e97-8f4b-ceb6aaed0f06))
  (pad "K7" smd circle (at -1.5 1.5) (size 0.4 0.4) (property pad_prop_bga) (layers "F.Cu" "F.Paste" "F.Mask") (tstamp f18c9b2b-e461-4792-81fe-37b601ccd015))
  (pad "K8" smd circle (at -0.5 1.5) (size 0.4 0.4) (property pad_prop_bga) (layers "F.Cu" "F.Paste" "F.Mask") (tstamp 8720227a-5335-49db-aeeb-f6024a5c4f6b))
  (pad "K9" smd circle (at 0.5 1.5) (size 0.4 0.4) (property pad_prop_bga) (layers "F.Cu" "F.Paste" "F.Mask") (tstamp 18c1da81-7ed4-49d6-a7da-7618bfeeb025))
  (pad "K10" smd circle (at 1.5 1.5) (size 0.4 0.4) (property pad_prop_bga) (layers "F.Cu" "F.Paste" "F.Mask") (tstamp a60b2f20-9783-49f5-95e7-5d4c0ea36376))
  (pad "K11" smd circle (at 2.5 1.5) (size 0.4 0.4) (property pad_prop_bga) (layers "F.Cu" "F.Paste" "F.Mask") (tstamp e24f5e36-9820-402c-b344-40a98fd8761e))
  (pad "K12" smd circle (at 3.5 1.5) (size 0.4 0.4) (property pad_prop_bga) (layers "F.Cu" "F.Paste" "F.Mask") (tstamp 1ecce14b-4482-4bf6-b24f-2095e3eae7c9))
  (pad "K13" smd circle (at 4.5 1.5) (size 0.4 0.4) (property pad_prop_bga) (layers "F.Cu" "F.Paste" "F.Mask") (tstamp 4a5794fa-ff8b-496e-bab0-eb83e62c0b3b))
  (pad "K14" smd circle (at 5.5 1.5) (size 0.4 0.4) (property pad_prop_bga) (layers "F.Cu" "F.Paste" "F.Mask") (tstamp ad7ee80e-fcb3-47ac-bca2-12280635fbb4))
  (pad "K15" smd circle (at 6.5 1.5) (size 0.4 0.4) (property pad_prop_bga) (layers "F.Cu" "F.Paste" "F.Mask") (tstamp 4f2f4c92-4bb8-440b-9a51-c65fdfbc4fa2))
  (pad "K16" smd circle (at 7.5 1.5) (size 0.4 0.4) (property pad_prop_bga) (layers "F.Cu" "F.Paste" "F.Mask") (tstamp 5d4e5ddf-5e4a-4253-a485-06233fd76393))
  (pad "L1" smd circle (at -7.5 2.5) (size 0.4 0.4) (property pad_prop_bga) (layers "F.Cu" "F.Paste" "F.Mask") (tstamp 62fcc93f-4d6f-411a-9bc5-aef7f252f068))
  (pad "L2" smd circle (at -6.5 2.5) (size 0.4 0.4) (property pad_prop_bga) (layers "F.Cu" "F.Paste" "F.Mask") (tstamp 29b661e4-b239-4779-944c-328304ff1f69))
  (pad "L3" smd circle (at -5.5 2.5) (size 0.4 0.4) (property pad_prop_bga) (layers "F.Cu" "F.Paste" "F.Mask") (tstamp 4caa7851-c689-4ae6-8423-f567b6da9dfb))
  (pad "L4" smd circle (at -4.5 2.5) (size 0.4 0.4) (property pad_prop_bga) (layers "F.Cu" "F.Paste" "F.Mask") (tstamp 6fcdfc40-ac1f-478b-914b-e15a31a9a0ee))
  (pad "L5" smd circle (at -3.5 2.5) (size 0.4 0.4) (property pad_prop_bga) (layers "F.Cu" "F.Paste" "F.Mask") (tstamp b8829057-ab98-4578-a58f-ace9ec48ef19))
  (pad "L6" smd circle (at -2.5 2.5) (size 0.4 0.4) (property pad_prop_bga) (layers "F.Cu" "F.Paste" "F.Mask") (tstamp 9c757d5f-059d-4d64-9d8f-cb831cf62ea7))
  (pad "L7" smd circle (at -1.5 2.5) (size 0.4 0.4) (property pad_prop_bga) (layers "F.Cu" "F.Paste" "F.Mask") (tstamp fded6540-0555-4ff9-bddc-7619781ba16e))
  (pad "L8" smd circle (at -0.5 2.5) (size 0.4 0.4) (property pad_prop_bga) (layers "F.Cu" "F.Paste" "F.Mask") (tstamp a3072ae8-79e0-43a9-bbca-04b8c1ef02a9))
  (pad "L9" smd circle (at 0.5 2.5) (size 0.4 0.4) (property pad_prop_bga) (layers "F.Cu" "F.Paste" "F.Mask") (tstamp d06d279d-289b-4f60-8999-97e2078dd5c9))
  (pad "L10" smd circle (at 1.5 2.5) (size 0.4 0.4) (property pad_prop_bga) (layers "F.Cu" "F.Paste" "F.Mask") (tstamp 9f2bbdbb-7aec-4d26-8ec7-528ee7b3e911))
  (pad "L11" smd circle (at 2.5 2.5) (size 0.4 0.4) (property pad_prop_bga) (layers "F.Cu" "F.Paste" "F.Mask") (tstamp c09813ff-2af0-4fe0-a4ce-bf9145950610))
  (pad "L12" smd circle (at 3.5 2.5) (size 0.4 0.4) (property pad_prop_bga) (layers "F.Cu" "F.Paste" "F.Mask") (tstamp 33b86931-cb64-47f7-bcb8-d970fcd515d2))
  (pad "L13" smd circle (at 4.5 2.5) (size 0.4 0.4) (property pad_prop_bga) (layers "F.Cu" "F.Paste" "F.Mask") (tstamp e551d7ee-4723-41cb-98c5-efcd49d28889))
  (pad "L14" smd circle (at 5.5 2.5) (size 0.4 0.4) (property pad_prop_bga) (layers "F.Cu" "F.Paste" "F.Mask") (tstamp 1af72354-7ace-402c-af20-9d7eb0063ec9))
  (pad "L15" smd circle (at 6.5 2.5) (size 0.4 0.4) (property pad_prop_bga) (layers "F.Cu" "F.Paste" "F.Mask") (tstamp c524ba8c-4808-4eac-ae18-a8815db26a42))
  (pad "L16" smd circle (at 7.5 2.5) (size 0.4 0.4) (property pad_prop_bga) (layers "F.Cu" "F.Paste" "F.Mask") (tstamp db73d975-00ec-438c-a24a-a7c23d2cf1c6))
  (pad "M1" smd circle (at -7.5 3.5) (size 0.4 0.4) (property pad_prop_bga) (layers "F.Cu" "F.Paste" "F.Mask") (tstamp 6ccd2840-10d6-47bb-9378-b8c5dc6e90e8))
  (pad "M2" smd circle (at -6.5 3.5) (size 0.4 0.4) (property pad_prop_bga) (layers "F.Cu" "F.Paste" "F.Mask") (tstamp 14c61fb4-a184-4465-a952-e850715ef03d))
  (pad "M3" smd circle (at -5.5 3.5) (size 0.4 0.4) (property pad_prop_bga) (layers "F.Cu" "F.Paste" "F.Mask") (tstamp d05598a2-4298-466e-90cc-65b7ba9089da))
  (pad "M4" smd circle (at -4.5 3.5) (size 0.4 0.4) (property pad_prop_bga) (layers "F.Cu" "F.Paste" "F.Mask") (tstamp ea9822ab-6b74-4c7d-bab3-a76ae50cc2b5))
  (pad "M5" smd circle (at -3.5 3.5) (size 0.4 0.4) (property pad_prop_bga) (layers "F.Cu" "F.Paste" "F.Mask") (tstamp b615d3ad-4ea4-459e-a076-8cd2da6bab16))
  (pad "M6" smd circle (at -2.5 3.5) (size 0.4 0.4) (property pad_prop_bga) (layers "F.Cu" "F.Paste" "F.Mask") (tstamp 0a69a6de-1ad0-4b31-a278-e8b64935048d))
  (pad "M7" smd circle (at -1.5 3.5) (size 0.4 0.4) (property pad_prop_bga) (layers "F.Cu" "F.Paste" "F.Mask") (tstamp b1553906-e922-433a-b6a9-69bb11d1f958))
  (pad "M8" smd circle (at -0.5 3.5) (size 0.4 0.4) (property pad_prop_bga) (layers "F.Cu" "F.Paste" "F.Mask") (tstamp 9e4afa79-346a-4f12-8e61-e9fac5955dac))
  (pad "M9" smd circle (at 0.5 3.5) (size 0.4 0.4) (property pad_prop_bga) (layers "F.Cu" "F.Paste" "F.Mask") (tstamp 9f7982a0-bc21-43fa-bb46-ddb9f3293c77))
  (pad "M10" smd circle (at 1.5 3.5) (size 0.4 0.4) (property pad_prop_bga) (layers "F.Cu" "F.Paste" "F.Mask") (tstamp cc72476c-18ea-4228-b795-781b3d632b47))
  (pad "M11" smd circle (at 2.5 3.5) (size 0.4 0.4) (property pad_prop_bga) (layers "F.Cu" "F.Paste" "F.Mask") (tstamp d0a8e870-7702-4ecc-848f-97c4ab0ad9bd))
  (pad "M12" smd circle (at 3.5 3.5) (size 0.4 0.4) (property pad_prop_bga) (layers "F.Cu" "F.Paste" "F.Mask") (tstamp f4fa833b-780c-4aad-a2c3-9795d3d73a54))
  (pad "M13" smd circle (at 4.5 3.5) (size 0.4 0.4) (property pad_prop_bga) (layers "F.Cu" "F.Paste" "F.Mask") (tstamp a1deaef4-5314-448b-8824-4765f3b14b4c))
  (pad "M14" smd circle (at 5.5 3.5) (size 0.4 0.4) (property pad_prop_bga) (layers "F.Cu" "F.Paste" "F.Mask") (tstamp 3973d87e-1a9c-45ae-80f4-d79bec91ab08))
  (pad "M15" smd circle (at 6.5 3.5) (size 0.4 0.4) (property pad_prop_bga) (layers "F.Cu" "F.Paste" "F.Mask") (tstamp d63f6e02-8a83-4dd7-b268-7e04211d35b9))
  (pad "M16" smd circle (at 7.5 3.5) (size 0.4 0.4) (property pad_prop_bga) (layers "F.Cu" "F.Paste" "F.Mask") (tstamp dfb8c0f4-2695-49e4-aea5-b2601b5cd329))
  (pad "N1" smd circle (at -7.5 4.5) (size 0.4 0.4) (property pad_prop_bga) (layers "F.Cu" "F.Paste" "F.Mask") (tstamp 066b9ab0-a743-4758-b7f7-cec8bda2fe43))
  (pad "N2" smd circle (at -6.5 4.5) (size 0.4 0.4) (property pad_prop_bga) (layers "F.Cu" "F.Paste" "F.Mask") (tstamp c17b0558-3fca-471c-9744-f5c293a23925))
  (pad "N3" smd circle (at -5.5 4.5) (size 0.4 0.4) (property pad_prop_bga) (layers "F.Cu" "F.Paste" "F.Mask") (tstamp 01986066-d893-4aa6-b117-9aeb99e5c86f))
  (pad "N4" smd circle (at -4.5 4.5) (size 0.4 0.4) (property pad_prop_bga) (layers "F.Cu" "F.Paste" "F.Mask") (tstamp 3023d124-0af0-4c00-b8d9-a3ca7b3c8583))
  (pad "N5" smd circle (at -3.5 4.5) (size 0.4 0.4) (property pad_prop_bga) (layers "F.Cu" "F.Paste" "F.Mask") (tstamp 9a813f68-7cbe-40ad-8b85-7fe67bee8a72))
  (pad "N6" smd circle (at -2.5 4.5) (size 0.4 0.4) (property pad_prop_bga) (layers "F.Cu" "F.Paste" "F.Mask") (tstamp fdc87188-fb26-4ae3-83dd-a01dabe4b178))
  (pad "N7" smd circle (at -1.5 4.5) (size 0.4 0.4) (property pad_prop_bga) (layers "F.Cu" "F.Paste" "F.Mask") (tstamp 6158d45c-09d7-4da7-8928-04fb7fcb1b71))
  (pad "N8" smd circle (at -0.5 4.5) (size 0.4 0.4) (property pad_prop_bga) (layers "F.Cu" "F.Paste" "F.Mask") (tstamp 947d1510-f86a-4635-b523-3319ebc43f7e))
  (pad "N9" smd circle (at 0.5 4.5) (size 0.4 0.4) (property pad_prop_bga) (layers "F.Cu" "F.Paste" "F.Mask") (tstamp 422f90dc-8406-4523-9f64-5bec68882330))
  (pad "N10" smd circle (at 1.5 4.5) (size 0.4 0.4) (property pad_prop_bga) (layers "F.Cu" "F.Paste" "F.Mask") (tstamp 2d415192-2a7b-45e3-b613-b814b41866d1))
  (pad "N11" smd circle (at 2.5 4.5) (size 0.4 0.4) (property pad_prop_bga) (layers "F.Cu" "F.Paste" "F.Mask") (tstamp 01ea89b8-b2e3-4235-897f-5f32027b600f))
  (pad "N12" smd circle (at 3.5 4.5) (size 0.4 0.4) (property pad_prop_bga) (layers "F.Cu" "F.Paste" "F.Mask") (tstamp 18ad50c3-eb3d-4a03-8a73-0c381fe439cf))
  (pad "N13" smd circle (at 4.5 4.5) (size 0.4 0.4) (property pad_prop_bga) (layers "F.Cu" "F.Paste" "F.Mask") (tstamp c2c3724a-5fd2-4006-89de-c5ca556ed38c))
  (pad "N14" smd circle (at 5.5 4.5) (size 0.4 0.4) (property pad_prop_bga) (layers "F.Cu" "F.Paste" "F.Mask") (tstamp ac3eb98e-07cc-452d-bc20-4488f6842893))
  (pad "N15" smd circle (at 6.5 4.5) (size 0.4 0.4) (property pad_prop_bga) (layers "F.Cu" "F.Paste" "F.Mask") (tstamp ade31852-41e1-4959-9084-87a2ec246f0d))
  (pad "N16" smd circle (at 7.5 4.5) (size 0.4 0.4) (property pad_prop_bga) (layers "F.Cu" "F.Paste" "F.Mask") (tstamp dfd01531-fd2e-4ffd-bc0a-35d7fbb9e474))
  (pad "P1" smd circle (at -7.5 5.5) (size 0.4 0.4) (property pad_prop_bga) (layers "F.Cu" "F.Paste" "F.Mask") (tstamp f02faef6-ce0b-4805-8b85-4f1f9af12939))
  (pad "P2" smd circle (at -6.5 5.5) (size 0.4 0.4) (property pad_prop_bga) (layers "F.Cu" "F.Paste" "F.Mask") (tstamp 984b8075-cef2-4af9-8ab5-d8f31ef7ee02))
  (pad "P3" smd circle (at -5.5 5.5) (size 0.4 0.4) (property pad_prop_bga) (layers "F.Cu" "F.Paste" "F.Mask") (tstamp a3eaadb3-5255-47d2-9309-e75f03e9bde3))
  (pad "P4" smd circle (at -4.5 5.5) (size 0.4 0.4) (property pad_prop_bga) (layers "F.Cu" "F.Paste" "F.Mask") (tstamp 771a5711-89fe-426e-be86-80408647d1ab))
  (pad "P5" smd circle (at -3.5 5.5) (size 0.4 0.4) (property pad_prop_bga) (layers "F.Cu" "F.Paste" "F.Mask") (tstamp a6a8c19f-306c-4073-a814-a9f6b6891ee4))
  (pad "P6" smd circle (at -2.5 5.5) (size 0.4 0.4) (property pad_prop_bga) (layers "F.Cu" "F.Paste" "F.Mask") (tstamp 7b71b4d1-57f0-4489-965f-3bdaaa9fd1a5))
  (pad "P7" smd circle (at -1.5 5.5) (size 0.4 0.4) (property pad_prop_bga) (layers "F.Cu" "F.Paste" "F.Mask") (tstamp a97b39e3-2b28-4245-bb93-4be2fbb6c77d))
  (pad "P8" smd circle (at -0.5 5.5) (size 0.4 0.4) (property pad_prop_bga) (layers "F.Cu" "F.Paste" "F.Mask") (tstamp ae16273e-1f50-4216-8107-1f14c673f429))
  (pad "P9" smd circle (at 0.5 5.5) (size 0.4 0.4) (property pad_prop_bga) (layers "F.Cu" "F.Paste" "F.Mask") (tstamp 339f7835-49ec-4982-bcb6-b58b7c475dc6))
  (pad "P10" smd circle (at 1.5 5.5) (size 0.4 0.4) (property pad_prop_bga) (layers "F.Cu" "F.Paste" "F.Mask") (tstamp 0a75072d-a492-4c02-8714-fa12ae25dec4))
  (pad "P11" smd circle (at 2.5 5.5) (size 0.4 0.4) (property pad_prop_bga) (layers "F.Cu" "F.Paste" "F.Mask") (tstamp 7a0a601a-28d6-4a2e-ab80-543207a51b9a))
  (pad "P12" smd circle (at 3.5 5.5) (size 0.4 0.4) (property pad_prop_bga) (layers "F.Cu" "F.Paste" "F.Mask") (tstamp 91ce10f5-bcca-4bd2-9346-ef265c24044d))
  (pad "P13" smd circle (at 4.5 5.5) (size 0.4 0.4) (property pad_prop_bga) (layers "F.Cu" "F.Paste" "F.Mask") (tstamp d21b7e6b-1cdb-4521-8952-f69bce7364f0))
  (pad "P14" smd circle (at 5.5 5.5) (size 0.4 0.4) (property pad_prop_bga) (layers "F.Cu" "F.Paste" "F.Mask") (tstamp 3e868709-b140-4d8d-9dcc-17289990b11b))
  (pad "P15" smd circle (at 6.5 5.5) (size 0.4 0.4) (property pad_prop_bga) (layers "F.Cu" "F.Paste" "F.Mask") (tstamp fc5a40e6-438e-46d9-aeee-8f095abe5034))
  (pad "P16" smd circle (at 7.5 5.5) (size 0.4 0.4) (property pad_prop_bga) (layers "F.Cu" "F.Paste" "F.Mask") (tstamp dbfd59de-8a1e-4859-8bb3-92d2c36db54b))
  (pad "R1" smd circle (at -7.5 6.5) (size 0.4 0.4) (property pad_prop_bga) (layers "F.Cu" "F.Paste" "F.Mask") (tstamp cee09e18-2bf2-408c-adfe-c22f47447698))
  (pad "R2" smd circle (at -6.5 6.5) (size 0.4 0.4) (property pad_prop_bga) (layers "F.Cu" "F.Paste" "F.Mask") (tstamp 7904f6fb-13a7-4ba6-82f0-6a4cd094b15d))
  (pad "R3" smd circle (at -5.5 6.5) (size 0.4 0.4) (property pad_prop_bga) (layers "F.Cu" "F.Paste" "F.Mask") (tstamp f8060ebd-a162-4868-a7cc-17f545565a3c))
  (pad "R4" smd circle (at -4.5 6.5) (size 0.4 0.4) (property pad_prop_bga) (layers "F.Cu" "F.Paste" "F.Mask") (tstamp b4f4d19f-5437-44e6-b8d0-c264a9693b84))
  (pad "R5" smd circle (at -3.5 6.5) (size 0.4 0.4) (property pad_prop_bga) (layers "F.Cu" "F.Paste" "F.Mask") (tstamp f306234c-3bc8-4a70-a716-93afb2783a9c))
  (pad "R6" smd circle (at -2.5 6.5) (size 0.4 0.4) (property pad_prop_bga) (layers "F.Cu" "F.Paste" "F.Mask") (tstamp c365e7d7-bae9-44f8-89a2-f8cbd03a93bc))
  (pad "R7" smd circle (at -1.5 6.5) (size 0.4 0.4) (property pad_prop_bga) (layers "F.Cu" "F.Paste" "F.Mask") (tstamp 521d37b2-d8cc-4e66-9238-baddb9dd45fd))
  (pad "R8" smd circle (at -0.5 6.5) (size 0.4 0.4) (property pad_prop_bga) (layers "F.Cu" "F.Paste" "F.Mask") (tstamp 928f5887-d74c-451a-9d29-d5b071f8c29f))
  (pad "R9" smd circle (at 0.5 6.5) (size 0.4 0.4) (property pad_prop_bga) (layers "F.Cu" "F.Paste" "F.Mask") (tstamp ca5a87a0-128b-47f3-b4a9-f05def419bbf))
  (pad "R10" smd circle (at 1.5 6.5) (size 0.4 0.4) (property pad_prop_bga) (layers "F.Cu" "F.Paste" "F.Mask") (tstamp 721b8b29-e4e1-4747-afde-1dcbec86c123))
  (pad "R11" smd circle (at 2.5 6.5) (size 0.4 0.4) (property pad_prop_bga) (layers "F.Cu" "F.Paste" "F.Mask") (tstamp ab1dff92-95e1-4b9e-8648-227b716c1d55))
  (pad "R12" smd circle (at 3.5 6.5) (size 0.4 0.4) (property pad_prop_bga) (layers "F.Cu" "F.Paste" "F.Mask") (tstamp bb9a926a-ac1c-41f8-961f-719625b263ab))
  (pad "R13" smd circle (at 4.5 6.5) (size 0.4 0.4) (property pad_prop_bga) (layers "F.Cu" "F.Paste" "F.Mask") (tstamp e3f41574-cc30-4d02-b3d1-ba2623f33d3a))
  (pad "R14" smd circle (at 5.5 6.5) (size 0.4 0.4) (property pad_prop_bga) (layers "F.Cu" "F.Paste" "F.Mask") (tstamp 254d8b26-8df0-4634-8f05-8037119027d7))
  (pad "R15" smd circle (at 6.5 6.5) (size 0.4 0.4) (property pad_prop_bga) (layers "F.Cu" "F.Paste" "F.Mask") (tstamp a8b75622-a7e7-4d13-8a57-ada1af5b494d))
  (pad "R16" smd circle (at 7.5 6.5) (size 0.4 0.4) (property pad_prop_bga) (layers "F.Cu" "F.Paste" "F.Mask") (tstamp 03c5a583-a759-4884-8a9e-232bff0388f3))
  (pad "T1" smd circle (at -7.5 7.5) (size 0.4 0.4) (property pad_prop_bga) (layers "F.Cu" "F.Paste" "F.Mask") (tstamp ce401ea3-edc2-48a5-9af1-d8ae12fddfd7))
  (pad "T2" smd circle (at -6.5 7.5) (size 0.4 0.4) (property pad_prop_bga) (layers "F.Cu" "F.Paste" "F.Mask") (tstamp 3c6e6556-dba7-43cf-8f9d-9f13a0046263))
  (pad "T3" smd circle (at -5.5 7.5) (size 0.4 0.4) (property pad_prop_bga) (layers "F.Cu" "F.Paste" "F.Mask") (tstamp 3784f5a4-4223-4ebd-8683-84c8213aecae))
  (pad "T4" smd circle (at -4.5 7.5) (size 0.4 0.4) (property pad_prop_bga) (layers "F.Cu" "F.Paste" "F.Mask") (tstamp 00809a6a-9e7b-4340-ade4-e7f80c722a5f))
  (pad "T5" smd circle (at -3.5 7.5) (size 0.4 0.4) (property pad_prop_bga) (layers "F.Cu" "F.Paste" "F.Mask") (tstamp b956ebe2-a0fe-4033-a7e8-c04241921fc8))
  (pad "T6" smd circle (at -2.5 7.5) (size 0.4 0.4) (property pad_prop_bga) (layers "F.Cu" "F.Paste" "F.Mask") (tstamp 3f3f993b-07c9-4192-bbd2-5d7e32aef00f))
  (pad "T7" smd circle (at -1.5 7.5) (size 0.4 0.4) (property pad_prop_bga) (layers "F.Cu" "F.Paste" "F.Mask") (tstamp 7a30d52d-c9da-4923-af5f-1c47516649b4))
  (pad "T8" smd circle (at -0.5 7.5) (size 0.4 0.4) (property pad_prop_bga) (layers "F.Cu" "F.Paste" "F.Mask") (tstamp 10f333a3-4c1b-483a-9fce-ef911578a034))
  (pad "T9" smd circle (at 0.5 7.5) (size 0.4 0.4) (property pad_prop_bga) (layers "F.Cu" "F.Paste" "F.Mask") (tstamp afcb7b54-aadb-4b03-a079-02343eb73e5a))
  (pad "T10" smd circle (at 1.5 7.5) (size 0.4 0.4) (property pad_prop_bga) (layers "F.Cu" "F.Paste" "F.Mask") (tstamp 8ee78ca1-7f95-40e2-b891-0b8ae84516ae))
  (pad "T11" smd circle (at 2.5 7.5) (size 0.4 0.4) (property pad_prop_bga) (layers "F.Cu" "F.Paste" "F.Mask") (tstamp ac376ce7-360c-4991-8a7f-98ca450613e0))
  (pad "T12" smd circle (at 3.5 7.5) (size 0.4 0.4) (property pad_prop_bga) (layers "F.Cu" "F.Paste" "F.Mask") (tstamp e04f6b61-50ca-4a9b-82e4-75583ff71120))
  (pad "T13" smd circle (at 4.5 7.5) (size 0.4 0.4) (property pad_prop_bga) (layers "F.Cu" "F.Paste" "F.Mask") (tstamp a1e5def5-b161-49fe-93a5-4b658c06eb3f))
  (pad "T14" smd circle (at 5.5 7.5) (size 0.4 0.4) (property pad_prop_bga) (layers "F.Cu" "F.Paste" "F.Mask") (tstamp 1ff64b8b-6c20-4236-ae30-3ed7ed96770d))
  (pad "T15" smd circle (at 6.5 7.5) (size 0.4 0.4) (property pad_prop_bga) (layers "F.Cu" "F.Paste" "F.Mask") (tstamp c51cac65-9dff-40c3-9c54-8c29f7f556c7))
  (pad "T16" smd circle (at 7.5 7.5) (size 0.4 0.4) (property pad_prop_bga) (layers "F.Cu" "F.Paste" "F.Mask") (tstamp 1a3014b1-890c-4d30-8752-5da7bc32ee7c))
  (model "${KICAD6_3DMODEL_DIR}/Package_BGA.3dshapes/Xilinx_FTG256.wrl"
    (offset (xyz 0 0 0))
    (scale (xyz 1 1 1))
    (rotate (xyz 0 0 0))
  )
)
